[
  0,
  70,
  91,
  118,
  154,
  200,
  260,
  338,
  439,
  571,
  685,
  822,
  987,
  1184,
  1421,
  1705,
  2046,
  2455,
  2946,
  3536,
  3889,
  4278,
  4706,
  5176,
  5694,
  6263,
  6890,
  7579,
  8337,
  9170,
  10087,
  11096,
  12206,
  13426,
  14769,
  16246,
  17870,
  19657,
  21623,
  23785,
  26164,
  28780,
  31658,
  34824,
  38307,
  42137,
  46351,
  50986,
  56085,
  61693,
  67863,
  74649,
  82114,
  90325,
  99358,
  109293,
  120223,
  132245,
  145470,
  160016,
  176018,
  193620,
  212982,
  234280,
  257708,
  283479,
  311827,
  343010,
  377311,
  415042,
  456546,
  502200,
  552420,
  607662,
  668429,
  735271,
  808799,
  889678,
  978646,
  1076511,
  1184162,
  1302578,
  1432836,
  1576120,
  1733732,
  1907105,
  2097815,
  2307597,
  2538356,
  2792192,
  3071411,
  3378552,
  3716408,
  4088048,
  4496853,
  4946538,
  5441192,
  5985312,
  6583843,
  7242227
]