[
  {
    "iname": "BOND_MISSION_HIEN1",
    "condition_num": 1,
    "explanation": "テスト用",
    "rewards": [
      {
        "item_type": 0,
        "item_iname": "IT_US_ARENA_01",
        "item_num": 50
      },
      {
        "item_type": 0,
        "item_iname": "IT_US_ARENA_01",
        "item_num": 50
      },
      {
        "item_type": 0,
        "item_iname": "IT_EV_ARUKEMYI03",
        "item_num": 50
      },
      {
        "item_type": 2,
        "item_num": 10
      }
    ]
  }
]