[
  {
    "name": "I743770000110",
    "convert": "jp.co.gu3.alchemist.vip.001"
  },
  {
    "name": "I743770000109",
    "convert": "jp.co.gu3.alchemist.prem.001"
  },
  {
    "name": "I743770000117",
    "convert": "jp.co.gu3.alchemist.007"
  },
  {
    "name": "I743770000116",
    "convert": "jp.co.gu3.alchemist.006"
  },
  {
    "name": "I743770000115",
    "convert": "jp.co.gu3.alchemist.005"
  },
  {
    "name": "I743770000114",
    "convert": "jp.co.gu3.alchemist.004"
  },
  {
    "name": "I743770000113",
    "convert": "jp.co.gu3.alchemist.003"
  },
  {
    "name": "I743770000112",
    "convert": "jp.co.gu3.alchemist.002"
  },
  {
    "name": "I743770000111",
    "convert": "jp.co.gu3.alchemist.001"
  },
  {
    "name": "I743770000118",
    "convert": "jp.co.gu3.alchemist.pack1.001"
  },
  {
    "name": "I743770000132",
    "convert": "jp.co.gu3.alchemist.pack2.001"
  },
  {
    "name": "I743770000133",
    "convert": "jp.co.gu3.alchemist.pack3.001"
  },
  {
    "name": "I743770000119",
    "convert": "jp.co.gu3.alchemist.pack1.002"
  },
  {
    "name": "I743770000134",
    "convert": "jp.co.gu3.alchemist.pack2.002"
  },
  {
    "name": "I743770000135",
    "convert": "jp.co.gu3.alchemist.pack3.002"
  },
  {
    "name": "I743770000120",
    "convert": "jp.co.gu3.alchemist.pack1.003"
  },
  {
    "name": "I743770000136",
    "convert": "jp.co.gu3.alchemist.pack2.003"
  },
  {
    "name": "I743770000137",
    "convert": "jp.co.gu3.alchemist.pack3.003"
  },
  {
    "name": "I743770000121",
    "convert": "jp.co.gu3.alchemist.pack1.004"
  },
  {
    "name": "I743770000138",
    "convert": "jp.co.gu3.alchemist.pack2.004"
  },
  {
    "name": "I743770000139",
    "convert": "jp.co.gu3.alchemist.pack3.004"
  },
  {
    "name": "I743770000122",
    "convert": "jp.co.gu3.alchemist.pack1.005"
  },
  {
    "name": "I743770000140",
    "convert": "jp.co.gu3.alchemist.pack2.005"
  },
  {
    "name": "I743770000141",
    "convert": "jp.co.gu3.alchemist.pack3.005"
  },
  {
    "name": "I743770000123",
    "convert": "jp.co.gu3.alchemist.pack1.006"
  },
  {
    "name": "I743770000142",
    "convert": "jp.co.gu3.alchemist.pack2.006"
  },
  {
    "name": "I743770000143",
    "convert": "jp.co.gu3.alchemist.pack3.006"
  },
  {
    "name": "I743770000124",
    "convert": "jp.co.gu3.alchemist.pack1.007"
  },
  {
    "name": "I743770000144",
    "convert": "jp.co.gu3.alchemist.pack2.007"
  },
  {
    "name": "I743770000145",
    "convert": "jp.co.gu3.alchemist.pack3.007"
  },
  {
    "name": "I743770000125",
    "convert": "jp.co.gu3.alchemist.fpack1.001"
  },
  {
    "name": "I743770000146",
    "convert": "jp.co.gu3.alchemist.fpack2.001"
  },
  {
    "name": "I743770000147",
    "convert": "jp.co.gu3.alchemist.fpack3.001"
  },
  {
    "name": "I743770000126",
    "convert": "jp.co.gu3.alchemist.fpack1.002"
  },
  {
    "name": "I743770000148",
    "convert": "jp.co.gu3.alchemist.fpack2.002"
  },
  {
    "name": "I743770000149",
    "convert": "jp.co.gu3.alchemist.fpack3.002"
  },
  {
    "name": "I743770000127",
    "convert": "jp.co.gu3.alchemist.fpack1.003"
  },
  {
    "name": "I743770000150",
    "convert": "jp.co.gu3.alchemist.fpack2.003"
  },
  {
    "name": "I743770000151",
    "convert": "jp.co.gu3.alchemist.fpack3.003"
  },
  {
    "name": "I743770000128",
    "convert": "jp.co.gu3.alchemist.fpack1.004"
  },
  {
    "name": "I743770000152",
    "convert": "jp.co.gu3.alchemist.fpack2.004"
  },
  {
    "name": "I743770000153",
    "convert": "jp.co.gu3.alchemist.fpack3.004"
  },
  {
    "name": "I743770000129",
    "convert": "jp.co.gu3.alchemist.fpack1.005"
  },
  {
    "name": "I743770000154",
    "convert": "jp.co.gu3.alchemist.fpack2.005"
  },
  {
    "name": "I743770000155",
    "convert": "jp.co.gu3.alchemist.fpack3.005"
  },
  {
    "name": "I743770000130",
    "convert": "jp.co.gu3.alchemist.fpack1.006"
  },
  {
    "name": "I743770000156",
    "convert": "jp.co.gu3.alchemist.fpack2.006"
  },
  {
    "name": "I743770000157",
    "convert": "jp.co.gu3.alchemist.fpack3.006"
  },
  {
    "name": "I743770000131",
    "convert": "jp.co.gu3.alchemist.fpack1.007"
  },
  {
    "name": "I743770000158",
    "convert": "jp.co.gu3.alchemist.fpack2.007"
  },
  {
    "name": "I743770000159",
    "convert": "jp.co.gu3.alchemist.fpack3.007"
  },
  {
    "name": "I743770000185",
    "convert": "jp.co.gu3.alchemist.pack4.006"
  },
  {
    "name": "I743770000186",
    "convert": "jp.co.gu3.alchemist.pack5.006"
  },
  {
    "name": "I743770000187",
    "convert": "jp.co.gu3.alchemist.pack6.006"
  },
  {
    "name": "I743770000188",
    "convert": "jp.co.gu3.alchemist.pack4.007"
  },
  {
    "name": "I743770000189",
    "convert": "jp.co.gu3.alchemist.pack5.007"
  },
  {
    "name": "I743770000190",
    "convert": "jp.co.gu3.alchemist.pack6.007"
  },
  {
    "name": "I743770000191",
    "convert": "jp.co.gu3.alchemist.fpack4.006"
  },
  {
    "name": "I743770000192",
    "convert": "jp.co.gu3.alchemist.fpack5.006"
  },
  {
    "name": "I743770000193",
    "convert": "jp.co.gu3.alchemist.fpack6.006"
  },
  {
    "name": "I743770000194",
    "convert": "jp.co.gu3.alchemist.fpack4.007"
  },
  {
    "name": "I743770000195",
    "convert": "jp.co.gu3.alchemist.fpack5.007"
  },
  {
    "name": "I743770000196",
    "convert": "jp.co.gu3.alchemist.fpack6.007"
  },
  {
    "name": "I743770000008",
    "convert": "jp.co.gu3.alchemist.vip120"
  },
  {
    "name": "I743770000016",
    "convert": "jp.co.gu3.alchemist.prem"
  },
  {
    "name": "I743770000009",
    "convert": "jp.co.gu3.alchemist.60"
  },
  {
    "name": "I743770000010",
    "convert": "jp.co.gu3.alchemist.300"
  },
  {
    "name": "I743770000011",
    "convert": "jp.co.gu3.alchemist.480"
  },
  {
    "name": "I743770000012",
    "convert": "jp.co.gu3.alchemist.800"
  },
  {
    "name": "I743770000013",
    "convert": "jp.co.gu3.alchemist.1500"
  },
  {
    "name": "I743770000014",
    "convert": "jp.co.gu3.alchemist.2900"
  },
  {
    "name": "I743770000015",
    "convert": "jp.co.gu3.alchemist.4900"
  },
  {
    "name": "I743770000017",
    "convert": "jp.co.gu3.alchemist.pack1.60"
  },
  {
    "name": "I743770000018",
    "convert": "jp.co.gu3.alchemist.pack2.60"
  },
  {
    "name": "I743770000019",
    "convert": "jp.co.gu3.alchemist.pack3.60"
  },
  {
    "name": "I743770000020",
    "convert": "jp.co.gu3.alchemist.pack1.300"
  },
  {
    "name": "I743770000021",
    "convert": "jp.co.gu3.alchemist.pack2.300"
  },
  {
    "name": "I743770000022",
    "convert": "jp.co.gu3.alchemist.pack1.480"
  },
  {
    "name": "I743770000023",
    "convert": "jp.co.gu3.alchemist.pack2.480"
  },
  {
    "name": "I743770000024",
    "convert": "jp.co.gu3.alchemist.pack1.800"
  },
  {
    "name": "I743770000025",
    "convert": "jp.co.gu3.alchemist.pack1.1500"
  },
  {
    "name": "I743770000026",
    "convert": "jp.co.gu3.alchemist.pack1.2900"
  },
  {
    "name": "I743770000027",
    "convert": "jp.co.gu3.alchemist.pack1.4900"
  },
  {
    "name": "I743770000028",
    "convert": "jp.co.gu3.alchemist.pack3.300"
  },
  {
    "name": "I743770000029",
    "convert": "jp.co.gu3.alchemist.pack3.480"
  },
  {
    "name": "I743770000030",
    "convert": "jp.co.gu3.alchemist.pack2.800"
  },
  {
    "name": "I743770000031",
    "convert": "jp.co.gu3.alchemist.pack3.800"
  },
  {
    "name": "I743770000032",
    "convert": "jp.co.gu3.alchemist.pack2.1500"
  },
  {
    "name": "I743770000033",
    "convert": "jp.co.gu3.alchemist.pack3.1500"
  },
  {
    "name": "I743770000034",
    "convert": "jp.co.gu3.alchemist.pack2.2900"
  },
  {
    "name": "I743770000035",
    "convert": "jp.co.gu3.alchemist.pack3.2900"
  },
  {
    "name": "I743770000036",
    "convert": "jp.co.gu3.alchemist.pack2.4900"
  },
  {
    "name": "I743770000037",
    "convert": "jp.co.gu3.alchemist.pack3.4900"
  },
  {
    "name": "I743770000038",
    "convert": "jp.co.gu3.alchemist.fpack1.60"
  },
  {
    "name": "I743770000039",
    "convert": "jp.co.gu3.alchemist.fpack2.60"
  },
  {
    "name": "I743770000040",
    "convert": "jp.co.gu3.alchemist.fpack3.60"
  },
  {
    "name": "I743770000041",
    "convert": "jp.co.gu3.alchemist.fpack1.300"
  },
  {
    "name": "I743770000042",
    "convert": "jp.co.gu3.alchemist.fpack2.300"
  },
  {
    "name": "I743770000043",
    "convert": "jp.co.gu3.alchemist.fpack3.300"
  },
  {
    "name": "I743770000044",
    "convert": "jp.co.gu3.alchemist.fpack1.480"
  },
  {
    "name": "I743770000045",
    "convert": "jp.co.gu3.alchemist.fpack2.480"
  },
  {
    "name": "I743770000046",
    "convert": "jp.co.gu3.alchemist.fpack3.480"
  },
  {
    "name": "I743770000047",
    "convert": "jp.co.gu3.alchemist.fpack1.800"
  },
  {
    "name": "I743770000048",
    "convert": "jp.co.gu3.alchemist.fpack2.800"
  },
  {
    "name": "I743770000049",
    "convert": "jp.co.gu3.alchemist.fpack3.800"
  },
  {
    "name": "I743770000050",
    "convert": "jp.co.gu3.alchemist.fpack1.1500"
  },
  {
    "name": "I743770000051",
    "convert": "jp.co.gu3.alchemist.fpack2.1500"
  },
  {
    "name": "I743770000052",
    "convert": "jp.co.gu3.alchemist.fpack3.1500"
  },
  {
    "name": "I743770000053",
    "convert": "jp.co.gu3.alchemist.fpack1.2900"
  },
  {
    "name": "I743770000054",
    "convert": "jp.co.gu3.alchemist.fpack2.2900"
  },
  {
    "name": "I743770000055",
    "convert": "jp.co.gu3.alchemist.fpack3.2900"
  },
  {
    "name": "I743770000056",
    "convert": "jp.co.gu3.alchemist.fpack1.4900"
  },
  {
    "name": "I743770000057",
    "convert": "jp.co.gu3.alchemist.fpack2.4900"
  },
  {
    "name": "I743770000058",
    "convert": "jp.co.gu3.alchemist.fpack3.4900"
  },
  {
    "name": "I743770000197",
    "convert": "jp.co.gu3.alchemist.speed.pack.001"
  },
  {
    "name": "I743770000198",
    "convert": "jp.co.gu3.alchemist.speed.pack.002"
  },
  {
    "name": "I743770000199",
    "convert": "jp.co.gu3.alchemist.speed.pack.003"
  },
  {
    "name": "I743770000200",
    "convert": "jp.co.gu3.alchemist.quest.pack.001"
  },
  {
    "name": "I743770000201",
    "convert": "jp.co.gu3.alchemist.quest.pack.002"
  },
  {
    "name": "I743770000202",
    "convert": "jp.co.gu3.alchemist.quest.pack.003"
  },
  {
    "name": "I743770000203",
    "convert": "jp.co.gu3.alchemist.quest.pack.004"
  },
  {
    "name": "I743770000204",
    "convert": "jp.co.gu3.alchemist.quest.pack.005"
  },
  {
    "name": "I743770000205",
    "convert": "jp.co.gu3.alchemist.extra.pack.001"
  },
  {
    "name": "I743770000206",
    "convert": "jp.co.gu3.alchemist.extra.pack.002"
  },
  {
    "name": "I743770000207",
    "convert": "jp.co.gu3.alchemist.extra.pack.003"
  },
  {
    "name": "I743770000208",
    "convert": "jp.co.gu3.alchemist.autobox.pack.001"
  },
  {
    "name": "I743770000209",
    "convert": "jp.co.gu3.alchemist.autobox.pack.002"
  },
  {
    "name": "I743770000210",
    "convert": "jp.co.gu3.alchemist.autobox.pack.003"
  },
  {
    "name": "I743770000211",
    "convert": "jp.co.gu3.alchemist.autobox.pack.004"
  },
  {
    "name": "I743770000229",
    "convert": "jp.co.gu3.alchemist.special.pack1.001"
  },
  {
    "name": "I743770000230",
    "convert": "jp.co.gu3.alchemist.special.pack1.002"
  },
  {
    "name": "I743770000231",
    "convert": "jp.co.gu3.alchemist.special.pack1.003"
  },
  {
    "name": "I743770000232",
    "convert": "jp.co.gu3.alchemist.special.pack1.004"
  },
  {
    "name": "I743770000233",
    "convert": "jp.co.gu3.alchemist.special.pack1.005"
  },
  {
    "name": "I743770000234",
    "convert": "jp.co.gu3.alchemist.special.pack1.006"
  },
  {
    "name": "I743770000235",
    "convert": "jp.co.gu3.alchemist.special.pack1.007"
  },
  {
    "name": "I743770000236",
    "convert": "jp.co.gu3.alchemist.special.pack1.008"
  },
  {
    "name": "I743770000237",
    "convert": "jp.co.gu3.alchemist.special.pack1.009"
  },
  {
    "name": "I743770000238",
    "convert": "jp.co.gu3.alchemist.special.pack1.010"
  },
  {
    "name": "I743770000239",
    "convert": "jp.co.gu3.alchemist.special.pack2.001"
  },
  {
    "name": "I743770000240",
    "convert": "jp.co.gu3.alchemist.special.pack2.002"
  },
  {
    "name": "I743770000241",
    "convert": "jp.co.gu3.alchemist.special.pack2.003"
  },
  {
    "name": "I743770000242",
    "convert": "jp.co.gu3.alchemist.special.pack2.004"
  },
  {
    "name": "I743770000243",
    "convert": "jp.co.gu3.alchemist.special.pack2.005"
  },
  {
    "name": "I743770000244",
    "convert": "jp.co.gu3.alchemist.special.pack2.006"
  },
  {
    "name": "I743770000245",
    "convert": "jp.co.gu3.alchemist.special.pack2.007"
  },
  {
    "name": "I743770000246",
    "convert": "jp.co.gu3.alchemist.special.pack2.008"
  },
  {
    "name": "I743770000247",
    "convert": "jp.co.gu3.alchemist.special.pack2.009"
  },
  {
    "name": "I743770000248",
    "convert": "jp.co.gu3.alchemist.special.pack2.010"
  },
  {
    "name": "I743770000249",
    "convert": "jp.co.gu3.alchemist.special.pack3.001"
  },
  {
    "name": "I743770000250",
    "convert": "jp.co.gu3.alchemist.special.pack3.002"
  },
  {
    "name": "I743770000251",
    "convert": "jp.co.gu3.alchemist.special.pack3.003"
  },
  {
    "name": "I743770000252",
    "convert": "jp.co.gu3.alchemist.special.pack3.004"
  },
  {
    "name": "I743770000253",
    "convert": "jp.co.gu3.alchemist.special.pack3.005"
  },
  {
    "name": "I743770000254",
    "convert": "jp.co.gu3.alchemist.special.pack3.006"
  },
  {
    "name": "I743770000255",
    "convert": "jp.co.gu3.alchemist.special.pack3.007"
  },
  {
    "name": "I743770000256",
    "convert": "jp.co.gu3.alchemist.special.pack3.008"
  },
  {
    "name": "I743770000257",
    "convert": "jp.co.gu3.alchemist.special.pack3.009"
  },
  {
    "name": "I743770000258",
    "convert": "jp.co.gu3.alchemist.special.pack3.010"
  },
  {
    "name": "I743770000259",
    "convert": "jp.co.gu3.alchemist.special.pack4.001"
  },
  {
    "name": "I743770000260",
    "convert": "jp.co.gu3.alchemist.special.pack4.002"
  },
  {
    "name": "I743770000261",
    "convert": "jp.co.gu3.alchemist.special.pack4.003"
  },
  {
    "name": "I743770000262",
    "convert": "jp.co.gu3.alchemist.special.pack4.004"
  },
  {
    "name": "I743770000263",
    "convert": "jp.co.gu3.alchemist.special.pack4.005"
  },
  {
    "name": "I743770000264",
    "convert": "jp.co.gu3.alchemist.special.pack4.006"
  },
  {
    "name": "I743770000265",
    "convert": "jp.co.gu3.alchemist.special.pack4.007"
  },
  {
    "name": "I743770000266",
    "convert": "jp.co.gu3.alchemist.special.pack4.008"
  },
  {
    "name": "I743770000267",
    "convert": "jp.co.gu3.alchemist.special.pack4.009"
  },
  {
    "name": "I743770000268",
    "convert": "jp.co.gu3.alchemist.special.pack4.010"
  },
  {
    "name": "I743770000269",
    "convert": "jp.co.gu3.alchemist.special.pack4.011"
  },
  {
    "name": "I743770000270",
    "convert": "jp.co.gu3.alchemist.special.pack4.012"
  },
  {
    "name": "I743770000271",
    "convert": "jp.co.gu3.alchemist.special.pack4.013"
  },
  {
    "name": "I743770000272",
    "convert": "jp.co.gu3.alchemist.special.pack4.014"
  },
  {
    "name": "I743770000273",
    "convert": "jp.co.gu3.alchemist.special.pack4.015"
  },
  {
    "name": "I743770000274",
    "convert": "jp.co.gu3.alchemist.special.pack4.016"
  },
  {
    "name": "I743770000275",
    "convert": "jp.co.gu3.alchemist.special.pack4.017"
  },
  {
    "name": "I743770000276",
    "convert": "jp.co.gu3.alchemist.special.pack4.018"
  },
  {
    "name": "I743770000277",
    "convert": "jp.co.gu3.alchemist.special.pack4.019"
  },
  {
    "name": "I743770000278",
    "convert": "jp.co.gu3.alchemist.special.pack4.020"
  },
  {
    "name": "I743770000279",
    "convert": "jp.co.gu3.alchemist.special.pack4.021"
  },
  {
    "name": "I743770000280",
    "convert": "jp.co.gu3.alchemist.special.pack4.022"
  },
  {
    "name": "I743770000281",
    "convert": "jp.co.gu3.alchemist.special.pack4.023"
  },
  {
    "name": "I743770000282",
    "convert": "jp.co.gu3.alchemist.special.pack4.024"
  },
  {
    "name": "I743770000283",
    "convert": "jp.co.gu3.alchemist.special.pack4.025"
  },
  {
    "name": "I743770000284",
    "convert": "jp.co.gu3.alchemist.special.pack5.001"
  },
  {
    "name": "I743770000285",
    "convert": "jp.co.gu3.alchemist.special.pack5.002"
  },
  {
    "name": "I743770000286",
    "convert": "jp.co.gu3.alchemist.special.pack5.003"
  },
  {
    "name": "I743770000287",
    "convert": "jp.co.gu3.alchemist.special.pack5.004"
  },
  {
    "name": "I743770000288",
    "convert": "jp.co.gu3.alchemist.special.pack5.005"
  },
  {
    "name": "I743770000289",
    "convert": "jp.co.gu3.alchemist.special.pack5.006"
  },
  {
    "name": "I743770000290",
    "convert": "jp.co.gu3.alchemist.special.pack5.007"
  },
  {
    "name": "I743770000291",
    "convert": "jp.co.gu3.alchemist.special.pack5.008"
  },
  {
    "name": "I743770000292",
    "convert": "jp.co.gu3.alchemist.special.pack5.009"
  },
  {
    "name": "I743770000293",
    "convert": "jp.co.gu3.alchemist.special.pack5.010"
  },
  {
    "name": "I743770000294",
    "convert": "jp.co.gu3.alchemist.special.pack5.011"
  },
  {
    "name": "I743770000295",
    "convert": "jp.co.gu3.alchemist.special.pack5.012"
  },
  {
    "name": "I743770000296",
    "convert": "jp.co.gu3.alchemist.special.pack5.013"
  },
  {
    "name": "I743770000297",
    "convert": "jp.co.gu3.alchemist.special.pack5.014"
  },
  {
    "name": "I743770000298",
    "convert": "jp.co.gu3.alchemist.special.pack5.015"
  },
  {
    "name": "I743770000299",
    "convert": "jp.co.gu3.alchemist.special.pack5.016"
  },
  {
    "name": "I743770000300",
    "convert": "jp.co.gu3.alchemist.special.pack5.017"
  },
  {
    "name": "I743770000301",
    "convert": "jp.co.gu3.alchemist.special.pack5.018"
  },
  {
    "name": "I743770000302",
    "convert": "jp.co.gu3.alchemist.special.pack5.019"
  },
  {
    "name": "I743770000303",
    "convert": "jp.co.gu3.alchemist.special.pack5.020"
  },
  {
    "name": "I743770000304",
    "convert": "jp.co.gu3.alchemist.special.pack5.021"
  },
  {
    "name": "I743770000305",
    "convert": "jp.co.gu3.alchemist.special.pack5.022"
  },
  {
    "name": "I743770000306",
    "convert": "jp.co.gu3.alchemist.special.pack5.023"
  },
  {
    "name": "I743770000307",
    "convert": "jp.co.gu3.alchemist.special.pack5.024"
  },
  {
    "name": "I743770000308",
    "convert": "jp.co.gu3.alchemist.special.pack5.025"
  },
  {
    "name": "I743770000309",
    "convert": "jp.co.gu3.alchemist.special.pack5.026"
  },
  {
    "name": "I743770000310",
    "convert": "jp.co.gu3.alchemist.special.pack5.027"
  },
  {
    "name": "I743770000311",
    "convert": "jp.co.gu3.alchemist.special.pack5.028"
  },
  {
    "name": "I743770000312",
    "convert": "jp.co.gu3.alchemist.special.pack5.029"
  },
  {
    "name": "I743770000313",
    "convert": "jp.co.gu3.alchemist.special.pack5.030"
  },
  {
    "name": "I743770000314",
    "convert": "jp.co.gu3.alchemist.special.pack5.031"
  },
  {
    "name": "I743770000315",
    "convert": "jp.co.gu3.alchemist.special.pack5.032"
  },
  {
    "name": "I743770000316",
    "convert": "jp.co.gu3.alchemist.special.pack5.033"
  },
  {
    "name": "I743770000317",
    "convert": "jp.co.gu3.alchemist.special.pack5.034"
  },
  {
    "name": "I743770000318",
    "convert": "jp.co.gu3.alchemist.special.pack5.035"
  },
  {
    "name": "I743770000319",
    "convert": "jp.co.gu3.alchemist.special.pack5.036"
  },
  {
    "name": "I743770000320",
    "convert": "jp.co.gu3.alchemist.special.pack5.037"
  },
  {
    "name": "I743770000321",
    "convert": "jp.co.gu3.alchemist.special.pack5.038"
  },
  {
    "name": "I743770000322",
    "convert": "jp.co.gu3.alchemist.special.pack5.039"
  },
  {
    "name": "I743770000323",
    "convert": "jp.co.gu3.alchemist.special.pack5.040"
  },
  {
    "name": "I743770000324",
    "convert": "jp.co.gu3.alchemist.special.pack5.041"
  },
  {
    "name": "I743770000325",
    "convert": "jp.co.gu3.alchemist.special.pack5.042"
  },
  {
    "name": "I743770000326",
    "convert": "jp.co.gu3.alchemist.special.pack5.043"
  },
  {
    "name": "I743770000327",
    "convert": "jp.co.gu3.alchemist.special.pack5.044"
  },
  {
    "name": "I743770000328",
    "convert": "jp.co.gu3.alchemist.special.pack5.045"
  },
  {
    "name": "I743770000329",
    "convert": "jp.co.gu3.alchemist.special.pack5.046"
  },
  {
    "name": "I743770000330",
    "convert": "jp.co.gu3.alchemist.special.pack5.047"
  },
  {
    "name": "I743770000331",
    "convert": "jp.co.gu3.alchemist.special.pack5.048"
  },
  {
    "name": "I743770000332",
    "convert": "jp.co.gu3.alchemist.special.pack5.049"
  },
  {
    "name": "I743770000333",
    "convert": "jp.co.gu3.alchemist.special.pack5.050"
  },
  {
    "name": "I743770000334",
    "convert": "jp.co.gu3.alchemist.special.pack5.051"
  },
  {
    "name": "I743770000335",
    "convert": "jp.co.gu3.alchemist.special.pack5.052"
  },
  {
    "name": "I743770000336",
    "convert": "jp.co.gu3.alchemist.special.pack5.053"
  },
  {
    "name": "I743770000337",
    "convert": "jp.co.gu3.alchemist.special.pack5.054"
  },
  {
    "name": "I743770000338",
    "convert": "jp.co.gu3.alchemist.special.pack5.055"
  },
  {
    "name": "I743770000339",
    "convert": "jp.co.gu3.alchemist.special.pack5.056"
  },
  {
    "name": "I743770000340",
    "convert": "jp.co.gu3.alchemist.special.pack5.057"
  },
  {
    "name": "I743770000341",
    "convert": "jp.co.gu3.alchemist.special.pack5.058"
  },
  {
    "name": "I743770000342",
    "convert": "jp.co.gu3.alchemist.special.pack5.059"
  },
  {
    "name": "I743770000343",
    "convert": "jp.co.gu3.alchemist.special.pack5.060"
  },
  {
    "name": "I743770000344",
    "convert": "jp.co.gu3.alchemist.special.pack5.061"
  },
  {
    "name": "I743770000345",
    "convert": "jp.co.gu3.alchemist.special.pack5.062"
  },
  {
    "name": "I743770000346",
    "convert": "jp.co.gu3.alchemist.special.pack5.063"
  },
  {
    "name": "I743770000347",
    "convert": "jp.co.gu3.alchemist.special.pack5.064"
  },
  {
    "name": "I743770000348",
    "convert": "jp.co.gu3.alchemist.special.pack5.065"
  },
  {
    "name": "I743770000349",
    "convert": "jp.co.gu3.alchemist.special.pack5.066"
  },
  {
    "name": "I743770000350",
    "convert": "jp.co.gu3.alchemist.special.pack5.067"
  },
  {
    "name": "I743770000351",
    "convert": "jp.co.gu3.alchemist.special.pack5.068"
  },
  {
    "name": "I743770000352",
    "convert": "jp.co.gu3.alchemist.special.pack5.069"
  },
  {
    "name": "I743770000353",
    "convert": "jp.co.gu3.alchemist.special.pack5.070"
  },
  {
    "name": "I743770000354",
    "convert": "jp.co.gu3.alchemist.special.pack5.071"
  },
  {
    "name": "I743770000355",
    "convert": "jp.co.gu3.alchemist.special.pack5.072"
  },
  {
    "name": "I743770000356",
    "convert": "jp.co.gu3.alchemist.special.pack5.073"
  },
  {
    "name": "I743770000357",
    "convert": "jp.co.gu3.alchemist.special.pack5.074"
  },
  {
    "name": "I743770000358",
    "convert": "jp.co.gu3.alchemist.special.pack5.075"
  },
  {
    "name": "I743770000359",
    "convert": "jp.co.gu3.alchemist.special.pack5.076"
  },
  {
    "name": "I743770000360",
    "convert": "jp.co.gu3.alchemist.special.pack5.077"
  },
  {
    "name": "I743770000361",
    "convert": "jp.co.gu3.alchemist.special.pack5.078"
  },
  {
    "name": "I743770000362",
    "convert": "jp.co.gu3.alchemist.special.pack5.079"
  },
  {
    "name": "I743770000363",
    "convert": "jp.co.gu3.alchemist.special.pack5.080"
  },
  {
    "name": "I743770000364",
    "convert": "jp.co.gu3.alchemist.special.pack5.081"
  },
  {
    "name": "I743770000365",
    "convert": "jp.co.gu3.alchemist.special.pack5.082"
  },
  {
    "name": "I743770000366",
    "convert": "jp.co.gu3.alchemist.special.pack5.083"
  },
  {
    "name": "I743770000367",
    "convert": "jp.co.gu3.alchemist.special.pack5.084"
  },
  {
    "name": "I743770000368",
    "convert": "jp.co.gu3.alchemist.special.pack5.085"
  },
  {
    "name": "I743770000369",
    "convert": "jp.co.gu3.alchemist.special.pack6.001"
  },
  {
    "name": "I743770000370",
    "convert": "jp.co.gu3.alchemist.special.pack6.002"
  },
  {
    "name": "I743770000371",
    "convert": "jp.co.gu3.alchemist.special.pack6.003"
  },
  {
    "name": "I743770000372",
    "convert": "jp.co.gu3.alchemist.special.pack6.004"
  },
  {
    "name": "I743770000373",
    "convert": "jp.co.gu3.alchemist.special.pack6.005"
  },
  {
    "name": "I743770000374",
    "convert": "jp.co.gu3.alchemist.special.pack6.006"
  },
  {
    "name": "I743770000375",
    "convert": "jp.co.gu3.alchemist.special.pack6.007"
  },
  {
    "name": "I743770000376",
    "convert": "jp.co.gu3.alchemist.special.pack6.008"
  },
  {
    "name": "I743770000377",
    "convert": "jp.co.gu3.alchemist.special.pack6.009"
  },
  {
    "name": "I743770000378",
    "convert": "jp.co.gu3.alchemist.special.pack6.010"
  },
  {
    "name": "I743770000379",
    "convert": "jp.co.gu3.alchemist.special.pack6.011"
  },
  {
    "name": "I743770000380",
    "convert": "jp.co.gu3.alchemist.special.pack6.012"
  },
  {
    "name": "I743770000381",
    "convert": "jp.co.gu3.alchemist.special.pack6.013"
  },
  {
    "name": "I743770000382",
    "convert": "jp.co.gu3.alchemist.special.pack6.014"
  },
  {
    "name": "I743770000383",
    "convert": "jp.co.gu3.alchemist.special.pack6.015"
  },
  {
    "name": "I743770000384",
    "convert": "jp.co.gu3.alchemist.special.pack6.016"
  },
  {
    "name": "I743770000385",
    "convert": "jp.co.gu3.alchemist.special.pack6.017"
  },
  {
    "name": "I743770000386",
    "convert": "jp.co.gu3.alchemist.special.pack6.018"
  },
  {
    "name": "I743770000387",
    "convert": "jp.co.gu3.alchemist.special.pack6.019"
  },
  {
    "name": "I743770000388",
    "convert": "jp.co.gu3.alchemist.special.pack6.020"
  },
  {
    "name": "I743770000389",
    "convert": "jp.co.gu3.alchemist.special.pack6.021"
  },
  {
    "name": "I743770000390",
    "convert": "jp.co.gu3.alchemist.special.pack6.022"
  },
  {
    "name": "I743770000391",
    "convert": "jp.co.gu3.alchemist.special.pack6.023"
  },
  {
    "name": "I743770000392",
    "convert": "jp.co.gu3.alchemist.special.pack6.024"
  },
  {
    "name": "I743770000393",
    "convert": "jp.co.gu3.alchemist.special.pack6.025"
  },
  {
    "name": "I743770000394",
    "convert": "jp.co.gu3.alchemist.special.pack6.026"
  },
  {
    "name": "I743770000395",
    "convert": "jp.co.gu3.alchemist.special.pack6.027"
  },
  {
    "name": "I743770000396",
    "convert": "jp.co.gu3.alchemist.special.pack6.028"
  },
  {
    "name": "I743770000397",
    "convert": "jp.co.gu3.alchemist.special.pack6.029"
  },
  {
    "name": "I743770000398",
    "convert": "jp.co.gu3.alchemist.special.pack6.030"
  },
  {
    "name": "I743770000399",
    "convert": "jp.co.gu3.alchemist.special.pack6.031"
  },
  {
    "name": "I743770000400",
    "convert": "jp.co.gu3.alchemist.special.pack6.032"
  },
  {
    "name": "I743770000401",
    "convert": "jp.co.gu3.alchemist.special.pack6.033"
  },
  {
    "name": "I743770000402",
    "convert": "jp.co.gu3.alchemist.special.pack6.034"
  },
  {
    "name": "I743770000403",
    "convert": "jp.co.gu3.alchemist.special.pack6.035"
  },
  {
    "name": "I743770000404",
    "convert": "jp.co.gu3.alchemist.special.pack6.036"
  },
  {
    "name": "I743770000405",
    "convert": "jp.co.gu3.alchemist.special.pack6.037"
  },
  {
    "name": "I743770000406",
    "convert": "jp.co.gu3.alchemist.special.pack6.038"
  },
  {
    "name": "I743770000407",
    "convert": "jp.co.gu3.alchemist.special.pack6.039"
  },
  {
    "name": "I743770000408",
    "convert": "jp.co.gu3.alchemist.special.pack6.040"
  },
  {
    "name": "I743770000409",
    "convert": "jp.co.gu3.alchemist.special.pack6.041"
  },
  {
    "name": "I743770000410",
    "convert": "jp.co.gu3.alchemist.special.pack6.042"
  },
  {
    "name": "I743770000411",
    "convert": "jp.co.gu3.alchemist.special.pack6.043"
  },
  {
    "name": "I743770000412",
    "convert": "jp.co.gu3.alchemist.special.pack6.044"
  },
  {
    "name": "I743770000413",
    "convert": "jp.co.gu3.alchemist.special.pack6.045"
  },
  {
    "name": "I743770000414",
    "convert": "jp.co.gu3.alchemist.special.pack6.046"
  },
  {
    "name": "I743770000415",
    "convert": "jp.co.gu3.alchemist.special.pack6.047"
  },
  {
    "name": "I743770000416",
    "convert": "jp.co.gu3.alchemist.special.pack6.048"
  },
  {
    "name": "I743770000417",
    "convert": "jp.co.gu3.alchemist.special.pack6.049"
  },
  {
    "name": "I743770000418",
    "convert": "jp.co.gu3.alchemist.special.pack6.050"
  },
  {
    "name": "I743770000419",
    "convert": "jp.co.gu3.alchemist.special.pack6.051"
  },
  {
    "name": "I743770000420",
    "convert": "jp.co.gu3.alchemist.special.pack6.052"
  },
  {
    "name": "I743770000421",
    "convert": "jp.co.gu3.alchemist.special.pack6.053"
  },
  {
    "name": "I743770000422",
    "convert": "jp.co.gu3.alchemist.special.pack6.054"
  },
  {
    "name": "I743770000423",
    "convert": "jp.co.gu3.alchemist.special.pack6.055"
  },
  {
    "name": "I743770000424",
    "convert": "jp.co.gu3.alchemist.special.pack6.056"
  },
  {
    "name": "I743770000425",
    "convert": "jp.co.gu3.alchemist.special.pack6.057"
  },
  {
    "name": "I743770000426",
    "convert": "jp.co.gu3.alchemist.special.pack6.058"
  },
  {
    "name": "I743770000427",
    "convert": "jp.co.gu3.alchemist.special.pack6.059"
  },
  {
    "name": "I743770000428",
    "convert": "jp.co.gu3.alchemist.special.pack6.060"
  },
  {
    "name": "I743770000429",
    "convert": "jp.co.gu3.alchemist.special.pack7.001"
  },
  {
    "name": "I743770000430",
    "convert": "jp.co.gu3.alchemist.special.pack7.002"
  },
  {
    "name": "I743770000431",
    "convert": "jp.co.gu3.alchemist.special.pack7.003"
  },
  {
    "name": "I743770000432",
    "convert": "jp.co.gu3.alchemist.special.pack7.004"
  },
  {
    "name": "I743770000433",
    "convert": "jp.co.gu3.alchemist.special.pack7.005"
  },
  {
    "name": "I743770000434",
    "convert": "jp.co.gu3.alchemist.special.pack7.006"
  },
  {
    "name": "I743770000435",
    "convert": "jp.co.gu3.alchemist.special.pack7.007"
  },
  {
    "name": "I743770000436",
    "convert": "jp.co.gu3.alchemist.special.pack7.008"
  },
  {
    "name": "I743770000437",
    "convert": "jp.co.gu3.alchemist.special.pack7.009"
  },
  {
    "name": "I743770000438",
    "convert": "jp.co.gu3.alchemist.special.pack7.010"
  },
  {
    "name": "I743770000439",
    "convert": "jp.co.gu3.alchemist.special.pack7.011"
  },
  {
    "name": "I743770000440",
    "convert": "jp.co.gu3.alchemist.special.pack7.012"
  },
  {
    "name": "I743770000441",
    "convert": "jp.co.gu3.alchemist.special.pack7.013"
  },
  {
    "name": "I743770000442",
    "convert": "jp.co.gu3.alchemist.special.pack7.014"
  },
  {
    "name": "I743770000443",
    "convert": "jp.co.gu3.alchemist.special.pack7.015"
  },
  {
    "name": "I743770000444",
    "convert": "jp.co.gu3.alchemist.special.pack7.016"
  },
  {
    "name": "I743770000445",
    "convert": "jp.co.gu3.alchemist.special.pack7.017"
  },
  {
    "name": "I743770000446",
    "convert": "jp.co.gu3.alchemist.special.pack7.018"
  },
  {
    "name": "I743770000447",
    "convert": "jp.co.gu3.alchemist.special.pack7.019"
  },
  {
    "name": "I743770000448",
    "convert": "jp.co.gu3.alchemist.special.pack7.020"
  },
  {
    "name": "I743770000449",
    "convert": "jp.co.gu3.alchemist.step.pack1.001"
  },
  {
    "name": "I743770000450",
    "convert": "jp.co.gu3.alchemist.step.pack1.002"
  },
  {
    "name": "I743770000451",
    "convert": "jp.co.gu3.alchemist.step.pack1.003"
  },
  {
    "name": "I743770000452",
    "convert": "jp.co.gu3.alchemist.step.pack1.004"
  },
  {
    "name": "I743770000453",
    "convert": "jp.co.gu3.alchemist.step.pack1.005"
  },
  {
    "name": "I743770000454",
    "convert": "jp.co.gu3.alchemist.step.pack1.006"
  },
  {
    "name": "I743770000455",
    "convert": "jp.co.gu3.alchemist.step.pack1.007"
  },
  {
    "name": "I743770000456",
    "convert": "jp.co.gu3.alchemist.step.pack1.008"
  },
  {
    "name": "I743770000457",
    "convert": "jp.co.gu3.alchemist.step.pack1.009"
  },
  {
    "name": "I743770000458",
    "convert": "jp.co.gu3.alchemist.step.pack1.010"
  },
  {
    "name": "I743770000459",
    "convert": "jp.co.gu3.alchemist.step.pack2.001"
  },
  {
    "name": "I743770000460",
    "convert": "jp.co.gu3.alchemist.step.pack2.002"
  },
  {
    "name": "I743770000461",
    "convert": "jp.co.gu3.alchemist.step.pack2.003"
  },
  {
    "name": "I743770000462",
    "convert": "jp.co.gu3.alchemist.step.pack2.004"
  },
  {
    "name": "I743770000463",
    "convert": "jp.co.gu3.alchemist.step.pack2.005"
  },
  {
    "name": "I743770000464",
    "convert": "jp.co.gu3.alchemist.step.pack2.006"
  },
  {
    "name": "I743770000465",
    "convert": "jp.co.gu3.alchemist.step.pack2.007"
  },
  {
    "name": "I743770000466",
    "convert": "jp.co.gu3.alchemist.step.pack2.008"
  },
  {
    "name": "I743770000467",
    "convert": "jp.co.gu3.alchemist.step.pack2.009"
  },
  {
    "name": "I743770000468",
    "convert": "jp.co.gu3.alchemist.step.pack2.010"
  },
  {
    "name": "I743770000469",
    "convert": "jp.co.gu3.alchemist.step.pack3.001"
  },
  {
    "name": "I743770000470",
    "convert": "jp.co.gu3.alchemist.step.pack3.002"
  },
  {
    "name": "I743770000471",
    "convert": "jp.co.gu3.alchemist.step.pack3.003"
  },
  {
    "name": "I743770000472",
    "convert": "jp.co.gu3.alchemist.step.pack3.004"
  },
  {
    "name": "I743770000473",
    "convert": "jp.co.gu3.alchemist.step.pack3.005"
  },
  {
    "name": "I743770000474",
    "convert": "jp.co.gu3.alchemist.step.pack3.006"
  },
  {
    "name": "I743770000475",
    "convert": "jp.co.gu3.alchemist.step.pack3.007"
  },
  {
    "name": "I743770000476",
    "convert": "jp.co.gu3.alchemist.step.pack3.008"
  },
  {
    "name": "I743770000477",
    "convert": "jp.co.gu3.alchemist.step.pack3.009"
  },
  {
    "name": "I743770000478",
    "convert": "jp.co.gu3.alchemist.step.pack3.010"
  },
  {
    "name": "I743770000479",
    "convert": "jp.co.gu3.alchemist.step.pack4.001"
  },
  {
    "name": "I743770000480",
    "convert": "jp.co.gu3.alchemist.step.pack4.002"
  },
  {
    "name": "I743770000481",
    "convert": "jp.co.gu3.alchemist.step.pack4.003"
  },
  {
    "name": "I743770000482",
    "convert": "jp.co.gu3.alchemist.step.pack4.004"
  },
  {
    "name": "I743770000483",
    "convert": "jp.co.gu3.alchemist.step.pack4.005"
  },
  {
    "name": "I743770000484",
    "convert": "jp.co.gu3.alchemist.step.pack4.006"
  },
  {
    "name": "I743770000485",
    "convert": "jp.co.gu3.alchemist.step.pack4.007"
  },
  {
    "name": "I743770000486",
    "convert": "jp.co.gu3.alchemist.step.pack4.008"
  },
  {
    "name": "I743770000487",
    "convert": "jp.co.gu3.alchemist.step.pack4.009"
  },
  {
    "name": "I743770000488",
    "convert": "jp.co.gu3.alchemist.step.pack4.010"
  },
  {
    "name": "I743770000489",
    "convert": "jp.co.gu3.alchemist.step.pack5.001"
  },
  {
    "name": "I743770000490",
    "convert": "jp.co.gu3.alchemist.step.pack5.002"
  },
  {
    "name": "I743770000491",
    "convert": "jp.co.gu3.alchemist.step.pack5.003"
  },
  {
    "name": "I743770000492",
    "convert": "jp.co.gu3.alchemist.step.pack5.004"
  },
  {
    "name": "I743770000493",
    "convert": "jp.co.gu3.alchemist.step.pack5.005"
  },
  {
    "name": "I743770000494",
    "convert": "jp.co.gu3.alchemist.step.pack5.006"
  },
  {
    "name": "I743770000495",
    "convert": "jp.co.gu3.alchemist.step.pack5.007"
  },
  {
    "name": "I743770000496",
    "convert": "jp.co.gu3.alchemist.step.pack5.008"
  },
  {
    "name": "I743770000497",
    "convert": "jp.co.gu3.alchemist.step.pack5.009"
  },
  {
    "name": "I743770000498",
    "convert": "jp.co.gu3.alchemist.step.pack5.010"
  },
  {
    "name": "I743770000499",
    "convert": "jp.co.gu3.alchemist.step.pack6.001"
  },
  {
    "name": "I743770000500",
    "convert": "jp.co.gu3.alchemist.step.pack6.002"
  },
  {
    "name": "I743770000501",
    "convert": "jp.co.gu3.alchemist.step.pack6.003"
  },
  {
    "name": "I743770000502",
    "convert": "jp.co.gu3.alchemist.step.pack6.004"
  },
  {
    "name": "I743770000503",
    "convert": "jp.co.gu3.alchemist.step.pack6.005"
  },
  {
    "name": "I743770000504",
    "convert": "jp.co.gu3.alchemist.step.pack6.006"
  },
  {
    "name": "I743770000505",
    "convert": "jp.co.gu3.alchemist.step.pack6.007"
  },
  {
    "name": "I743770000506",
    "convert": "jp.co.gu3.alchemist.step.pack6.008"
  },
  {
    "name": "I743770000507",
    "convert": "jp.co.gu3.alchemist.step.pack6.009"
  },
  {
    "name": "I743770000508",
    "convert": "jp.co.gu3.alchemist.step.pack6.010"
  },
  {
    "name": "I743770000509",
    "convert": "jp.co.gu3.alchemist.step.pack7.001"
  },
  {
    "name": "I743770000510",
    "convert": "jp.co.gu3.alchemist.step.pack7.002"
  },
  {
    "name": "I743770000511",
    "convert": "jp.co.gu3.alchemist.step.pack7.003"
  },
  {
    "name": "I743770000512",
    "convert": "jp.co.gu3.alchemist.step.pack7.004"
  },
  {
    "name": "I743770000513",
    "convert": "jp.co.gu3.alchemist.step.pack7.005"
  },
  {
    "name": "I743770000514",
    "convert": "jp.co.gu3.alchemist.step.pack7.006"
  },
  {
    "name": "I743770000515",
    "convert": "jp.co.gu3.alchemist.step.pack7.007"
  },
  {
    "name": "I743770000516",
    "convert": "jp.co.gu3.alchemist.step.pack7.008"
  },
  {
    "name": "I743770000517",
    "convert": "jp.co.gu3.alchemist.step.pack7.009"
  },
  {
    "name": "I743770000518",
    "convert": "jp.co.gu3.alchemist.step.pack7.010"
  },
  {
    "name": "I743770000563",
    "convert": "jp.co.gu3.alchemist.quest.pack.006"
  },
  {
    "name": "I743770000564",
    "convert": "jp.co.gu3.alchemist.quest.pack.007"
  },
  {
    "name": "I743770000565",
    "convert": "jp.co.gu3.alchemist.quest.pack.008"
  },
  {
    "name": "I743770000566",
    "convert": "jp.co.gu3.alchemist.port.pack.001"
  },
  {
    "name": "I743770000567",
    "convert": "jp.co.gu3.alchemist.port.pack.002"
  },
  {
    "name": "I743770000568",
    "convert": "jp.co.gu3.alchemist.port.pack.003"
  },
  {
    "name": "I743770000569",
    "convert": "jp.co.gu3.alchemist.port.pack.004"
  },
  {
    "name": "I743770000570",
    "convert": "jp.co.gu3.alchemist.port.pack.005"
  },
  {
    "name": "I743770000571",
    "convert": "jp.co.gu3.alchemist.port.pack.006"
  },
  {
    "name": "I743770000572",
    "convert": "jp.co.gu3.alchemist.mission.pack.001"
  },
  {
    "name": "I743770000573",
    "convert": "jp.co.gu3.alchemist.quest.pack.009"
  },
  {
    "name": "I743770000574",
    "convert": "jp.co.gu3.alchemist.quest.pack.010"
  },
  {
    "name": "I743770000575",
    "convert": "jp.co.gu3.alchemist.quest.pack.011"
  },
  {
    "name": "I743770000576",
    "convert": "jp.co.gu3.alchemist.prem.002"
  },
  {
    "name": "I743770000649",
    "convert": "jp.co.gu3.alchemist.jewel.1001"
  },
  {
    "name": "I743770000650",
    "convert": "jp.co.gu3.alchemist.jewel.1002"
  },
  {
    "name": "I743770000651",
    "convert": "jp.co.gu3.alchemist.jewel.1003"
  },
  {
    "name": "I743770000652",
    "convert": "jp.co.gu3.alchemist.jewel.1004"
  },
  {
    "name": "I743770000653",
    "convert": "jp.co.gu3.alchemist.jewel.1005"
  },
  {
    "name": "I743770000654",
    "convert": "jp.co.gu3.alchemist.jewel.1006"
  },
  {
    "name": "I743770000655",
    "convert": "jp.co.gu3.alchemist.jewel.1007"
  },
  {
    "name": "I743770000656",
    "convert": "jp.co.gu3.alchemist.jewel.1008"
  },
  {
    "name": "I743770000657",
    "convert": "jp.co.gu3.alchemist.vip.1001"
  },
  {
    "name": "I743770000658",
    "convert": "jp.co.gu3.alchemist.prem.1001"
  },
  {
    "name": "I743770000659",
    "convert": "jp.co.gu3.alchemist.prem.1002"
  },
  {
    "name": "I743770000660",
    "convert": "jp.co.gu3.alchemist.premium.pass1.1001"
  },
  {
    "name": "I743770000661",
    "convert": "jp.co.gu3.alchemist.premium.pass1.1002"
  },
  {
    "name": "I743770000662",
    "convert": "jp.co.gu3.alchemist.premium.pass1.1003"
  },
  {
    "name": "I743770000663",
    "convert": "jp.co.gu3.alchemist.premium.pass1.1004"
  },
  {
    "name": "I743770000664",
    "convert": "jp.co.gu3.alchemist.premium.pass1.1005"
  },
  {
    "name": "I743770000665",
    "convert": "jp.co.gu3.alchemist.premium.pass1.1006"
  },
  {
    "name": "I743770000666",
    "convert": "jp.co.gu3.alchemist.premium.pass2.1001"
  },
  {
    "name": "I743770000667",
    "convert": "jp.co.gu3.alchemist.premium.pass2.1002"
  },
  {
    "name": "I743770000668",
    "convert": "jp.co.gu3.alchemist.premium.pass2.1003"
  },
  {
    "name": "I743770000669",
    "convert": "jp.co.gu3.alchemist.premium.pass3.1001"
  },
  {
    "name": "I743770000670",
    "convert": "jp.co.gu3.alchemist.premium.pass3.1002"
  },
  {
    "name": "I743770000671",
    "convert": "jp.co.gu3.alchemist.premium.pass3.1003"
  },
  {
    "name": "I743770000672",
    "convert": "jp.co.gu3.alchemist.premium.pass3.1004"
  },
  {
    "name": "I743770000673",
    "convert": "jp.co.gu3.alchemist.premium.pass3.1005"
  },
  {
    "name": "I743770000674",
    "convert": "jp.co.gu3.alchemist.premium.pass3.1006"
  },
  {
    "name": "I743770000675",
    "convert": "jp.co.gu3.alchemist.premium.pass3.1007"
  },
  {
    "name": "I743770000676",
    "convert": "jp.co.gu3.alchemist.premium.pass3.1008"
  },
  {
    "name": "I743770000677",
    "convert": "jp.co.gu3.alchemist.premium.pass3.1009"
  },
  {
    "name": "I743770000678",
    "convert": "jp.co.gu3.alchemist.premium.pass3.1010"
  },
  {
    "name": "I743770000679",
    "convert": "jp.co.gu3.alchemist.premium.pass3.1011"
  },
  {
    "name": "I743770000680",
    "convert": "jp.co.gu3.alchemist.premium.pass3.1012"
  },
  {
    "name": "I743770000681",
    "convert": "jp.co.gu3.alchemist.premium.pass3.1013"
  },
  {
    "name": "I743770000682",
    "convert": "jp.co.gu3.alchemist.premium.pass3.1014"
  },
  {
    "name": "I743770000683",
    "convert": "jp.co.gu3.alchemist.premium.pass3.1015"
  },
  {
    "name": "I743770000684",
    "convert": "jp.co.gu3.alchemist.premium.pass4.1001"
  },
  {
    "name": "I743770000685",
    "convert": "jp.co.gu3.alchemist.premium.pass4.1002"
  },
  {
    "name": "I743770000686",
    "convert": "jp.co.gu3.alchemist.premium.pass4.1003"
  },
  {
    "name": "I743770000687",
    "convert": "jp.co.gu3.alchemist.premium.pass4.1004"
  },
  {
    "name": "I743770000688",
    "convert": "jp.co.gu3.alchemist.pack1.1001"
  },
  {
    "name": "I743770000689",
    "convert": "jp.co.gu3.alchemist.pack1.1002"
  },
  {
    "name": "I743770000690",
    "convert": "jp.co.gu3.alchemist.pack1.1003"
  },
  {
    "name": "I743770000691",
    "convert": "jp.co.gu3.alchemist.pack1.1004"
  },
  {
    "name": "I743770000692",
    "convert": "jp.co.gu3.alchemist.pack1.1005"
  },
  {
    "name": "I743770000693",
    "convert": "jp.co.gu3.alchemist.pack1.1006"
  },
  {
    "name": "I743770000694",
    "convert": "jp.co.gu3.alchemist.pack2.1001"
  },
  {
    "name": "I743770000695",
    "convert": "jp.co.gu3.alchemist.pack2.1002"
  },
  {
    "name": "I743770000696",
    "convert": "jp.co.gu3.alchemist.pack2.1003"
  },
  {
    "name": "I743770000697",
    "convert": "jp.co.gu3.alchemist.pack2.1004"
  },
  {
    "name": "I743770000698",
    "convert": "jp.co.gu3.alchemist.pack2.1005"
  },
  {
    "name": "I743770000699",
    "convert": "jp.co.gu3.alchemist.pack2.1006"
  },
  {
    "name": "I743770000700",
    "convert": "jp.co.gu3.alchemist.pack2.1007"
  },
  {
    "name": "I743770000701",
    "convert": "jp.co.gu3.alchemist.pack2.1008"
  },
  {
    "name": "I743770000702",
    "convert": "jp.co.gu3.alchemist.pack3.1001"
  },
  {
    "name": "I743770000703",
    "convert": "jp.co.gu3.alchemist.pack3.1002"
  },
  {
    "name": "I743770000704",
    "convert": "jp.co.gu3.alchemist.pack3.1003"
  },
  {
    "name": "I743770000705",
    "convert": "jp.co.gu3.alchemist.pack3.1004"
  },
  {
    "name": "I743770000706",
    "convert": "jp.co.gu3.alchemist.pack3.1005"
  },
  {
    "name": "I743770000707",
    "convert": "jp.co.gu3.alchemist.pack3.1006"
  },
  {
    "name": "I743770000708",
    "convert": "jp.co.gu3.alchemist.pack3.1007"
  },
  {
    "name": "I743770000709",
    "convert": "jp.co.gu3.alchemist.pack3.1008"
  },
  {
    "name": "I743770000710",
    "convert": "jp.co.gu3.alchemist.pack4.1001"
  },
  {
    "name": "I743770000711",
    "convert": "jp.co.gu3.alchemist.pack4.1002"
  },
  {
    "name": "I743770000712",
    "convert": "jp.co.gu3.alchemist.pack4.1003"
  },
  {
    "name": "I743770000713",
    "convert": "jp.co.gu3.alchemist.pack4.1004"
  },
  {
    "name": "I743770000714",
    "convert": "jp.co.gu3.alchemist.pack4.1005"
  },
  {
    "name": "I743770000715",
    "convert": "jp.co.gu3.alchemist.pack4.1006"
  },
  {
    "name": "I743770000716",
    "convert": "jp.co.gu3.alchemist.pack4.1007"
  },
  {
    "name": "I743770000717",
    "convert": "jp.co.gu3.alchemist.pack4.1008"
  },
  {
    "name": "I743770000718",
    "convert": "jp.co.gu3.alchemist.pack5.1001"
  },
  {
    "name": "I743770000719",
    "convert": "jp.co.gu3.alchemist.pack5.1002"
  },
  {
    "name": "I743770000720",
    "convert": "jp.co.gu3.alchemist.pack5.1003"
  },
  {
    "name": "I743770000721",
    "convert": "jp.co.gu3.alchemist.pack5.1004"
  },
  {
    "name": "I743770000722",
    "convert": "jp.co.gu3.alchemist.pack5.1005"
  },
  {
    "name": "I743770000723",
    "convert": "jp.co.gu3.alchemist.pack5.1006"
  },
  {
    "name": "I743770000724",
    "convert": "jp.co.gu3.alchemist.pack5.1007"
  },
  {
    "name": "I743770000725",
    "convert": "jp.co.gu3.alchemist.pack5.1008"
  },
  {
    "name": "I743770000726",
    "convert": "jp.co.gu3.alchemist.pack5.1009"
  },
  {
    "name": "I743770000727",
    "convert": "jp.co.gu3.alchemist.pack6.1001"
  },
  {
    "name": "I743770000728",
    "convert": "jp.co.gu3.alchemist.pack6.1002"
  },
  {
    "name": "I743770000729",
    "convert": "jp.co.gu3.alchemist.pack6.1003"
  },
  {
    "name": "I743770000730",
    "convert": "jp.co.gu3.alchemist.pack6.1004"
  },
  {
    "name": "I743770000731",
    "convert": "jp.co.gu3.alchemist.pack6.1005"
  },
  {
    "name": "I743770000732",
    "convert": "jp.co.gu3.alchemist.pack6.1006"
  },
  {
    "name": "I743770000733",
    "convert": "jp.co.gu3.alchemist.pack6.1007"
  },
  {
    "name": "I743770000734",
    "convert": "jp.co.gu3.alchemist.pack6.1008"
  },
  {
    "name": "I743770000735",
    "convert": "jp.co.gu3.alchemist.pack6.1009"
  },
  {
    "name": "I743770000736",
    "convert": "jp.co.gu3.alchemist.pack6.1010"
  },
  {
    "name": "I743770000737",
    "convert": "jp.co.gu3.alchemist.pack6.1011"
  },
  {
    "name": "I743770000738",
    "convert": "jp.co.gu3.alchemist.pack6.1012"
  },
  {
    "name": "I743770000739",
    "convert": "jp.co.gu3.alchemist.pack7.1001"
  },
  {
    "name": "I743770000740",
    "convert": "jp.co.gu3.alchemist.pack7.1002"
  },
  {
    "name": "I743770000741",
    "convert": "jp.co.gu3.alchemist.pack7.1003"
  },
  {
    "name": "I743770000742",
    "convert": "jp.co.gu3.alchemist.pack7.1004"
  },
  {
    "name": "I743770000743",
    "convert": "jp.co.gu3.alchemist.pack7.1005"
  },
  {
    "name": "I743770000744",
    "convert": "jp.co.gu3.alchemist.pack7.1006"
  },
  {
    "name": "I743770000745",
    "convert": "jp.co.gu3.alchemist.pack7.1007"
  },
  {
    "name": "I743770000746",
    "convert": "jp.co.gu3.alchemist.pack7.1008"
  },
  {
    "name": "I743770000747",
    "convert": "jp.co.gu3.alchemist.pack7.1009"
  },
  {
    "name": "I743770000748",
    "convert": "jp.co.gu3.alchemist.pack7.1010"
  },
  {
    "name": "I743770000749",
    "convert": "jp.co.gu3.alchemist.pack7.1011"
  },
  {
    "name": "I743770000750",
    "convert": "jp.co.gu3.alchemist.pack7.1012"
  },
  {
    "name": "I743770001040",
    "convert": "jp.co.gu3.alchemist.tpack1.1001"
  },
  {
    "name": "I743770001041",
    "convert": "jp.co.gu3.alchemist.tpack1.1002"
  },
  {
    "name": "I743770001042",
    "convert": "jp.co.gu3.alchemist.tpack1.1003"
  },
  {
    "name": "I743770001043",
    "convert": "jp.co.gu3.alchemist.tpack1.1004"
  },
  {
    "name": "I743770000751",
    "convert": "jp.co.gu3.alchemist.special.pack1.1001"
  },
  {
    "name": "I743770000752",
    "convert": "jp.co.gu3.alchemist.special.pack1.1002"
  },
  {
    "name": "I743770000753",
    "convert": "jp.co.gu3.alchemist.special.pack1.1003"
  },
  {
    "name": "I743770000754",
    "convert": "jp.co.gu3.alchemist.special.pack1.1004"
  },
  {
    "name": "I743770000755",
    "convert": "jp.co.gu3.alchemist.special.pack1.1005"
  },
  {
    "name": "I743770000756",
    "convert": "jp.co.gu3.alchemist.special.pack1.1006"
  },
  {
    "name": "I743770000757",
    "convert": "jp.co.gu3.alchemist.special.pack1.1007"
  },
  {
    "name": "I743770000758",
    "convert": "jp.co.gu3.alchemist.special.pack1.1008"
  },
  {
    "name": "I743770000759",
    "convert": "jp.co.gu3.alchemist.special.pack1.1009"
  },
  {
    "name": "I743770000760",
    "convert": "jp.co.gu3.alchemist.special.pack1.1010"
  },
  {
    "name": "I743770000761",
    "convert": "jp.co.gu3.alchemist.special.pack2.1001"
  },
  {
    "name": "I743770000762",
    "convert": "jp.co.gu3.alchemist.special.pack2.1002"
  },
  {
    "name": "I743770000763",
    "convert": "jp.co.gu3.alchemist.special.pack2.1003"
  },
  {
    "name": "I743770000764",
    "convert": "jp.co.gu3.alchemist.special.pack2.1004"
  },
  {
    "name": "I743770000765",
    "convert": "jp.co.gu3.alchemist.special.pack2.1005"
  },
  {
    "name": "I743770000766",
    "convert": "jp.co.gu3.alchemist.special.pack2.1006"
  },
  {
    "name": "I743770000767",
    "convert": "jp.co.gu3.alchemist.special.pack2.1007"
  },
  {
    "name": "I743770000768",
    "convert": "jp.co.gu3.alchemist.special.pack2.1008"
  },
  {
    "name": "I743770000769",
    "convert": "jp.co.gu3.alchemist.special.pack2.1009"
  },
  {
    "name": "I743770000770",
    "convert": "jp.co.gu3.alchemist.special.pack2.1010"
  },
  {
    "name": "I743770000771",
    "convert": "jp.co.gu3.alchemist.special.pack3.1001"
  },
  {
    "name": "I743770000772",
    "convert": "jp.co.gu3.alchemist.special.pack3.1002"
  },
  {
    "name": "I743770000773",
    "convert": "jp.co.gu3.alchemist.special.pack3.1003"
  },
  {
    "name": "I743770000774",
    "convert": "jp.co.gu3.alchemist.special.pack3.1004"
  },
  {
    "name": "I743770000775",
    "convert": "jp.co.gu3.alchemist.special.pack3.1005"
  },
  {
    "name": "I743770000776",
    "convert": "jp.co.gu3.alchemist.special.pack3.1006"
  },
  {
    "name": "I743770000777",
    "convert": "jp.co.gu3.alchemist.special.pack3.1007"
  },
  {
    "name": "I743770000778",
    "convert": "jp.co.gu3.alchemist.special.pack3.1008"
  },
  {
    "name": "I743770000779",
    "convert": "jp.co.gu3.alchemist.special.pack3.1009"
  },
  {
    "name": "I743770000780",
    "convert": "jp.co.gu3.alchemist.special.pack3.1010"
  },
  {
    "name": "I743770000781",
    "convert": "jp.co.gu3.alchemist.special.pack4.1001"
  },
  {
    "name": "I743770000782",
    "convert": "jp.co.gu3.alchemist.special.pack4.1002"
  },
  {
    "name": "I743770000783",
    "convert": "jp.co.gu3.alchemist.special.pack4.1003"
  },
  {
    "name": "I743770000784",
    "convert": "jp.co.gu3.alchemist.special.pack4.1004"
  },
  {
    "name": "I743770000785",
    "convert": "jp.co.gu3.alchemist.special.pack4.1005"
  },
  {
    "name": "I743770000786",
    "convert": "jp.co.gu3.alchemist.special.pack4.1006"
  },
  {
    "name": "I743770000787",
    "convert": "jp.co.gu3.alchemist.special.pack4.1007"
  },
  {
    "name": "I743770000788",
    "convert": "jp.co.gu3.alchemist.special.pack4.1008"
  },
  {
    "name": "I743770000789",
    "convert": "jp.co.gu3.alchemist.special.pack4.1009"
  },
  {
    "name": "I743770000790",
    "convert": "jp.co.gu3.alchemist.special.pack4.1010"
  },
  {
    "name": "I743770000791",
    "convert": "jp.co.gu3.alchemist.special.pack4.1011"
  },
  {
    "name": "I743770000792",
    "convert": "jp.co.gu3.alchemist.special.pack4.1012"
  },
  {
    "name": "I743770000793",
    "convert": "jp.co.gu3.alchemist.special.pack4.1013"
  },
  {
    "name": "I743770000794",
    "convert": "jp.co.gu3.alchemist.special.pack4.1014"
  },
  {
    "name": "I743770000795",
    "convert": "jp.co.gu3.alchemist.special.pack4.1015"
  },
  {
    "name": "I743770000796",
    "convert": "jp.co.gu3.alchemist.special.pack4.1016"
  },
  {
    "name": "I743770000797",
    "convert": "jp.co.gu3.alchemist.special.pack4.1017"
  },
  {
    "name": "I743770000798",
    "convert": "jp.co.gu3.alchemist.special.pack4.1018"
  },
  {
    "name": "I743770000799",
    "convert": "jp.co.gu3.alchemist.special.pack4.1019"
  },
  {
    "name": "I743770000800",
    "convert": "jp.co.gu3.alchemist.special.pack4.1020"
  },
  {
    "name": "I743770000801",
    "convert": "jp.co.gu3.alchemist.special.pack4.1021"
  },
  {
    "name": "I743770000802",
    "convert": "jp.co.gu3.alchemist.special.pack4.1022"
  },
  {
    "name": "I743770000803",
    "convert": "jp.co.gu3.alchemist.special.pack4.1023"
  },
  {
    "name": "I743770000804",
    "convert": "jp.co.gu3.alchemist.special.pack4.1024"
  },
  {
    "name": "I743770000805",
    "convert": "jp.co.gu3.alchemist.special.pack4.1025"
  },
  {
    "name": "I743770000806",
    "convert": "jp.co.gu3.alchemist.special.pack5.1001"
  },
  {
    "name": "I743770000807",
    "convert": "jp.co.gu3.alchemist.special.pack5.1002"
  },
  {
    "name": "I743770000808",
    "convert": "jp.co.gu3.alchemist.special.pack5.1003"
  },
  {
    "name": "I743770000809",
    "convert": "jp.co.gu3.alchemist.special.pack5.1004"
  },
  {
    "name": "I743770000810",
    "convert": "jp.co.gu3.alchemist.special.pack5.1005"
  },
  {
    "name": "I743770000811",
    "convert": "jp.co.gu3.alchemist.special.pack5.1006"
  },
  {
    "name": "I743770000812",
    "convert": "jp.co.gu3.alchemist.special.pack5.1007"
  },
  {
    "name": "I743770000813",
    "convert": "jp.co.gu3.alchemist.special.pack5.1008"
  },
  {
    "name": "I743770000814",
    "convert": "jp.co.gu3.alchemist.special.pack5.1009"
  },
  {
    "name": "I743770000815",
    "convert": "jp.co.gu3.alchemist.special.pack5.1010"
  },
  {
    "name": "I743770000816",
    "convert": "jp.co.gu3.alchemist.special.pack5.1011"
  },
  {
    "name": "I743770000817",
    "convert": "jp.co.gu3.alchemist.special.pack5.1012"
  },
  {
    "name": "I743770000818",
    "convert": "jp.co.gu3.alchemist.special.pack5.1013"
  },
  {
    "name": "I743770000819",
    "convert": "jp.co.gu3.alchemist.special.pack5.1014"
  },
  {
    "name": "I743770000820",
    "convert": "jp.co.gu3.alchemist.special.pack5.1015"
  },
  {
    "name": "I743770000821",
    "convert": "jp.co.gu3.alchemist.special.pack5.1016"
  },
  {
    "name": "I743770000822",
    "convert": "jp.co.gu3.alchemist.special.pack5.1017"
  },
  {
    "name": "I743770000823",
    "convert": "jp.co.gu3.alchemist.special.pack5.1018"
  },
  {
    "name": "I743770000824",
    "convert": "jp.co.gu3.alchemist.special.pack5.1019"
  },
  {
    "name": "I743770000825",
    "convert": "jp.co.gu3.alchemist.special.pack5.1020"
  },
  {
    "name": "I743770000826",
    "convert": "jp.co.gu3.alchemist.special.pack5.1021"
  },
  {
    "name": "I743770000827",
    "convert": "jp.co.gu3.alchemist.special.pack5.1022"
  },
  {
    "name": "I743770000828",
    "convert": "jp.co.gu3.alchemist.special.pack5.1023"
  },
  {
    "name": "I743770000829",
    "convert": "jp.co.gu3.alchemist.special.pack5.1024"
  },
  {
    "name": "I743770000830",
    "convert": "jp.co.gu3.alchemist.special.pack5.1025"
  },
  {
    "name": "I743770000831",
    "convert": "jp.co.gu3.alchemist.special.pack5.1026"
  },
  {
    "name": "I743770000832",
    "convert": "jp.co.gu3.alchemist.special.pack5.1027"
  },
  {
    "name": "I743770000833",
    "convert": "jp.co.gu3.alchemist.special.pack5.1028"
  },
  {
    "name": "I743770000834",
    "convert": "jp.co.gu3.alchemist.special.pack5.1029"
  },
  {
    "name": "I743770000835",
    "convert": "jp.co.gu3.alchemist.special.pack5.1030"
  },
  {
    "name": "I743770000836",
    "convert": "jp.co.gu3.alchemist.special.pack5.1031"
  },
  {
    "name": "I743770000837",
    "convert": "jp.co.gu3.alchemist.special.pack5.1032"
  },
  {
    "name": "I743770000838",
    "convert": "jp.co.gu3.alchemist.special.pack5.1033"
  },
  {
    "name": "I743770000839",
    "convert": "jp.co.gu3.alchemist.special.pack5.1034"
  },
  {
    "name": "I743770000840",
    "convert": "jp.co.gu3.alchemist.special.pack5.1035"
  },
  {
    "name": "I743770000841",
    "convert": "jp.co.gu3.alchemist.special.pack5.1036"
  },
  {
    "name": "I743770000842",
    "convert": "jp.co.gu3.alchemist.special.pack5.1037"
  },
  {
    "name": "I743770000843",
    "convert": "jp.co.gu3.alchemist.special.pack5.1038"
  },
  {
    "name": "I743770000844",
    "convert": "jp.co.gu3.alchemist.special.pack5.1039"
  },
  {
    "name": "I743770000845",
    "convert": "jp.co.gu3.alchemist.special.pack5.1040"
  },
  {
    "name": "I743770000846",
    "convert": "jp.co.gu3.alchemist.special.pack5.1041"
  },
  {
    "name": "I743770000847",
    "convert": "jp.co.gu3.alchemist.special.pack5.1042"
  },
  {
    "name": "I743770000848",
    "convert": "jp.co.gu3.alchemist.special.pack5.1043"
  },
  {
    "name": "I743770000849",
    "convert": "jp.co.gu3.alchemist.special.pack5.1044"
  },
  {
    "name": "I743770000850",
    "convert": "jp.co.gu3.alchemist.special.pack5.1045"
  },
  {
    "name": "I743770000851",
    "convert": "jp.co.gu3.alchemist.special.pack5.1046"
  },
  {
    "name": "I743770000852",
    "convert": "jp.co.gu3.alchemist.special.pack5.1047"
  },
  {
    "name": "I743770000853",
    "convert": "jp.co.gu3.alchemist.special.pack5.1048"
  },
  {
    "name": "I743770000854",
    "convert": "jp.co.gu3.alchemist.special.pack5.1049"
  },
  {
    "name": "I743770000855",
    "convert": "jp.co.gu3.alchemist.special.pack5.1050"
  },
  {
    "name": "I743770000856",
    "convert": "jp.co.gu3.alchemist.special.pack5.1051"
  },
  {
    "name": "I743770000857",
    "convert": "jp.co.gu3.alchemist.special.pack5.1052"
  },
  {
    "name": "I743770000858",
    "convert": "jp.co.gu3.alchemist.special.pack5.1053"
  },
  {
    "name": "I743770000859",
    "convert": "jp.co.gu3.alchemist.special.pack5.1054"
  },
  {
    "name": "I743770000860",
    "convert": "jp.co.gu3.alchemist.special.pack5.1055"
  },
  {
    "name": "I743770000861",
    "convert": "jp.co.gu3.alchemist.special.pack5.1056"
  },
  {
    "name": "I743770000862",
    "convert": "jp.co.gu3.alchemist.special.pack5.1057"
  },
  {
    "name": "I743770000863",
    "convert": "jp.co.gu3.alchemist.special.pack5.1058"
  },
  {
    "name": "I743770000864",
    "convert": "jp.co.gu3.alchemist.special.pack5.1059"
  },
  {
    "name": "I743770000865",
    "convert": "jp.co.gu3.alchemist.special.pack5.1060"
  },
  {
    "name": "I743770000866",
    "convert": "jp.co.gu3.alchemist.special.pack5.1061"
  },
  {
    "name": "I743770000867",
    "convert": "jp.co.gu3.alchemist.special.pack5.1062"
  },
  {
    "name": "I743770000868",
    "convert": "jp.co.gu3.alchemist.special.pack5.1063"
  },
  {
    "name": "I743770000869",
    "convert": "jp.co.gu3.alchemist.special.pack5.1064"
  },
  {
    "name": "I743770000870",
    "convert": "jp.co.gu3.alchemist.special.pack5.1065"
  },
  {
    "name": "I743770000871",
    "convert": "jp.co.gu3.alchemist.special.pack5.1066"
  },
  {
    "name": "I743770000872",
    "convert": "jp.co.gu3.alchemist.special.pack5.1067"
  },
  {
    "name": "I743770000873",
    "convert": "jp.co.gu3.alchemist.special.pack5.1068"
  },
  {
    "name": "I743770000874",
    "convert": "jp.co.gu3.alchemist.special.pack5.1069"
  },
  {
    "name": "I743770000875",
    "convert": "jp.co.gu3.alchemist.special.pack5.1070"
  },
  {
    "name": "I743770000876",
    "convert": "jp.co.gu3.alchemist.special.pack5.1071"
  },
  {
    "name": "I743770000877",
    "convert": "jp.co.gu3.alchemist.special.pack5.1072"
  },
  {
    "name": "I743770000878",
    "convert": "jp.co.gu3.alchemist.special.pack5.1073"
  },
  {
    "name": "I743770000879",
    "convert": "jp.co.gu3.alchemist.special.pack5.1074"
  },
  {
    "name": "I743770000880",
    "convert": "jp.co.gu3.alchemist.special.pack5.1075"
  },
  {
    "name": "I743770000881",
    "convert": "jp.co.gu3.alchemist.special.pack5.1076"
  },
  {
    "name": "I743770000882",
    "convert": "jp.co.gu3.alchemist.special.pack5.1077"
  },
  {
    "name": "I743770000883",
    "convert": "jp.co.gu3.alchemist.special.pack5.1078"
  },
  {
    "name": "I743770000884",
    "convert": "jp.co.gu3.alchemist.special.pack5.1079"
  },
  {
    "name": "I743770000885",
    "convert": "jp.co.gu3.alchemist.special.pack5.1080"
  },
  {
    "name": "I743770000886",
    "convert": "jp.co.gu3.alchemist.special.pack5.1081"
  },
  {
    "name": "I743770000887",
    "convert": "jp.co.gu3.alchemist.special.pack5.1082"
  },
  {
    "name": "I743770000888",
    "convert": "jp.co.gu3.alchemist.special.pack5.1083"
  },
  {
    "name": "I743770000889",
    "convert": "jp.co.gu3.alchemist.special.pack5.1084"
  },
  {
    "name": "I743770000890",
    "convert": "jp.co.gu3.alchemist.special.pack6.1001"
  },
  {
    "name": "I743770000891",
    "convert": "jp.co.gu3.alchemist.special.pack6.1002"
  },
  {
    "name": "I743770000892",
    "convert": "jp.co.gu3.alchemist.special.pack6.1003"
  },
  {
    "name": "I743770000893",
    "convert": "jp.co.gu3.alchemist.special.pack6.1004"
  },
  {
    "name": "I743770000894",
    "convert": "jp.co.gu3.alchemist.special.pack6.1005"
  },
  {
    "name": "I743770000895",
    "convert": "jp.co.gu3.alchemist.special.pack6.1006"
  },
  {
    "name": "I743770000896",
    "convert": "jp.co.gu3.alchemist.special.pack6.1007"
  },
  {
    "name": "I743770000897",
    "convert": "jp.co.gu3.alchemist.special.pack6.1008"
  },
  {
    "name": "I743770000898",
    "convert": "jp.co.gu3.alchemist.special.pack6.1009"
  },
  {
    "name": "I743770000899",
    "convert": "jp.co.gu3.alchemist.special.pack6.1010"
  },
  {
    "name": "I743770000900",
    "convert": "jp.co.gu3.alchemist.special.pack6.1011"
  },
  {
    "name": "I743770000901",
    "convert": "jp.co.gu3.alchemist.special.pack6.1012"
  },
  {
    "name": "I743770000902",
    "convert": "jp.co.gu3.alchemist.special.pack6.1013"
  },
  {
    "name": "I743770000903",
    "convert": "jp.co.gu3.alchemist.special.pack6.1014"
  },
  {
    "name": "I743770000904",
    "convert": "jp.co.gu3.alchemist.special.pack6.1015"
  },
  {
    "name": "I743770000905",
    "convert": "jp.co.gu3.alchemist.special.pack6.1016"
  },
  {
    "name": "I743770000906",
    "convert": "jp.co.gu3.alchemist.special.pack6.1017"
  },
  {
    "name": "I743770000907",
    "convert": "jp.co.gu3.alchemist.special.pack6.1018"
  },
  {
    "name": "I743770000908",
    "convert": "jp.co.gu3.alchemist.special.pack6.1019"
  },
  {
    "name": "I743770000909",
    "convert": "jp.co.gu3.alchemist.special.pack6.1020"
  },
  {
    "name": "I743770000910",
    "convert": "jp.co.gu3.alchemist.special.pack6.1021"
  },
  {
    "name": "I743770000911",
    "convert": "jp.co.gu3.alchemist.special.pack6.1022"
  },
  {
    "name": "I743770000912",
    "convert": "jp.co.gu3.alchemist.special.pack6.1023"
  },
  {
    "name": "I743770000913",
    "convert": "jp.co.gu3.alchemist.special.pack6.1024"
  },
  {
    "name": "I743770000914",
    "convert": "jp.co.gu3.alchemist.special.pack6.1025"
  },
  {
    "name": "I743770000915",
    "convert": "jp.co.gu3.alchemist.special.pack6.1026"
  },
  {
    "name": "I743770000916",
    "convert": "jp.co.gu3.alchemist.special.pack6.1027"
  },
  {
    "name": "I743770000917",
    "convert": "jp.co.gu3.alchemist.special.pack6.1028"
  },
  {
    "name": "I743770000918",
    "convert": "jp.co.gu3.alchemist.special.pack6.1029"
  },
  {
    "name": "I743770000919",
    "convert": "jp.co.gu3.alchemist.special.pack6.1030"
  },
  {
    "name": "I743770000920",
    "convert": "jp.co.gu3.alchemist.special.pack6.1031"
  },
  {
    "name": "I743770000921",
    "convert": "jp.co.gu3.alchemist.special.pack6.1032"
  },
  {
    "name": "I743770000922",
    "convert": "jp.co.gu3.alchemist.special.pack6.1033"
  },
  {
    "name": "I743770000923",
    "convert": "jp.co.gu3.alchemist.special.pack6.1034"
  },
  {
    "name": "I743770000924",
    "convert": "jp.co.gu3.alchemist.special.pack6.1035"
  },
  {
    "name": "I743770000925",
    "convert": "jp.co.gu3.alchemist.special.pack6.1036"
  },
  {
    "name": "I743770000926",
    "convert": "jp.co.gu3.alchemist.special.pack6.1037"
  },
  {
    "name": "I743770000927",
    "convert": "jp.co.gu3.alchemist.special.pack6.1038"
  },
  {
    "name": "I743770000928",
    "convert": "jp.co.gu3.alchemist.special.pack6.1039"
  },
  {
    "name": "I743770000929",
    "convert": "jp.co.gu3.alchemist.special.pack6.1040"
  },
  {
    "name": "I743770000930",
    "convert": "jp.co.gu3.alchemist.special.pack6.1041"
  },
  {
    "name": "I743770000931",
    "convert": "jp.co.gu3.alchemist.special.pack6.1042"
  },
  {
    "name": "I743770000932",
    "convert": "jp.co.gu3.alchemist.special.pack6.1043"
  },
  {
    "name": "I743770000933",
    "convert": "jp.co.gu3.alchemist.special.pack6.1044"
  },
  {
    "name": "I743770000934",
    "convert": "jp.co.gu3.alchemist.special.pack6.1045"
  },
  {
    "name": "I743770000935",
    "convert": "jp.co.gu3.alchemist.special.pack6.1046"
  },
  {
    "name": "I743770000936",
    "convert": "jp.co.gu3.alchemist.special.pack6.1047"
  },
  {
    "name": "I743770000937",
    "convert": "jp.co.gu3.alchemist.special.pack6.1048"
  },
  {
    "name": "I743770000938",
    "convert": "jp.co.gu3.alchemist.special.pack6.1049"
  },
  {
    "name": "I743770000939",
    "convert": "jp.co.gu3.alchemist.special.pack6.1050"
  },
  {
    "name": "I743770000940",
    "convert": "jp.co.gu3.alchemist.special.pack6.1051"
  },
  {
    "name": "I743770000941",
    "convert": "jp.co.gu3.alchemist.special.pack6.1052"
  },
  {
    "name": "I743770000942",
    "convert": "jp.co.gu3.alchemist.special.pack6.1053"
  },
  {
    "name": "I743770000943",
    "convert": "jp.co.gu3.alchemist.special.pack6.1054"
  },
  {
    "name": "I743770000944",
    "convert": "jp.co.gu3.alchemist.special.pack6.1055"
  },
  {
    "name": "I743770000945",
    "convert": "jp.co.gu3.alchemist.special.pack6.1056"
  },
  {
    "name": "I743770000946",
    "convert": "jp.co.gu3.alchemist.special.pack6.1057"
  },
  {
    "name": "I743770000947",
    "convert": "jp.co.gu3.alchemist.special.pack6.1058"
  },
  {
    "name": "I743770000948",
    "convert": "jp.co.gu3.alchemist.special.pack6.1059"
  },
  {
    "name": "I743770000949",
    "convert": "jp.co.gu3.alchemist.special.pack6.1060"
  },
  {
    "name": "I743770000950",
    "convert": "jp.co.gu3.alchemist.special.pack7.1001"
  },
  {
    "name": "I743770000951",
    "convert": "jp.co.gu3.alchemist.special.pack7.1002"
  },
  {
    "name": "I743770000952",
    "convert": "jp.co.gu3.alchemist.special.pack7.1003"
  },
  {
    "name": "I743770000953",
    "convert": "jp.co.gu3.alchemist.special.pack7.1004"
  },
  {
    "name": "I743770000954",
    "convert": "jp.co.gu3.alchemist.special.pack7.1005"
  },
  {
    "name": "I743770000955",
    "convert": "jp.co.gu3.alchemist.special.pack7.1006"
  },
  {
    "name": "I743770000956",
    "convert": "jp.co.gu3.alchemist.special.pack7.1007"
  },
  {
    "name": "I743770000957",
    "convert": "jp.co.gu3.alchemist.special.pack7.1008"
  },
  {
    "name": "I743770000958",
    "convert": "jp.co.gu3.alchemist.special.pack7.1009"
  },
  {
    "name": "I743770000959",
    "convert": "jp.co.gu3.alchemist.special.pack7.1010"
  },
  {
    "name": "I743770000960",
    "convert": "jp.co.gu3.alchemist.special.pack7.1011"
  },
  {
    "name": "I743770000961",
    "convert": "jp.co.gu3.alchemist.special.pack7.1012"
  },
  {
    "name": "I743770000962",
    "convert": "jp.co.gu3.alchemist.special.pack7.1013"
  },
  {
    "name": "I743770000963",
    "convert": "jp.co.gu3.alchemist.special.pack7.1014"
  },
  {
    "name": "I743770000964",
    "convert": "jp.co.gu3.alchemist.special.pack7.1015"
  },
  {
    "name": "I743770000965",
    "convert": "jp.co.gu3.alchemist.special.pack7.1016"
  },
  {
    "name": "I743770000966",
    "convert": "jp.co.gu3.alchemist.special.pack7.1017"
  },
  {
    "name": "I743770000967",
    "convert": "jp.co.gu3.alchemist.special.pack7.1018"
  },
  {
    "name": "I743770000968",
    "convert": "jp.co.gu3.alchemist.special.pack7.1019"
  },
  {
    "name": "I743770000969",
    "convert": "jp.co.gu3.alchemist.special.pack7.1020"
  },
  {
    "name": "I743770000970",
    "convert": "jp.co.gu3.alchemist.step.pack1.1001"
  },
  {
    "name": "I743770000971",
    "convert": "jp.co.gu3.alchemist.step.pack1.1002"
  },
  {
    "name": "I743770000972",
    "convert": "jp.co.gu3.alchemist.step.pack1.1003"
  },
  {
    "name": "I743770000973",
    "convert": "jp.co.gu3.alchemist.step.pack1.1004"
  },
  {
    "name": "I743770000974",
    "convert": "jp.co.gu3.alchemist.step.pack1.1005"
  },
  {
    "name": "I743770000975",
    "convert": "jp.co.gu3.alchemist.step.pack1.1006"
  },
  {
    "name": "I743770000976",
    "convert": "jp.co.gu3.alchemist.step.pack1.1007"
  },
  {
    "name": "I743770000977",
    "convert": "jp.co.gu3.alchemist.step.pack1.1008"
  },
  {
    "name": "I743770000978",
    "convert": "jp.co.gu3.alchemist.step.pack1.1009"
  },
  {
    "name": "I743770000979",
    "convert": "jp.co.gu3.alchemist.step.pack1.1010"
  },
  {
    "name": "I743770000980",
    "convert": "jp.co.gu3.alchemist.step.pack2.1001"
  },
  {
    "name": "I743770000981",
    "convert": "jp.co.gu3.alchemist.step.pack2.1002"
  },
  {
    "name": "I743770000982",
    "convert": "jp.co.gu3.alchemist.step.pack2.1003"
  },
  {
    "name": "I743770000983",
    "convert": "jp.co.gu3.alchemist.step.pack2.1004"
  },
  {
    "name": "I743770000984",
    "convert": "jp.co.gu3.alchemist.step.pack2.1005"
  },
  {
    "name": "I743770000985",
    "convert": "jp.co.gu3.alchemist.step.pack2.1006"
  },
  {
    "name": "I743770000986",
    "convert": "jp.co.gu3.alchemist.step.pack2.1007"
  },
  {
    "name": "I743770000987",
    "convert": "jp.co.gu3.alchemist.step.pack2.1008"
  },
  {
    "name": "I743770000988",
    "convert": "jp.co.gu3.alchemist.step.pack2.1009"
  },
  {
    "name": "I743770000989",
    "convert": "jp.co.gu3.alchemist.step.pack2.1010"
  },
  {
    "name": "I743770000990",
    "convert": "jp.co.gu3.alchemist.step.pack3.1001"
  },
  {
    "name": "I743770000991",
    "convert": "jp.co.gu3.alchemist.step.pack3.1002"
  },
  {
    "name": "I743770000992",
    "convert": "jp.co.gu3.alchemist.step.pack3.1003"
  },
  {
    "name": "I743770000993",
    "convert": "jp.co.gu3.alchemist.step.pack3.1004"
  },
  {
    "name": "I743770000994",
    "convert": "jp.co.gu3.alchemist.step.pack3.1005"
  },
  {
    "name": "I743770000995",
    "convert": "jp.co.gu3.alchemist.step.pack3.1006"
  },
  {
    "name": "I743770000996",
    "convert": "jp.co.gu3.alchemist.step.pack3.1007"
  },
  {
    "name": "I743770000997",
    "convert": "jp.co.gu3.alchemist.step.pack3.1008"
  },
  {
    "name": "I743770000998",
    "convert": "jp.co.gu3.alchemist.step.pack3.1009"
  },
  {
    "name": "I743770000999",
    "convert": "jp.co.gu3.alchemist.step.pack3.1010"
  },
  {
    "name": "I743770001000",
    "convert": "jp.co.gu3.alchemist.step.pack4.1001"
  },
  {
    "name": "I743770001001",
    "convert": "jp.co.gu3.alchemist.step.pack4.1002"
  },
  {
    "name": "I743770001002",
    "convert": "jp.co.gu3.alchemist.step.pack4.1003"
  },
  {
    "name": "I743770001003",
    "convert": "jp.co.gu3.alchemist.step.pack4.1004"
  },
  {
    "name": "I743770001004",
    "convert": "jp.co.gu3.alchemist.step.pack4.1005"
  },
  {
    "name": "I743770001005",
    "convert": "jp.co.gu3.alchemist.step.pack4.1006"
  },
  {
    "name": "I743770001006",
    "convert": "jp.co.gu3.alchemist.step.pack4.1007"
  },
  {
    "name": "I743770001007",
    "convert": "jp.co.gu3.alchemist.step.pack4.1008"
  },
  {
    "name": "I743770001008",
    "convert": "jp.co.gu3.alchemist.step.pack4.1009"
  },
  {
    "name": "I743770001009",
    "convert": "jp.co.gu3.alchemist.step.pack4.1010"
  },
  {
    "name": "I743770001010",
    "convert": "jp.co.gu3.alchemist.step.pack5.1001"
  },
  {
    "name": "I743770001011",
    "convert": "jp.co.gu3.alchemist.step.pack5.1002"
  },
  {
    "name": "I743770001012",
    "convert": "jp.co.gu3.alchemist.step.pack5.1003"
  },
  {
    "name": "I743770001013",
    "convert": "jp.co.gu3.alchemist.step.pack5.1004"
  },
  {
    "name": "I743770001014",
    "convert": "jp.co.gu3.alchemist.step.pack5.1005"
  },
  {
    "name": "I743770001015",
    "convert": "jp.co.gu3.alchemist.step.pack5.1006"
  },
  {
    "name": "I743770001016",
    "convert": "jp.co.gu3.alchemist.step.pack5.1007"
  },
  {
    "name": "I743770001017",
    "convert": "jp.co.gu3.alchemist.step.pack5.1008"
  },
  {
    "name": "I743770001018",
    "convert": "jp.co.gu3.alchemist.step.pack5.1009"
  },
  {
    "name": "I743770001019",
    "convert": "jp.co.gu3.alchemist.step.pack5.1010"
  },
  {
    "name": "I743770001020",
    "convert": "jp.co.gu3.alchemist.step.pack6.1001"
  },
  {
    "name": "I743770001021",
    "convert": "jp.co.gu3.alchemist.step.pack6.1002"
  },
  {
    "name": "I743770001022",
    "convert": "jp.co.gu3.alchemist.step.pack6.1003"
  },
  {
    "name": "I743770001023",
    "convert": "jp.co.gu3.alchemist.step.pack6.1004"
  },
  {
    "name": "I743770001024",
    "convert": "jp.co.gu3.alchemist.step.pack6.1005"
  },
  {
    "name": "I743770001025",
    "convert": "jp.co.gu3.alchemist.step.pack6.1006"
  },
  {
    "name": "I743770001026",
    "convert": "jp.co.gu3.alchemist.step.pack6.1007"
  },
  {
    "name": "I743770001027",
    "convert": "jp.co.gu3.alchemist.step.pack6.1008"
  },
  {
    "name": "I743770001028",
    "convert": "jp.co.gu3.alchemist.step.pack6.1009"
  },
  {
    "name": "I743770001029",
    "convert": "jp.co.gu3.alchemist.step.pack6.1010"
  },
  {
    "name": "I743770001030",
    "convert": "jp.co.gu3.alchemist.step.pack7.1001"
  },
  {
    "name": "I743770001031",
    "convert": "jp.co.gu3.alchemist.step.pack7.1002"
  },
  {
    "name": "I743770001032",
    "convert": "jp.co.gu3.alchemist.step.pack7.1003"
  },
  {
    "name": "I743770001033",
    "convert": "jp.co.gu3.alchemist.step.pack7.1004"
  },
  {
    "name": "I743770001034",
    "convert": "jp.co.gu3.alchemist.step.pack7.1005"
  },
  {
    "name": "I743770001035",
    "convert": "jp.co.gu3.alchemist.step.pack7.1006"
  },
  {
    "name": "I743770001036",
    "convert": "jp.co.gu3.alchemist.step.pack7.1007"
  },
  {
    "name": "I743770001037",
    "convert": "jp.co.gu3.alchemist.step.pack7.1008"
  },
  {
    "name": "I743770001038",
    "convert": "jp.co.gu3.alchemist.step.pack7.1009"
  },
  {
    "name": "I743770001039",
    "convert": "jp.co.gu3.alchemist.step.pack7.1010"
  }
]