[
  0,
  882,
  1147,
  1487,
  1940,
  2520,
  3276,
  4259,
  5531,
  7195,
  8631,
  10357,
  12436,
  14918,
  17905,
  21483,
  25780,
  30933,
  37120,
  44554,
  49001,
  53903,
  59296,
  65218,
  71744,
  78914,
  86814,
  95495,
  105046,
  115542,
  127096,
  139810,
  153796,
  169168,
  186089,
  204700,
  225162,
  247678,
  272450,
  299691,
  329666,
  362628,
  398891,
  438782,
  482668,
  530926,
  584023,
  642424,
  706671,
  777332,
  855074,
  940577,
  1034636,
  1138095,
  1251911,
  1377092,
  1514810,
  1666287,
  1832922,
  2016202,
  2217827,
  2439612,
  2683573,
  2951928,
  3247121,
  3571835,
  3929020,
  4321926,
  4754119,
  5229529,
  5752480,
  6327720,
  6960492,
  7656541,
  8422205,
  9264415,
  10190867,
  11209943,
  12330940,
  13564039,
  14920441,
  16412483,
  18053734,
  19859112,
  21845023,
  24029523,
  26432469,
  29075722,
  31983286,
  35181619,
  38699779,
  42569755,
  46826741,
  51509405,
  56660348,
  62326379,
  68559019,
  75414931,
  82956422,
  91252060
]