[
  {
    "iname": "CT_ADD_LIMIT_HP",
    "limit_up_params": [
      {
        "type": 2,
        "value": 300,
        "calc": 0
      }
    ]
  },
  {
    "iname": "CT_ADD_LIMIT_ATK",
    "limit_up_params": [
      {
        "type": 5,
        "value": 50,
        "calc": 0
      }
    ]
  },
  {
    "iname": "CT_ADD_LIMIT_DEF",
    "limit_up_params": [
      {
        "type": 6,
        "value": 50,
        "calc": 0
      }
    ]
  },
  {
    "iname": "CT_ADD_LIMIT_MAG",
    "limit_up_params": [
      {
        "type": 7,
        "value": 50,
        "calc": 0
      }
    ]
  },
  {
    "iname": "CT_ADD_LIMIT_MDEF",
    "limit_up_params": [
      {
        "type": 8,
        "value": 50,
        "calc": 0
      }
    ]
  },
  {
    "iname": "CT_ADD_LIMIT_DEX",
    "limit_up_params": [
      {
        "type": 10,
        "value": 50,
        "calc": 0
      }
    ]
  },
  {
    "iname": "CT_ADD_LIMIT_CRI",
    "limit_up_params": [
      {
        "type": 12,
        "value": 50,
        "calc": 0
      }
    ]
  },
  {
    "iname": "CT_ADD_LIMIT_LUCK",
    "limit_up_params": [
      {
        "type": 13,
        "value": 50,
        "calc": 0
      }
    ]
  }
]