[
  {
    "iname": "FILTER_ARTI_RARITY",
    "tab_name": "フィルタ",
    "name": "レアリティ",
    "category_type": 1,
    "cnds": [
      {
        "cnds_name": "RARE1",
        "filter_type": 1,
        "name": "レア1",
        "rarity": 0
      },
      {
        "cnds_name": "RARE2",
        "filter_type": 1,
        "name": "レア2",
        "rarity": 1
      },
      {
        "cnds_name": "RARE3",
        "filter_type": 1,
        "name": "レア3",
        "rarity": 2
      },
      {
        "cnds_name": "RARE4",
        "filter_type": 1,
        "name": "レア4",
        "rarity": 3
      },
      {
        "cnds_name": "RARE5",
        "filter_type": 1,
        "name": "レア5",
        "rarity": 4
      }
    ]
  },
  {
    "iname": "FILTER_ARTI_EQUIP",
    "tab_name": "フィルタ",
    "name": "装備箇所",
    "category_type": 2,
    "cnds": [
      {
        "cnds_name": "ARMS",
        "filter_type": 2,
        "name": "武器",
        "equip_type": 1
      },
      {
        "cnds_name": "ARMOR",
        "filter_type": 2,
        "name": "防具",
        "equip_type": 2
      },
      {
        "cnds_name": "ACCESSORY",
        "filter_type": 2,
        "name": "アクセサリー",
        "equip_type": 3
      }
    ]
  },
  {
    "iname": "FILTER_ARTI_HAVE_01",
    "tab_name": "フィルタ",
    "name": "お気に入り",
    "category_type": 5,
    "cnds": [
      {
        "cnds_name": "FAVORITE",
        "filter_type": 5,
        "name": "お気に入り",
        "is_have": 1
      },
      {
        "cnds_name": "NOT_FAVORITE",
        "filter_type": 5,
        "name": "お気に入り以外"
      }
    ]
  },
  {
    "iname": "FILTER_ARTI_HAVE_02",
    "tab_name": "フィルタ",
    "name": "武具装備",
    "category_type": 5,
    "cnds": [
      {
        "cnds_name": "EQUIP",
        "filter_type": 6,
        "name": "装備済み",
        "is_have": 1
      },
      {
        "cnds_name": "NOT_EQUIP",
        "filter_type": 6,
        "name": "未装備"
      }
    ]
  },
  {
    "iname": "FILTER_ARTI_HAVE_03",
    "tab_name": "フィルタ",
    "name": "ウェポンアビリティ",
    "category_type": 5,
    "cnds": [
      {
        "cnds_name": "HAVE_WA",
        "filter_type": 7,
        "name": "ウェポンアビリティあり",
        "is_have": 1
      },
      {
        "cnds_name": "NOT_WA",
        "filter_type": 7,
        "name": "ウェポンアビリティなし"
      }
    ]
  },
  {
    "iname": "FILTER_ARTI_HAVE_04",
    "tab_name": "フィルタ",
    "name": "開眼スキル",
    "category_type": 5,
    "cnds": [
      {
        "cnds_name": "HAVE_INSP",
        "filter_type": 8,
        "name": "開眼スキルあり",
        "is_have": 1
      },
      {
        "cnds_name": "NOT_INSP",
        "filter_type": 8,
        "name": "開眼スキルなし"
      }
    ]
  },
  {
    "iname": "FILTER_ARTI_TYPE",
    "tab_name": "武具種",
    "name": "武具種",
    "category_type": 3,
    "cnds": [
      {
        "cnds_name": "SWORD",
        "filter_type": 3,
        "name": "剣",
        "arms_type": [
          "剣"
        ]
      },
      {
        "cnds_name": "LARGE_SWORD",
        "filter_type": 3,
        "name": "大剣",
        "arms_type": [
          "大剣"
        ]
      },
      {
        "cnds_name": "BLADE",
        "filter_type": 3,
        "name": "刀",
        "arms_type": [
          "刀"
        ]
      },
      {
        "cnds_name": "HALBERD",
        "filter_type": 3,
        "name": "薙刀",
        "arms_type": [
          "薙刀"
        ]
      },
      {
        "cnds_name": "DAGGER",
        "filter_type": 3,
        "name": "短剣",
        "arms_type": [
          "短剣"
        ]
      },
      {
        "cnds_name": "WED_SWORD",
        "filter_type": 3,
        "name": "ブライダルソード",
        "arms_type": [
          "ブライダルソード"
        ]
      },
      {
        "cnds_name": "SABER",
        "filter_type": 3,
        "name": "サーベル",
        "arms_type": [
          "サーベル"
        ]
      },
      {
        "cnds_name": "AXE",
        "filter_type": 3,
        "name": "斧",
        "arms_type": [
          "斧"
        ]
      },
      {
        "cnds_name": "HAMMER",
        "filter_type": 3,
        "name": "ハンマー",
        "arms_type": [
          "ハンマー"
        ]
      },
      {
        "cnds_name": "KUNAI",
        "filter_type": 3,
        "name": "クナイ",
        "arms_type": [
          "クナイ"
        ]
      },
      {
        "cnds_name": "TWIN_SWORD",
        "filter_type": 3,
        "name": "双剣",
        "arms_type": [
          "双剣"
        ]
      },
      {
        "cnds_name": "LANCE",
        "filter_type": 3,
        "name": "ランス",
        "arms_type": [
          "ランス"
        ]
      },
      {
        "cnds_name": "CHAKRAM",
        "filter_type": 3,
        "name": "チャクラム",
        "arms_type": [
          "チャクラム"
        ]
      },
      {
        "cnds_name": "SPEAR",
        "filter_type": 3,
        "name": "槍",
        "arms_type": [
          "槍"
        ]
      },
      {
        "cnds_name": "BOW",
        "filter_type": 3,
        "name": "弓",
        "arms_type": [
          "弓"
        ]
      },
      {
        "cnds_name": "GUN",
        "filter_type": 3,
        "name": "銃",
        "arms_type": [
          "銃"
        ]
      },
      {
        "cnds_name": "RIFLE",
        "filter_type": 3,
        "name": "長銃",
        "arms_type": [
          "長銃"
        ]
      },
      {
        "cnds_name": "LAUNCHER",
        "filter_type": 3,
        "name": "ロケットランチャー",
        "arms_type": [
          "ロケットランチャー"
        ]
      },
      {
        "cnds_name": "GLOBE",
        "filter_type": 3,
        "name": "グローブ",
        "arms_type": [
          "グローブ"
        ]
      },
      {
        "cnds_name": "CLAW",
        "filter_type": 3,
        "name": "爪",
        "arms_type": [
          "爪"
        ]
      },
      {
        "cnds_name": "CANE",
        "filter_type": 3,
        "name": "杖",
        "arms_type": [
          "杖"
        ]
      },
      {
        "cnds_name": "PURIFY_STICK",
        "filter_type": 3,
        "name": "御祓棒",
        "arms_type": [
          "御祓棒"
        ]
      },
      {
        "cnds_name": "THROW",
        "filter_type": 3,
        "name": "カード",
        "arms_type": [
          "カード"
        ]
      },
      {
        "cnds_name": "MEDICINE_BOTTLE",
        "filter_type": 3,
        "name": "フラスコ",
        "arms_type": [
          "フラスコ"
        ]
      },
      {
        "cnds_name": "MUSICAL",
        "filter_type": 3,
        "name": "弦楽器",
        "arms_type": [
          "弦楽器"
        ]
      },
      {
        "cnds_name": "CANE_SWORD",
        "filter_type": 3,
        "name": "杖剣",
        "arms_type": [
          "杖剣"
        ]
      },
      {
        "cnds_name": "GUN_LANCE",
        "filter_type": 3,
        "name": "ガンランス",
        "arms_type": [
          "ガンランス"
        ]
      },
      {
        "cnds_name": "CANNON",
        "filter_type": 3,
        "name": "大砲",
        "arms_type": [
          "大砲"
        ]
      },
      {
        "cnds_name": "TACT",
        "filter_type": 3,
        "name": "タクト",
        "arms_type": [
          "タクト"
        ]
      },
      {
        "cnds_name": "GEOMANCY",
        "filter_type": 3,
        "name": "風水盤",
        "arms_type": [
          "風水盤"
        ]
      },
      {
        "cnds_name": "GLOVE",
        "filter_type": 3,
        "name": "手袋",
        "arms_type": [
          "手袋"
        ]
      },
      {
        "cnds_name": "ORB",
        "filter_type": 3,
        "name": "オーブ",
        "arms_type": [
          "オーブ"
        ]
      },
      {
        "cnds_name": "DSAVER",
        "filter_type": 3,
        "name": "双鋭刃",
        "arms_type": [
          "双鋭刃"
        ]
      },
      {
        "cnds_name": "FLAIL",
        "filter_type": 3,
        "name": "フレイル",
        "arms_type": [
          "フレイル"
        ]
      },
      {
        "cnds_name": "MECH",
        "filter_type": 3,
        "name": "機工",
        "arms_type": [
          "機工"
        ]
      },
      {
        "cnds_name": "MACE",
        "filter_type": 3,
        "name": "メイス",
        "arms_type": [
          "メイス"
        ]
      },
      {
        "cnds_name": "OTHER",
        "filter_type": 3,
        "name": "その他",
        "arms_type": [
          "台本"
        ]
      }
    ]
  },
  {
    "iname": "FILTER_ARTI_STATUS1",
    "tab_name": "能力",
    "sub_name": "基礎ステータス",
    "category_type": 4,
    "cnds": [
      {
        "cnds_name": "STATUS1",
        "filter_type": 4,
        "name": "HP",
        "param_types": [
          1
        ]
      },
      {
        "cnds_name": "STATUS2",
        "filter_type": 4,
        "name": "物攻",
        "param_types": [
          5
        ]
      },
      {
        "cnds_name": "STATUS3",
        "filter_type": 4,
        "name": "物防",
        "param_types": [
          6
        ]
      },
      {
        "cnds_name": "STATUS4",
        "filter_type": 4,
        "name": "魔攻",
        "param_types": [
          7
        ]
      },
      {
        "cnds_name": "STATUS5",
        "filter_type": 4,
        "name": "魔防",
        "param_types": [
          8
        ]
      },
      {
        "cnds_name": "STATUS6",
        "filter_type": 4,
        "name": "器用さ",
        "param_types": [
          10
        ]
      },
      {
        "cnds_name": "STATUS7",
        "filter_type": 4,
        "name": "素早さ",
        "param_types": [
          11
        ]
      },
      {
        "cnds_name": "STATUS8",
        "filter_type": 4,
        "name": "会心",
        "param_types": [
          12
        ]
      },
      {
        "cnds_name": "STATUS9",
        "filter_type": 4,
        "name": "運",
        "param_types": [
          13
        ]
      },
      {
        "cnds_name": "STATUS10",
        "filter_type": 4,
        "name": "移動力",
        "param_types": [
          14
        ]
      },
      {
        "cnds_name": "STATUS11",
        "filter_type": 4,
        "name": "クリティカル率",
        "param_types": [
          81
        ]
      },
      {
        "cnds_name": "STATUS12",
        "filter_type": 4,
        "name": "移動高低差",
        "param_types": [
          15
        ]
      },
      {
        "cnds_name": "STATUS13",
        "filter_type": 4,
        "name": "命中率",
        "param_types": [
          79
        ]
      },
      {
        "cnds_name": "STATUS14",
        "filter_type": 4,
        "name": "回避率",
        "param_types": [
          80
        ]
      },
      {
        "cnds_name": "STATUS15",
        "filter_type": 4,
        "name": "治癒力",
        "param_types": [
          9
        ]
      },
      {
        "cnds_name": "STATUS16",
        "filter_type": 4,
        "name": "ガッツ",
        "param_types": [
          92
        ]
      },
      {
        "cnds_name": "STATUS17",
        "filter_type": 4,
        "name": "最大ジュエル",
        "param_types": [
          3
        ]
      },
      {
        "cnds_name": "STATUS18",
        "filter_type": 4,
        "name": "初期ジュエル",
        "param_types": [
          4
        ]
      },
      {
        "cnds_name": "STATUS19",
        "filter_type": 4,
        "name": "ジュエル自動回復",
        "param_types": [
          93
        ]
      },
      {
        "cnds_name": "STATUS20",
        "filter_type": 4,
        "name": "ジュエル獲得量",
        "param_types": [
          82
        ]
      },
      {
        "cnds_name": "STATUS21",
        "filter_type": 4,
        "name": "ジュエル消費量",
        "param_types": [
          83
        ]
      }
    ]
  },
  {
    "iname": "FILTER_ARTI_STATUS2",
    "tab_name": "能力",
    "sub_name": "攻撃補正",
    "category_type": 4,
    "cnds": [
      {
        "cnds_name": "STATUS22",
        "filter_type": 4,
        "name": "単体攻撃力",
        "param_types": [
          123
        ]
      },
      {
        "cnds_name": "STATUS23",
        "filter_type": 4,
        "name": "範囲攻撃力",
        "param_types": [
          124
        ]
      },
      {
        "cnds_name": "STATUS24",
        "filter_type": 4,
        "name": "無区分攻撃力",
        "param_types": [
          161
        ]
      },
      {
        "cnds_name": "STATUS25",
        "filter_type": 4,
        "name": "斬撃攻撃力",
        "param_types": [
          85
        ]
      },
      {
        "cnds_name": "STATUS26",
        "filter_type": 4,
        "name": "刺突攻撃力",
        "param_types": [
          86
        ]
      },
      {
        "cnds_name": "STATUS27",
        "filter_type": 4,
        "name": "打撃攻撃力",
        "param_types": [
          87
        ]
      },
      {
        "cnds_name": "STATUS28",
        "filter_type": 4,
        "name": "射撃攻撃力",
        "param_types": [
          88
        ]
      },
      {
        "cnds_name": "STATUS29",
        "filter_type": 4,
        "name": "魔法攻撃力",
        "param_types": [
          89
        ]
      },
      {
        "cnds_name": "STATUS30",
        "filter_type": 4,
        "name": "ジャンプ攻撃力",
        "param_types": [
          91
        ]
      },
      {
        "cnds_name": "STATUS31",
        "filter_type": 4,
        "name": "反撃攻撃力",
        "param_types": [
          90
        ]
      },
      {
        "cnds_name": "STATUS32",
        "filter_type": 4,
        "name": "クリティカルダメージ補正",
        "param_types": [
          160
        ]
      }
    ]
  },
  {
    "iname": "FILTER_ARTI_STATUS3",
    "tab_name": "能力",
    "sub_name": "攻撃耐性",
    "category_type": 4,
    "cnds": [
      {
        "cnds_name": "STATUS33",
        "filter_type": 4,
        "name": "単体攻撃耐性",
        "param_types": [
          125
        ]
      },
      {
        "cnds_name": "STATUS34",
        "filter_type": 4,
        "name": "範囲攻撃耐性",
        "param_types": [
          126
        ]
      },
      {
        "cnds_name": "STATUS35",
        "filter_type": 4,
        "name": "無区分耐性",
        "param_types": [
          162
        ]
      },
      {
        "cnds_name": "STATUS36",
        "filter_type": 4,
        "name": "斬撃耐性",
        "param_types": [
          107
        ]
      },
      {
        "cnds_name": "STATUS37",
        "filter_type": 4,
        "name": "刺突耐性",
        "param_types": [
          108
        ]
      },
      {
        "cnds_name": "STATUS38",
        "filter_type": 4,
        "name": "打撃耐性",
        "param_types": [
          109
        ]
      },
      {
        "cnds_name": "STATUS39",
        "filter_type": 4,
        "name": "射撃耐性",
        "param_types": [
          110
        ]
      },
      {
        "cnds_name": "STATUS40",
        "filter_type": 4,
        "name": "魔法耐性",
        "param_types": [
          111
        ]
      },
      {
        "cnds_name": "STATUS41",
        "filter_type": 4,
        "name": "ジャンプ耐性",
        "param_types": [
          113
        ]
      },
      {
        "cnds_name": "STATUS42",
        "filter_type": 4,
        "name": "反撃耐性",
        "param_types": [
          112
        ]
      }
    ]
  },
  {
    "iname": "FILTER_ARTI_STATUS4",
    "tab_name": "能力",
    "sub_name": "区分回避率",
    "category_type": 4,
    "cnds": [
      {
        "cnds_name": "STATUS43",
        "filter_type": 4,
        "name": "無区分回避率",
        "param_types": [
          163
        ]
      },
      {
        "cnds_name": "STATUS44",
        "filter_type": 4,
        "name": "斬撃回避率",
        "param_types": [
          114
        ]
      },
      {
        "cnds_name": "STATUS45",
        "filter_type": 4,
        "name": "刺突回避率",
        "param_types": [
          115
        ]
      },
      {
        "cnds_name": "STATUS46",
        "filter_type": 4,
        "name": "打撃回避率",
        "param_types": [
          116
        ]
      },
      {
        "cnds_name": "STATUS47",
        "filter_type": 4,
        "name": "射撃回避率",
        "param_types": [
          117
        ]
      },
      {
        "cnds_name": "STATUS48",
        "filter_type": 4,
        "name": "魔法回避率",
        "param_types": [
          118
        ]
      },
      {
        "cnds_name": "STATUS49",
        "filter_type": 4,
        "name": "反撃回避率",
        "param_types": [
          119
        ]
      },
      {
        "cnds_name": "STATUS50",
        "filter_type": 4,
        "name": "ジャンプ回避率",
        "param_types": [
          120
        ]
      }
    ]
  },
  {
    "iname": "FILTER_ARTI_STATUS5",
    "tab_name": "能力",
    "sub_name": "各属性ユニットの全攻撃",
    "category_type": 4,
    "cnds": [
      {
        "cnds_name": "STATUS51",
        "filter_type": 4,
        "name": "火属性ユニットの全攻撃",
        "param_types": [
          19
        ]
      },
      {
        "cnds_name": "STATUS52",
        "filter_type": 4,
        "name": "水属性ユニットの全攻撃",
        "param_types": [
          20
        ]
      },
      {
        "cnds_name": "STATUS53",
        "filter_type": 4,
        "name": "風属性ユニットの全攻撃",
        "param_types": [
          21
        ]
      },
      {
        "cnds_name": "STATUS54",
        "filter_type": 4,
        "name": "雷属性ユニットの全攻撃",
        "param_types": [
          22
        ]
      },
      {
        "cnds_name": "STATUS55",
        "filter_type": 4,
        "name": "光属性ユニットの全攻撃",
        "param_types": [
          23
        ]
      },
      {
        "cnds_name": "STATUS56",
        "filter_type": 4,
        "name": "闇属性ユニットの全攻撃",
        "param_types": [
          24
        ]
      }
    ]
  },
  {
    "iname": "FILTER_ARTI_STATUS6",
    "tab_name": "能力",
    "sub_name": "各属性ユニットの全防御",
    "category_type": 4,
    "cnds": [
      {
        "cnds_name": "STATUS57",
        "filter_type": 4,
        "name": "火属性ユニットの全防御",
        "param_types": [
          143
        ]
      },
      {
        "cnds_name": "STATUS58",
        "filter_type": 4,
        "name": "水属性ユニットの全防御",
        "param_types": [
          144
        ]
      },
      {
        "cnds_name": "STATUS59",
        "filter_type": 4,
        "name": "風属性ユニットの全防御",
        "param_types": [
          145
        ]
      },
      {
        "cnds_name": "STATUS60",
        "filter_type": 4,
        "name": "雷属性ユニットの全防御",
        "param_types": [
          146
        ]
      },
      {
        "cnds_name": "STATUS61",
        "filter_type": 4,
        "name": "光属性ユニットの全防御",
        "param_types": [
          147
        ]
      },
      {
        "cnds_name": "STATUS62",
        "filter_type": 4,
        "name": "闇属性ユニットの全防御",
        "param_types": [
          148
        ]
      }
    ]
  },
  {
    "iname": "FILTER_ARTI_STATUS7",
    "tab_name": "能力",
    "sub_name": "各属性特効補正",
    "category_type": 4,
    "cnds": [
      {
        "cnds_name": "STATUS63",
        "filter_type": 4,
        "name": "火属性特効補正",
        "param_types": [
          131
        ]
      },
      {
        "cnds_name": "STATUS64",
        "filter_type": 4,
        "name": "水属性特効補正",
        "param_types": [
          132
        ]
      },
      {
        "cnds_name": "STATUS65",
        "filter_type": 4,
        "name": "風属性特効補正",
        "param_types": [
          133
        ]
      },
      {
        "cnds_name": "STATUS66",
        "filter_type": 4,
        "name": "雷属性特効補正",
        "param_types": [
          134
        ]
      },
      {
        "cnds_name": "STATUS67",
        "filter_type": 4,
        "name": "光属性特効補正",
        "param_types": [
          135
        ]
      },
      {
        "cnds_name": "STATUS68",
        "filter_type": 4,
        "name": "闇属性特効補正",
        "param_types": [
          136
        ]
      }
    ]
  },
  {
    "iname": "FILTER_ARTI_STATUS8",
    "tab_name": "能力",
    "sub_name": "各属性耐性",
    "category_type": 4,
    "cnds": [
      {
        "cnds_name": "STATUS69",
        "filter_type": 4,
        "name": "火属性耐性",
        "param_types": [
          49
        ]
      },
      {
        "cnds_name": "STATUS70",
        "filter_type": 4,
        "name": "水属性耐性",
        "param_types": [
          50
        ]
      },
      {
        "cnds_name": "STATUS71",
        "filter_type": 4,
        "name": "風属性耐性",
        "param_types": [
          51
        ]
      },
      {
        "cnds_name": "STATUS72",
        "filter_type": 4,
        "name": "雷属性耐性",
        "param_types": [
          52
        ]
      },
      {
        "cnds_name": "STATUS73",
        "filter_type": 4,
        "name": "光属性耐性",
        "param_types": [
          53
        ]
      },
      {
        "cnds_name": "STATUS74",
        "filter_type": 4,
        "name": "闇属性耐性",
        "param_types": [
          54
        ]
      }
    ]
  },
  {
    "iname": "FILTER_ARTI_STATUS9",
    "tab_name": "能力",
    "sub_name": "状態異常属性",
    "category_type": 4,
    "cnds": [
      {
        "cnds_name": "STATUS75",
        "filter_type": 4,
        "name": "毒属性",
        "param_types": [
          25
        ]
      },
      {
        "cnds_name": "STATUS76",
        "filter_type": 4,
        "name": "麻痺属性",
        "param_types": [
          26
        ]
      },
      {
        "cnds_name": "STATUS77",
        "filter_type": 4,
        "name": "スタン属性",
        "param_types": [
          27
        ]
      },
      {
        "cnds_name": "STATUS78",
        "filter_type": 4,
        "name": "睡眠属性",
        "param_types": [
          28
        ]
      },
      {
        "cnds_name": "STATUS79",
        "filter_type": 4,
        "name": "魅了属性",
        "param_types": [
          29
        ]
      },
      {
        "cnds_name": "STATUS80",
        "filter_type": 4,
        "name": "石化属性",
        "param_types": [
          30
        ]
      },
      {
        "cnds_name": "STATUS81",
        "filter_type": 4,
        "name": "暗闇属性",
        "param_types": [
          31
        ]
      },
      {
        "cnds_name": "STATUS82",
        "filter_type": 4,
        "name": "沈黙属性",
        "param_types": [
          32
        ]
      },
      {
        "cnds_name": "STATUS83",
        "filter_type": 4,
        "name": "死の宣告属性",
        "param_types": [
          36
        ]
      },
      {
        "cnds_name": "STATUS84",
        "filter_type": 4,
        "name": "狂化属性",
        "param_types": [
          37
        ]
      },
      {
        "cnds_name": "STATUS85",
        "filter_type": 4,
        "name": "憤怒属性",
        "param_types": [
          46
        ]
      },
      {
        "cnds_name": "STATUS86",
        "filter_type": 4,
        "name": "回復無効属性",
        "param_types": [
          105
        ]
      },
      {
        "cnds_name": "STATUS87",
        "filter_type": 4,
        "name": "補助行動禁止属性",
        "param_types": [
          191
        ]
      },
      {
        "cnds_name": "STATUS88",
        "filter_type": 4,
        "name": "移動禁止属性",
        "param_types": [
          33
        ]
      },
      {
        "cnds_name": "STATUS89",
        "filter_type": 4,
        "name": "攻撃禁止属性",
        "param_types": [
          34
        ]
      },
      {
        "cnds_name": "STATUS90",
        "filter_type": 4,
        "name": "ストップ属性",
        "param_types": [
          41
        ]
      },
      {
        "cnds_name": "STATUS91",
        "filter_type": 4,
        "name": "クロックダウン属性",
        "param_types": [
          43
        ]
      },
      {
        "cnds_name": "STATUS92",
        "filter_type": 4,
        "name": "鈍足属性",
        "param_types": [
          45
        ]
      }
    ]
  },
  {
    "iname": "FILTER_ARTI_STATUS10",
    "tab_name": "能力",
    "sub_name": "状態異常耐性",
    "category_type": 4,
    "cnds": [
      {
        "cnds_name": "STATUS93",
        "filter_type": 4,
        "name": "毒耐性",
        "param_types": [
          55
        ]
      },
      {
        "cnds_name": "STATUS94",
        "filter_type": 4,
        "name": "麻痺耐性",
        "param_types": [
          56
        ]
      },
      {
        "cnds_name": "STATUS95",
        "filter_type": 4,
        "name": "スタン耐性",
        "param_types": [
          57
        ]
      },
      {
        "cnds_name": "STATUS96",
        "filter_type": 4,
        "name": "睡眠耐性",
        "param_types": [
          58
        ]
      },
      {
        "cnds_name": "STATUS97",
        "filter_type": 4,
        "name": "魅了耐性",
        "param_types": [
          59
        ]
      },
      {
        "cnds_name": "STATUS98",
        "filter_type": 4,
        "name": "石化耐性",
        "param_types": [
          60
        ]
      },
      {
        "cnds_name": "STATUS99",
        "filter_type": 4,
        "name": "暗闇耐性",
        "param_types": [
          61
        ]
      },
      {
        "cnds_name": "STATUS100",
        "filter_type": 4,
        "name": "沈黙耐性",
        "param_types": [
          62
        ]
      },
      {
        "cnds_name": "STATUS101",
        "filter_type": 4,
        "name": "死の宣告耐性",
        "param_types": [
          66
        ]
      },
      {
        "cnds_name": "STATUS102",
        "filter_type": 4,
        "name": "狂化耐性",
        "param_types": [
          67
        ]
      },
      {
        "cnds_name": "STATUS103",
        "filter_type": 4,
        "name": "憤怒耐性",
        "param_types": [
          76
        ]
      },
      {
        "cnds_name": "STATUS104",
        "filter_type": 4,
        "name": "回復無効耐性",
        "param_types": [
          106
        ]
      },
      {
        "cnds_name": "STATUS105",
        "filter_type": 4,
        "name": "補助行動禁止耐性",
        "param_types": [
          192
        ]
      },
      {
        "cnds_name": "STATUS106",
        "filter_type": 4,
        "name": "移動禁止耐性",
        "param_types": [
          63
        ]
      },
      {
        "cnds_name": "STATUS107",
        "filter_type": 4,
        "name": "攻撃禁止耐性",
        "param_types": [
          64
        ]
      },
      {
        "cnds_name": "STATUS108",
        "filter_type": 4,
        "name": "ストップ耐性",
        "param_types": [
          71
        ]
      },
      {
        "cnds_name": "STATUS109",
        "filter_type": 4,
        "name": "クロックダウン耐性",
        "param_types": [
          73
        ]
      },
      {
        "cnds_name": "STATUS110",
        "filter_type": 4,
        "name": "鈍足耐性",
        "param_types": [
          75
        ]
      }
    ]
  },
  {
    "iname": "FILTER_ARTI_STATUS11",
    "tab_name": "能力",
    "sub_name": "デバフ軽減",
    "category_type": 4,
    "cnds": [
      {
        "cnds_name": "STATUS111",
        "filter_type": 4,
        "name": "物攻デバフ軽減",
        "param_types": [
          177
        ]
      },
      {
        "cnds_name": "STATUS112",
        "filter_type": 4,
        "name": "物防デバフ軽減",
        "param_types": [
          178
        ]
      },
      {
        "cnds_name": "STATUS113",
        "filter_type": 4,
        "name": "魔攻デバフ軽減",
        "param_types": [
          179
        ]
      },
      {
        "cnds_name": "STATUS114",
        "filter_type": 4,
        "name": "魔防デバフ軽減",
        "param_types": [
          180
        ]
      },
      {
        "cnds_name": "STATUS115",
        "filter_type": 4,
        "name": "素早さデバフ軽減",
        "param_types": [
          183
        ]
      }
    ]
  },
  {
    "iname": "FILTER_ARTI_STATUS12",
    "tab_name": "能力",
    "sub_name": "アルケミィエフェクト耐性",
    "category_type": 4,
    "cnds": [
      {
        "cnds_name": "STATUS116",
        "filter_type": 4,
        "name": "《アルケミィオーバー》耐性",
        "param_types": [
          194
        ]
      },
      {
        "cnds_name": "STATUS117",
        "filter_type": 4,
        "name": "《アルケミィクラッシュ》耐性",
        "param_types": [
          196
        ]
      },
      {
        "cnds_name": "STATUS118",
        "filter_type": 4,
        "name": "《アルケミィフリーズ》耐性",
        "param_types": [
          198
        ]
      },
      {
        "cnds_name": "STATUS119",
        "filter_type": 4,
        "name": "《アルケミィダウン》耐性",
        "param_types": [
          200
        ]
      }
    ]
  }
]