[
  {
    "iname": "GUILDEMBLEM_00001",
    "name": "紋章1",
    "image": "extra00001",
    "start_at": "2017/01/28",
    "end_at": "2119/01/28"
  },
  {
    "iname": "GUILDEMBLEM_00002",
    "name": "紋章2",
    "image": "extra00002",
    "start_at": "2017/01/28",
    "end_at": "2119/01/28"
  },
  {
    "iname": "GUILDEMBLEM_00003",
    "name": "紋章3",
    "image": "extra00003",
    "start_at": "2017/01/28",
    "end_at": "2119/01/28"
  },
  {
    "iname": "GUILDEMBLEM_00004",
    "name": "紋章4",
    "image": "extra00004",
    "start_at": "2017/01/28",
    "end_at": "2119/01/28"
  },
  {
    "iname": "GUILDEMBLEM_00005",
    "name": "紋章5",
    "image": "extra00005",
    "start_at": "2017/01/28",
    "end_at": "2119/01/28"
  },
  {
    "iname": "GUILDEMBLEM_00006",
    "name": "紋章6",
    "image": "extra00006",
    "start_at": "2017/01/28",
    "end_at": "2119/01/28"
  },
  {
    "iname": "GUILDEMBLEM_00007",
    "name": "紋章7",
    "image": "extra00007",
    "start_at": "2017/01/28",
    "end_at": "2119/01/28"
  },
  {
    "iname": "GUILDEMBLEM_00008",
    "name": "紋章8",
    "cnds_type": 1,
    "image": "extra00008",
    "start_at": "2017/01/28",
    "end_at": "2119/01/28"
  },
  {
    "iname": "GUILDEMBLEM_00009",
    "name": "紋章9",
    "cnds_type": 1,
    "image": "extra00009",
    "start_at": "2017/01/28",
    "end_at": "2119/01/28"
  },
  {
    "iname": "GUILDEMBLEM_00010",
    "name": "紋章10",
    "cnds_type": 1,
    "image": "extra00010",
    "start_at": "2017/01/28",
    "end_at": "2119/01/28"
  },
  {
    "iname": "GUILDEMBLEM_TS_01",
    "name": "『七つの大罪 戒めの復活』ポートエンブレム",
    "cnds_type": 1,
    "image": "emblem_ts_01",
    "start_at": "2017/01/28",
    "end_at": "2119/01/28"
  },
  {
    "iname": "GUILDEMBLEM_TS_02",
    "name": "『七つの大罪 戒めの復活』ポートエンブレム（1st）",
    "cnds_type": 1,
    "image": "emblem_ts_02",
    "start_at": "2017/01/28",
    "end_at": "2119/01/28"
  },
  {
    "iname": "GUILDEMBLEM_POK_01",
    "name": "ファンキルコラボレイドポートエンブレム",
    "cnds_type": 1,
    "image": "emblem_pok_02",
    "start_at": "2017/01/28",
    "end_at": "2119/01/28"
  },
  {
    "iname": "GUILDEMBLEM_POK_02",
    "name": "ファンキルコラボレイドポートエンブレム（1st）",
    "cnds_type": 1,
    "image": "emblem_pok_01",
    "start_at": "2017/01/28",
    "end_at": "2119/01/28"
  },
  {
    "iname": "GUILDEMBLEM_MCF_01",
    "name": "マクロスコラボレイドポートエンブレム",
    "cnds_type": 1,
    "image": "emblem_mcf_01",
    "start_at": "2017/01/28",
    "end_at": "2119/01/28"
  },
  {
    "iname": "GUILDEMBLEM_MCF_02",
    "name": "マクロスコラボレイドポートエンブレム（1st）",
    "cnds_type": 1,
    "image": "emblem_mcf_02",
    "start_at": "2017/01/28",
    "end_at": "2119/01/28"
  },
  {
    "iname": "GUILDEMBLEM_SEISEKI_01",
    "name": "舞台版記念レイド限定エンブレム(1st)",
    "cnds_type": 1,
    "image": "emblem_seiseki_01",
    "start_at": "2017/01/28",
    "end_at": "2119/01/28"
  },
  {
    "iname": "GUILDEMBLEM_MOVE_01",
    "name": "劇場版記念レイド限定エンブレム(1st)",
    "cnds_type": 1,
    "image": "emblem_move_01",
    "start_at": "2017/01/28",
    "end_at": "2119/01/28"
  },
  {
    "iname": "GUILDEMBLEM_SWIMSKIN_01",
    "name": "荒ぶる海の漢たちレイド限定エンブレム(1st)",
    "cnds_type": 1,
    "image": "emblem_swimskin_01",
    "start_at": "2017/01/28",
    "end_at": "2119/01/28"
  },
  {
    "iname": "GUILDEMBLEM_MONTH_FIRE_01",
    "name": "2019火炎王レイド限定エンブレム(1st)",
    "cnds_type": 1,
    "image": "emblem_month_fire_01",
    "start_at": "2017/01/28",
    "end_at": "2119/01/28"
  },
  {
    "iname": "GUILDEMBLEM_TS_02_01",
    "name": "七つの大罪レイド限定エンブレム(1st)",
    "cnds_type": 1,
    "image": "emblem_ts_02_01",
    "start_at": "2017/01/28",
    "end_at": "2119/01/28"
  },
  {
    "iname": "GUILDEMBLEM_TS_02_02",
    "name": "七つの大罪レイド限定エンブレム",
    "cnds_type": 1,
    "image": "emblem_ts_02_02",
    "start_at": "2017/01/28",
    "end_at": "2119/01/28"
  },
  {
    "iname": "GUILDEMBLEM_PORTRAID_01",
    "name": "アルケミィポートレイド限定エンブレム(1st)",
    "cnds_type": 1,
    "image": "emblem_portraid_01",
    "start_at": "2017/01/28",
    "end_at": "2119/01/28"
  },
  {
    "iname": "GUILDEMBLEM_PORTRAID_02",
    "name": "アルケミィポートレイド限定エンブレム(2nd)",
    "cnds_type": 1,
    "image": "emblem_portraid_02",
    "start_at": "2017/01/28",
    "end_at": "2119/01/28"
  },
  {
    "iname": "GUILDEMBLEM_PORTRAID_03",
    "name": "アルケミィポートレイド限定エンブレム(3rd)",
    "cnds_type": 1,
    "image": "emblem_portraid_03",
    "start_at": "2017/01/28",
    "end_at": "2119/01/28"
  },
  {
    "iname": "GUILDEMBLEM_PORTRAID_TSP_01",
    "name": "転生したらスライムだった件コラボアルケミィポートレイド限定エンブレム(1st)",
    "cnds_type": 1,
    "image": "emblem_portraid_tsp_01",
    "start_at": "2017/01/28",
    "end_at": "2119/01/28"
  },
  {
    "iname": "GUILDEMBLEM_PORTRAID_TSP_02",
    "name": "転生したらスライムだった件コラボアルケミィポートレイド限定エンブレム(2nd)",
    "cnds_type": 1,
    "image": "emblem_portraid_tsp_02",
    "start_at": "2017/01/28",
    "end_at": "2119/01/28"
  },
  {
    "iname": "GUILDEMBLEM_PORTRAID_TSP_03",
    "name": "転生したらスライムだった件コラボアルケミィポートレイド限定エンブレム(3rd)",
    "cnds_type": 1,
    "image": "emblem_portraid_tsp_03",
    "start_at": "2017/01/28",
    "end_at": "2119/01/28"
  },
  {
    "iname": "GUILDEMBLEM_PORTRAID_TSP_01_100",
    "name": "転生したらスライムだった件コラボアルケミィポートレイド限定エンブレム",
    "cnds_type": 1,
    "image": "emblem_portraid_tsp_01_100",
    "start_at": "2017/01/28",
    "end_at": "2119/01/28"
  },
  {
    "iname": "GUILDEMBLEM_PORTRAID_03_01",
    "name": "アルケミィポートレイド限定エンブレム(1st)",
    "cnds_type": 1,
    "image": "emblem_portraid_03_01",
    "start_at": "2017/01/28",
    "end_at": "2119/01/28"
  },
  {
    "iname": "GUILDEMBLEM_PORTRAID_03_02",
    "name": "アルケミィポートレイド限定エンブレム(2nd)",
    "cnds_type": 1,
    "image": "emblem_portraid_03_02",
    "start_at": "2017/01/28",
    "end_at": "2119/01/28"
  },
  {
    "iname": "GUILDEMBLEM_PORTRAID_03_03",
    "name": "アルケミィポートレイド限定エンブレム(3rd)",
    "cnds_type": 1,
    "image": "emblem_portraid_03_03",
    "start_at": "2017/01/28",
    "end_at": "2119/01/28"
  },
  {
    "iname": "GUILDEMBLEM_PORTRAID_03_01_100",
    "name": "アルケミィポートレイド限定エンブレム",
    "cnds_type": 1,
    "image": "emblem_portraid_03_01_100",
    "start_at": "2017/01/28",
    "end_at": "2119/01/28"
  },
  {
    "iname": "GUILDEMBLEM_PORTRAID_04_01",
    "name": "アルケミィポートレイド限定エンブレム(1st)",
    "cnds_type": 1,
    "image": "emblem_portraid_04_01",
    "start_at": "2017/01/28",
    "end_at": "2119/01/28"
  },
  {
    "iname": "GUILDEMBLEM_PORTRAID_04_02",
    "name": "アルケミィポートレイド限定エンブレム(2nd)",
    "cnds_type": 1,
    "image": "emblem_portraid_04_02",
    "start_at": "2017/01/28",
    "end_at": "2119/01/28"
  },
  {
    "iname": "GUILDEMBLEM_PORTRAID_04_03",
    "name": "アルケミィポートレイド限定エンブレム(3rd)",
    "cnds_type": 1,
    "image": "emblem_portraid_04_03",
    "start_at": "2017/01/28",
    "end_at": "2119/01/28"
  },
  {
    "iname": "GUILDEMBLEM_PORTRAID_04_01_100",
    "name": "アルケミィポートレイド限定エンブレム",
    "cnds_type": 1,
    "image": "emblem_portraid_04_01_100",
    "start_at": "2017/01/28",
    "end_at": "2119/01/28"
  },
  {
    "iname": "GUILDEMBLEM_PORTRAID_05_01",
    "name": "アルケミィポートレイド限定エンブレム(1st)",
    "cnds_type": 1,
    "image": "emblem_portraid_05_01",
    "start_at": "2017/01/28",
    "end_at": "2119/01/28"
  },
  {
    "iname": "GUILDEMBLEM_PORTRAID_05_02",
    "name": "アルケミィポートレイド限定エンブレム(2nd)",
    "cnds_type": 1,
    "image": "emblem_portraid_05_02",
    "start_at": "2017/01/28",
    "end_at": "2119/01/28"
  },
  {
    "iname": "GUILDEMBLEM_PORTRAID_05_03",
    "name": "アルケミィポートレイド限定エンブレム(3rd)",
    "cnds_type": 1,
    "image": "emblem_portraid_05_03",
    "start_at": "2017/01/28",
    "end_at": "2119/01/28"
  },
  {
    "iname": "GUILDEMBLEM_PORTRAID_05_01_100",
    "name": "アルケミィポートレイド限定エンブレム",
    "cnds_type": 1,
    "image": "emblem_portraid_05_01_100",
    "start_at": "2017/01/28",
    "end_at": "2119/01/28"
  },
  {
    "iname": "GUILDEMBLEM_PORTRAID_06_01",
    "name": "アルケミィポートレイド限定エンブレム(1st)",
    "cnds_type": 1,
    "image": "emblem_portraid_06_01",
    "start_at": "2017/01/28",
    "end_at": "2119/01/28"
  },
  {
    "iname": "GUILDEMBLEM_PORTRAID_06_02",
    "name": "アルケミィポートレイド限定エンブレム(2nd)",
    "cnds_type": 1,
    "image": "emblem_portraid_06_02",
    "start_at": "2017/01/28",
    "end_at": "2119/01/28"
  },
  {
    "iname": "GUILDEMBLEM_PORTRAID_06_03",
    "name": "アルケミィポートレイド限定エンブレム(3rd)",
    "cnds_type": 1,
    "image": "emblem_portraid_06_03",
    "start_at": "2017/01/28",
    "end_at": "2119/01/28"
  },
  {
    "iname": "GUILDEMBLEM_PORTRAID_07_01",
    "name": "アルケミィポートレイド限定エンブレム(1st)",
    "cnds_type": 1,
    "image": "emblem_portraid_07_01",
    "start_at": "2017/01/28",
    "end_at": "2119/01/28"
  },
  {
    "iname": "GUILDEMBLEM_PORTRAID_07_02",
    "name": "アルケミィポートレイド限定エンブレム(2nd)",
    "cnds_type": 1,
    "image": "emblem_portraid_07_02",
    "start_at": "2017/01/28",
    "end_at": "2119/01/28"
  },
  {
    "iname": "GUILDEMBLEM_PORTRAID_07_03",
    "name": "アルケミィポートレイド限定エンブレム(3rd)",
    "cnds_type": 1,
    "image": "emblem_portraid_07_03",
    "start_at": "2017/01/28",
    "end_at": "2119/01/28"
  },
  {
    "iname": "GUILDEMBLEM_PORTRAID_07_01_100",
    "name": "アルケミィポートレイド限定エンブレム",
    "cnds_type": 1,
    "image": "emblem_portraid_07_01_100",
    "start_at": "2017/01/28",
    "end_at": "2119/01/28"
  },
  {
    "iname": "GUILDEMBLEM_PORTRAID_08_01",
    "name": "アルケミィポートレイド限定エンブレム(1st)",
    "cnds_type": 1,
    "image": "emblem_portraid_08_01",
    "start_at": "2017/01/28",
    "end_at": "2119/01/28"
  },
  {
    "iname": "GUILDEMBLEM_PORTRAID_08_02",
    "name": "アルケミィポートレイド限定エンブレム(2nd)",
    "cnds_type": 1,
    "image": "emblem_portraid_08_02",
    "start_at": "2017/01/28",
    "end_at": "2119/01/28"
  },
  {
    "iname": "GUILDEMBLEM_PORTRAID_08_03",
    "name": "アルケミィポートレイド限定エンブレム(3rd)",
    "cnds_type": 1,
    "image": "emblem_portraid_08_03",
    "start_at": "2017/01/28",
    "end_at": "2119/01/28"
  },
  {
    "iname": "GUILDEMBLEM_PORTRAID_09_01",
    "name": "アルケミィポートレイド限定エンブレム(1st)",
    "cnds_type": 1,
    "image": "emblem_portraid_09_01",
    "start_at": "2017/01/28",
    "end_at": "2119/01/28"
  },
  {
    "iname": "GUILDEMBLEM_PORTRAID_09_02",
    "name": "アルケミィポートレイド限定エンブレム(2nd)",
    "cnds_type": 1,
    "image": "emblem_portraid_09_02",
    "start_at": "2017/01/28",
    "end_at": "2119/01/28"
  },
  {
    "iname": "GUILDEMBLEM_PORTRAID_09_03",
    "name": "アルケミィポートレイド限定エンブレム(3rd)",
    "cnds_type": 1,
    "image": "emblem_portraid_09_03",
    "start_at": "2017/01/28",
    "end_at": "2119/01/28"
  },
  {
    "iname": "GUILDEMBLEM_PORTRAID_09_01_100",
    "name": "アルケミィポートレイド限定エンブレム",
    "cnds_type": 1,
    "image": "emblem_portraid_09_01_100",
    "start_at": "2017/01/28",
    "end_at": "2119/01/28"
  },
  {
    "iname": "GUILDEMBLEM_PORTRAID_10_01",
    "name": "アルケミィポートレイド限定エンブレム(1st)",
    "cnds_type": 1,
    "image": "emblem_portraid_10_01",
    "start_at": "2017/01/28",
    "end_at": "2119/01/28"
  },
  {
    "iname": "GUILDEMBLEM_PORTRAID_10_02",
    "name": "アルケミィポートレイド限定エンブレム(2nd)",
    "cnds_type": 1,
    "image": "emblem_portraid_10_02",
    "start_at": "2017/01/28",
    "end_at": "2119/01/28"
  },
  {
    "iname": "GUILDEMBLEM_PORTRAID_10_03",
    "name": "アルケミィポートレイド限定エンブレム(3rd)",
    "cnds_type": 1,
    "image": "emblem_portraid_10_03",
    "start_at": "2017/01/28",
    "end_at": "2119/01/28"
  },
  {
    "iname": "GUILDEMBLEM_PORTRAID_10_01_100",
    "name": "アルケミィポートレイド限定エンブレム",
    "cnds_type": 1,
    "image": "emblem_portraid_10_01_100",
    "start_at": "2017/01/28",
    "end_at": "2119/01/28"
  },
  {
    "iname": "GUILDEMBLEM_PORTRAID_11_01",
    "name": "アルケミィポートレイド限定エンブレム(1st)",
    "cnds_type": 1,
    "image": "emblem_portraid_11_01",
    "start_at": "2017/01/28",
    "end_at": "2119/01/28"
  },
  {
    "iname": "GUILDEMBLEM_PORTRAID_11_02",
    "name": "アルケミィポートレイド限定エンブレム(2nd)",
    "cnds_type": 1,
    "image": "emblem_portraid_11_02",
    "start_at": "2017/01/28",
    "end_at": "2119/01/28"
  },
  {
    "iname": "GUILDEMBLEM_PORTRAID_11_03",
    "name": "アルケミィポートレイド限定エンブレム(3rd)",
    "cnds_type": 1,
    "image": "emblem_portraid_11_03",
    "start_at": "2017/01/28",
    "end_at": "2119/01/28"
  },
  {
    "iname": "GUILDEMBLEM_PORTRAID_12_01",
    "name": "アルケミィポートレイド限定エンブレム(1st)",
    "cnds_type": 1,
    "image": "emblem_portraid_12_01",
    "start_at": "2017/01/28",
    "end_at": "2119/01/28"
  },
  {
    "iname": "GUILDEMBLEM_PORTRAID_12_02",
    "name": "アルケミィポートレイド限定エンブレム(2nd)",
    "cnds_type": 1,
    "image": "emblem_portraid_12_02",
    "start_at": "2017/01/28",
    "end_at": "2119/01/28"
  },
  {
    "iname": "GUILDEMBLEM_PORTRAID_12_03",
    "name": "アルケミィポートレイド限定エンブレム(3rd)",
    "cnds_type": 1,
    "image": "emblem_portraid_12_03",
    "start_at": "2017/01/28",
    "end_at": "2119/01/28"
  },
  {
    "iname": "GUILDEMBLEM_PORTRAID_13_01",
    "name": "アルケミィポートレイド限定エンブレム(1st)",
    "cnds_type": 1,
    "image": "emblem_portraid_13_01",
    "start_at": "2017/01/28",
    "end_at": "2119/01/28"
  },
  {
    "iname": "GUILDEMBLEM_PORTRAID_13_02",
    "name": "アルケミィポートレイド限定エンブレム(2nd)",
    "cnds_type": 1,
    "image": "emblem_portraid_13_02",
    "start_at": "2017/01/28",
    "end_at": "2119/01/28"
  },
  {
    "iname": "GUILDEMBLEM_PORTRAID_13_03",
    "name": "アルケミィポートレイド限定エンブレム(3rd)",
    "cnds_type": 1,
    "image": "emblem_portraid_13_03",
    "start_at": "2017/01/28",
    "end_at": "2119/01/28"
  },
  {
    "iname": "GUILDEMBLEM_PORTRAID_14_01",
    "name": "アルケミィポートレイド限定エンブレム(1st)",
    "cnds_type": 1,
    "image": "emblem_portraid_14_01",
    "start_at": "2017/01/28",
    "end_at": "2119/01/28"
  },
  {
    "iname": "GUILDEMBLEM_PORTRAID_14_02",
    "name": "アルケミィポートレイド限定エンブレム(2nd)",
    "cnds_type": 1,
    "image": "emblem_portraid_14_02",
    "start_at": "2017/01/28",
    "end_at": "2119/01/28"
  },
  {
    "iname": "GUILDEMBLEM_PORTRAID_14_03",
    "name": "アルケミィポートレイド限定エンブレム(3rd)",
    "cnds_type": 1,
    "image": "emblem_portraid_14_03",
    "start_at": "2017/01/28",
    "end_at": "2119/01/28"
  },
  {
    "iname": "GUILDEMBLEM_PORTRAID_14_01_100",
    "name": "アルケミィポートレイド限定エンブレム(3rd)",
    "cnds_type": 1,
    "image": "emblem_portraid_14_01_100",
    "start_at": "2017/01/28",
    "end_at": "2119/01/28"
  },
  {
    "iname": "GUILDEMBLEM_PORTRAID_15_01",
    "name": "アルケミィポートレイド限定エンブレム(1st)",
    "cnds_type": 1,
    "image": "emblem_portraid_15_01",
    "start_at": "2017/01/28",
    "end_at": "2119/01/28"
  },
  {
    "iname": "GUILDEMBLEM_PORTRAID_15_02",
    "name": "アルケミィポートレイド限定エンブレム(2nd)",
    "cnds_type": 1,
    "image": "emblem_portraid_15_02",
    "start_at": "2017/01/28",
    "end_at": "2119/01/28"
  },
  {
    "iname": "GUILDEMBLEM_PORTRAID_15_03",
    "name": "アルケミィポートレイド限定エンブレム(3rd)",
    "cnds_type": 1,
    "image": "emblem_portraid_15_03",
    "start_at": "2017/01/28",
    "end_at": "2119/01/28"
  },
  {
    "iname": "GUILDEMBLEM_PQ_PORT_01_01",
    "name": "アルケミィポートスコアチャレンジクエスト限定エンブレム(1st)",
    "cnds_type": 1,
    "image": "emblem_pq_port_01_01",
    "start_at": "2017/01/28",
    "end_at": "2119/01/28"
  },
  {
    "iname": "GUILDEMBLEM_PQ_PORT_01_02",
    "name": "アルケミィポートスコアチャレンジクエスト限定エンブレム(2nd)",
    "cnds_type": 1,
    "image": "emblem_pq_port_01_02",
    "start_at": "2017/01/28",
    "end_at": "2119/01/28"
  },
  {
    "iname": "GUILDEMBLEM_PQ_PORT_01_03",
    "name": "アルケミィポートスコアチャレンジクエスト限定エンブレム(3rd)",
    "cnds_type": 1,
    "image": "emblem_pq_port_01_03",
    "start_at": "2017/01/28",
    "end_at": "2119/01/28"
  },
  {
    "iname": "GUILDEMBLEM_PQ_PORT_02_01",
    "name": "アルケミィポートスコアチャレンジクエスト限定エンブレム(1st)",
    "cnds_type": 1,
    "image": "emblem_pq_port_02_01",
    "start_at": "2017/01/28",
    "end_at": "2119/01/28"
  },
  {
    "iname": "GUILDEMBLEM_PQ_PORT_02_02",
    "name": "アルケミィポートスコアチャレンジクエスト限定エンブレム(2nd)",
    "cnds_type": 1,
    "image": "emblem_pq_port_02_02",
    "start_at": "2017/01/28",
    "end_at": "2119/01/28"
  },
  {
    "iname": "GUILDEMBLEM_PQ_PORT_02_03",
    "name": "アルケミィポートスコアチャレンジクエスト限定エンブレム(3rd)",
    "cnds_type": 1,
    "image": "emblem_pq_port_02_03",
    "start_at": "2017/01/28",
    "end_at": "2119/01/28"
  },
  {
    "iname": "GUILDEMBLEM_PQ_PORT_02_04_100",
    "name": "アルケミィポートスコアチャレンジクエスト限定エンブレム",
    "cnds_type": 1,
    "image": "emblem_pq_port_02_04_100",
    "start_at": "2017/01/28",
    "end_at": "2119/01/28"
  },
  {
    "iname": "GUILDEMBLEM_PQ_PORT_03_01",
    "name": "アルケミィポートスコアチャレンジクエスト限定エンブレム(1st)",
    "cnds_type": 1,
    "image": "emblem_pq_port_03_01",
    "start_at": "2017/01/28",
    "end_at": "2119/01/28"
  },
  {
    "iname": "GUILDEMBLEM_PQ_PORT_03_02",
    "name": "アルケミィポートスコアチャレンジクエスト限定エンブレム(2nd)",
    "cnds_type": 1,
    "image": "emblem_pq_port_03_02",
    "start_at": "2017/01/28",
    "end_at": "2119/01/28"
  },
  {
    "iname": "GUILDEMBLEM_PQ_PORT_03_03",
    "name": "アルケミィポートスコアチャレンジクエスト限定エンブレム(3rd)",
    "cnds_type": 1,
    "image": "emblem_pq_port_03_03",
    "start_at": "2017/01/28",
    "end_at": "2119/01/28"
  },
  {
    "iname": "GUILDEMBLEM_PQ_PORT_03_04_100",
    "name": "アルケミィポートスコアチャレンジクエスト限定エンブレム",
    "cnds_type": 1,
    "image": "emblem_pq_port_03_04_100",
    "start_at": "2017/01/28",
    "end_at": "2119/01/28"
  },
  {
    "iname": "GUILDEMBLEM_PQ_PORT_20240531_01",
    "name": "アルケミィポートスコアチャレンジクエスト限定エンブレム(1st)",
    "cnds_type": 1,
    "image": "emblem_pq_port_20240531_01",
    "start_at": "2017/01/28",
    "end_at": "2119/01/28"
  },
  {
    "iname": "GUILDEMBLEM_PQ_PORT_20240531_02",
    "name": "アルケミィポートスコアチャレンジクエスト限定エンブレム(2nd)",
    "cnds_type": 1,
    "image": "emblem_pq_port_20240531_02",
    "start_at": "2017/01/28",
    "end_at": "2119/01/28"
  },
  {
    "iname": "GUILDEMBLEM_PQ_PORT_20240531_03",
    "name": "アルケミィポートスコアチャレンジクエスト限定エンブレム(3rd)",
    "cnds_type": 1,
    "image": "emblem_pq_port_20240531_03",
    "start_at": "2017/01/28",
    "end_at": "2119/01/28"
  },
  {
    "iname": "GUILDEMBLEM_PQ_PORT_20240531_04_100",
    "name": "アルケミィポートスコアチャレンジクエスト限定エンブレム",
    "cnds_type": 1,
    "image": "emblem_pq_port_20240531_04_100",
    "start_at": "2017/01/28",
    "end_at": "2119/01/28"
  },
  {
    "iname": "GUILDEMBLEM_PORTRAID_16_01",
    "name": "アルケミィポートレイド限定エンブレム(1st)",
    "cnds_type": 1,
    "image": "emblem_portraid_16_01",
    "start_at": "2017/01/28",
    "end_at": "2119/01/28"
  },
  {
    "iname": "GUILDEMBLEM_PORTRAID_16_02",
    "name": "アルケミィポートレイド限定エンブレム(2nd)",
    "cnds_type": 1,
    "image": "emblem_portraid_16_02",
    "start_at": "2017/01/28",
    "end_at": "2119/01/28"
  },
  {
    "iname": "GUILDEMBLEM_PORTRAID_16_03",
    "name": "アルケミィポートレイド限定エンブレム(3rd)",
    "cnds_type": 1,
    "image": "emblem_portraid_16_03",
    "start_at": "2017/01/28",
    "end_at": "2119/01/28"
  },
  {
    "iname": "GUILDEMBLEM_PORTRAID_17_01",
    "name": "アルケミィポートレイド限定エンブレム(1st)",
    "cnds_type": 1,
    "image": "emblem_portraid_17_01",
    "start_at": "2017/01/28",
    "end_at": "2119/01/28"
  },
  {
    "iname": "GUILDEMBLEM_PORTRAID_17_02",
    "name": "アルケミィポートレイド限定エンブレム(2nd)",
    "cnds_type": 1,
    "image": "emblem_portraid_17_02",
    "start_at": "2017/01/28",
    "end_at": "2119/01/28"
  },
  {
    "iname": "GUILDEMBLEM_PORTRAID_17_03",
    "name": "アルケミィポートレイド限定エンブレム(3rd)",
    "cnds_type": 1,
    "image": "emblem_portraid_17_03",
    "start_at": "2017/01/28",
    "end_at": "2119/01/28"
  },
  {
    "iname": "GUILDEMBLEM_PORTRAID_17_01_100",
    "name": "アルケミィポートレイド限定エンブレム(1~100)",
    "cnds_type": 1,
    "image": "emblem_portraid_17_01_100",
    "start_at": "2017/01/28",
    "end_at": "2119/01/28"
  },
  {
    "iname": "GUILDEMBLEM_PORTRAID_18_01",
    "name": "アルケミィポートレイド限定エンブレム(1st)",
    "cnds_type": 1,
    "image": "emblem_portraid_18_01",
    "start_at": "2017/01/28",
    "end_at": "2119/01/28"
  },
  {
    "iname": "GUILDEMBLEM_PORTRAID_18_02",
    "name": "アルケミィポートレイド限定エンブレム(2nd)",
    "cnds_type": 1,
    "image": "emblem_portraid_18_02",
    "start_at": "2017/01/28",
    "end_at": "2119/01/28"
  },
  {
    "iname": "GUILDEMBLEM_PORTRAID_18_03",
    "name": "アルケミィポートレイド限定エンブレム(3rd)",
    "cnds_type": 1,
    "image": "emblem_portraid_18_03",
    "start_at": "2017/01/28",
    "end_at": "2119/01/28"
  },
  {
    "iname": "GUILDEMBLEM_PORTRAID_18_01_100",
    "name": "アルケミィポートレイド限定エンブレム(1~100)",
    "cnds_type": 1,
    "image": "emblem_portraid_18_01_100",
    "start_at": "2017/01/28",
    "end_at": "2119/01/28"
  },
  {
    "iname": "GUILDEMBLEM_PORTRAID_19_01",
    "name": "アルケミィポートレイド限定エンブレム(1st)",
    "cnds_type": 1,
    "image": "emblem_portraid_19_01",
    "start_at": "2017/01/28",
    "end_at": "2119/01/28"
  },
  {
    "iname": "GUILDEMBLEM_PORTRAID_19_02",
    "name": "アルケミィポートレイド限定エンブレム(2nd)",
    "cnds_type": 1,
    "image": "emblem_portraid_19_02",
    "start_at": "2017/01/28",
    "end_at": "2119/01/28"
  },
  {
    "iname": "GUILDEMBLEM_PORTRAID_19_03",
    "name": "アルケミィポートレイド限定エンブレム(3rd)",
    "cnds_type": 1,
    "image": "emblem_portraid_19_03",
    "start_at": "2017/01/28",
    "end_at": "2119/01/28"
  },
  {
    "iname": "GUILDEMBLEM_PORTRAID_20_01",
    "name": "アルケミィポートレイド限定エンブレム(1st)",
    "cnds_type": 1,
    "image": "emblem_portraid_20_01",
    "start_at": "2017/01/28",
    "end_at": "2119/01/28"
  },
  {
    "iname": "GUILDEMBLEM_PORTRAID_20_02",
    "name": "アルケミィポートレイド限定エンブレム(2nd)",
    "cnds_type": 1,
    "image": "emblem_portraid_20_02",
    "start_at": "2017/01/28",
    "end_at": "2119/01/28"
  },
  {
    "iname": "GUILDEMBLEM_PORTRAID_20_03",
    "name": "アルケミィポートレイド限定エンブレム(3rd)",
    "cnds_type": 1,
    "image": "emblem_portraid_20_03",
    "start_at": "2017/01/28",
    "end_at": "2119/01/28"
  },
  {
    "iname": "GUILDEMBLEM_PORTRAID_TRS_01",
    "name": "東京リベンジャーズコラボアルケミィポートレイド限定エンブレム(1st)",
    "cnds_type": 1,
    "image": "emblem_portraid_trs_01",
    "start_at": "2017/01/28",
    "end_at": "2119/01/28"
  },
  {
    "iname": "GUILDEMBLEM_PORTRAID_TRS_02",
    "name": "東京リベンジャーズコラボアルケミィポートレイド限定エンブレム(2nd)",
    "cnds_type": 1,
    "image": "emblem_portraid_trs_02",
    "start_at": "2017/01/28",
    "end_at": "2119/01/28"
  },
  {
    "iname": "GUILDEMBLEM_PORTRAID_TRS_03",
    "name": "東京リベンジャーズコラボアルケミィポートレイド限定エンブレム(3rd)",
    "cnds_type": 1,
    "image": "emblem_portraid_trs_03",
    "start_at": "2017/01/28",
    "end_at": "2119/01/28"
  },
  {
    "iname": "GUILDEMBLEM_PORTRAID_TRS_01_100",
    "name": "東京リベンジャーズコラボアルケミィポートレイド限定エンブレム",
    "cnds_type": 1,
    "image": "emblem_portraid_trs_01_100",
    "start_at": "2017/01/28",
    "end_at": "2119/01/28"
  },
  {
    "iname": "GUILDEMBLEM_PORTRAID_22_01",
    "name": "アルケミィポートレイド限定エンブレム(1st)",
    "cnds_type": 1,
    "image": "emblem_portraid_22_01",
    "start_at": "2017/01/28",
    "end_at": "2119/01/28"
  },
  {
    "iname": "GUILDEMBLEM_PORTRAID_22_02",
    "name": "アルケミィポートレイド限定エンブレム(2nd)",
    "cnds_type": 1,
    "image": "emblem_portraid_22_02",
    "start_at": "2017/01/28",
    "end_at": "2119/01/28"
  },
  {
    "iname": "GUILDEMBLEM_PORTRAID_22_03",
    "name": "アルケミィポートレイド限定エンブレム(3rd)",
    "cnds_type": 1,
    "image": "emblem_portraid_22_03",
    "start_at": "2017/01/28",
    "end_at": "2119/01/28"
  },
  {
    "iname": "GUILDEMBLEM_PQ_PORT_TSP_01_01",
    "name": "転生したらスライムだった件コラボアルケミィポートスコアチャレンジクエスト限定エンブレム(1st)",
    "cnds_type": 1,
    "image": "emblem_pq_port_tsp_01_01",
    "start_at": "2017/01/28",
    "end_at": "2119/01/28"
  },
  {
    "iname": "GUILDEMBLEM_PQ_PORT_TSP_01_02",
    "name": "転生したらスライムだった件コラボアルケミィポートスコアチャレンジクエスト限定エンブレム(2nd)",
    "cnds_type": 1,
    "image": "emblem_pq_port_tsp_01_02",
    "start_at": "2017/01/28",
    "end_at": "2119/01/28"
  },
  {
    "iname": "GUILDEMBLEM_PQ_PORT_TSP_01_03",
    "name": "転生したらスライムだった件コラボアルケミィポートスコアチャレンジクエスト限定エンブレム(3rd)",
    "cnds_type": 1,
    "image": "emblem_pq_port_tsp_01_03",
    "start_at": "2017/01/28",
    "end_at": "2119/01/28"
  },
  {
    "iname": "GUILDEMBLEM_PQ_PORT_TSP_01_01_100",
    "name": "転生したらスライムだった件コラボアルケミィポートスコアチャレンジクエスト限定エンブレム",
    "cnds_type": 1,
    "image": "emblem_pq_port_tsp_01_100",
    "start_at": "2017/01/28",
    "end_at": "2119/01/28"
  },
  {
    "iname": "GUILDEMBLEM_PORTRAID_24_01",
    "name": "アルケミィポートレイド限定エンブレム(1st)",
    "cnds_type": 1,
    "image": "emblem_portraid_23_01",
    "start_at": "2017/01/28",
    "end_at": "2119/01/28"
  },
  {
    "iname": "GUILDEMBLEM_PORTRAID_24_02",
    "name": "アルケミィポートレイド限定エンブレム(2nd)",
    "cnds_type": 1,
    "image": "emblem_portraid_23_02",
    "start_at": "2017/01/28",
    "end_at": "2119/01/28"
  },
  {
    "iname": "GUILDEMBLEM_PORTRAID_24_03",
    "name": "アルケミィポートレイド限定エンブレム(3rd)",
    "cnds_type": 1,
    "image": "emblem_portraid_23_03",
    "start_at": "2017/01/28",
    "end_at": "2119/01/28"
  },
  {
    "iname": "GUILDEMBLEM_PORTRAID_24_01_B",
    "name": "アルケミィポートレイド限定エンブレム(1st)",
    "cnds_type": 1,
    "image": "emblem_portraid_24_01",
    "start_at": "2017/01/28",
    "end_at": "2119/01/28"
  },
  {
    "iname": "GUILDEMBLEM_PORTRAID_24_02_B",
    "name": "アルケミィポートレイド限定エンブレム(2nd)",
    "cnds_type": 1,
    "image": "emblem_portraid_24_02",
    "start_at": "2017/01/28",
    "end_at": "2119/01/28"
  },
  {
    "iname": "GUILDEMBLEM_PORTRAID_24_03_B",
    "name": "アルケミィポートレイド限定エンブレム(3rd)",
    "cnds_type": 1,
    "image": "emblem_portraid_24_03",
    "start_at": "2017/01/28",
    "end_at": "2119/01/28"
  },
  {
    "iname": "GUILDEMBLEM_PORTRAID_25_01",
    "name": "アルケミィポートレイド限定エンブレム(1st)",
    "cnds_type": 1,
    "image": "emblem_portraid_25_01",
    "start_at": "2017/01/28",
    "end_at": "2119/01/28"
  },
  {
    "iname": "GUILDEMBLEM_PORTRAID_25_02",
    "name": "アルケミィポートレイド限定エンブレム(2nd)",
    "cnds_type": 1,
    "image": "emblem_portraid_25_02",
    "start_at": "2017/01/28",
    "end_at": "2119/01/28"
  },
  {
    "iname": "GUILDEMBLEM_PORTRAID_25_03",
    "name": "アルケミィポートレイド限定エンブレム(3rd)",
    "cnds_type": 1,
    "image": "emblem_portraid_25_03",
    "start_at": "2017/01/28",
    "end_at": "2119/01/28"
  },
  {
    "iname": "GUILDEMBLEM_PORTRAID_26_01",
    "name": "アルケミィポートレイド限定エンブレム(1st)",
    "cnds_type": 1,
    "image": "emblem_portraid_26_01",
    "start_at": "2017/01/28",
    "end_at": "2119/01/28"
  },
  {
    "iname": "GUILDEMBLEM_PORTRAID_26_02",
    "name": "アルケミィポートレイド限定エンブレム(2nd)",
    "cnds_type": 1,
    "image": "emblem_portraid_26_02",
    "start_at": "2017/01/28",
    "end_at": "2119/01/28"
  },
  {
    "iname": "GUILDEMBLEM_PORTRAID_26_03",
    "name": "アルケミィポートレイド限定エンブレム(3rd)",
    "cnds_type": 1,
    "image": "emblem_portraid_26_03",
    "start_at": "2017/01/28",
    "end_at": "2119/01/28"
  },
  {
    "iname": "GUILDEMBLEM_PORTRAID_28_01",
    "name": "アルケミィポートレイド限定エンブレム(1st)",
    "cnds_type": 1,
    "image": "emblem_portraid_28_01",
    "start_at": "2017/01/28",
    "end_at": "2119/01/28"
  },
  {
    "iname": "GUILDEMBLEM_PORTRAID_28_02",
    "name": "アルケミィポートレイド限定エンブレム(2nd)",
    "cnds_type": 1,
    "image": "emblem_portraid_28_02",
    "start_at": "2017/01/28",
    "end_at": "2119/01/28"
  },
  {
    "iname": "GUILDEMBLEM_PORTRAID_28_03",
    "name": "アルケミィポートレイド限定エンブレム(3rd)",
    "cnds_type": 1,
    "image": "emblem_portraid_28_03",
    "start_at": "2017/01/28",
    "end_at": "2119/01/28"
  },
  {
    "iname": "GUILDEMBLEM_PORTRAID_29_01",
    "name": "アルケミィポートレイド限定エンブレム(1st)",
    "cnds_type": 1,
    "image": "emblem_portraid_29_01",
    "start_at": "2017/01/28",
    "end_at": "2119/01/28"
  },
  {
    "iname": "GUILDEMBLEM_PORTRAID_29_02",
    "name": "アルケミィポートレイド限定エンブレム(2nd)",
    "cnds_type": 1,
    "image": "emblem_portraid_29_02",
    "start_at": "2017/01/28",
    "end_at": "2119/01/28"
  },
  {
    "iname": "GUILDEMBLEM_PORTRAID_29_03",
    "name": "アルケミィポートレイド限定エンブレム(3rd)",
    "cnds_type": 1,
    "image": "emblem_portraid_29_03",
    "start_at": "2017/01/28",
    "end_at": "2119/01/28"
  },
  {
    "iname": "GUILDEMBLEM_PORTRAID_30_01",
    "name": "アルケミィポートレイド限定エンブレム(1st)",
    "cnds_type": 1,
    "image": "emblem_portraid_30_01",
    "start_at": "2017/01/28",
    "end_at": "2119/01/28"
  },
  {
    "iname": "GUILDEMBLEM_PORTRAID_30_02",
    "name": "アルケミィポートレイド限定エンブレム(2nd)",
    "cnds_type": 1,
    "image": "emblem_portraid_30_02",
    "start_at": "2017/01/28",
    "end_at": "2119/01/28"
  },
  {
    "iname": "GUILDEMBLEM_PORTRAID_30_03",
    "name": "アルケミィポートレイド限定エンブレム(3rd)",
    "cnds_type": 1,
    "image": "emblem_portraid_30_03",
    "start_at": "2017/01/28",
    "end_at": "2119/01/28"
  },
  {
    "iname": "GUILDEMBLEM_PORTRAID_31_01",
    "name": "アルケミィポートレイド限定エンブレム(1st)",
    "cnds_type": 1,
    "image": "emblem_portraid_31_01",
    "start_at": "2017/01/28",
    "end_at": "2119/01/28"
  },
  {
    "iname": "GUILDEMBLEM_PORTRAID_31_02",
    "name": "アルケミィポートレイド限定エンブレム(2nd)",
    "cnds_type": 1,
    "image": "emblem_portraid_31_02",
    "start_at": "2017/01/28",
    "end_at": "2119/01/28"
  },
  {
    "iname": "GUILDEMBLEM_PORTRAID_31_03",
    "name": "アルケミィポートレイド限定エンブレム(3rd)",
    "cnds_type": 1,
    "image": "emblem_portraid_31_03",
    "start_at": "2017/01/28",
    "end_at": "2119/01/28"
  }
]