[
  {
    "lv": 1,
    "base_camp": 0,
    "guild_shop": 0
  },
  {
    "lv": 2,
    "base_camp": 12000,
    "guild_shop": 300
  },
  {
    "lv": 3,
    "base_camp": 17600,
    "guild_shop": 450
  },
  {
    "lv": 4,
    "base_camp": 22080,
    "guild_shop": 750
  },
  {
    "lv": 5,
    "base_camp": 25664,
    "guild_shop": 1200
  },
  {
    "lv": 6,
    "base_camp": 28532,
    "guild_shop": 1800
  },
  {
    "lv": 7,
    "base_camp": 30826,
    "guild_shop": 2550
  },
  {
    "lv": 8,
    "base_camp": 32661,
    "guild_shop": 3450
  },
  {
    "lv": 9,
    "base_camp": 34129,
    "guild_shop": 4500
  },
  {
    "lv": 10,
    "base_camp": 35304,
    "guild_shop": 5700
  },
  {
    "lv": 11,
    "base_camp": 47541,
    "guild_shop": 7050
  },
  {
    "lv": 12,
    "base_camp": 61246,
    "guild_shop": 8550
  },
  {
    "lv": 13,
    "base_camp": 76596
  },
  {
    "lv": 14,
    "base_camp": 93788
  },
  {
    "lv": 15,
    "base_camp": 113043
  },
  {
    "lv": 16,
    "base_camp": 134609
  },
  {
    "lv": 17,
    "base_camp": 158763
  },
  {
    "lv": 18,
    "base_camp": 185815
  },
  {
    "lv": 19,
    "base_camp": 216113
  },
  {
    "lv": 20,
    "base_camp": 250047
  }
]