[
  {
    "iname": "highlight_gift_001",
    "message": "3周年の感謝のプレゼントです",
    "gifts": [
      {
        "type": 0,
        "item": "IT_US_CP_TICKET09",
        "num": 3
      },
      {
        "type": 2,
        "num": 333
      }
    ]
  },
  {
    "iname": "highlight_gift_002",
    "message": "4周年の感謝のプレゼントです",
    "gifts": [
      {
        "type": 0,
        "item": "IT_US_CP_TICKET25",
        "num": 4
      },
      {
        "type": 2,
        "num": 444
      },
      {
        "type": 3,
        "item": "AWARD_41001",
        "num": 1
      }
    ]
  },
  {
    "iname": "highlight_gift_003",
    "message": "5周年の感謝のプレゼントです",
    "gifts": [
      {
        "type": 0,
        "item": "IT_US_CP_TICKET50",
        "num": 5
      },
      {
        "type": 2,
        "num": 555
      },
      {
        "type": 3,
        "item": "AWARD_5TH_ANNIVERSARY",
        "num": 1
      }
    ]
  },
  {
    "iname": "highlight_gift_004",
    "message": "6周年の感謝のプレゼントです",
    "gifts": [
      {
        "type": 0,
        "item": "IT_US_CP_TICKET75",
        "num": 6
      },
      {
        "type": 2,
        "num": 666
      },
      {
        "type": 3,
        "item": "AWARD_6TH_ANNIVERSARY",
        "num": 1
      }
    ]
  },
  {
    "iname": "highlight_gift_005",
    "message": "7周年の感謝のプレゼントです",
    "gifts": [
      {
        "type": 0,
        "item": "IT_US_7TH_COIN_3",
        "num": 7
      },
      {
        "type": 2,
        "num": 777
      },
      {
        "type": 3,
        "item": "AWARD_7TH_ANNIVERSARY",
        "num": 1
      }
    ]
  },
  {
    "iname": "highlight_gift_006",
    "message": "8周年の感謝のプレゼントです",
    "gifts": [
      {
        "type": 0,
        "item": "IT_US_8TH_COIN_3",
        "num": 2
      },
      {
        "type": 2,
        "num": 888
      },
      {
        "type": 3,
        "item": "AWARD_8TH_ANNIVERSARY",
        "num": 1
      }
    ]
  },
  {
    "iname": "highlight_gift_007",
    "message": "感謝のプレゼントです",
    "gifts": [
      {
        "type": 2,
        "num": 2500
      }
    ]
  }
]