[
  {
    "iname": "JB_BGM_0003",
    "sheet": "BGM_0003",
    "cue": "BGM_0003_juke",
    "section": "JS_ST_001",
    "default_unlock": 1,
    "external_link": 1,
    "rate": 100,
    "range_unit": 0,
    "quests": [
      "QE_ST_NO_010001"
    ],
    "cond_quest": "QE_ST_NO_010001"
  },
  {
    "iname": "JB_BGM_0011",
    "sheet": "BGM_0011",
    "cue": "BGM_0011_juke",
    "section": "JS_ST_001",
    "default_unlock": 1,
    "external_link": 2,
    "rate": 100,
    "range_unit": 1,
    "quests": [
      "AR_01_01",
      "AR_01_02",
      "AR_01_03",
      "AR_01_07",
      "AR_01_08",
      "AR_01_09",
      "AR_01_13",
      "AR_01_14",
      "AR_01_15"
    ],
    "cond_quest": "QE_ST_NO_010150"
  },
  {
    "iname": "JB_BGM_0013",
    "sheet": "BGM_0013",
    "cue": "BGM_0013_juke",
    "section": "JS_ST_001",
    "default_unlock": 1,
    "rate": 100,
    "range_unit": 1,
    "quests": [
      "AR_01_04",
      "AR_01_05",
      "AR_01_06",
      "AR_01_10",
      "AR_01_11",
      "AR_01_12"
    ],
    "cond_quest": "QE_ST_NO_010150"
  },
  {
    "iname": "JB_BGM_9995",
    "sheet": "BGM_9995",
    "cue": "BGM_9995_juke",
    "section": "JS_ST_001",
    "default_unlock": 1,
    "external_link": 2,
    "rate": 100,
    "range_unit": 1,
    "quests": [
      "AR_01_04",
      "AR_01_05",
      "AR_01_06",
      "AR_01_10",
      "AR_01_11",
      "AR_01_12"
    ],
    "cond_quest": "QE_ST_NO_010150"
  },
  {
    "iname": "JB_BGM_0025",
    "sheet": "BGM_0025",
    "cue": "BGM_0025_juke",
    "section": "JS_ST_001",
    "default_unlock": 1,
    "external_link": 2,
    "rate": 100,
    "range_unit": 0,
    "quests": [
      "QE_ST_NO_010016",
      "QE_ST_NO_010020",
      "QE_ST_NO_010027",
      "QE_ST_NO_010039",
      "QE_ST_NO_010040",
      "QE_ST_NO_010048",
      "QE_ST_NO_010049",
      "QE_ST_NO_010057",
      "QE_ST_NO_010058",
      "QE_ST_NO_010059",
      "QE_ST_NO_010060",
      "QE_ST_NO_010065",
      "QE_ST_NO_010066",
      "QE_ST_NO_010073",
      "QE_ST_NO_010080",
      "QE_ST_NO_010089",
      "QE_ST_NO_010110",
      "QE_ST_NO_010120",
      "QE_ST_NO_010140",
      "QE_ST_NO_010149",
      "QE_ST_NO_010150"
    ],
    "cond_quest": "QE_ST_NO_010150"
  },
  {
    "iname": "JB_BGM_0027",
    "sheet": "BGM_0027",
    "cue": "BGM_0027_juke",
    "section": "JS_ST_001",
    "default_unlock": 1,
    "external_link": 1,
    "rate": 100,
    "range_unit": 1,
    "quests": [
      "AR_01_01",
      "AR_01_02",
      "AR_01_03",
      "AR_01_07",
      "AR_01_08",
      "AR_01_09",
      "AR_01_13",
      "AR_01_14",
      "AR_01_15"
    ],
    "cond_quest": "QE_ST_NO_010150"
  },
  {
    "iname": "JB_BGM_0028",
    "sheet": "BGM_0028",
    "cue": "BGM_0028_juke",
    "section": "JS_ST_001",
    "default_unlock": 1,
    "external_link": 1,
    "rate": 100,
    "range_unit": 1,
    "quests": [
      "AR_01_04",
      "AR_01_05",
      "AR_01_06",
      "AR_01_10",
      "AR_01_11",
      "AR_01_12"
    ],
    "cond_quest": "QE_ST_NO_010150"
  },
  {
    "iname": "JB_BGM_0015",
    "sheet": "BGM_0015",
    "cue": "BGM_0015_juke",
    "section": "JS_ST_002",
    "default_unlock": 1,
    "external_link": 2,
    "rate": 100,
    "range_unit": 0,
    "quests": [
      "QE_ST_NO_020001"
    ],
    "cond_quest": "QE_ST_NO_020001"
  },
  {
    "iname": "JB_BGM_0029",
    "sheet": "BGM_0029",
    "cue": "BGM_0029_juke",
    "section": "JS_ST_002",
    "default_unlock": 1,
    "external_link": 1,
    "rate": 100,
    "range_unit": 1,
    "quests": [
      "AR_02_01",
      "AR_02_02",
      "AR_02_03",
      "AR_02_04",
      "AR_02_05",
      "AR_02_06",
      "AR_02_07",
      "AR_02_08",
      "AR_02_09",
      "AR_02_10",
      "AR_02_11",
      "AR_02_12"
    ],
    "cond_quest": "QE_ST_NO_020120"
  },
  {
    "iname": "JB_BGM_0019",
    "sheet": "BGM_0019",
    "cue": "BGM_0019_juke",
    "section": "JS_ST_003",
    "default_unlock": 1,
    "external_link": 2,
    "rate": 100,
    "range_unit": 0,
    "quests": [
      "QE_ST_NO_030001"
    ],
    "cond_quest": "QE_ST_NO_030001"
  },
  {
    "iname": "JB_BGM_0031",
    "sheet": "BGM_0031",
    "cue": "BGM_0031_juke",
    "section": "JS_ST_003",
    "default_unlock": 1,
    "external_link": 1,
    "rate": 100,
    "range_unit": 1,
    "quests": [
      "AR_03_01",
      "AR_03_02",
      "AR_03_03",
      "AR_03_04",
      "AR_03_05",
      "AR_03_06",
      "AR_03_07",
      "AR_03_08",
      "AR_03_09",
      "AR_03_10",
      "AR_03_11",
      "AR_03_12"
    ],
    "cond_quest": "QE_ST_NO_030120"
  },
  {
    "iname": "JB_BGM_0109",
    "sheet": "BGM_0109",
    "cue": "BGM_0109_juke",
    "section": "JS_ST_003",
    "default_unlock": 1,
    "external_link": 2,
    "rate": 100,
    "range_unit": 1,
    "quests": [
      "AR_03_10",
      "AR_03_11",
      "AR_03_12"
    ],
    "cond_quest": "QE_ST_NO_030120"
  },
  {
    "iname": "JB_BGM_0021",
    "sheet": "BGM_0021",
    "cue": "BGM_0021_juke",
    "section": "JS_ST_004",
    "default_unlock": 1,
    "external_link": 2,
    "rate": 100,
    "range_unit": 0,
    "quests": [
      "QE_ST_NO_040001"
    ],
    "cond_quest": "QE_ST_NO_040001"
  },
  {
    "iname": "JB_BGM_0032",
    "sheet": "BGM_0032",
    "cue": "BGM_0032_juke",
    "section": "JS_ST_004",
    "default_unlock": 1,
    "external_link": 1,
    "rate": 100,
    "range_unit": 1,
    "quests": [
      "AR_04_01",
      "AR_04_02",
      "AR_04_03",
      "AR_04_04",
      "AR_04_05",
      "AR_04_06",
      "AR_04_07",
      "AR_04_08",
      "AR_04_09",
      "AR_04_10",
      "AR_04_11",
      "AR_04_12"
    ],
    "cond_quest": "QE_ST_NO_040120"
  },
  {
    "iname": "JB_BGM_0113",
    "sheet": "BGM_0113",
    "cue": "BGM_0113_juke",
    "section": "JS_ST_004",
    "default_unlock": 1,
    "rate": 100,
    "range_unit": 0,
    "quests": [
      "QE_ST_NO_040099"
    ],
    "cond_quest": "QE_ST_NO_040120"
  },
  {
    "iname": "JB_BGM_0114",
    "sheet": "BGM_0114",
    "cue": "BGM_0114_juke",
    "section": "JS_ST_004",
    "default_unlock": 1,
    "rate": 100,
    "range_unit": 0,
    "quests": [
      "QE_ST_NO_040100",
      "QE_ST_NO_040101",
      "QE_ST_NO_040102",
      "QE_ST_NO_040111",
      "QE_ST_NO_040114",
      "QE_ST_NO_040115",
      "QE_ST_NO_040117",
      "QE_ST_NO_040118"
    ],
    "cond_quest": "QE_ST_NO_040120"
  },
  {
    "iname": "JB_BGM_0017",
    "sheet": "BGM_0017",
    "cue": "BGM_0017_juke",
    "section": "JS_ST_005",
    "default_unlock": 1,
    "external_link": 2,
    "rate": 100,
    "range_unit": 0,
    "quests": [
      "QE_ST_NO_050001"
    ],
    "cond_quest": "QE_ST_NO_050001"
  },
  {
    "iname": "JB_BGM_0030",
    "sheet": "BGM_0030",
    "cue": "BGM_0030_juke",
    "section": "JS_ST_005",
    "default_unlock": 1,
    "external_link": 1,
    "rate": 100,
    "range_unit": 1,
    "quests": [
      "AR_05_01",
      "AR_05_02",
      "AR_05_03",
      "AR_05_04",
      "AR_05_05",
      "AR_05_06",
      "AR_05_07",
      "AR_05_08",
      "AR_05_09",
      "AR_05_10",
      "AR_05_11",
      "AR_05_12",
      "AR_05_13",
      "AR_05_14",
      "AR_05_15"
    ],
    "cond_quest": "QE_ST_NO_050150"
  },
  {
    "iname": "JB_BGM_0127",
    "sheet": "BGM_0127",
    "cue": "BGM_0127_juke",
    "section": "JS_ST_005",
    "default_unlock": 1,
    "rate": 100,
    "range_unit": 0,
    "quests": [
      "QE_ST_NO_050011",
      "QE_ST_NO_050012",
      "QE_ST_NO_050014",
      "QE_ST_NO_050021",
      "QE_ST_NO_050022",
      "QE_ST_NO_050030"
    ],
    "cond_quest": "QE_ST_NO_050150"
  },
  {
    "iname": "JB_BGM_0128",
    "sheet": "BGM_0128",
    "cue": "BGM_0128_juke",
    "section": "JS_ST_005",
    "default_unlock": 1,
    "rate": 100,
    "range_unit": 0,
    "quests": [
      "QE_ST_NO_050017",
      "QE_ST_NO_050023",
      "QE_ST_NO_050024",
      "QE_ST_NO_050026",
      "QE_ST_NO_050027",
      "QE_ST_NO_050028",
      "QE_ST_NO_050029",
      "QE_ST_NO_050037",
      "QE_ST_NO_050038",
      "QE_ST_NO_050039",
      "QE_ST_NO_050041",
      "QE_ST_NO_050042",
      "QE_ST_NO_050058",
      "QE_ST_NO_050104",
      "QE_ST_NO_050134",
      "QE_ST_NO_050135"
    ],
    "cond_quest": "QE_ST_NO_050150"
  },
  {
    "iname": "JB_BGM_0136",
    "sheet": "BGM_0136",
    "cue": "BGM_0136_juke",
    "section": "JS_ST_005",
    "default_unlock": 1,
    "rate": 100,
    "range_unit": 0,
    "quests": [
      "QE_ST_NO_050076",
      "QE_ST_NO_050077",
      "QE_ST_NO_050080",
      "QE_ST_NO_050117",
      "QE_ST_NO_050118",
      "QE_ST_NO_050119",
      "QE_ST_NO_050120",
      "QE_ST_NO_050121",
      "QE_ST_NO_050131",
      "QE_ST_NO_050144",
      "QE_ST_NO_050148"
    ],
    "cond_quest": "QE_ST_NO_050150"
  },
  {
    "iname": "JB_BGM_0023",
    "sheet": "BGM_0023",
    "cue": "BGM_0023_juke",
    "section": "JS_ST_006",
    "default_unlock": 1,
    "external_link": 2,
    "rate": 100,
    "range_unit": 0,
    "quests": [
      "QE_ST_NO_060001"
    ],
    "cond_quest": "QE_ST_NO_060001"
  },
  {
    "iname": "JB_BGM_0033",
    "sheet": "BGM_0033",
    "cue": "BGM_0033_juke",
    "section": "JS_ST_006",
    "default_unlock": 1,
    "external_link": 1,
    "rate": 100,
    "range_unit": 0,
    "quests": [
      "QE_ST_NO_060001"
    ],
    "cond_quest": "QE_ST_NO_060001"
  },
  {
    "iname": "JB_BGM_0047",
    "sheet": "BGM_0047",
    "cue": "BGM_0047_juke",
    "section": "JS_ST_006",
    "default_unlock": 1,
    "rate": 100,
    "range_unit": 0,
    "quests": [
      "QE_ST_NO_060001"
    ],
    "cond_quest": "QE_ST_NO_060001"
  },
  {
    "iname": "JB_BGM_0048",
    "sheet": "BGM_0048",
    "cue": "BGM_0048_juke",
    "section": "JS_ST_006",
    "default_unlock": 1,
    "rate": 100,
    "range_unit": 0,
    "quests": [
      "QE_ST_NO_060001"
    ],
    "cond_quest": "QE_ST_NO_060001"
  },
  {
    "iname": "JB_BGM_0026",
    "sheet": "BGM_0026",
    "cue": "BGM_0026_juke",
    "section": "JS_ST_006",
    "default_unlock": 1,
    "rate": 100,
    "range_unit": 0,
    "quests": [
      "QE_ST_NO_060001"
    ],
    "cond_quest": "QE_ST_NO_060001"
  },
  {
    "iname": "JB_BGM_0014",
    "sheet": "BGM_0014",
    "cue": "BGM_0014_juke",
    "section": "JS_ST_007",
    "default_unlock": 1,
    "rate": 100,
    "range_unit": 0,
    "quests": [
      "QE_ST_NO_070001"
    ],
    "cond_quest": "QE_ST_NO_070001"
  },
  {
    "iname": "JB_BGM_0016",
    "sheet": "BGM_0016",
    "cue": "BGM_0016_juke",
    "section": "JS_ST_007",
    "default_unlock": 1,
    "rate": 100,
    "range_unit": 0,
    "quests": [
      "QE_ST_NO_070001"
    ],
    "cond_quest": "QE_ST_NO_070001"
  },
  {
    "iname": "JB_BGM_0018",
    "sheet": "BGM_0018",
    "cue": "BGM_0018_juke",
    "section": "JS_ST_008",
    "default_unlock": 1,
    "rate": 100,
    "range_unit": 0,
    "quests": [
      "QE_ST_NO_080001"
    ],
    "cond_quest": "QE_ST_NO_080001"
  },
  {
    "iname": "JB_BGM_0020",
    "sheet": "BGM_0020",
    "cue": "BGM_0020_juke",
    "section": "JS_ST_008",
    "default_unlock": 1,
    "rate": 100,
    "range_unit": 0,
    "quests": [
      "QE_ST_NO_080001"
    ],
    "cond_quest": "QE_ST_NO_080001"
  },
  {
    "iname": "JB_BGM_0148",
    "sheet": "BGM_0148",
    "cue": "BGM_0148_juke",
    "section": "JS_ST_009",
    "default_unlock": 1,
    "rate": 100,
    "range_unit": 0,
    "quests": [
      "QE_ST_NO_090001"
    ],
    "cond_quest": "QE_ST_NO_090001"
  },
  {
    "iname": "JB_BGM_0149",
    "sheet": "BGM_0149",
    "cue": "BGM_0149_juke",
    "section": "JS_ST_009",
    "default_unlock": 1,
    "rate": 100,
    "range_unit": 0,
    "quests": [
      "QE_ST_NO_090001"
    ],
    "cond_quest": "QE_ST_NO_090001"
  },
  {
    "iname": "JB_BGM_0150",
    "sheet": "BGM_0150",
    "cue": "BGM_0150_juke",
    "section": "JS_ST_009",
    "default_unlock": 1,
    "rate": 100,
    "range_unit": 0,
    "quests": [
      "QE_ST_NO_090001"
    ],
    "cond_quest": "QE_ST_NO_090001"
  },
  {
    "iname": "JB_BGM_0102",
    "sheet": "BGM_0102",
    "cue": "BGM_0102_juke",
    "section": "JS_ST_100",
    "default_unlock": 1,
    "external_link": 1,
    "rate": 100,
    "range_unit": 0,
    "cond_quest": "TW_BABEL_FLOOR_001"
  },
  {
    "iname": "JB_BGM_0103",
    "sheet": "BGM_0103",
    "cue": "BGM_0103_juke",
    "section": "JS_ST_100",
    "default_unlock": 1,
    "external_link": 2,
    "rate": 100,
    "range_unit": 0,
    "cond_quest": "TW_BABEL_FLOOR_001"
  },
  {
    "iname": "JB_BGM_0104",
    "sheet": "BGM_0104",
    "cue": "BGM_0104_juke",
    "section": "JS_ST_100",
    "default_unlock": 1,
    "external_link": 2,
    "rate": 100,
    "range_unit": 0,
    "cond_quest": "TW_BABEL_FLOOR_007"
  },
  {
    "iname": "JB_BGM_0131",
    "sheet": "BGM_0131",
    "cue": "BGM_0131_juke",
    "section": "JS_ST_100",
    "default_unlock": 1,
    "rate": 100,
    "range_unit": 0,
    "cond_quest": "TW_BABEL_02R_FLOOR_101"
  },
  {
    "iname": "JB_BGM_0132",
    "sheet": "BGM_0132",
    "cue": "BGM_0132_juke",
    "section": "JS_ST_100",
    "default_unlock": 1,
    "rate": 100,
    "range_unit": 0,
    "cond_quest": "TW_BABEL_02R_FLOOR_101"
  },
  {
    "iname": "JB_BGM_0159",
    "sheet": "BGM_0159",
    "cue": "BGM_0159_juke",
    "section": "JS_ST_100",
    "default_unlock": 1,
    "rate": 100,
    "range_unit": 0,
    "quests": [
      "QE_EV_SEISEKI_DJ_10_01",
      "QE_EV_SEISEKI_DJ_10_02",
      "QE_EV_SEISEKI_DJ_10_03",
      "QE_EV_SEISEKI_DJ_10_04",
      "QE_EV_SEISEKI_DJ_10_05",
      "QE_EV_SEISEKI_DJ_10_06",
      "QE_EV_SEISEKI_DJ_10_07",
      "QE_EV_SEISEKI_DJ_10_08",
      "QE_EV_SEISEKI_DJ_10_09",
      "QE_EV_SEISEKI_DJ_10_10",
      "QE_EV_SEISEKI_DJ_11_01",
      "QE_EV_SEISEKI_DJ_11_02",
      "QE_EV_SEISEKI_DJ_11_03",
      "QE_EV_SEISEKI_DJ_11_04",
      "QE_EV_SEISEKI_DJ_11_05",
      "QE_EV_SEISEKI_DJ_11_06",
      "QE_EV_SEISEKI_DJ_11_07",
      "QE_EV_SEISEKI_DJ_11_08",
      "QE_EV_SEISEKI_DJ_11_09",
      "QE_EV_SEISEKI_DJ_11_10",
      "QE_EV_SEISEKI_DJ_11_14",
      "QE_EV_SEISEKI_DJ_11_15",
      "QE_EV_SEISEKI_DJ_11_16",
      "QE_EV_SEISEKI_DJ_11_17",
      "QE_EV_SEISEKI_DJ_11_18",
      "QE_EV_SEISEKI_DJ_11_19",
      "QE_EV_SEISEKI_DJ_11_20"
    ],
    "cond_quest": "QE_EV_SEISEKI_DJ_10_01"
  },
  {
    "iname": "JB_BGM_0160",
    "sheet": "BGM_0160",
    "cue": "BGM_0160_juke",
    "section": "JS_ST_100",
    "default_unlock": 1,
    "rate": 100,
    "range_unit": 0,
    "quests": [
      "QE_EV_SEISEKI_DJ_10_01",
      "QE_EV_SEISEKI_DJ_10_02",
      "QE_EV_SEISEKI_DJ_10_03",
      "QE_EV_SEISEKI_DJ_10_04",
      "QE_EV_SEISEKI_DJ_10_05",
      "QE_EV_SEISEKI_DJ_10_06",
      "QE_EV_SEISEKI_DJ_10_07",
      "QE_EV_SEISEKI_DJ_10_08",
      "QE_EV_SEISEKI_DJ_10_09",
      "QE_EV_SEISEKI_DJ_10_10",
      "QE_EV_SEISEKI_DJ_11_01",
      "QE_EV_SEISEKI_DJ_11_02",
      "QE_EV_SEISEKI_DJ_11_03",
      "QE_EV_SEISEKI_DJ_11_04",
      "QE_EV_SEISEKI_DJ_11_05",
      "QE_EV_SEISEKI_DJ_11_06",
      "QE_EV_SEISEKI_DJ_11_07",
      "QE_EV_SEISEKI_DJ_11_08",
      "QE_EV_SEISEKI_DJ_11_09",
      "QE_EV_SEISEKI_DJ_11_10",
      "QE_EV_SEISEKI_DJ_11_14",
      "QE_EV_SEISEKI_DJ_11_15",
      "QE_EV_SEISEKI_DJ_11_16",
      "QE_EV_SEISEKI_DJ_11_17",
      "QE_EV_SEISEKI_DJ_11_18",
      "QE_EV_SEISEKI_DJ_11_19",
      "QE_EV_SEISEKI_DJ_11_20"
    ],
    "cond_quest": "QE_EV_SEISEKI_DJ_10_01"
  },
  {
    "iname": "JB_BGM_0500",
    "sheet": "BGM_0500",
    "cue": "BGM_0500_juke",
    "section": "JS_ST_100",
    "default_unlock": 1,
    "rate": 100,
    "range_unit": 0,
    "quests": [
      "QE_EV_SEISEKI_DJ_01"
    ],
    "cond_quest": "QE_EV_SEISEKI_DJ_01"
  },
  {
    "iname": "JB_BGM_0501",
    "sheet": "BGM_0501",
    "cue": "BGM_0501_juke",
    "section": "JS_ST_100",
    "default_unlock": 1,
    "rate": 100,
    "range_unit": 0,
    "quests": [
      "QE_EV_SEISEKI_DJ_04",
      "QE_EV_SEISEKI_DJ_05",
      "QE_EV_SEISEKI_DJ_08",
      "QE_EV_SEISEKI_DJ_10",
      "QE_EV_SEISEKI_DJ_2_07",
      "QE_EV_SEISEKI_DJ_2_09",
      "QE_EV_SEISEKI_DJ_2_10",
      "QE_EV_SEISEKI_DJ_3_08",
      "QE_EV_SEISEKI_DJ_3_10",
      "QE_EV_SEISEKI_DJ_4_10",
      "QE_EV_SEISEKI_DJ_5_10",
      "QE_EV_SEISEKI_DJ_6_10",
      "QE_EV_SEISEKI_DJ_7_10",
      "QE_EV_SEISEKI_DJ_8_10",
      "QE_EV_SEISEKI_DJ_9_10",
      "QE_EV_SEISEKI_DJ_10_10",
      "QE_EV_SEISEKI_DJ_11_01",
      "QE_EV_SEISEKI_DJ_11_05",
      "QE_EV_SEISEKI_DJ_11_06",
      "QE_EV_SEISEKI_DJ_11_10",
      "QE_EV_SEISEKI_DJ_11_15",
      "QE_EV_SEISEKI_DJ_11_18",
      "QE_EV_SEISEKI_DJ_11_19",
      "QE_EV_SEISEKI_DJ_11_20"
    ],
    "cond_quest": "QE_EV_SEISEKI_DJ_11_20"
  },
  {
    "iname": "JB_BGM_0111",
    "sheet": "BGM_0111",
    "cue": "BGM_0111_juke",
    "section": "JS_ST_101",
    "default_unlock": 1,
    "rate": 100,
    "range_unit": 0,
    "quests": [
      "QE_EV_BABEL_1_10",
      "QE_EV_BABEL_EA_1_10"
    ],
    "cond_quest": "QE_EV_BABEL_1_10"
  },
  {
    "iname": "JB_BGM_0112",
    "sheet": "BGM_0112",
    "cue": "BGM_0112_juke",
    "section": "JS_ST_101",
    "default_unlock": 1,
    "rate": 100,
    "range_unit": 0,
    "quests": [
      "QE_EV_BABEL_1_01",
      "QE_EV_BABEL_1_02",
      "QE_EV_BABEL_1_03",
      "QE_EV_BABEL_1_04",
      "QE_EV_BABEL_1_05",
      "QE_EV_BABEL_1_06",
      "QE_EV_BABEL_1_07",
      "QE_EV_BABEL_1_08",
      "QE_EV_BABEL_1_09",
      "QE_EV_BABEL_1_10",
      "QE_EV_BABEL_EA_1_01",
      "QE_EV_BABEL_EA_1_02",
      "QE_EV_BABEL_EA_1_03",
      "QE_EV_BABEL_EA_1_04",
      "QE_EV_BABEL_EA_1_05",
      "QE_EV_BABEL_EA_1_06",
      "QE_EV_BABEL_EA_1_07",
      "QE_EV_BABEL_EA_1_08",
      "QE_EV_BABEL_EA_1_09",
      "QE_EV_BABEL_EA_1_10"
    ],
    "cond_quest": "QE_EV_BABEL_1_10"
  },
  {
    "iname": "JB_BGM_0118",
    "sheet": "BGM_0118",
    "cue": "BGM_0118_juke",
    "section": "JS_ST_101",
    "default_unlock": 1,
    "rate": 100,
    "range_unit": 0,
    "quests": [
      "QE_EV_BABEL_2_10",
      "QE_EV_BABEL_EA_2_10"
    ],
    "cond_quest": "QE_EV_BABEL_2_10"
  },
  {
    "iname": "JB_BGM_0119",
    "sheet": "BGM_0119",
    "cue": "BGM_0119_juke",
    "section": "JS_ST_101",
    "default_unlock": 1,
    "rate": 100,
    "range_unit": 0,
    "quests": [
      "QE_EV_BABEL_2_01",
      "QE_EV_BABEL_2_02",
      "QE_EV_BABEL_2_03",
      "QE_EV_BABEL_2_04",
      "QE_EV_BABEL_2_05",
      "QE_EV_BABEL_2_06",
      "QE_EV_BABEL_2_07",
      "QE_EV_BABEL_2_08",
      "QE_EV_BABEL_2_09",
      "QE_EV_BABEL_2_10",
      "QE_EV_BABEL_EA_2_01",
      "QE_EV_BABEL_EA_2_02",
      "QE_EV_BABEL_EA_2_03",
      "QE_EV_BABEL_EA_2_04",
      "QE_EV_BABEL_EA_2_05",
      "QE_EV_BABEL_EA_2_06",
      "QE_EV_BABEL_EA_2_07",
      "QE_EV_BABEL_EA_2_08",
      "QE_EV_BABEL_EA_2_09",
      "QE_EV_BABEL_EA_2_10"
    ],
    "cond_quest": "QE_EV_BABEL_2_10"
  },
  {
    "iname": "JB_BGM_0123",
    "sheet": "BGM_0123",
    "cue": "BGM_0123_juke",
    "section": "JS_ST_101",
    "default_unlock": 1,
    "rate": 100,
    "range_unit": 0,
    "quests": [
      "QE_EV_BABEL_3_10",
      "QE_EV_BABEL_EA_3_10"
    ],
    "cond_quest": "QE_EV_BABEL_3_10"
  },
  {
    "iname": "JB_BGM_0124",
    "sheet": "BGM_0124",
    "cue": "BGM_0124_juke",
    "section": "JS_ST_101",
    "default_unlock": 1,
    "rate": 100,
    "range_unit": 0,
    "quests": [
      "QE_EV_BABEL_3_01",
      "QE_EV_BABEL_3_02",
      "QE_EV_BABEL_3_03",
      "QE_EV_BABEL_3_04",
      "QE_EV_BABEL_3_05",
      "QE_EV_BABEL_3_06",
      "QE_EV_BABEL_3_07",
      "QE_EV_BABEL_3_08",
      "QE_EV_BABEL_3_09",
      "QE_EV_BABEL_3_10",
      "QE_EV_BABEL_EA_3_01",
      "QE_EV_BABEL_EA_3_02",
      "QE_EV_BABEL_EA_3_03",
      "QE_EV_BABEL_EA_3_04",
      "QE_EV_BABEL_EA_3_05",
      "QE_EV_BABEL_EA_3_06",
      "QE_EV_BABEL_EA_3_07",
      "QE_EV_BABEL_EA_3_08",
      "QE_EV_BABEL_EA_3_09",
      "QE_EV_BABEL_EA_3_10"
    ],
    "cond_quest": "QE_EV_BABEL_3_10"
  },
  {
    "iname": "JB_BGM_0129",
    "sheet": "BGM_0129",
    "cue": "BGM_0129_juke",
    "section": "JS_ST_101",
    "default_unlock": 1,
    "rate": 100,
    "range_unit": 0,
    "quests": [
      "QE_EV_BABEL_4_07",
      "QE_EV_BABEL_EA_4_07",
      "QE_EV_BABEL_4_14",
      "QE_EV_BABEL_EA_4_14"
    ],
    "cond_quest": "QE_EV_BABEL_4_07"
  },
  {
    "iname": "JB_BGM_0130",
    "sheet": "BGM_0130",
    "cue": "BGM_0130_juke",
    "section": "JS_ST_101",
    "default_unlock": 1,
    "rate": 100,
    "range_unit": 0,
    "quests": [
      "QE_EV_BABEL_4_01",
      "QE_EV_BABEL_4_02",
      "QE_EV_BABEL_4_03",
      "QE_EV_BABEL_4_04",
      "QE_EV_BABEL_4_05",
      "QE_EV_BABEL_4_06",
      "QE_EV_BABEL_4_07",
      "QE_EV_BABEL_EA_4_01",
      "QE_EV_BABEL_EA_4_02",
      "QE_EV_BABEL_EA_4_03",
      "QE_EV_BABEL_EA_4_04",
      "QE_EV_BABEL_EA_4_05",
      "QE_EV_BABEL_EA_4_06",
      "QE_EV_BABEL_EA_4_07",
      "QE_EV_BABEL_4_08",
      "QE_EV_BABEL_4_09",
      "QE_EV_BABEL_4_10",
      "QE_EV_BABEL_4_11",
      "QE_EV_BABEL_4_12",
      "QE_EV_BABEL_4_13",
      "QE_EV_BABEL_4_14",
      "QE_EV_BABEL_EA_4_08",
      "QE_EV_BABEL_EA_4_09",
      "QE_EV_BABEL_EA_4_10",
      "QE_EV_BABEL_EA_4_11",
      "QE_EV_BABEL_EA_4_12",
      "QE_EV_BABEL_EA_4_13",
      "QE_EV_BABEL_EA_4_14"
    ],
    "cond_quest": "QE_EV_BABEL_EA_4_07"
  },
  {
    "iname": "JB_BGM_0140",
    "sheet": "BGM_0140",
    "cue": "BGM_0140_juke",
    "section": "JS_ST_101",
    "default_unlock": 1,
    "rate": 100,
    "range_unit": 0,
    "quests": [
      "QE_EV_BABEL_5_07",
      "QE_EV_BABEL_EA_5_07",
      "QE_EV_BABEL_5_2_07",
      "QE_EV_BABEL_EA_5_2_07"
    ],
    "cond_quest": "QE_EV_BABEL_5_07"
  },
  {
    "iname": "JB_BGM_0141",
    "sheet": "BGM_0141",
    "cue": "BGM_0141_juke",
    "section": "JS_ST_101",
    "default_unlock": 1,
    "rate": 100,
    "range_unit": 0,
    "quests": [
      "QE_EV_BABEL_5_01",
      "QE_EV_BABEL_5_02",
      "QE_EV_BABEL_5_03",
      "QE_EV_BABEL_5_04",
      "QE_EV_BABEL_5_05",
      "QE_EV_BABEL_5_06",
      "QE_EV_BABEL_5_07",
      "QE_EV_BABEL_EA_5_01",
      "QE_EV_BABEL_EA_5_02",
      "QE_EV_BABEL_EA_5_03",
      "QE_EV_BABEL_EA_5_04",
      "QE_EV_BABEL_EA_5_05",
      "QE_EV_BABEL_EA_5_06",
      "QE_EV_BABEL_EA_5_07"
    ],
    "cond_quest": "QE_EV_BABEL_5_07"
  },
  {
    "iname": "JB_BGM_0043",
    "sheet": "BGM_0043",
    "cue": "BGM_0043_juke",
    "section": "JS_ST_102",
    "default_unlock": 1,
    "rate": 100,
    "range_unit": 0,
    "quests": [
      "QE_EV_GENESIS_0101"
    ],
    "cond_quest": "QE_EV_GENESIS_0114"
  },
  {
    "iname": "JB_BGM_0044",
    "sheet": "BGM_0044",
    "cue": "BGM_0044_juke",
    "section": "JS_ST_102",
    "default_unlock": 1,
    "rate": 100,
    "range_unit": 0,
    "quests": [
      "QE_EV_GENESIS_0101"
    ],
    "cond_quest": "QE_EV_GENESIS_0114"
  },
  {
    "iname": "JB_BGM_0144",
    "sheet": "BGM_0144",
    "cue": "BGM_0144_juke",
    "section": "JS_ST_102",
    "default_unlock": 1,
    "rate": 100,
    "range_unit": 0,
    "quests": [
      "QE_EV_GENESIS_0101"
    ],
    "cond_quest": "QE_EV_GENESIS_0101"
  },
  {
    "iname": "JB_BGM_0145",
    "sheet": "BGM_0145",
    "cue": "BGM_0145_juke",
    "section": "JS_ST_102",
    "default_unlock": 1,
    "rate": 100,
    "range_unit": 0,
    "quests": [
      "QE_EV_GENESIS_0101"
    ],
    "cond_quest": "QE_EV_GENESIS_0101"
  },
  {
    "iname": "JB_BGM_0146",
    "sheet": "BGM_0146",
    "cue": "BGM_0146_juke",
    "section": "JS_ST_102",
    "default_unlock": 1,
    "rate": 100,
    "range_unit": 0,
    "quests": [
      "QE_EV_GENESIS_0101",
      "QE_EV_GENESIS_0102",
      "QE_EV_GENESIS_0103",
      "QE_EV_GENESIS_0104",
      "QE_EV_GENESIS_0105",
      "QE_EV_GENESIS_0106",
      "QE_EV_GENESIS_0107",
      "QE_EV_GENESIS_0108",
      "QE_EV_GENESIS_0109",
      "QE_EV_GENESIS_0110",
      "QE_EV_GENESIS_0111",
      "QE_EV_GENESIS_0112",
      "QE_EV_GENESIS_0113",
      "QE_EV_GENESIS_0114"
    ],
    "cond_quest": "QE_EV_GENESIS_0114"
  },
  {
    "iname": "JB_BGM_0147",
    "sheet": "BGM_0147",
    "cue": "BGM_0147_juke",
    "section": "JS_ST_102",
    "default_unlock": 1,
    "rate": 100,
    "range_unit": 0,
    "quests": [
      "QE_EV_RAID_GENESIS_01",
      "QE_EV_RAID_GENESIS_01_2"
    ],
    "cond_quest": "QE_EV_RAID_GENESIS_01_2"
  },
  {
    "iname": "JB_BGM_0153",
    "sheet": "BGM_0153",
    "cue": "BGM_0153_juke",
    "section": "JS_ST_102",
    "default_unlock": 1,
    "rate": 100,
    "range_unit": 0,
    "quests": [
      "QE_EV_GENESIS_0201"
    ],
    "cond_quest": "QE_EV_GENESIS_0201"
  },
  {
    "iname": "JB_BGM_0154",
    "sheet": "BGM_0154",
    "cue": "BGM_0154_juke",
    "section": "JS_ST_102",
    "default_unlock": 1,
    "rate": 100,
    "range_unit": 0,
    "quests": [
      "QE_EV_GENESIS_0201",
      "QE_EV_GENESIS_0202",
      "QE_EV_GENESIS_0203",
      "QE_EV_GENESIS_0204",
      "QE_EV_GENESIS_0205",
      "QE_EV_GENESIS_0206",
      "QE_EV_GENESIS_0207",
      "QE_EV_GENESIS_0208",
      "QE_EV_GENESIS_0209",
      "QE_EV_GENESIS_0210",
      "QE_EV_GENESIS_0211",
      "QE_EV_GENESIS_0212",
      "QE_EV_GENESIS_0213",
      "QE_EV_GENESIS_0214"
    ],
    "cond_quest": "QE_EV_GENESIS_0214"
  },
  {
    "iname": "JB_BGM_0155",
    "sheet": "BGM_0155",
    "cue": "BGM_0155_juke",
    "section": "JS_ST_102",
    "default_unlock": 1,
    "rate": 100,
    "range_unit": 0,
    "quests": [
      "QE_EV_RAID_GENESIS_02_1",
      "QE_EV_RAID_GENESIS_02_2"
    ],
    "cond_quest": "QE_EV_RAID_GENESIS_02_2"
  },
  {
    "iname": "JB_BGM_0156",
    "sheet": "BGM_0156",
    "cue": "BGM_0156_juke",
    "section": "JS_ST_102",
    "default_unlock": 1,
    "rate": 100,
    "range_unit": 0,
    "quests": [
      "QE_EV_GENESIS_0301"
    ],
    "cond_quest": "QE_EV_GENESIS_0301"
  },
  {
    "iname": "JB_BGM_0157",
    "sheet": "BGM_0157",
    "cue": "BGM_0157_juke",
    "section": "JS_ST_102",
    "default_unlock": 1,
    "rate": 100,
    "range_unit": 0,
    "quests": [
      "QE_EV_GENESIS_0301",
      "QE_EV_GENESIS_0302",
      "QE_EV_GENESIS_0303",
      "QE_EV_GENESIS_0304",
      "QE_EV_GENESIS_0305",
      "QE_EV_GENESIS_0306",
      "QE_EV_GENESIS_0307",
      "QE_EV_GENESIS_0308",
      "QE_EV_GENESIS_0309",
      "QE_EV_GENESIS_0310",
      "QE_EV_GENESIS_0311",
      "QE_EV_GENESIS_0312",
      "QE_EV_GENESIS_0313",
      "QE_EV_GENESIS_0314"
    ],
    "cond_quest": "QE_EV_GENESIS_0314"
  },
  {
    "iname": "JB_BGM_0158",
    "sheet": "BGM_0158",
    "cue": "BGM_0158_juke",
    "section": "JS_ST_102",
    "default_unlock": 1,
    "rate": 100,
    "range_unit": 0,
    "quests": [
      "QE_EV_RAID_GENESIS_03_1",
      "QE_EV_RAID_GENESIS_03_2"
    ],
    "cond_quest": "QE_EV_RAID_GENESIS_03_1"
  },
  {
    "iname": "JB_BGM_0162",
    "sheet": "BGM_0162",
    "cue": "BGM_0162_juke",
    "section": "JS_ST_102",
    "default_unlock": 1,
    "rate": 100,
    "range_unit": 0,
    "quests": [
      "QE_EV_GENESIS_0401"
    ],
    "cond_quest": "QE_EV_GENESIS_0401"
  },
  {
    "iname": "JB_BGM_0163",
    "sheet": "BGM_0163",
    "cue": "BGM_0163_juke",
    "section": "JS_ST_102",
    "default_unlock": 1,
    "rate": 100,
    "range_unit": 0,
    "quests": [
      "QE_EV_RAID_GENESIS_04_2"
    ],
    "cond_quest": "QE_EV_RAID_GENESIS_04_2"
  },
  {
    "iname": "JB_BGM_0165",
    "sheet": "BGM_0165",
    "cue": "BGM_0165_juke",
    "section": "JS_ST_102",
    "default_unlock": 1,
    "rate": 100,
    "range_unit": 0,
    "quests": [
      "QE_EV_GENESIS_0501"
    ],
    "cond_quest": "QE_EV_GENESIS_0501"
  },
  {
    "iname": "JB_BGM_0166",
    "sheet": "BGM_0166",
    "cue": "BGM_0166_juke",
    "section": "JS_ST_102",
    "default_unlock": 1,
    "rate": 100,
    "range_unit": 0,
    "quests": [
      "QE_EV_GENESIS_0501",
      "QE_EV_GENESIS_0502",
      "QE_EV_GENESIS_0503",
      "QE_EV_GENESIS_0504",
      "QE_EV_GENESIS_0505",
      "QE_EV_GENESIS_0506",
      "QE_EV_GENESIS_0507"
    ],
    "cond_quest": "QE_EV_GENESIS_0501"
  },
  {
    "iname": "JB_BGM_0167",
    "sheet": "BGM_0167",
    "cue": "BGM_0167_juke",
    "section": "JS_ST_102",
    "default_unlock": 1,
    "rate": 100,
    "range_unit": 0,
    "quests": [
      "QE_EV_RAID_GENESIS_05_2"
    ],
    "cond_quest": "QE_EV_RAID_GENESIS_05_2"
  },
  {
    "iname": "JB_BGM_0168",
    "sheet": "BGM_0168",
    "cue": "BGM_0168_juke",
    "section": "JS_ST_102",
    "default_unlock": 1,
    "rate": 100,
    "range_unit": 0,
    "quests": [
      "QE_EV_GENESIS_0601"
    ],
    "cond_quest": "QE_EV_GENESIS_0601"
  },
  {
    "iname": "JB_BGM_0169",
    "sheet": "BGM_0169",
    "cue": "BGM_0169_juke",
    "section": "JS_ST_102",
    "default_unlock": 1,
    "rate": 100,
    "range_unit": 0,
    "quests": [
      "QE_EV_GENESIS_0601",
      "QE_EV_GENESIS_0602",
      "QE_EV_GENESIS_0603",
      "QE_EV_GENESIS_0604",
      "QE_EV_GENESIS_0605",
      "QE_EV_GENESIS_0606",
      "QE_EV_GENESIS_0607"
    ],
    "cond_quest": "QE_EV_GENESIS_0601"
  },
  {
    "iname": "JB_BGM_0170",
    "sheet": "BGM_0170",
    "cue": "BGM_0170_juke",
    "section": "JS_ST_102",
    "default_unlock": 1,
    "rate": 100,
    "range_unit": 0,
    "quests": [
      "QE_EV_RAID_GENESIS_06_2"
    ],
    "cond_quest": "QE_EV_RAID_GENESIS_06_2"
  },
  {
    "iname": "JB_BGM_0172",
    "sheet": "BGM_0172",
    "cue": "BGM_0172_juke",
    "section": "JS_ST_999",
    "default_unlock": 1
  },
  {
    "iname": "JB_BGM_0173",
    "sheet": "BGM_0173",
    "cue": "BGM_0173_juke",
    "section": "JS_ST_999",
    "default_unlock": 1
  },
  {
    "iname": "JB_BGM_0174",
    "sheet": "BGM_0174",
    "cue": "BGM_0174_juke",
    "section": "JS_ST_102",
    "default_unlock": 1,
    "rate": 100,
    "range_unit": 0,
    "quests": [
      "QE_EV_GENESIS_0701"
    ],
    "cond_quest": "QE_EV_GENESIS_0701"
  },
  {
    "iname": "JB_BGM_0175",
    "sheet": "BGM_0175",
    "cue": "BGM_0175_juke",
    "section": "JS_ST_102",
    "default_unlock": 1,
    "rate": 100,
    "range_unit": 0,
    "quests": [
      "QE_EV_GENESIS_0701",
      "QE_EV_GENESIS_0702",
      "QE_EV_GENESIS_0703",
      "QE_EV_GENESIS_0704",
      "QE_EV_GENESIS_0705",
      "QE_EV_GENESIS_0706",
      "QE_EV_GENESIS_0707"
    ],
    "cond_quest": "QE_EV_GENESIS_0701"
  },
  {
    "iname": "JB_BGM_0176",
    "sheet": "BGM_0176",
    "cue": "BGM_0176_juke",
    "section": "JS_ST_102",
    "default_unlock": 1,
    "rate": 100,
    "range_unit": 0,
    "quests": [
      "QE_EV_RAID_GENESIS_07_2"
    ],
    "cond_quest": "QE_EV_RAID_GENESIS_07_2"
  },
  {
    "iname": "JB_BGM_0177",
    "sheet": "BGM_0177",
    "cue": "BGM_0177_juke",
    "section": "JS_ST_102",
    "default_unlock": 1,
    "rate": 100,
    "range_unit": 0,
    "quests": [
      "QE_EV_GENESIS_0801"
    ],
    "cond_quest": "QE_EV_GENESIS_0801"
  },
  {
    "iname": "JB_BGM_0178",
    "sheet": "BGM_0178",
    "cue": "BGM_0178_juke",
    "section": "JS_ST_102",
    "default_unlock": 1,
    "rate": 100,
    "range_unit": 0,
    "quests": [
      "QE_EV_GENESIS_0801"
    ],
    "cond_quest": "QE_EV_GENESIS_0801"
  },
  {
    "iname": "JB_BGM_0179",
    "sheet": "BGM_0179",
    "cue": "BGM_0179_juke",
    "section": "JS_ST_102",
    "default_unlock": 1,
    "rate": 100,
    "range_unit": 0,
    "quests": [
      "QE_EV_GENESIS_0801",
      "QE_EV_GENESIS_0802",
      "QE_EV_GENESIS_0803",
      "QE_EV_GENESIS_0804",
      "QE_EV_GENESIS_0805",
      "QE_EV_GENESIS_0806",
      "QE_EV_GENESIS_0807"
    ],
    "cond_quest": "QE_EV_GENESIS_0801"
  },
  {
    "iname": "JB_BGM_0180",
    "sheet": "BGM_0180",
    "cue": "BGM_0180_juke",
    "section": "JS_ST_102",
    "default_unlock": 1,
    "rate": 100,
    "range_unit": 0,
    "quests": [
      "QE_EV_RAID_GENESIS_08_1"
    ],
    "cond_quest": "QE_EV_RAID_GENESIS_08_1"
  },
  {
    "iname": "JB_BGM_0186",
    "sheet": "BGM_0186",
    "cue": "BGM_0186_juke",
    "section": "JS_ST_102",
    "default_unlock": 1,
    "rate": 100,
    "range_unit": 0,
    "quests": [
      "QE_EV_GENESIS_0901"
    ]
  },
  {
    "iname": "JB_BGM_0187",
    "sheet": "BGM_0187",
    "cue": "BGM_0187_juke",
    "section": "JS_ST_102",
    "default_unlock": 1,
    "rate": 100,
    "range_unit": 0,
    "quests": [
      "QE_EV_GENESIS_0901",
      "QE_EV_GENESIS_0902",
      "QE_EV_GENESIS_0903",
      "QE_EV_GENESIS_0904",
      "QE_EV_GENESIS_0905",
      "QE_EV_GENESIS_0906",
      "QE_EV_GENESIS_0907"
    ]
  },
  {
    "iname": "JB_BGM_0188",
    "sheet": "BGM_0188",
    "cue": "BGM_0188_juke",
    "section": "JS_ST_102",
    "default_unlock": 1,
    "rate": 100,
    "range_unit": 0,
    "quests": [
      "QE_EV_RAID_GENESIS_09_3"
    ]
  },
  {
    "iname": "JB_BGM_0181",
    "sheet": "BGM_0181",
    "cue": "BGM_0181_juke",
    "section": "JS_ST_103",
    "default_unlock": 1
  },
  {
    "iname": "JB_BGM_0182",
    "sheet": "BGM_0182",
    "cue": "BGM_0182_juke",
    "section": "JS_ST_103",
    "default_unlock": 1,
    "rate": 100,
    "range_unit": 0,
    "quests": [
      "QE_EV_DRAGONGOD_0101_01",
      "QE_EV_DRAGONGOD_0102_01",
      "QE_EV_DRAGONGOD_0201_01",
      "QE_EV_DRAGONGOD_0202_01",
      "QE_EV_DRAGONGOD_0301_01",
      "QE_EV_DRAGONGOD_0302_01",
      "QE_EV_DRAGONGOD_0401_01",
      "QE_EV_DRAGONGOD_0402_01",
      "QE_EV_DRAGONGOD_0501_01",
      "QE_EV_DRAGONGOD_0502_01",
      "QE_EV_DRAGONGOD_0601_01",
      "QE_EV_DRAGONGOD_0602_01",
      "QE_EV_DRAGONGOD_0701_01",
      "QE_EV_DRAGONGOD_0702_01"
    ],
    "cond_quest": "QE_EV_DRAGONGOD_0101_01"
  },
  {
    "iname": "JB_BGM_0183",
    "sheet": "BGM_0183",
    "cue": "BGM_0183_juke",
    "section": "JS_ST_103",
    "default_unlock": 1
  },
  {
    "iname": "JB_BGM_0184",
    "sheet": "BGM_0184",
    "cue": "BGM_0184_juke",
    "section": "JS_ST_103",
    "default_unlock": 1,
    "rate": 100,
    "range_unit": 0,
    "quests": [
      "QE_EV_DRAGONGOD_0101_01",
      "QE_EV_DRAGONGOD_0101_02",
      "QE_EV_DRAGONGOD_0101_03",
      "QE_EV_DRAGONGOD_0101_04",
      "QE_EV_DRAGONGOD_0101_05",
      "QE_EV_DRAGONGOD_0101_06",
      "QE_EV_DRAGONGOD_0101_07"
    ],
    "cond_quest": "QE_EV_DRAGONGOD_0101_01"
  },
  {
    "iname": "JB_BGM_0185",
    "sheet": "BGM_0185",
    "cue": "BGM_0185_juke",
    "section": "JS_ST_103",
    "default_unlock": 1,
    "rate": 100,
    "range_unit": 0,
    "quests": [
      "QE_EV_DRAGONGOD_0102_01",
      "QE_EV_DRAGONGOD_0102_02",
      "QE_EV_DRAGONGOD_0102_03",
      "QE_EV_DRAGONGOD_0102_04",
      "QE_EV_DRAGONGOD_0102_05",
      "QE_EV_DRAGONGOD_0102_06",
      "QE_EV_DRAGONGOD_0102_07"
    ],
    "cond_quest": "QE_EV_DRAGONGOD_0102_01"
  },
  {
    "iname": "JB_BGM_0189",
    "sheet": "BGM_0189",
    "cue": "BGM_0189_juke",
    "section": "JS_ST_103",
    "default_unlock": 1,
    "rate": 100,
    "range_unit": 0,
    "quests": [
      "QE_EV_DRAGONGOD_0201_01"
    ]
  },
  {
    "iname": "JB_BGM_0190",
    "sheet": "BGM_0190",
    "cue": "BGM_0190_juke",
    "section": "JS_ST_103",
    "default_unlock": 1,
    "rate": 100,
    "range_unit": 0,
    "quests": [
      "QE_EV_DRAGONGOD_0201_01",
      "QE_EV_DRAGONGOD_0201_02",
      "QE_EV_DRAGONGOD_0201_03",
      "QE_EV_DRAGONGOD_0201_04",
      "QE_EV_DRAGONGOD_0201_05",
      "QE_EV_DRAGONGOD_0201_06",
      "QE_EV_DRAGONGOD_0201_07"
    ]
  },
  {
    "iname": "JB_BGM_0191",
    "sheet": "BGM_0191",
    "cue": "BGM_0191_juke",
    "section": "JS_ST_103",
    "default_unlock": 1,
    "rate": 100,
    "range_unit": 0,
    "quests": [
      "QE_EV_DRAGONGOD_0201_01",
      "QE_EV_DRAGONGOD_0201_02",
      "QE_EV_DRAGONGOD_0201_03",
      "QE_EV_DRAGONGOD_0201_04",
      "QE_EV_DRAGONGOD_0201_05",
      "QE_EV_DRAGONGOD_0201_06",
      "QE_EV_DRAGONGOD_0201_07"
    ]
  },
  {
    "iname": "JB_BGM_0192",
    "sheet": "BGM_0192",
    "cue": "BGM_0192_juke",
    "section": "JS_ST_103",
    "default_unlock": 1,
    "rate": 100,
    "range_unit": 0,
    "quests": [
      "QE_EV_DRAGONGOD_0201_01",
      "QE_EV_DRAGONGOD_0201_02",
      "QE_EV_DRAGONGOD_0201_03",
      "QE_EV_DRAGONGOD_0201_04",
      "QE_EV_DRAGONGOD_0201_05",
      "QE_EV_DRAGONGOD_0201_06",
      "QE_EV_DRAGONGOD_0201_07"
    ]
  },
  {
    "iname": "JB_BGM_0193",
    "sheet": "BGM_0193",
    "cue": "BGM_0193_juke",
    "section": "JS_ST_103",
    "default_unlock": 1,
    "rate": 100,
    "range_unit": 0,
    "quests": [
      "QE_EV_DRAGONGOD_0201_01",
      "QE_EV_DRAGONGOD_0201_02",
      "QE_EV_DRAGONGOD_0201_03",
      "QE_EV_DRAGONGOD_0201_04",
      "QE_EV_DRAGONGOD_0201_05",
      "QE_EV_DRAGONGOD_0201_06",
      "QE_EV_DRAGONGOD_0201_07"
    ]
  },
  {
    "iname": "JB_BGM_0196",
    "sheet": "BGM_0196",
    "cue": "BGM_0196_juke",
    "section": "JS_ST_103",
    "default_unlock": 1,
    "rate": 100,
    "range_unit": 0,
    "quests": [
      "QE_EV_DRAGONGOD_0301_01"
    ]
  },
  {
    "iname": "JB_BGM_0197",
    "sheet": "BGM_0197",
    "cue": "BGM_0197_juke",
    "section": "JS_ST_103",
    "default_unlock": 1,
    "rate": 100,
    "range_unit": 0,
    "quests": [
      "QE_EV_DRAGONGOD_0301_01",
      "QE_EV_DRAGONGOD_0301_02",
      "QE_EV_DRAGONGOD_0301_03",
      "QE_EV_DRAGONGOD_0301_04",
      "QE_EV_DRAGONGOD_0301_05",
      "QE_EV_DRAGONGOD_0301_06",
      "QE_EV_DRAGONGOD_0301_07"
    ]
  },
  {
    "iname": "JB_BGM_0199",
    "sheet": "BGM_0199",
    "cue": "BGM_0199_juke",
    "section": "JS_ST_103",
    "default_unlock": 1,
    "rate": 100,
    "range_unit": 0,
    "quests": [
      "QE_EV_DRAGONGOD_0401_01"
    ]
  },
  {
    "iname": "JB_BGM_0200",
    "sheet": "BGM_0200",
    "cue": "BGM_0200_juke",
    "section": "JS_ST_103",
    "default_unlock": 1,
    "rate": 100,
    "range_unit": 0,
    "quests": [
      "QE_EV_DRAGONGOD_0402_01",
      "QE_EV_DRAGONGOD_0402_02",
      "QE_EV_DRAGONGOD_0402_03",
      "QE_EV_DRAGONGOD_0402_04",
      "QE_EV_DRAGONGOD_0402_05",
      "QE_EV_DRAGONGOD_0402_06",
      "QE_EV_DRAGONGOD_0402_07"
    ]
  },
  {
    "iname": "JB_BGM_0201",
    "sheet": "BGM_0201",
    "cue": "BGM_0201_juke",
    "section": "JS_ST_103",
    "default_unlock": 1,
    "rate": 100,
    "range_unit": 0,
    "quests": [
      "QE_EV_DRAGONGOD_0501_01"
    ]
  },
  {
    "iname": "JB_BGM_0202",
    "sheet": "BGM_0202",
    "cue": "BGM_0202_juke",
    "section": "JS_ST_103",
    "default_unlock": 1,
    "rate": 100,
    "range_unit": 0,
    "quests": [
      "QE_EV_DRAGONGOD_0501_01",
      "QE_EV_DRAGONGOD_0501_02",
      "QE_EV_DRAGONGOD_0501_03",
      "QE_EV_DRAGONGOD_0501_04",
      "QE_EV_DRAGONGOD_0501_05",
      "QE_EV_DRAGONGOD_0501_06",
      "QE_EV_DRAGONGOD_0501_07"
    ]
  },
  {
    "iname": "JB_BGM_0206",
    "sheet": "BGM_0206",
    "cue": "BGM_0206_juke",
    "section": "JS_ST_103",
    "default_unlock": 1,
    "rate": 100,
    "range_unit": 0,
    "quests": [
      "QE_EV_DRAGONGOD_0601_01"
    ]
  },
  {
    "iname": "JB_BGM_0207",
    "sheet": "BGM_0207",
    "cue": "BGM_0207_juke",
    "section": "JS_ST_103",
    "default_unlock": 1,
    "rate": 100,
    "range_unit": 0,
    "quests": [
      "QE_EV_DRAGONGOD_0601_01",
      "QE_EV_DRAGONGOD_0601_02",
      "QE_EV_DRAGONGOD_0601_03",
      "QE_EV_DRAGONGOD_0601_04",
      "QE_EV_DRAGONGOD_0601_05",
      "QE_EV_DRAGONGOD_0601_06",
      "QE_EV_DRAGONGOD_0601_07"
    ]
  },
  {
    "iname": "JB_BGM_0208",
    "sheet": "BGM_0208",
    "cue": "BGM_0208_juke",
    "section": "JS_ST_103",
    "default_unlock": 1,
    "rate": 100,
    "range_unit": 0,
    "quests": [
      "QE_EV_DRAGONGOD_0701_01"
    ]
  },
  {
    "iname": "JB_BGM_0209",
    "sheet": "BGM_0209",
    "cue": "BGM_0209_juke",
    "section": "JS_ST_103",
    "default_unlock": 1,
    "rate": 100,
    "range_unit": 0,
    "quests": [
      "QE_EV_DRAGONGOD_0701_01",
      "QE_EV_DRAGONGOD_0701_02",
      "QE_EV_DRAGONGOD_0701_03",
      "QE_EV_DRAGONGOD_0701_04",
      "QE_EV_DRAGONGOD_0701_05",
      "QE_EV_DRAGONGOD_0701_06",
      "QE_EV_DRAGONGOD_0701_07"
    ]
  },
  {
    "iname": "JB_BGM_0034",
    "sheet": "BGM_0034",
    "cue": "BGM_0034_juke",
    "section": "JS_ST_200",
    "default_unlock": 1,
    "external_link": 1
  },
  {
    "iname": "JB_BGM_0035",
    "sheet": "BGM_0035",
    "cue": "BGM_0035_juke",
    "section": "JS_ST_200",
    "default_unlock": 1,
    "external_link": 1
  },
  {
    "iname": "JB_BGM_0036",
    "sheet": "BGM_0036",
    "cue": "BGM_0036_juke",
    "section": "JS_ST_200",
    "default_unlock": 1,
    "external_link": 1
  },
  {
    "iname": "JB_BGM_0037",
    "sheet": "BGM_0037",
    "cue": "BGM_0037_juke",
    "section": "JS_ST_200",
    "default_unlock": 1,
    "external_link": 1
  },
  {
    "iname": "JB_BGM_0038",
    "sheet": "BGM_0038",
    "cue": "BGM_0038_juke",
    "section": "JS_ST_200",
    "default_unlock": 1
  },
  {
    "iname": "JB_BGM_0039",
    "sheet": "BGM_0039",
    "cue": "BGM_0039_juke",
    "section": "JS_ST_200",
    "default_unlock": 1
  },
  {
    "iname": "JB_BGM_0040",
    "sheet": "BGM_0040",
    "cue": "BGM_0040_juke",
    "section": "JS_ST_200",
    "default_unlock": 1
  },
  {
    "iname": "JB_BGM_0041",
    "sheet": "BGM_0041",
    "cue": "BGM_0041_juke",
    "section": "JS_ST_200",
    "default_unlock": 1
  },
  {
    "iname": "JB_BGM_0042",
    "sheet": "BGM_0042",
    "cue": "BGM_0042_juke",
    "section": "JS_ST_200",
    "default_unlock": 1
  },
  {
    "iname": "JB_BGM_0045",
    "sheet": "BGM_0045",
    "cue": "BGM_0045_juke",
    "section": "JS_ST_200",
    "default_unlock": 1
  },
  {
    "iname": "JB_BGM_0046",
    "sheet": "BGM_0046",
    "cue": "BGM_0046_juke",
    "section": "JS_ST_200",
    "default_unlock": 1
  },
  {
    "iname": "JB_BGM_0100",
    "sheet": "BGM_0100",
    "cue": "BGM_0100_juke",
    "section": "JS_ST_200",
    "default_unlock": 1,
    "external_link": 2
  },
  {
    "iname": "JB_BGM_0101",
    "sheet": "BGM_0101",
    "cue": "BGM_0101_juke",
    "section": "JS_ST_200",
    "default_unlock": 1,
    "external_link": 2
  },
  {
    "iname": "JB_BGM_0106",
    "sheet": "BGM_0106",
    "cue": "BGM_0106_juke",
    "section": "JS_ST_200",
    "default_unlock": 1,
    "external_link": 2
  },
  {
    "iname": "JB_BGM_0107",
    "sheet": "BGM_0107",
    "cue": "BGM_0107_juke",
    "section": "JS_ST_200",
    "default_unlock": 1,
    "external_link": 2
  },
  {
    "iname": "JB_BGM_0110",
    "sheet": "BGM_0110",
    "cue": "BGM_0110_juke",
    "section": "JS_ST_200",
    "default_unlock": 1
  },
  {
    "iname": "JB_BGM_0120",
    "sheet": "BGM_0120",
    "cue": "BGM_0120_juke",
    "section": "JS_ST_200",
    "default_unlock": 1
  },
  {
    "iname": "JB_BGM_0121",
    "sheet": "BGM_0121",
    "cue": "BGM_0121_juke",
    "section": "JS_ST_200",
    "default_unlock": 1
  },
  {
    "iname": "JB_BGM_0125",
    "sheet": "BGM_0125",
    "cue": "BGM_0125_juke",
    "section": "JS_ST_200",
    "default_unlock": 1
  },
  {
    "iname": "JB_BGM_0126",
    "sheet": "BGM_0126",
    "cue": "BGM_0126_juke",
    "section": "JS_ST_200",
    "default_unlock": 1
  },
  {
    "iname": "JB_BGM_0133",
    "sheet": "BGM_0133",
    "cue": "BGM_0133_juke",
    "section": "JS_ST_200",
    "default_unlock": 1
  },
  {
    "iname": "JB_BGM_0134",
    "sheet": "BGM_0134",
    "cue": "BGM_0134_juke",
    "section": "JS_ST_200",
    "default_unlock": 1
  },
  {
    "iname": "JB_BGM_0135",
    "sheet": "BGM_0135",
    "cue": "BGM_0135_juke",
    "section": "JS_ST_200",
    "default_unlock": 1
  },
  {
    "iname": "JB_BGM_0137",
    "sheet": "BGM_0137",
    "cue": "BGM_0137_juke",
    "section": "JS_ST_200",
    "default_unlock": 1
  },
  {
    "iname": "JB_BGM_0138",
    "sheet": "BGM_0138",
    "cue": "BGM_0138_juke",
    "section": "JS_ST_200",
    "default_unlock": 1
  },
  {
    "iname": "JB_BGM_0139",
    "sheet": "BGM_0139",
    "cue": "BGM_0139_juke",
    "section": "JS_ST_200",
    "default_unlock": 1
  },
  {
    "iname": "JB_BGM_0152",
    "sheet": "BGM_0152",
    "cue": "BGM_0152_juke",
    "section": "JS_ST_200",
    "default_unlock": 1
  },
  {
    "iname": "JB_BGM_1000",
    "sheet": "BGM_1000",
    "cue": "BGM_1000_juke",
    "section": "JS_ST_200",
    "default_unlock": 1
  },
  {
    "iname": "JB_BGM_1063",
    "sheet": "BGM_1063",
    "cue": "BGM_1063_juke",
    "section": "JS_ST_200",
    "default_unlock": 1,
    "external_link": 3
  },
  {
    "iname": "JB_BGM_1069",
    "sheet": "BGM_1069",
    "cue": "BGM_1069_juke",
    "section": "JS_ST_200",
    "default_unlock": 1
  },
  {
    "iname": "JB_BGM_1070",
    "sheet": "BGM_1070",
    "cue": "BGM_1070_juke",
    "section": "JS_ST_200",
    "default_unlock": 1,
    "external_link": 4
  },
  {
    "iname": "JB_BGM_1074",
    "sheet": "BGM_1074",
    "cue": "BGM_1074_juke",
    "section": "JS_ST_200",
    "default_unlock": 1,
    "external_link": 5
  },
  {
    "iname": "JB_BGM_1010",
    "sheet": "BGM_1010",
    "cue": "BGM_1010_juke",
    "section": "JS_ST_200",
    "default_unlock": 1,
    "external_link": 2
  },
  {
    "iname": "JB_BGM_1011",
    "sheet": "BGM_1011",
    "cue": "BGM_1011_juke",
    "section": "JS_ST_200",
    "default_unlock": 1,
    "external_link": 2
  },
  {
    "iname": "JB_BGM_1012",
    "sheet": "BGM_1012",
    "cue": "BGM_1012_juke",
    "section": "JS_ST_200",
    "default_unlock": 1,
    "external_link": 1
  },
  {
    "iname": "JB_BGM_1013",
    "sheet": "BGM_1013",
    "cue": "BGM_1013_juke",
    "section": "JS_ST_200",
    "default_unlock": 1,
    "external_link": 1
  },
  {
    "iname": "JB_BGM_1028",
    "sheet": "BGM_1028",
    "cue": "BGM_1028_juke",
    "section": "JS_ST_200",
    "default_unlock": 1,
    "external_link": 2
  },
  {
    "iname": "JB_BGM_1041",
    "sheet": "BGM_1041",
    "cue": "BGM_1041_juke",
    "section": "JS_ST_200",
    "default_unlock": 1
  },
  {
    "iname": "JB_BGM_1042",
    "sheet": "BGM_1042",
    "cue": "BGM_1042_juke",
    "section": "JS_ST_200",
    "default_unlock": 1
  },
  {
    "iname": "JB_BGM_1044",
    "sheet": "BGM_1044",
    "cue": "BGM_1044_juke",
    "section": "JS_ST_200",
    "default_unlock": 1
  },
  {
    "iname": "JB_BGM_1045",
    "sheet": "BGM_1045",
    "cue": "BGM_1045_juke",
    "section": "JS_ST_200",
    "default_unlock": 1
  },
  {
    "iname": "JB_BGM_1053",
    "sheet": "BGM_1053",
    "cue": "BGM_1053_juke",
    "section": "JS_ST_200",
    "default_unlock": 1
  },
  {
    "iname": "JB_BGM_1054",
    "sheet": "BGM_1054",
    "cue": "BGM_1054_juke",
    "section": "JS_ST_200",
    "default_unlock": 1
  },
  {
    "iname": "JB_BGM_1056",
    "sheet": "BGM_1056",
    "cue": "BGM_1056_juke",
    "section": "JS_ST_200",
    "default_unlock": 1
  },
  {
    "iname": "JB_BGM_1057",
    "sheet": "BGM_1057",
    "cue": "BGM_1057_juke",
    "section": "JS_ST_200",
    "default_unlock": 1
  },
  {
    "iname": "JB_BGM_1058",
    "sheet": "BGM_1058",
    "cue": "BGM_1058_juke",
    "section": "JS_ST_200",
    "default_unlock": 1
  },
  {
    "iname": "JB_BGM_1059",
    "sheet": "BGM_1059",
    "cue": "BGM_1059_juke",
    "section": "JS_ST_200",
    "default_unlock": 1
  },
  {
    "iname": "JB_BGM_1060",
    "sheet": "BGM_1060",
    "cue": "BGM_1060_juke",
    "section": "JS_ST_200",
    "default_unlock": 1
  },
  {
    "iname": "JB_BGM_1071",
    "sheet": "BGM_1071",
    "cue": "BGM_1071_juke",
    "section": "JS_ST_200",
    "default_unlock": 1,
    "rate": 100,
    "range_unit": 0,
    "quests": [
      "QE_EV_GT_01_01",
      "QE_EV_GT_01_02",
      "QE_EV_GT_01_03",
      "QE_EV_GT_01_04",
      "QE_EV_GT_01_05",
      "QE_EV_GT_01_06",
      "QE_EV_GT_01_07"
    ]
  },
  {
    "iname": "JB_BGM_1072",
    "sheet": "BGM_1072",
    "cue": "BGM_1072_juke",
    "section": "JS_ST_200",
    "default_unlock": 1,
    "rate": 100,
    "range_unit": 0,
    "quests": [
      "QE_EV_JK_01_01",
      "QE_EV_JK_01_02",
      "QE_EV_JK_01_03",
      "QE_EV_JK_01_04",
      "QE_EV_JK_01_05",
      "QE_EV_JK_01_06",
      "QE_EV_JK_01_07"
    ]
  },
  {
    "iname": "JB_BGM_0001",
    "sheet": "BGM_0001",
    "cue": "BGM_0001_juke",
    "section": "JS_ST_999",
    "default_unlock": 1,
    "external_link": 1
  },
  {
    "iname": "JB_BGM_0002",
    "sheet": "BGM_0002",
    "cue": "BGM_0002_juke",
    "section": "JS_ST_999",
    "default_unlock": 1,
    "external_link": 1
  },
  {
    "iname": "JB_BGM_0004",
    "sheet": "BGM_0004",
    "cue": "BGM_0004_juke",
    "section": "JS_ST_999",
    "default_unlock": 1,
    "external_link": 1
  },
  {
    "iname": "JB_BGM_0005",
    "sheet": "BGM_0005",
    "cue": "BGM_0005_juke",
    "section": "JS_ST_999",
    "default_unlock": 1,
    "external_link": 1
  },
  {
    "iname": "JB_BGM_0006",
    "sheet": "BGM_0006",
    "cue": "BGM_0006_juke",
    "section": "JS_ST_999",
    "default_unlock": 1,
    "external_link": 1
  },
  {
    "iname": "JB_BGM_0007",
    "sheet": "BGM_0007",
    "cue": "BGM_0007_juke",
    "section": "JS_ST_999",
    "default_unlock": 1,
    "external_link": 2
  },
  {
    "iname": "JB_BGM_0008",
    "sheet": "BGM_0008",
    "cue": "BGM_0008_juke",
    "section": "JS_ST_999",
    "default_unlock": 1
  },
  {
    "iname": "JB_BGM_0115",
    "sheet": "BGM_0115",
    "cue": "BGM_0115_juke",
    "section": "JS_ST_999",
    "default_unlock": 1
  },
  {
    "iname": "JB_BGM_0116",
    "sheet": "BGM_0116",
    "cue": "BGM_0116_juke",
    "section": "JS_ST_999",
    "default_unlock": 1
  },
  {
    "iname": "JB_BGM_0117",
    "sheet": "BGM_0117",
    "cue": "BGM_0117_juke",
    "section": "JS_ST_999",
    "default_unlock": 1
  },
  {
    "iname": "JB_BGM_0122",
    "sheet": "BGM_0122",
    "cue": "BGM_0122_juke",
    "section": "JS_ST_999",
    "default_unlock": 1
  },
  {
    "iname": "JB_BGM_0142",
    "sheet": "BGM_0142",
    "cue": "BGM_0142_juke",
    "section": "JS_ST_999",
    "default_unlock": 1
  },
  {
    "iname": "JB_BGM_0164",
    "sheet": "BGM_0164",
    "cue": "BGM_0164_juke",
    "section": "JS_ST_999",
    "default_unlock": 1
  },
  {
    "iname": "JB_BGM_0204",
    "sheet": "BGM_0204",
    "cue": "BGM_0204_juke",
    "section": "JS_ST_999",
    "default_unlock": 1
  },
  {
    "iname": "JB_BGM_0205",
    "sheet": "BGM_0205",
    "cue": "BGM_0205_juke",
    "section": "JS_ST_999",
    "default_unlock": 1
  }
]