[
  {
    "iname": "LOGIN_INFO_001",
    "path": "LoginInfo/002",
    "scene": 0,
    "begin_at": "2024/4/1 0:00:00",
    "end_at": "2024/4/11 14:29:59",
    "conditions": 0,
    "movie": "movies/logininfo/appeal/loginfo_aipril2024"
  },
  {
    "iname": "LOGIN_INFO_002",
    "path": "LoginInfo/003",
    "scene": 1,
    "begin_at": "2024/4/1 0:00:00",
    "end_at": "2024/4/18 14:59:59",
    "conditions": 0
  },
  {
    "iname": "LOGIN_INFO_003",
    "path": "LoginInfo/004",
    "scene": 1,
    "begin_at": "2024/4/1 0:00:00",
    "end_at": "2024/4/18 14:59:59",
    "conditions": 0
  },
  {
    "iname": "LOGIN_INFO_004",
    "path": "LoginInfo/005",
    "scene": 1,
    "begin_at": "2024/04/11 14:30:00",
    "end_at": "2024/04/28 23:59:59",
    "conditions": 0
  },
  {
    "iname": "LOGIN_INFO_005",
    "path": "LoginInfo/006",
    "scene": 1,
    "begin_at": "2024/07/25 15:00:00",
    "end_at": "2024/08/08 14:29:59",
    "conditions": 0
  },
  {
    "iname": "LOGIN_INFO_006",
    "path": "LoginInfo/007",
    "scene": 0,
    "begin_at": "2024/05/23 15:00:00",
    "end_at": "2024/05/31 23:59:59",
    "conditions": 0
  },
  {
    "iname": "LOGIN_INFO_007",
    "path": "LoginInfo/008",
    "scene": 0,
    "begin_at": "2024/07/19 0:00:00",
    "end_at": "2024/08/22 23:59:59",
    "conditions": 0
  },
  {
    "iname": "LOGIN_INFO_008",
    "path": "LoginInfo/009",
    "scene": 1,
    "begin_at": "2024/01/27 15:00:00",
    "end_at": "2024/02/02 23:59:59",
    "conditions": 0
  },
  {
    "iname": "LOGIN_INFO_009",
    "path": "LoginInfo/010",
    "scene": 1,
    "begin_at": "2024/02/03 0:00:00",
    "end_at": "2024/02/08 23:59:59",
    "conditions": 0
  },
  {
    "iname": "LOGIN_INFO_010",
    "path": "LoginInfo/011",
    "scene": 1,
    "begin_at": "2024/07/18 15:00:00",
    "end_at": "2024/07/31 23:59:59",
    "conditions": 0
  },
  {
    "iname": "LOGIN_INFO_011",
    "path": "LoginInfo/012",
    "scene": 1,
    "begin_at": "2024/4/18 15:00:00",
    "end_at": "2024/4/30 23:59:59",
    "conditions": 0,
    "movie": "movies/logininfo/appeal/loginfo_mikabosi"
  },
  {
    "iname": "LOGIN_INFO_012",
    "path": "LoginInfo/013",
    "scene": 1,
    "begin_at": "2024/09/01 0:00:00",
    "end_at": "2024/09/19 14:59:59",
    "conditions": 0
  },
  {
    "iname": "LOGIN_INFO_013",
    "path": "LoginInfo/014",
    "scene": 1,
    "begin_at": "2024/8/15 15:00:00",
    "end_at": "2024/8/31 23:59:59",
    "conditions": 0
  },
  {
    "iname": "LOGIN_INFO_014",
    "path": "LoginInfo/015",
    "scene": 1,
    "begin_at": "2024/09/01 0:00:00",
    "end_at": "2024/09/19 14:59:59",
    "conditions": 0,
    "priority": 1,
    "draw_count": 1,
    "movie_compel": 1,
    "movie": "movies/logininfo/appeal/loginfo_aman_link"
  },
  {
    "iname": "LOGIN_INFO_015",
    "path": "LoginInfo/016",
    "scene": 1,
    "begin_at": "2024/09/01 0:00:00",
    "end_at": "2024/09/19 14:59:59",
    "conditions": 0
  },
  {
    "iname": "LOGIN_INFO_016",
    "path": "LoginInfo/017",
    "scene": 1,
    "begin_at": "2024/09/01 0:00:00",
    "end_at": "2024/09/19 14:59:59",
    "conditions": 0
  },
  {
    "iname": "LOGIN_INFO_017",
    "path": "LoginInfo/018",
    "scene": 1,
    "begin_at": "2020/04/09 15:00:00",
    "end_at": "2020/04/16 14:59:59",
    "conditions": 0
  }
]