[
  {
    "reward_id": "MASTERY_REWARD_1",
    "achieve_num": 1,
    "rank": 1,
    "emblem_path": "MasteryEmblem_001",
    "rewards": [
      {
        "type": 0,
        "iname": "IT_APUP_02",
        "num": 50
      },
      {
        "type": 0,
        "iname": "IT_UG_APPLE7",
        "num": 500
      }
    ]
  },
  {
    "reward_id": "MASTERY_REWARD_2",
    "achieve_num": 5,
    "rank": 2,
    "emblem_path": "MasteryEmblem_002",
    "rewards": [
      {
        "type": 0,
        "iname": "IT_APUP_02",
        "num": 50
      },
      {
        "type": 0,
        "iname": "IT_PI_COMMON_ALL",
        "num": 375
      }
    ]
  },
  {
    "reward_id": "MASTERY_REWARD_3",
    "achieve_num": 15,
    "rank": 3,
    "emblem_path": "MasteryEmblem_003",
    "rewards": [
      {
        "type": 0,
        "iname": "IT_APUP_02",
        "num": 50
      },
      {
        "type": 0,
        "iname": "IT_RUNE_RESET_ITEM",
        "num": 500
      },
      {
        "type": 0,
        "iname": "IT_RUNE_STATUS_HUMMER_ITEM",
        "num": 250
      }
    ]
  },
  {
    "reward_id": "MASTERY_REWARD_4",
    "achieve_num": 20,
    "rank": 4,
    "emblem_path": "MasteryEmblem_004",
    "rewards": [
      {
        "type": 0,
        "iname": "IT_APUP_02",
        "num": 50
      },
      {
        "type": 0,
        "iname": "IT_SC_KAKUSEI_01",
        "num": 150
      },
      {
        "type": 0,
        "iname": "IT_SC_KAKUSEI_02",
        "num": 200
      }
    ]
  },
  {
    "reward_id": "MASTERY_REWARD_5",
    "achieve_num": 25,
    "rank": 5,
    "emblem_path": "MasteryEmblem_005",
    "rewards": [
      {
        "type": 0,
        "iname": "IT_APUP_02",
        "num": 50
      },
      {
        "type": 0,
        "iname": "IT_SI_RELIEF_TICKET",
        "num": 1
      }
    ]
  },
  {
    "reward_id": "MASTERY_REWARD_6",
    "achieve_num": 30,
    "rank": 6,
    "emblem_path": "MasteryEmblem_006",
    "rewards": [
      {
        "type": 6,
        "iname": "AF_ACCS_MASTERY_01",
        "num": 1
      },
      {
        "type": 0,
        "iname": "IT_APUP_02",
        "num": 100
      },
      {
        "type": 0,
        "iname": "IT_UG_APPLE7",
        "num": 750
      },
      {
        "type": 2,
        "num": 2500
      }
    ]
  },
  {
    "reward_id": "MASTERY_REWARD_7",
    "achieve_num": 40,
    "rank": 7,
    "emblem_path": "MasteryEmblem_007",
    "rewards": [
      {
        "type": 0,
        "iname": "IT_APUP_02",
        "num": 100
      },
      {
        "type": 0,
        "iname": "IT_PI_COMMON_ALL",
        "num": 375
      }
    ]
  },
  {
    "reward_id": "MASTERY_REWARD_8",
    "achieve_num": 50,
    "rank": 8,
    "emblem_path": "MasteryEmblem_008",
    "rewards": [
      {
        "type": 0,
        "iname": "IT_APUP_02",
        "num": 100
      },
      {
        "type": 0,
        "iname": "IT_RUNE_RESET_ITEM",
        "num": 750
      },
      {
        "type": 0,
        "iname": "IT_RUNE_STATUS_HUMMER_ITEM",
        "num": 375
      }
    ]
  },
  {
    "reward_id": "MASTERY_REWARD_9",
    "achieve_num": 60,
    "rank": 9,
    "emblem_path": "MasteryEmblem_009",
    "rewards": [
      {
        "type": 0,
        "iname": "IT_APUP_02",
        "num": 100
      },
      {
        "type": 0,
        "iname": "IT_SC_KAKUSEI_01",
        "num": 150
      },
      {
        "type": 0,
        "iname": "IT_SC_KAKUSEI_02",
        "num": 200
      }
    ]
  },
  {
    "reward_id": "MASTERY_REWARD_10",
    "achieve_num": 70,
    "rank": 10,
    "emblem_path": "MasteryEmblem_010",
    "rewards": [
      {
        "type": 0,
        "iname": "IT_APUP_02",
        "num": 100
      },
      {
        "type": 0,
        "iname": "IT_SI_RELIEF_TICKET",
        "num": 2
      }
    ]
  },
  {
    "reward_id": "MASTERY_REWARD_11",
    "achieve_num": 80,
    "rank": 11,
    "emblem_path": "MasteryEmblem_011",
    "rewards": [
      {
        "type": 6,
        "iname": "AF_ACCS_MASTERY_02",
        "num": 1
      },
      {
        "type": 0,
        "iname": "IT_APUP_02",
        "num": 150
      },
      {
        "type": 0,
        "iname": "IT_UG_APPLE7",
        "num": 1125
      },
      {
        "type": 2,
        "num": 2500
      }
    ]
  },
  {
    "reward_id": "MASTERY_REWARD_12",
    "achieve_num": 90,
    "rank": 12,
    "emblem_path": "MasteryEmblem_012",
    "rewards": [
      {
        "type": 0,
        "iname": "IT_APUP_02",
        "num": 150
      },
      {
        "type": 0,
        "iname": "IT_PI_COMMON_ALL",
        "num": 375
      }
    ]
  },
  {
    "reward_id": "MASTERY_REWARD_13",
    "achieve_num": 100,
    "rank": 13,
    "emblem_path": "MasteryEmblem_013",
    "rewards": [
      {
        "type": 0,
        "iname": "IT_APUP_02",
        "num": 150
      },
      {
        "type": 0,
        "iname": "IT_RUNE_RESET_ITEM",
        "num": 1125
      },
      {
        "type": 0,
        "iname": "IT_RUNE_STATUS_HUMMER_ITEM",
        "num": 550
      }
    ]
  },
  {
    "reward_id": "MASTERY_REWARD_14",
    "achieve_num": 110,
    "rank": 14,
    "emblem_path": "MasteryEmblem_014",
    "rewards": [
      {
        "type": 0,
        "iname": "IT_APUP_02",
        "num": 150
      },
      {
        "type": 0,
        "iname": "IT_SC_KAKUSEI_01",
        "num": 150
      },
      {
        "type": 0,
        "iname": "IT_SC_KAKUSEI_02",
        "num": 200
      }
    ]
  },
  {
    "reward_id": "MASTERY_REWARD_15",
    "achieve_num": 120,
    "rank": 15,
    "emblem_path": "MasteryEmblem_015",
    "rewards": [
      {
        "type": 0,
        "iname": "IT_APUP_02",
        "num": 150
      },
      {
        "type": 0,
        "iname": "IT_SI_RELIEF_TICKET",
        "num": 3
      }
    ]
  },
  {
    "reward_id": "MASTERY_REWARD_16",
    "achieve_num": 130,
    "rank": 16,
    "emblem_path": "MasteryEmblem_016",
    "rewards": [
      {
        "type": 6,
        "iname": "AF_ACCS_MASTERY_03",
        "num": 1
      },
      {
        "type": 0,
        "iname": "IT_APUP_02",
        "num": 200
      },
      {
        "type": 0,
        "iname": "IT_UG_APPLE7",
        "num": 1650
      },
      {
        "type": 2,
        "num": 2500
      }
    ]
  },
  {
    "reward_id": "MASTERY_REWARD_17",
    "achieve_num": 140,
    "rank": 17,
    "emblem_path": "MasteryEmblem_017",
    "rewards": [
      {
        "type": 0,
        "iname": "IT_APUP_02",
        "num": 200
      },
      {
        "type": 0,
        "iname": "IT_PI_COMMON_ALL",
        "num": 375
      }
    ]
  },
  {
    "reward_id": "MASTERY_REWARD_18",
    "achieve_num": 150,
    "rank": 18,
    "emblem_path": "MasteryEmblem_018",
    "rewards": [
      {
        "type": 0,
        "iname": "IT_APUP_02",
        "num": 200
      },
      {
        "type": 0,
        "iname": "IT_RUNE_RESET_ITEM",
        "num": 1650
      },
      {
        "type": 0,
        "iname": "IT_RUNE_STATUS_HUMMER_ITEM",
        "num": 825
      }
    ]
  },
  {
    "reward_id": "MASTERY_REWARD_19",
    "achieve_num": 170,
    "rank": 19,
    "emblem_path": "MasteryEmblem_019",
    "rewards": [
      {
        "type": 0,
        "iname": "IT_APUP_02",
        "num": 200
      },
      {
        "type": 0,
        "iname": "IT_SC_KAKUSEI_01",
        "num": 450
      },
      {
        "type": 0,
        "iname": "IT_SC_KAKUSEI_02",
        "num": 600
      }
    ]
  },
  {
    "reward_id": "MASTERY_REWARD_20",
    "achieve_num": 190,
    "rank": 20,
    "emblem_path": "MasteryEmblem_020",
    "rewards": [
      {
        "type": 0,
        "iname": "IT_APUP_02",
        "num": 200
      },
      {
        "type": 0,
        "iname": "IT_SI_RELIEF_TICKET",
        "num": 4
      }
    ]
  },
  {
    "reward_id": "MASTERY_REWARD_21",
    "achieve_num": 210,
    "rank": 21,
    "emblem_path": "MasteryEmblem_021",
    "rewards": [
      {
        "type": 6,
        "iname": "AF_ACCS_MASTERY_04",
        "num": 1
      },
      {
        "type": 0,
        "iname": "IT_APUP_02",
        "num": 250
      },
      {
        "type": 0,
        "iname": "IT_UG_APPLE7",
        "num": 2475
      },
      {
        "type": 2,
        "num": 2500
      }
    ]
  },
  {
    "reward_id": "MASTERY_REWARD_22",
    "achieve_num": 230,
    "rank": 22,
    "emblem_path": "MasteryEmblem_022",
    "rewards": [
      {
        "type": 0,
        "iname": "IT_APUP_02",
        "num": 250
      },
      {
        "type": 0,
        "iname": "IT_PI_COMMON_ALL",
        "num": 375
      }
    ]
  },
  {
    "reward_id": "MASTERY_REWARD_23",
    "achieve_num": 250,
    "rank": 23,
    "emblem_path": "MasteryEmblem_023",
    "rewards": [
      {
        "type": 0,
        "iname": "IT_APUP_02",
        "num": 250
      },
      {
        "type": 0,
        "iname": "IT_RUNE_RESET_ITEM",
        "num": 2475
      },
      {
        "type": 0,
        "iname": "IT_RUNE_STATUS_HUMMER_ITEM",
        "num": 1235
      }
    ]
  },
  {
    "reward_id": "MASTERY_REWARD_24",
    "achieve_num": 270,
    "rank": 24,
    "emblem_path": "MasteryEmblem_024",
    "rewards": [
      {
        "type": 0,
        "iname": "IT_APUP_02",
        "num": 250
      },
      {
        "type": 0,
        "iname": "IT_SC_KAKUSEI_01",
        "num": 600
      },
      {
        "type": 0,
        "iname": "IT_SC_KAKUSEI_02",
        "num": 800
      }
    ]
  },
  {
    "reward_id": "MASTERY_REWARD_25",
    "achieve_num": 290,
    "rank": 25,
    "emblem_path": "MasteryEmblem_025",
    "rewards": [
      {
        "type": 0,
        "iname": "IT_APUP_02",
        "num": 250
      },
      {
        "type": 0,
        "iname": "IT_SI_RELIEF_TICKET",
        "num": 5
      }
    ]
  },
  {
    "reward_id": "MASTERY_REWARD_26",
    "achieve_num": 310,
    "rank": 26,
    "emblem_path": "MasteryEmblem_026",
    "rewards": [
      {
        "type": 6,
        "iname": "AF_ACCS_MASTERY_05",
        "num": 1
      },
      {
        "type": 0,
        "iname": "IT_APUP_02",
        "num": 300
      },
      {
        "type": 0,
        "iname": "IT_RUNE_PERSONAL_01",
        "num": 50
      },
      {
        "type": 2,
        "num": 2500
      }
    ]
  },
  {
    "reward_id": "MASTERY_REWARD_27",
    "achieve_num": 330,
    "rank": 27,
    "emblem_path": "MasteryEmblem_027",
    "rewards": [
      {
        "type": 0,
        "iname": "IT_APUP_02",
        "num": 300
      },
      {
        "type": 0,
        "iname": "IT_PI_COMMON_ALL",
        "num": 375
      }
    ]
  },
  {
    "reward_id": "MASTERY_REWARD_28",
    "achieve_num": 350,
    "rank": 28,
    "emblem_path": "MasteryEmblem_028",
    "rewards": [
      {
        "type": 0,
        "iname": "IT_APUP_02",
        "num": 300
      },
      {
        "type": 0,
        "iname": "IT_RUNE_RESET_ITEM",
        "num": 3000
      },
      {
        "type": 0,
        "iname": "IT_RUNE_STATUS_HUMMER_ITEM",
        "num": 1500
      }
    ]
  },
  {
    "reward_id": "MASTERY_REWARD_29",
    "achieve_num": 375,
    "rank": 29,
    "emblem_path": "MasteryEmblem_029",
    "rewards": [
      {
        "type": 0,
        "iname": "IT_APUP_02",
        "num": 300
      },
      {
        "type": 0,
        "iname": "IT_AF_STONE_COMMON",
        "num": 1000
      }
    ]
  },
  {
    "reward_id": "MASTERY_REWARD_30",
    "achieve_num": 400,
    "rank": 30,
    "emblem_path": "MasteryEmblem_030",
    "rewards": [
      {
        "type": 0,
        "iname": "IT_APUP_02",
        "num": 300
      },
      {
        "type": 0,
        "iname": "IT_PI_COMMON_AWAKE_ALL",
        "num": 2500
      }
    ]
  }
]