[
  {
    "pt": 60,
    "ucap": 20,
    "icap": 20,
    "ecap": 20,
    "fcap": 20
  },
  {
    "pt": 62,
    "ucap": 21,
    "icap": 20,
    "ecap": 20,
    "fcap": 20
  },
  {
    "pt": 63,
    "ucap": 22,
    "icap": 20,
    "ecap": 20,
    "fcap": 20
  },
  {
    "pt": 64,
    "ucap": 23,
    "icap": 20,
    "ecap": 20,
    "fcap": 20
  },
  {
    "pt": 65,
    "ucap": 24,
    "icap": 20,
    "ecap": 20,
    "fcap": 20
  },
  {
    "pt": 66,
    "ucap": 25,
    "icap": 20,
    "ecap": 20,
    "fcap": 20
  },
  {
    "pt": 67,
    "ucap": 26,
    "icap": 20,
    "ecap": 20,
    "fcap": 20
  },
  {
    "pt": 68,
    "ucap": 27,
    "icap": 20,
    "ecap": 20,
    "fcap": 20
  },
  {
    "pt": 69,
    "ucap": 28,
    "icap": 20,
    "ecap": 20,
    "fcap": 20
  },
  {
    "pt": 70,
    "ucap": 29,
    "icap": 20,
    "ecap": 20,
    "fcap": 20
  },
  {
    "pt": 71,
    "ucap": 30,
    "icap": 20,
    "ecap": 20,
    "fcap": 20
  },
  {
    "pt": 72,
    "ucap": 31,
    "icap": 20,
    "ecap": 20,
    "fcap": 20
  },
  {
    "pt": 73,
    "ucap": 32,
    "icap": 20,
    "ecap": 20,
    "fcap": 20
  },
  {
    "pt": 74,
    "ucap": 33,
    "icap": 20,
    "ecap": 20,
    "fcap": 20
  },
  {
    "pt": 75,
    "ucap": 34,
    "icap": 20,
    "ecap": 20,
    "fcap": 20
  },
  {
    "pt": 76,
    "ucap": 35,
    "icap": 20,
    "ecap": 20,
    "fcap": 20
  },
  {
    "pt": 77,
    "ucap": 36,
    "icap": 20,
    "ecap": 20,
    "fcap": 20
  },
  {
    "pt": 78,
    "ucap": 37,
    "icap": 20,
    "ecap": 20,
    "fcap": 20
  },
  {
    "pt": 79,
    "ucap": 38,
    "icap": 20,
    "ecap": 20,
    "fcap": 20
  },
  {
    "pt": 80,
    "ucap": 39,
    "icap": 20,
    "ecap": 20,
    "fcap": 20
  },
  {
    "pt": 81,
    "ucap": 40,
    "icap": 20,
    "ecap": 20,
    "fcap": 20
  },
  {
    "pt": 82,
    "ucap": 41,
    "icap": 20,
    "ecap": 20,
    "fcap": 20
  },
  {
    "pt": 83,
    "ucap": 42,
    "icap": 20,
    "ecap": 20,
    "fcap": 20
  },
  {
    "pt": 84,
    "ucap": 43,
    "icap": 20,
    "ecap": 20,
    "fcap": 20
  },
  {
    "pt": 85,
    "ucap": 44,
    "icap": 20,
    "ecap": 20,
    "fcap": 20
  },
  {
    "pt": 86,
    "ucap": 45,
    "icap": 20,
    "ecap": 20,
    "fcap": 20
  },
  {
    "pt": 87,
    "ucap": 46,
    "icap": 20,
    "ecap": 20,
    "fcap": 20
  },
  {
    "pt": 88,
    "ucap": 47,
    "icap": 20,
    "ecap": 20,
    "fcap": 20
  },
  {
    "pt": 89,
    "ucap": 48,
    "icap": 20,
    "ecap": 20,
    "fcap": 20
  },
  {
    "pt": 90,
    "ucap": 49,
    "icap": 20,
    "ecap": 20,
    "fcap": 20
  },
  {
    "pt": 91,
    "ucap": 50,
    "icap": 20,
    "ecap": 20,
    "fcap": 20
  },
  {
    "pt": 92,
    "ucap": 51,
    "icap": 20,
    "ecap": 20,
    "fcap": 20
  },
  {
    "pt": 93,
    "ucap": 52,
    "icap": 20,
    "ecap": 20,
    "fcap": 20
  },
  {
    "pt": 94,
    "ucap": 53,
    "icap": 20,
    "ecap": 20,
    "fcap": 20
  },
  {
    "pt": 95,
    "ucap": 54,
    "icap": 20,
    "ecap": 20,
    "fcap": 20
  },
  {
    "pt": 96,
    "ucap": 55,
    "icap": 20,
    "ecap": 20,
    "fcap": 20
  },
  {
    "pt": 97,
    "ucap": 56,
    "icap": 20,
    "ecap": 20,
    "fcap": 20
  },
  {
    "pt": 98,
    "ucap": 57,
    "icap": 20,
    "ecap": 20,
    "fcap": 20
  },
  {
    "pt": 99,
    "ucap": 58,
    "icap": 20,
    "ecap": 20,
    "fcap": 20
  },
  {
    "pt": 100,
    "ucap": 59,
    "icap": 20,
    "ecap": 20,
    "fcap": 20
  },
  {
    "pt": 101,
    "ucap": 60,
    "icap": 20,
    "ecap": 20,
    "fcap": 20
  },
  {
    "pt": 102,
    "ucap": 61,
    "icap": 20,
    "ecap": 20,
    "fcap": 20
  },
  {
    "pt": 103,
    "ucap": 62,
    "icap": 20,
    "ecap": 20,
    "fcap": 20
  },
  {
    "pt": 104,
    "ucap": 63,
    "icap": 20,
    "ecap": 20,
    "fcap": 20
  },
  {
    "pt": 105,
    "ucap": 64,
    "icap": 20,
    "ecap": 20,
    "fcap": 20
  },
  {
    "pt": 106,
    "ucap": 65,
    "icap": 20,
    "ecap": 20,
    "fcap": 20
  },
  {
    "pt": 107,
    "ucap": 66,
    "icap": 20,
    "ecap": 20,
    "fcap": 20
  },
  {
    "pt": 108,
    "ucap": 67,
    "icap": 20,
    "ecap": 20,
    "fcap": 20
  },
  {
    "pt": 109,
    "ucap": 68,
    "icap": 20,
    "ecap": 20,
    "fcap": 20
  },
  {
    "pt": 110,
    "ucap": 69,
    "icap": 20,
    "ecap": 20,
    "fcap": 20
  },
  {
    "pt": 111,
    "ucap": 70,
    "icap": 20,
    "ecap": 20,
    "fcap": 20
  },
  {
    "pt": 112,
    "ucap": 71,
    "icap": 20,
    "ecap": 20,
    "fcap": 20
  },
  {
    "pt": 113,
    "ucap": 72,
    "icap": 20,
    "ecap": 20,
    "fcap": 20
  },
  {
    "pt": 114,
    "ucap": 73,
    "icap": 20,
    "ecap": 20,
    "fcap": 20
  },
  {
    "pt": 115,
    "ucap": 74,
    "icap": 20,
    "ecap": 20,
    "fcap": 20
  },
  {
    "pt": 116,
    "ucap": 75,
    "icap": 20,
    "ecap": 20,
    "fcap": 20
  },
  {
    "pt": 117,
    "ucap": 76,
    "icap": 20,
    "ecap": 20,
    "fcap": 20
  },
  {
    "pt": 118,
    "ucap": 77,
    "icap": 20,
    "ecap": 20,
    "fcap": 20
  },
  {
    "pt": 119,
    "ucap": 78,
    "icap": 20,
    "ecap": 20,
    "fcap": 20
  },
  {
    "pt": 120,
    "ucap": 79,
    "icap": 20,
    "ecap": 20,
    "fcap": 20
  },
  {
    "pt": 121,
    "ucap": 80,
    "icap": 20,
    "ecap": 20,
    "fcap": 20
  },
  {
    "pt": 122,
    "ucap": 81,
    "icap": 20,
    "ecap": 20,
    "fcap": 20
  },
  {
    "pt": 123,
    "ucap": 82,
    "icap": 20,
    "ecap": 20,
    "fcap": 21
  },
  {
    "pt": 124,
    "ucap": 83,
    "icap": 20,
    "ecap": 20,
    "fcap": 21
  },
  {
    "pt": 125,
    "ucap": 84,
    "icap": 20,
    "ecap": 20,
    "fcap": 21
  },
  {
    "pt": 126,
    "ucap": 85,
    "icap": 20,
    "ecap": 20,
    "fcap": 22
  },
  {
    "pt": 127,
    "ucap": 86,
    "icap": 20,
    "ecap": 20,
    "fcap": 22
  },
  {
    "pt": 128,
    "ucap": 87,
    "icap": 20,
    "ecap": 20,
    "fcap": 22
  },
  {
    "pt": 129,
    "ucap": 88,
    "icap": 20,
    "ecap": 20,
    "fcap": 23
  },
  {
    "pt": 130,
    "ucap": 89,
    "icap": 20,
    "ecap": 20,
    "fcap": 23
  },
  {
    "pt": 131,
    "ucap": 90,
    "icap": 20,
    "ecap": 20,
    "fcap": 23
  },
  {
    "pt": 132,
    "ucap": 91,
    "icap": 20,
    "ecap": 20,
    "fcap": 24
  },
  {
    "pt": 133,
    "ucap": 92,
    "icap": 20,
    "ecap": 20,
    "fcap": 24
  },
  {
    "pt": 134,
    "ucap": 93,
    "icap": 20,
    "ecap": 20,
    "fcap": 24
  },
  {
    "pt": 135,
    "ucap": 94,
    "icap": 20,
    "ecap": 20,
    "fcap": 25
  },
  {
    "pt": 136,
    "ucap": 95,
    "icap": 20,
    "ecap": 20,
    "fcap": 25
  },
  {
    "pt": 137,
    "ucap": 96,
    "icap": 20,
    "ecap": 20,
    "fcap": 25
  },
  {
    "pt": 138,
    "ucap": 97,
    "icap": 20,
    "ecap": 20,
    "fcap": 26
  },
  {
    "pt": 139,
    "ucap": 98,
    "icap": 20,
    "ecap": 20,
    "fcap": 26
  },
  {
    "pt": 140,
    "ucap": 99,
    "icap": 20,
    "ecap": 20,
    "fcap": 26
  },
  {
    "pt": 141,
    "ucap": 100,
    "icap": 20,
    "ecap": 20,
    "fcap": 27
  },
  {
    "pt": 142,
    "ucap": 101,
    "icap": 20,
    "ecap": 20,
    "fcap": 27
  },
  {
    "pt": 143,
    "ucap": 102,
    "icap": 20,
    "ecap": 20,
    "fcap": 27
  },
  {
    "pt": 144,
    "ucap": 103,
    "icap": 20,
    "ecap": 20,
    "fcap": 28
  },
  {
    "pt": 145,
    "ucap": 104,
    "icap": 20,
    "ecap": 20,
    "fcap": 28
  },
  {
    "pt": 146,
    "ucap": 105,
    "icap": 20,
    "ecap": 20,
    "fcap": 28
  },
  {
    "pt": 147,
    "ucap": 106,
    "icap": 20,
    "ecap": 20,
    "fcap": 29
  },
  {
    "pt": 148,
    "ucap": 107,
    "icap": 20,
    "ecap": 20,
    "fcap": 29
  },
  {
    "pt": 149,
    "ucap": 108,
    "icap": 20,
    "ecap": 20,
    "fcap": 29
  },
  {
    "pt": 150,
    "ucap": 109,
    "icap": 20,
    "ecap": 20,
    "fcap": 30
  },
  {
    "pt": 151,
    "ucap": 110,
    "icap": 20,
    "ecap": 20,
    "fcap": 30
  },
  {
    "pt": 152,
    "ucap": 111,
    "icap": 20,
    "ecap": 20,
    "fcap": 30
  },
  {
    "pt": 153,
    "ucap": 112,
    "icap": 20,
    "ecap": 20,
    "fcap": 31
  },
  {
    "pt": 154,
    "ucap": 113,
    "icap": 20,
    "ecap": 20,
    "fcap": 31
  },
  {
    "pt": 155,
    "ucap": 114,
    "icap": 20,
    "ecap": 20,
    "fcap": 31
  },
  {
    "pt": 156,
    "ucap": 115,
    "icap": 20,
    "ecap": 20,
    "fcap": 32
  },
  {
    "pt": 157,
    "ucap": 116,
    "icap": 20,
    "ecap": 20,
    "fcap": 32
  },
  {
    "pt": 158,
    "ucap": 117,
    "icap": 20,
    "ecap": 20,
    "fcap": 32
  },
  {
    "pt": 159,
    "ucap": 118,
    "icap": 20,
    "ecap": 20,
    "fcap": 33
  },
  {
    "pt": 160,
    "ucap": 119,
    "icap": 20,
    "ecap": 20,
    "fcap": 33
  },
  {
    "pt": 161,
    "ucap": 120,
    "icap": 20,
    "ecap": 20,
    "fcap": 33
  },
  {
    "pt": 162,
    "ucap": 121,
    "icap": 20,
    "ecap": 20,
    "fcap": 34
  },
  {
    "pt": 163,
    "ucap": 122,
    "icap": 20,
    "ecap": 20,
    "fcap": 34
  },
  {
    "pt": 164,
    "ucap": 123,
    "icap": 20,
    "ecap": 20,
    "fcap": 34
  },
  {
    "pt": 165,
    "ucap": 124,
    "icap": 20,
    "ecap": 20,
    "fcap": 35
  },
  {
    "pt": 166,
    "ucap": 125,
    "icap": 20,
    "ecap": 20,
    "fcap": 35
  },
  {
    "pt": 167,
    "ucap": 126,
    "icap": 20,
    "ecap": 20,
    "fcap": 35
  },
  {
    "pt": 168,
    "ucap": 127,
    "icap": 20,
    "ecap": 20,
    "fcap": 36
  },
  {
    "pt": 169,
    "ucap": 128,
    "icap": 20,
    "ecap": 20,
    "fcap": 36
  },
  {
    "pt": 170,
    "ucap": 129,
    "icap": 20,
    "ecap": 20,
    "fcap": 36
  },
  {
    "pt": 171,
    "ucap": 130,
    "icap": 20,
    "ecap": 20,
    "fcap": 37
  },
  {
    "pt": 172,
    "ucap": 131,
    "icap": 20,
    "ecap": 20,
    "fcap": 37
  },
  {
    "pt": 173,
    "ucap": 132,
    "icap": 20,
    "ecap": 20,
    "fcap": 37
  },
  {
    "pt": 174,
    "ucap": 133,
    "icap": 20,
    "ecap": 20,
    "fcap": 38
  },
  {
    "pt": 175,
    "ucap": 134,
    "icap": 20,
    "ecap": 20,
    "fcap": 38
  },
  {
    "pt": 176,
    "ucap": 135,
    "icap": 20,
    "ecap": 20,
    "fcap": 38
  },
  {
    "pt": 177,
    "ucap": 136,
    "icap": 20,
    "ecap": 20,
    "fcap": 39
  },
  {
    "pt": 178,
    "ucap": 137,
    "icap": 20,
    "ecap": 20,
    "fcap": 39
  },
  {
    "pt": 179,
    "ucap": 138,
    "icap": 20,
    "ecap": 20,
    "fcap": 39
  },
  {
    "pt": 180,
    "ucap": 139,
    "icap": 20,
    "ecap": 20,
    "fcap": 40
  },
  {
    "pt": 181,
    "ucap": 140,
    "icap": 20,
    "ecap": 20,
    "fcap": 40
  },
  {
    "pt": 182,
    "ucap": 141,
    "icap": 20,
    "ecap": 20,
    "fcap": 40
  },
  {
    "pt": 183,
    "ucap": 142,
    "icap": 20,
    "ecap": 20,
    "fcap": 41
  },
  {
    "pt": 184,
    "ucap": 143,
    "icap": 20,
    "ecap": 20,
    "fcap": 41
  },
  {
    "pt": 185,
    "ucap": 144,
    "icap": 20,
    "ecap": 20,
    "fcap": 41
  },
  {
    "pt": 186,
    "ucap": 145,
    "icap": 20,
    "ecap": 20,
    "fcap": 42
  },
  {
    "pt": 187,
    "ucap": 146,
    "icap": 20,
    "ecap": 20,
    "fcap": 42
  },
  {
    "pt": 188,
    "ucap": 147,
    "icap": 20,
    "ecap": 20,
    "fcap": 42
  },
  {
    "pt": 189,
    "ucap": 148,
    "icap": 20,
    "ecap": 20,
    "fcap": 43
  },
  {
    "pt": 190,
    "ucap": 149,
    "icap": 20,
    "ecap": 20,
    "fcap": 43
  },
  {
    "pt": 191,
    "ucap": 150,
    "icap": 20,
    "ecap": 20,
    "fcap": 43
  },
  {
    "pt": 192,
    "ucap": 151,
    "icap": 20,
    "ecap": 20,
    "fcap": 44
  },
  {
    "pt": 193,
    "ucap": 152,
    "icap": 20,
    "ecap": 20,
    "fcap": 44
  },
  {
    "pt": 194,
    "ucap": 153,
    "icap": 20,
    "ecap": 20,
    "fcap": 44
  },
  {
    "pt": 195,
    "ucap": 154,
    "icap": 20,
    "ecap": 20,
    "fcap": 45
  },
  {
    "pt": 196,
    "ucap": 155,
    "icap": 20,
    "ecap": 20,
    "fcap": 45
  },
  {
    "pt": 197,
    "ucap": 156,
    "icap": 20,
    "ecap": 20,
    "fcap": 45
  },
  {
    "pt": 198,
    "ucap": 157,
    "icap": 20,
    "ecap": 20,
    "fcap": 46
  },
  {
    "pt": 199,
    "ucap": 158,
    "icap": 20,
    "ecap": 20,
    "fcap": 46
  },
  {
    "pt": 200,
    "ucap": 159,
    "icap": 20,
    "ecap": 20,
    "fcap": 46
  },
  {
    "pt": 201,
    "ucap": 160,
    "icap": 20,
    "ecap": 20,
    "fcap": 47
  },
  {
    "pt": 202,
    "ucap": 161,
    "icap": 20,
    "ecap": 20,
    "fcap": 47
  },
  {
    "pt": 203,
    "ucap": 162,
    "icap": 20,
    "ecap": 20,
    "fcap": 47
  },
  {
    "pt": 204,
    "ucap": 163,
    "icap": 20,
    "ecap": 20,
    "fcap": 48
  },
  {
    "pt": 205,
    "ucap": 164,
    "icap": 20,
    "ecap": 20,
    "fcap": 48
  },
  {
    "pt": 206,
    "ucap": 165,
    "icap": 20,
    "ecap": 20,
    "fcap": 48
  },
  {
    "pt": 207,
    "ucap": 166,
    "icap": 20,
    "ecap": 20,
    "fcap": 49
  },
  {
    "pt": 208,
    "ucap": 167,
    "icap": 20,
    "ecap": 20,
    "fcap": 49
  },
  {
    "pt": 209,
    "ucap": 168,
    "icap": 20,
    "ecap": 20,
    "fcap": 49
  },
  {
    "pt": 210,
    "ucap": 169,
    "icap": 20,
    "ecap": 20,
    "fcap": 50
  },
  {
    "pt": 211,
    "ucap": 170,
    "icap": 20,
    "ecap": 20,
    "fcap": 50
  },
  {
    "pt": 212,
    "ucap": 171,
    "icap": 20,
    "ecap": 20,
    "fcap": 50
  },
  {
    "pt": 213,
    "ucap": 172,
    "icap": 20,
    "ecap": 20,
    "fcap": 51
  },
  {
    "pt": 214,
    "ucap": 173,
    "icap": 20,
    "ecap": 20,
    "fcap": 51
  },
  {
    "pt": 215,
    "ucap": 174,
    "icap": 20,
    "ecap": 20,
    "fcap": 51
  },
  {
    "pt": 216,
    "ucap": 175,
    "icap": 20,
    "ecap": 20,
    "fcap": 52
  },
  {
    "pt": 217,
    "ucap": 176,
    "icap": 20,
    "ecap": 20,
    "fcap": 52
  },
  {
    "pt": 218,
    "ucap": 177,
    "icap": 20,
    "ecap": 20,
    "fcap": 52
  },
  {
    "pt": 219,
    "ucap": 178,
    "icap": 20,
    "ecap": 20,
    "fcap": 53
  },
  {
    "pt": 220,
    "ucap": 179,
    "icap": 20,
    "ecap": 20,
    "fcap": 53
  },
  {
    "pt": 221,
    "ucap": 180,
    "icap": 20,
    "ecap": 20,
    "fcap": 53
  },
  {
    "pt": 222,
    "ucap": 181,
    "icap": 20,
    "ecap": 20,
    "fcap": 54
  },
  {
    "pt": 223,
    "ucap": 182,
    "icap": 20,
    "ecap": 20,
    "fcap": 54
  },
  {
    "pt": 224,
    "ucap": 183,
    "icap": 20,
    "ecap": 20,
    "fcap": 54
  },
  {
    "pt": 225,
    "ucap": 184,
    "icap": 20,
    "ecap": 20,
    "fcap": 55
  },
  {
    "pt": 226,
    "ucap": 185,
    "icap": 20,
    "ecap": 20,
    "fcap": 55
  },
  {
    "pt": 227,
    "ucap": 186,
    "icap": 20,
    "ecap": 20,
    "fcap": 55
  },
  {
    "pt": 228,
    "ucap": 187,
    "icap": 20,
    "ecap": 20,
    "fcap": 56
  },
  {
    "pt": 229,
    "ucap": 188,
    "icap": 20,
    "ecap": 20,
    "fcap": 56
  },
  {
    "pt": 230,
    "ucap": 189,
    "icap": 20,
    "ecap": 20,
    "fcap": 56
  },
  {
    "pt": 231,
    "ucap": 190,
    "icap": 20,
    "ecap": 20,
    "fcap": 57
  },
  {
    "pt": 232,
    "ucap": 191,
    "icap": 20,
    "ecap": 20,
    "fcap": 57
  },
  {
    "pt": 233,
    "ucap": 192,
    "icap": 20,
    "ecap": 20,
    "fcap": 57
  },
  {
    "pt": 234,
    "ucap": 193,
    "icap": 20,
    "ecap": 20,
    "fcap": 58
  },
  {
    "pt": 235,
    "ucap": 194,
    "icap": 20,
    "ecap": 20,
    "fcap": 58
  },
  {
    "pt": 236,
    "ucap": 195,
    "icap": 20,
    "ecap": 20,
    "fcap": 58
  },
  {
    "pt": 237,
    "ucap": 196,
    "icap": 20,
    "ecap": 20,
    "fcap": 59
  },
  {
    "pt": 238,
    "ucap": 197,
    "icap": 20,
    "ecap": 20,
    "fcap": 59
  },
  {
    "pt": 239,
    "ucap": 198,
    "icap": 20,
    "ecap": 20,
    "fcap": 59
  },
  {
    "pt": 240,
    "ucap": 199,
    "icap": 20,
    "ecap": 20,
    "fcap": 60
  },
  {
    "pt": 241,
    "ucap": 200,
    "icap": 20,
    "ecap": 20,
    "fcap": 60
  },
  {
    "pt": 242,
    "ucap": 201,
    "icap": 20,
    "ecap": 20,
    "fcap": 60
  },
  {
    "pt": 243,
    "ucap": 202,
    "icap": 20,
    "ecap": 20,
    "fcap": 61
  },
  {
    "pt": 244,
    "ucap": 203,
    "icap": 20,
    "ecap": 20,
    "fcap": 61
  },
  {
    "pt": 245,
    "ucap": 204,
    "icap": 20,
    "ecap": 20,
    "fcap": 61
  },
  {
    "pt": 246,
    "ucap": 205,
    "icap": 20,
    "ecap": 20,
    "fcap": 62
  },
  {
    "pt": 247,
    "ucap": 206,
    "icap": 20,
    "ecap": 20,
    "fcap": 62
  },
  {
    "pt": 248,
    "ucap": 207,
    "icap": 20,
    "ecap": 20,
    "fcap": 62
  },
  {
    "pt": 249,
    "ucap": 208,
    "icap": 20,
    "ecap": 20,
    "fcap": 63
  },
  {
    "pt": 250,
    "ucap": 209,
    "icap": 20,
    "ecap": 20,
    "fcap": 63
  },
  {
    "pt": 251,
    "ucap": 210,
    "icap": 20,
    "ecap": 20,
    "fcap": 63
  },
  {
    "pt": 252,
    "ucap": 211,
    "icap": 20,
    "ecap": 20,
    "fcap": 64
  },
  {
    "pt": 253,
    "ucap": 212,
    "icap": 20,
    "ecap": 20,
    "fcap": 64
  },
  {
    "pt": 254,
    "ucap": 213,
    "icap": 20,
    "ecap": 20,
    "fcap": 64
  },
  {
    "pt": 255,
    "ucap": 214,
    "icap": 20,
    "ecap": 20,
    "fcap": 65
  },
  {
    "pt": 256,
    "ucap": 215,
    "icap": 20,
    "ecap": 20,
    "fcap": 65
  },
  {
    "pt": 257,
    "ucap": 216,
    "icap": 20,
    "ecap": 20,
    "fcap": 65
  },
  {
    "pt": 258,
    "ucap": 217,
    "icap": 20,
    "ecap": 20,
    "fcap": 66
  },
  {
    "pt": 259,
    "ucap": 218,
    "icap": 20,
    "ecap": 20,
    "fcap": 66
  },
  {
    "pt": 260,
    "ucap": 219,
    "icap": 20,
    "ecap": 20,
    "fcap": 66
  },
  {
    "pt": 261,
    "ucap": 220,
    "icap": 20,
    "ecap": 20,
    "fcap": 67
  },
  {
    "pt": 262,
    "ucap": 221,
    "icap": 20,
    "ecap": 20,
    "fcap": 67
  },
  {
    "pt": 263,
    "ucap": 222,
    "icap": 20,
    "ecap": 20,
    "fcap": 67
  },
  {
    "pt": 264,
    "ucap": 223,
    "icap": 20,
    "ecap": 20,
    "fcap": 68
  },
  {
    "pt": 265,
    "ucap": 224,
    "icap": 20,
    "ecap": 20,
    "fcap": 68
  },
  {
    "pt": 266,
    "ucap": 225,
    "icap": 20,
    "ecap": 20,
    "fcap": 68
  },
  {
    "pt": 267,
    "ucap": 226,
    "icap": 20,
    "ecap": 20,
    "fcap": 69
  },
  {
    "pt": 268,
    "ucap": 227,
    "icap": 20,
    "ecap": 20,
    "fcap": 69
  },
  {
    "pt": 269,
    "ucap": 228,
    "icap": 20,
    "ecap": 20,
    "fcap": 69
  },
  {
    "pt": 270,
    "ucap": 229,
    "icap": 20,
    "ecap": 20,
    "fcap": 70
  },
  {
    "pt": 271,
    "ucap": 230,
    "icap": 20,
    "ecap": 20,
    "fcap": 70
  },
  {
    "pt": 272,
    "ucap": 231,
    "icap": 20,
    "ecap": 20,
    "fcap": 70
  },
  {
    "pt": 273,
    "ucap": 232,
    "icap": 20,
    "ecap": 20,
    "fcap": 71
  },
  {
    "pt": 274,
    "ucap": 233,
    "icap": 20,
    "ecap": 20,
    "fcap": 71
  },
  {
    "pt": 275,
    "ucap": 234,
    "icap": 20,
    "ecap": 20,
    "fcap": 71
  },
  {
    "pt": 276,
    "ucap": 235,
    "icap": 20,
    "ecap": 20,
    "fcap": 72
  },
  {
    "pt": 277,
    "ucap": 236,
    "icap": 20,
    "ecap": 20,
    "fcap": 72
  },
  {
    "pt": 278,
    "ucap": 237,
    "icap": 20,
    "ecap": 20,
    "fcap": 72
  },
  {
    "pt": 279,
    "ucap": 238,
    "icap": 20,
    "ecap": 20,
    "fcap": 73
  },
  {
    "pt": 280,
    "ucap": 239,
    "icap": 20,
    "ecap": 20,
    "fcap": 73
  },
  {
    "pt": 281,
    "ucap": 240,
    "icap": 20,
    "ecap": 20,
    "fcap": 73
  },
  {
    "pt": 282,
    "ucap": 241,
    "icap": 20,
    "ecap": 20,
    "fcap": 74
  },
  {
    "pt": 283,
    "ucap": 242,
    "icap": 20,
    "ecap": 20,
    "fcap": 74
  },
  {
    "pt": 284,
    "ucap": 243,
    "icap": 20,
    "ecap": 20,
    "fcap": 74
  },
  {
    "pt": 285,
    "ucap": 244,
    "icap": 20,
    "ecap": 20,
    "fcap": 75
  },
  {
    "pt": 286,
    "ucap": 245,
    "icap": 20,
    "ecap": 20,
    "fcap": 75
  },
  {
    "pt": 287,
    "ucap": 246,
    "icap": 20,
    "ecap": 20,
    "fcap": 75
  },
  {
    "pt": 288,
    "ucap": 247,
    "icap": 20,
    "ecap": 20,
    "fcap": 76
  },
  {
    "pt": 289,
    "ucap": 248,
    "icap": 20,
    "ecap": 20,
    "fcap": 76
  },
  {
    "pt": 290,
    "ucap": 249,
    "icap": 20,
    "ecap": 20,
    "fcap": 76
  },
  {
    "pt": 291,
    "ucap": 250,
    "icap": 20,
    "ecap": 20,
    "fcap": 77
  },
  {
    "pt": 292,
    "ucap": 251,
    "icap": 20,
    "ecap": 20,
    "fcap": 77
  },
  {
    "pt": 293,
    "ucap": 252,
    "icap": 20,
    "ecap": 20,
    "fcap": 77
  },
  {
    "pt": 294,
    "ucap": 253,
    "icap": 20,
    "ecap": 20,
    "fcap": 78
  },
  {
    "pt": 295,
    "ucap": 254,
    "icap": 20,
    "ecap": 20,
    "fcap": 78
  },
  {
    "pt": 296,
    "ucap": 255,
    "icap": 20,
    "ecap": 20,
    "fcap": 78
  },
  {
    "pt": 297,
    "ucap": 256,
    "icap": 20,
    "ecap": 20,
    "fcap": 79
  },
  {
    "pt": 298,
    "ucap": 257,
    "icap": 20,
    "ecap": 20,
    "fcap": 79
  },
  {
    "pt": 299,
    "ucap": 258,
    "icap": 20,
    "ecap": 20,
    "fcap": 79
  },
  {
    "pt": 300,
    "ucap": 259,
    "icap": 20,
    "ecap": 20,
    "fcap": 80
  },
  {
    "pt": 301,
    "ucap": 260,
    "icap": 20,
    "ecap": 20,
    "fcap": 80
  },
  {
    "pt": 302,
    "ucap": 261,
    "icap": 20,
    "ecap": 20,
    "fcap": 80
  },
  {
    "pt": 303,
    "ucap": 262,
    "icap": 20,
    "ecap": 20,
    "fcap": 81
  },
  {
    "pt": 304,
    "ucap": 263,
    "icap": 20,
    "ecap": 20,
    "fcap": 81
  },
  {
    "pt": 305,
    "ucap": 264,
    "icap": 20,
    "ecap": 20,
    "fcap": 81
  },
  {
    "pt": 306,
    "ucap": 265,
    "icap": 20,
    "ecap": 20,
    "fcap": 82
  },
  {
    "pt": 307,
    "ucap": 266,
    "icap": 20,
    "ecap": 20,
    "fcap": 82
  },
  {
    "pt": 308,
    "ucap": 267,
    "icap": 20,
    "ecap": 20,
    "fcap": 82
  },
  {
    "pt": 309,
    "ucap": 268,
    "icap": 20,
    "ecap": 20,
    "fcap": 83
  },
  {
    "pt": 310,
    "ucap": 269,
    "icap": 20,
    "ecap": 20,
    "fcap": 83
  },
  {
    "pt": 311,
    "ucap": 270,
    "icap": 20,
    "ecap": 20,
    "fcap": 83
  },
  {
    "pt": 312,
    "ucap": 271,
    "icap": 20,
    "ecap": 20,
    "fcap": 84
  },
  {
    "pt": 313,
    "ucap": 272,
    "icap": 20,
    "ecap": 20,
    "fcap": 84
  },
  {
    "pt": 314,
    "ucap": 273,
    "icap": 20,
    "ecap": 20,
    "fcap": 84
  },
  {
    "pt": 315,
    "ucap": 274,
    "icap": 20,
    "ecap": 20,
    "fcap": 85
  },
  {
    "pt": 316,
    "ucap": 275,
    "icap": 20,
    "ecap": 20,
    "fcap": 85
  },
  {
    "pt": 317,
    "ucap": 276,
    "icap": 20,
    "ecap": 20,
    "fcap": 85
  },
  {
    "pt": 318,
    "ucap": 277,
    "icap": 20,
    "ecap": 20,
    "fcap": 86
  },
  {
    "pt": 319,
    "ucap": 278,
    "icap": 20,
    "ecap": 20,
    "fcap": 86
  },
  {
    "pt": 320,
    "ucap": 279,
    "icap": 20,
    "ecap": 20,
    "fcap": 86
  },
  {
    "pt": 321,
    "ucap": 280,
    "icap": 20,
    "ecap": 20,
    "fcap": 87
  },
  {
    "pt": 322,
    "ucap": 281,
    "icap": 20,
    "ecap": 20,
    "fcap": 87
  },
  {
    "pt": 323,
    "ucap": 282,
    "icap": 20,
    "ecap": 20,
    "fcap": 87
  },
  {
    "pt": 324,
    "ucap": 283,
    "icap": 20,
    "ecap": 20,
    "fcap": 88
  },
  {
    "pt": 325,
    "ucap": 284,
    "icap": 20,
    "ecap": 20,
    "fcap": 88
  },
  {
    "pt": 326,
    "ucap": 285,
    "icap": 20,
    "ecap": 20,
    "fcap": 88
  },
  {
    "pt": 327,
    "ucap": 286,
    "icap": 20,
    "ecap": 20,
    "fcap": 89
  },
  {
    "pt": 328,
    "ucap": 287,
    "icap": 20,
    "ecap": 20,
    "fcap": 89
  },
  {
    "pt": 329,
    "ucap": 288,
    "icap": 20,
    "ecap": 20,
    "fcap": 89
  },
  {
    "pt": 330,
    "ucap": 289,
    "icap": 20,
    "ecap": 20,
    "fcap": 90
  },
  {
    "pt": 331,
    "ucap": 290,
    "icap": 20,
    "ecap": 20,
    "fcap": 90
  },
  {
    "pt": 332,
    "ucap": 291,
    "icap": 20,
    "ecap": 20,
    "fcap": 90
  },
  {
    "pt": 333,
    "ucap": 292,
    "icap": 20,
    "ecap": 20,
    "fcap": 91
  },
  {
    "pt": 334,
    "ucap": 293,
    "icap": 20,
    "ecap": 20,
    "fcap": 91
  },
  {
    "pt": 335,
    "ucap": 294,
    "icap": 20,
    "ecap": 20,
    "fcap": 91
  },
  {
    "pt": 336,
    "ucap": 295,
    "icap": 20,
    "ecap": 20,
    "fcap": 92
  },
  {
    "pt": 337,
    "ucap": 296,
    "icap": 20,
    "ecap": 20,
    "fcap": 92
  },
  {
    "pt": 338,
    "ucap": 297,
    "icap": 20,
    "ecap": 20,
    "fcap": 92
  },
  {
    "pt": 339,
    "ucap": 298,
    "icap": 20,
    "ecap": 20,
    "fcap": 93
  },
  {
    "pt": 340,
    "ucap": 299,
    "icap": 20,
    "ecap": 20,
    "fcap": 93
  },
  {
    "pt": 341,
    "ucap": 300,
    "icap": 20,
    "ecap": 20,
    "fcap": 93
  },
  {
    "pt": 342,
    "ucap": 301,
    "icap": 20,
    "ecap": 20,
    "fcap": 94
  },
  {
    "pt": 343,
    "ucap": 302,
    "icap": 20,
    "ecap": 20,
    "fcap": 94
  },
  {
    "pt": 344,
    "ucap": 303,
    "icap": 20,
    "ecap": 20,
    "fcap": 94
  },
  {
    "pt": 345,
    "ucap": 304,
    "icap": 20,
    "ecap": 20,
    "fcap": 95
  },
  {
    "pt": 346,
    "ucap": 305,
    "icap": 20,
    "ecap": 20,
    "fcap": 95
  },
  {
    "pt": 347,
    "ucap": 306,
    "icap": 20,
    "ecap": 20,
    "fcap": 95
  },
  {
    "pt": 348,
    "ucap": 307,
    "icap": 20,
    "ecap": 20,
    "fcap": 96
  },
  {
    "pt": 349,
    "ucap": 308,
    "icap": 20,
    "ecap": 20,
    "fcap": 96
  },
  {
    "pt": 350,
    "ucap": 309,
    "icap": 20,
    "ecap": 20,
    "fcap": 96
  },
  {
    "pt": 351,
    "ucap": 310,
    "icap": 20,
    "ecap": 20,
    "fcap": 97
  },
  {
    "pt": 352,
    "ucap": 311,
    "icap": 20,
    "ecap": 20,
    "fcap": 97
  },
  {
    "pt": 353,
    "ucap": 312,
    "icap": 20,
    "ecap": 20,
    "fcap": 97
  },
  {
    "pt": 354,
    "ucap": 313,
    "icap": 20,
    "ecap": 20,
    "fcap": 98
  },
  {
    "pt": 355,
    "ucap": 314,
    "icap": 20,
    "ecap": 20,
    "fcap": 98
  },
  {
    "pt": 356,
    "ucap": 315,
    "icap": 20,
    "ecap": 20,
    "fcap": 98
  },
  {
    "pt": 357,
    "ucap": 316,
    "icap": 20,
    "ecap": 20,
    "fcap": 99
  },
  {
    "pt": 358,
    "ucap": 317,
    "icap": 20,
    "ecap": 20,
    "fcap": 99
  },
  {
    "pt": 359,
    "ucap": 318,
    "icap": 20,
    "ecap": 20,
    "fcap": 99
  },
  {
    "pt": 360,
    "ucap": 319,
    "icap": 20,
    "ecap": 20,
    "fcap": 100
  },
  {
    "pt": 361,
    "ucap": 320,
    "icap": 20,
    "ecap": 20,
    "fcap": 100
  },
  {
    "pt": 362,
    "ucap": 321,
    "icap": 20,
    "ecap": 20,
    "fcap": 100
  },
  {
    "pt": 363,
    "ucap": 322,
    "icap": 20,
    "ecap": 20,
    "fcap": 100
  },
  {
    "pt": 364,
    "ucap": 323,
    "icap": 20,
    "ecap": 20,
    "fcap": 100
  },
  {
    "pt": 365,
    "ucap": 324,
    "icap": 20,
    "ecap": 20,
    "fcap": 100
  },
  {
    "pt": 366,
    "ucap": 325,
    "icap": 20,
    "ecap": 20,
    "fcap": 100
  },
  {
    "pt": 367,
    "ucap": 326,
    "icap": 20,
    "ecap": 20,
    "fcap": 100
  },
  {
    "pt": 368,
    "ucap": 327,
    "icap": 20,
    "ecap": 20,
    "fcap": 100
  },
  {
    "pt": 369,
    "ucap": 328,
    "icap": 20,
    "ecap": 20,
    "fcap": 100
  },
  {
    "pt": 370,
    "ucap": 329,
    "icap": 20,
    "ecap": 20,
    "fcap": 100
  },
  {
    "pt": 371,
    "ucap": 330,
    "icap": 20,
    "ecap": 20,
    "fcap": 100
  },
  {
    "pt": 372,
    "ucap": 331,
    "icap": 20,
    "ecap": 20,
    "fcap": 100
  },
  {
    "pt": 373,
    "ucap": 332,
    "icap": 20,
    "ecap": 20,
    "fcap": 100
  },
  {
    "pt": 374,
    "ucap": 333,
    "icap": 20,
    "ecap": 20,
    "fcap": 100
  },
  {
    "pt": 375,
    "ucap": 334,
    "icap": 20,
    "ecap": 20,
    "fcap": 100
  },
  {
    "pt": 376,
    "ucap": 335,
    "icap": 20,
    "ecap": 20,
    "fcap": 100
  },
  {
    "pt": 377,
    "ucap": 336,
    "icap": 20,
    "ecap": 20,
    "fcap": 100
  },
  {
    "pt": 378,
    "ucap": 337,
    "icap": 20,
    "ecap": 20,
    "fcap": 100
  },
  {
    "pt": 379,
    "ucap": 338,
    "icap": 20,
    "ecap": 20,
    "fcap": 100
  },
  {
    "pt": 380,
    "ucap": 339,
    "icap": 20,
    "ecap": 20,
    "fcap": 100
  },
  {
    "pt": 381,
    "ucap": 340,
    "icap": 20,
    "ecap": 20,
    "fcap": 100
  },
  {
    "pt": 382,
    "ucap": 341,
    "icap": 20,
    "ecap": 20,
    "fcap": 100
  },
  {
    "pt": 383,
    "ucap": 342,
    "icap": 20,
    "ecap": 20,
    "fcap": 100
  },
  {
    "pt": 384,
    "ucap": 343,
    "icap": 20,
    "ecap": 20,
    "fcap": 100
  },
  {
    "pt": 385,
    "ucap": 344,
    "icap": 20,
    "ecap": 20,
    "fcap": 100
  },
  {
    "pt": 386,
    "ucap": 345,
    "icap": 20,
    "ecap": 20,
    "fcap": 100
  },
  {
    "pt": 387,
    "ucap": 346,
    "icap": 20,
    "ecap": 20,
    "fcap": 100
  },
  {
    "pt": 388,
    "ucap": 347,
    "icap": 20,
    "ecap": 20,
    "fcap": 100
  },
  {
    "pt": 389,
    "ucap": 348,
    "icap": 20,
    "ecap": 20,
    "fcap": 100
  },
  {
    "pt": 390,
    "ucap": 349,
    "icap": 20,
    "ecap": 20,
    "fcap": 100
  },
  {
    "pt": 391,
    "ucap": 350,
    "icap": 20,
    "ecap": 20,
    "fcap": 100
  },
  {
    "pt": 392,
    "ucap": 351,
    "icap": 20,
    "ecap": 20,
    "fcap": 100
  },
  {
    "pt": 393,
    "ucap": 352,
    "icap": 20,
    "ecap": 20,
    "fcap": 100
  },
  {
    "pt": 394,
    "ucap": 353,
    "icap": 20,
    "ecap": 20,
    "fcap": 100
  },
  {
    "pt": 395,
    "ucap": 354,
    "icap": 20,
    "ecap": 20,
    "fcap": 100
  },
  {
    "pt": 396,
    "ucap": 355,
    "icap": 20,
    "ecap": 20,
    "fcap": 100
  },
  {
    "pt": 397,
    "ucap": 356,
    "icap": 20,
    "ecap": 20,
    "fcap": 100
  },
  {
    "pt": 398,
    "ucap": 357,
    "icap": 20,
    "ecap": 20,
    "fcap": 100
  },
  {
    "pt": 399,
    "ucap": 358,
    "icap": 20,
    "ecap": 20,
    "fcap": 100
  },
  {
    "pt": 400,
    "ucap": 359,
    "icap": 20,
    "ecap": 20,
    "fcap": 100
  },
  {
    "pt": 401,
    "ucap": 360,
    "icap": 20,
    "ecap": 20,
    "fcap": 100
  },
  {
    "pt": 402,
    "ucap": 361,
    "icap": 20,
    "ecap": 20,
    "fcap": 100
  },
  {
    "pt": 403,
    "ucap": 362,
    "icap": 20,
    "ecap": 20,
    "fcap": 100
  },
  {
    "pt": 404,
    "ucap": 363,
    "icap": 20,
    "ecap": 20,
    "fcap": 100
  },
  {
    "pt": 405,
    "ucap": 364,
    "icap": 20,
    "ecap": 20,
    "fcap": 100
  },
  {
    "pt": 406,
    "ucap": 365,
    "icap": 20,
    "ecap": 20,
    "fcap": 100
  },
  {
    "pt": 407,
    "ucap": 366,
    "icap": 20,
    "ecap": 20,
    "fcap": 100
  },
  {
    "pt": 408,
    "ucap": 367,
    "icap": 20,
    "ecap": 20,
    "fcap": 100
  },
  {
    "pt": 409,
    "ucap": 368,
    "icap": 20,
    "ecap": 20,
    "fcap": 100
  },
  {
    "pt": 410,
    "ucap": 369,
    "icap": 20,
    "ecap": 20,
    "fcap": 100
  },
  {
    "pt": 411,
    "ucap": 370,
    "icap": 20,
    "ecap": 20,
    "fcap": 100
  },
  {
    "pt": 412,
    "ucap": 371,
    "icap": 20,
    "ecap": 20,
    "fcap": 100
  },
  {
    "pt": 413,
    "ucap": 372,
    "icap": 20,
    "ecap": 20,
    "fcap": 100
  },
  {
    "pt": 414,
    "ucap": 373,
    "icap": 20,
    "ecap": 20,
    "fcap": 100
  },
  {
    "pt": 415,
    "ucap": 374,
    "icap": 20,
    "ecap": 20,
    "fcap": 100
  },
  {
    "pt": 416,
    "ucap": 375,
    "icap": 20,
    "ecap": 20,
    "fcap": 100
  },
  {
    "pt": 417,
    "ucap": 376,
    "icap": 20,
    "ecap": 20,
    "fcap": 100
  },
  {
    "pt": 418,
    "ucap": 377,
    "icap": 20,
    "ecap": 20,
    "fcap": 100
  },
  {
    "pt": 419,
    "ucap": 378,
    "icap": 20,
    "ecap": 20,
    "fcap": 100
  },
  {
    "pt": 420,
    "ucap": 379,
    "icap": 20,
    "ecap": 20,
    "fcap": 100
  },
  {
    "pt": 421,
    "ucap": 380,
    "icap": 20,
    "ecap": 20,
    "fcap": 100
  },
  {
    "pt": 422,
    "ucap": 381,
    "icap": 20,
    "ecap": 20,
    "fcap": 100
  },
  {
    "pt": 423,
    "ucap": 382,
    "icap": 20,
    "ecap": 20,
    "fcap": 100
  },
  {
    "pt": 424,
    "ucap": 383,
    "icap": 20,
    "ecap": 20,
    "fcap": 100
  },
  {
    "pt": 425,
    "ucap": 384,
    "icap": 20,
    "ecap": 20,
    "fcap": 100
  },
  {
    "pt": 426,
    "ucap": 385,
    "icap": 20,
    "ecap": 20,
    "fcap": 100
  },
  {
    "pt": 427,
    "ucap": 386,
    "icap": 20,
    "ecap": 20,
    "fcap": 100
  },
  {
    "pt": 428,
    "ucap": 387,
    "icap": 20,
    "ecap": 20,
    "fcap": 100
  },
  {
    "pt": 429,
    "ucap": 388,
    "icap": 20,
    "ecap": 20,
    "fcap": 100
  },
  {
    "pt": 430,
    "ucap": 389,
    "icap": 20,
    "ecap": 20,
    "fcap": 100
  },
  {
    "pt": 431,
    "ucap": 390,
    "icap": 20,
    "ecap": 20,
    "fcap": 100
  },
  {
    "pt": 432,
    "ucap": 391,
    "icap": 20,
    "ecap": 20,
    "fcap": 100
  },
  {
    "pt": 433,
    "ucap": 392,
    "icap": 20,
    "ecap": 20,
    "fcap": 100
  },
  {
    "pt": 434,
    "ucap": 393,
    "icap": 20,
    "ecap": 20,
    "fcap": 100
  },
  {
    "pt": 435,
    "ucap": 394,
    "icap": 20,
    "ecap": 20,
    "fcap": 100
  },
  {
    "pt": 436,
    "ucap": 395,
    "icap": 20,
    "ecap": 20,
    "fcap": 100
  },
  {
    "pt": 437,
    "ucap": 396,
    "icap": 20,
    "ecap": 20,
    "fcap": 100
  },
  {
    "pt": 438,
    "ucap": 397,
    "icap": 20,
    "ecap": 20,
    "fcap": 100
  },
  {
    "pt": 439,
    "ucap": 398,
    "icap": 20,
    "ecap": 20,
    "fcap": 100
  },
  {
    "pt": 440,
    "ucap": 399,
    "icap": 20,
    "ecap": 20,
    "fcap": 100
  },
  {
    "pt": 441,
    "ucap": 400,
    "icap": 20,
    "ecap": 20,
    "fcap": 100
  },
  {
    "pt": 442,
    "ucap": 401,
    "icap": 20,
    "ecap": 20,
    "fcap": 100
  },
  {
    "pt": 443,
    "ucap": 402,
    "icap": 20,
    "ecap": 20,
    "fcap": 100
  },
  {
    "pt": 444,
    "ucap": 403,
    "icap": 20,
    "ecap": 20,
    "fcap": 100
  },
  {
    "pt": 445,
    "ucap": 404,
    "icap": 20,
    "ecap": 20,
    "fcap": 100
  },
  {
    "pt": 446,
    "ucap": 405,
    "icap": 20,
    "ecap": 20,
    "fcap": 100
  },
  {
    "pt": 447,
    "ucap": 406,
    "icap": 20,
    "ecap": 20,
    "fcap": 100
  },
  {
    "pt": 448,
    "ucap": 407,
    "icap": 20,
    "ecap": 20,
    "fcap": 100
  },
  {
    "pt": 449,
    "ucap": 408,
    "icap": 20,
    "ecap": 20,
    "fcap": 100
  },
  {
    "pt": 450,
    "ucap": 409,
    "icap": 20,
    "ecap": 20,
    "fcap": 100
  },
  {
    "pt": 451,
    "ucap": 410,
    "icap": 20,
    "ecap": 20,
    "fcap": 100
  },
  {
    "pt": 452,
    "ucap": 411,
    "icap": 20,
    "ecap": 20,
    "fcap": 100
  },
  {
    "pt": 453,
    "ucap": 412,
    "icap": 20,
    "ecap": 20,
    "fcap": 100
  },
  {
    "pt": 454,
    "ucap": 413,
    "icap": 20,
    "ecap": 20,
    "fcap": 100
  },
  {
    "pt": 455,
    "ucap": 414,
    "icap": 20,
    "ecap": 20,
    "fcap": 100
  },
  {
    "pt": 456,
    "ucap": 415,
    "icap": 20,
    "ecap": 20,
    "fcap": 100
  },
  {
    "pt": 457,
    "ucap": 416,
    "icap": 20,
    "ecap": 20,
    "fcap": 100
  },
  {
    "pt": 458,
    "ucap": 417,
    "icap": 20,
    "ecap": 20,
    "fcap": 100
  },
  {
    "pt": 459,
    "ucap": 418,
    "icap": 20,
    "ecap": 20,
    "fcap": 100
  },
  {
    "pt": 460,
    "ucap": 419,
    "icap": 20,
    "ecap": 20,
    "fcap": 100
  }
]