[
  {
    "period_id": 1,
    "range": [
      {
        "player_min": 1,
        "player_max": 85,
        "rescue_min": 0,
        "rescue_max": 0
      },
      {
        "player_min": 86,
        "player_max": 120,
        "rescue_min": 1,
        "rescue_max": 150
      },
      {
        "player_min": 121,
        "player_max": 150,
        "rescue_min": 1,
        "rescue_max": 180
      },
      {
        "player_min": 151,
        "player_max": 300,
        "rescue_min": 1,
        "rescue_max": 300
      }
    ]
  },
  {
    "period_id": 2,
    "range": [
      {
        "player_min": 1,
        "player_max": 85,
        "rescue_min": 0,
        "rescue_max": 0
      },
      {
        "player_min": 86,
        "player_max": 120,
        "rescue_min": 1,
        "rescue_max": 150
      },
      {
        "player_min": 121,
        "player_max": 150,
        "rescue_min": 1,
        "rescue_max": 180
      },
      {
        "player_min": 151,
        "player_max": 300,
        "rescue_min": 1,
        "rescue_max": 300
      }
    ]
  },
  {
    "period_id": 3,
    "range": [
      {
        "player_min": 1,
        "player_max": 85,
        "rescue_min": 0,
        "rescue_max": 0
      },
      {
        "player_min": 86,
        "player_max": 120,
        "rescue_min": 1,
        "rescue_max": 150
      },
      {
        "player_min": 121,
        "player_max": 150,
        "rescue_min": 1,
        "rescue_max": 180
      },
      {
        "player_min": 151,
        "player_max": 300,
        "rescue_min": 1,
        "rescue_max": 300
      }
    ]
  },
  {
    "period_id": 4,
    "range": [
      {
        "player_min": 1,
        "player_max": 85,
        "rescue_min": 0,
        "rescue_max": 0
      },
      {
        "player_min": 86,
        "player_max": 120,
        "rescue_min": 1,
        "rescue_max": 150
      },
      {
        "player_min": 121,
        "player_max": 150,
        "rescue_min": 1,
        "rescue_max": 180
      },
      {
        "player_min": 151,
        "player_max": 300,
        "rescue_min": 1,
        "rescue_max": 300
      }
    ]
  },
  {
    "period_id": 5,
    "range": [
      {
        "player_min": 1,
        "player_max": 85,
        "rescue_min": 0,
        "rescue_max": 0
      },
      {
        "player_min": 86,
        "player_max": 120,
        "rescue_min": 1,
        "rescue_max": 150
      },
      {
        "player_min": 121,
        "player_max": 150,
        "rescue_min": 1,
        "rescue_max": 180
      },
      {
        "player_min": 151,
        "player_max": 300,
        "rescue_min": 1,
        "rescue_max": 300
      }
    ]
  },
  {
    "period_id": 6,
    "range": [
      {
        "player_min": 1,
        "player_max": 85,
        "rescue_min": 0,
        "rescue_max": 0
      },
      {
        "player_min": 86,
        "player_max": 120,
        "rescue_min": 1,
        "rescue_max": 150
      },
      {
        "player_min": 121,
        "player_max": 150,
        "rescue_min": 1,
        "rescue_max": 180
      },
      {
        "player_min": 151,
        "player_max": 300,
        "rescue_min": 1,
        "rescue_max": 300
      }
    ]
  },
  {
    "period_id": 7,
    "range": [
      {
        "player_min": 1,
        "player_max": 85,
        "rescue_min": 0,
        "rescue_max": 0
      },
      {
        "player_min": 86,
        "player_max": 120,
        "rescue_min": 1,
        "rescue_max": 150
      },
      {
        "player_min": 121,
        "player_max": 150,
        "rescue_min": 1,
        "rescue_max": 180
      },
      {
        "player_min": 151,
        "player_max": 300,
        "rescue_min": 1,
        "rescue_max": 300
      }
    ]
  },
  {
    "period_id": 8,
    "range": [
      {
        "player_min": 1,
        "player_max": 85,
        "rescue_min": 0,
        "rescue_max": 0
      },
      {
        "player_min": 86,
        "player_max": 120,
        "rescue_min": 1,
        "rescue_max": 150
      },
      {
        "player_min": 121,
        "player_max": 150,
        "rescue_min": 1,
        "rescue_max": 180
      },
      {
        "player_min": 151,
        "player_max": 300,
        "rescue_min": 1,
        "rescue_max": 300
      }
    ]
  },
  {
    "period_id": 9,
    "range": [
      {
        "player_min": 1,
        "player_max": 85,
        "rescue_min": 0,
        "rescue_max": 0
      },
      {
        "player_min": 86,
        "player_max": 120,
        "rescue_min": 1,
        "rescue_max": 150
      },
      {
        "player_min": 121,
        "player_max": 150,
        "rescue_min": 1,
        "rescue_max": 180
      },
      {
        "player_min": 151,
        "player_max": 300,
        "rescue_min": 1,
        "rescue_max": 300
      }
    ]
  },
  {
    "period_id": 10,
    "range": [
      {
        "player_min": 1,
        "player_max": 85,
        "rescue_min": 0,
        "rescue_max": 0
      },
      {
        "player_min": 86,
        "player_max": 120,
        "rescue_min": 1,
        "rescue_max": 150
      },
      {
        "player_min": 121,
        "player_max": 150,
        "rescue_min": 1,
        "rescue_max": 180
      },
      {
        "player_min": 151,
        "player_max": 300,
        "rescue_min": 1,
        "rescue_max": 300
      }
    ]
  },
  {
    "period_id": 11,
    "range": [
      {
        "player_min": 1,
        "player_max": 85,
        "rescue_min": 0,
        "rescue_max": 0
      },
      {
        "player_min": 86,
        "player_max": 120,
        "rescue_min": 1,
        "rescue_max": 150
      },
      {
        "player_min": 121,
        "player_max": 150,
        "rescue_min": 1,
        "rescue_max": 180
      },
      {
        "player_min": 151,
        "player_max": 300,
        "rescue_min": 1,
        "rescue_max": 300
      }
    ]
  },
  {
    "period_id": 12,
    "range": [
      {
        "player_min": 1,
        "player_max": 85,
        "rescue_min": 0,
        "rescue_max": 0
      },
      {
        "player_min": 86,
        "player_max": 120,
        "rescue_min": 1,
        "rescue_max": 150
      },
      {
        "player_min": 121,
        "player_max": 150,
        "rescue_min": 1,
        "rescue_max": 180
      },
      {
        "player_min": 151,
        "player_max": 300,
        "rescue_min": 1,
        "rescue_max": 300
      }
    ]
  },
  {
    "period_id": 13,
    "range": [
      {
        "player_min": 1,
        "player_max": 85,
        "rescue_min": 0,
        "rescue_max": 0
      },
      {
        "player_min": 86,
        "player_max": 120,
        "rescue_min": 1,
        "rescue_max": 150
      },
      {
        "player_min": 121,
        "player_max": 150,
        "rescue_min": 1,
        "rescue_max": 180
      },
      {
        "player_min": 151,
        "player_max": 300,
        "rescue_min": 1,
        "rescue_max": 300
      }
    ]
  },
  {
    "period_id": 14,
    "range": [
      {
        "player_min": 1,
        "player_max": 400,
        "rescue_min": 1,
        "rescue_max": 400
      }
    ]
  },
  {
    "period_id": 15,
    "range": [
      {
        "player_min": 1,
        "player_max": 400,
        "rescue_min": 1,
        "rescue_max": 400
      }
    ]
  },
  {
    "period_id": 16,
    "range": [
      {
        "player_min": 1,
        "player_max": 400,
        "rescue_min": 1,
        "rescue_max": 400
      }
    ]
  },
  {
    "period_id": 17,
    "range": [
      {
        "player_min": 1,
        "player_max": 400,
        "rescue_min": 1,
        "rescue_max": 400
      }
    ]
  }
]