[
  {
    "unitcap": 10,
    "jobcap": 1,
    "awakecap": 5,
    "piece": 10,
    "ch_piece": 5,
    "ch_piece_select": 25,
    "gain_pp": 1,
    "eq_grow": "EQUIP_R1",
    "eq_enhcap": 0,
    "eq_costscale": 100,
    "eq_points": [
      0,
      0,
      0,
      0,
      0,
      0
    ],
    "eq_num1": [
      0,
      0,
      0,
      0,
      0,
      0
    ],
    "eq_num2": [
      0,
      0,
      0,
      0,
      0,
      0
    ],
    "eq_num3": [
      0,
      0,
      0,
      0,
      0,
      0
    ],
    "drop": "JIN_0011",
    "hp": 49,
    "mp": 15,
    "atk": 39,
    "def": 35,
    "mag": 39,
    "mnd": 35,
    "dex": 39,
    "spd": 39,
    "cri": 60,
    "luk": 39,
    "af_lvcap": 10,
    "af_unlock": 5,
    "af_unlock_cost": 1000,
    "af_gousei": 25,
    "af_gousei_cost": 1000,
    "af_change": 5,
    "af_change_cost": 1000,
    "af_upcost": 100,
    "card_lvcap": 10,
    "card_awake_count": 5,
    "ch_piece_coin_num": 0,
    "crystal_rank": "D",
    "card_extra_rarity_lvcap": 10
  },
  {
    "unitcap": 20,
    "jobcap": 3,
    "awakecap": 10,
    "piece": 25,
    "ch_piece": 10,
    "ch_piece_select": 25,
    "gain_pp": 1,
    "rareup_cost": 1000,
    "eq_grow": "EQUIP_R2",
    "eq_enhcap": 1,
    "eq_costscale": 100,
    "eq_points": [
      0,
      20,
      0,
      0,
      0,
      0
    ],
    "eq_item1": "IT_SG_POT1",
    "eq_num1": [
      0,
      1,
      0,
      0,
      0,
      0
    ],
    "eq_item2": "IT_SG_POT2",
    "eq_num2": [
      0,
      0,
      0,
      0,
      0,
      0
    ],
    "eq_item3": "IT_SG_POT3",
    "eq_num3": [
      0,
      0,
      0,
      0,
      0,
      0
    ],
    "drop": "JIN_0012",
    "hp": 43,
    "mp": 13,
    "atk": 35,
    "def": 31,
    "mag": 35,
    "mnd": 31,
    "dex": 35,
    "spd": 35,
    "cri": 55,
    "luk": 35,
    "af_lvcap": 15,
    "af_unlock": 50,
    "af_unlock_cost": 2000,
    "af_gousei": 50,
    "af_gousei_cost": 10000,
    "af_change": 10,
    "af_change_cost": 2000,
    "af_upcost": 100,
    "card_lvcap": 15,
    "card_awake_count": 5,
    "ch_piece_coin_num": 0,
    "crystal_rank": "C",
    "card_extra_rarity_lvcap": 10
  },
  {
    "unitcap": 30,
    "jobcap": 6,
    "awakecap": 15,
    "piece": 50,
    "ch_piece": 15,
    "ch_piece_select": 25,
    "gain_pp": 10,
    "rareup_cost": 10000,
    "eq_grow": "EQUIP_R3",
    "eq_enhcap": 3,
    "eq_costscale": 125,
    "eq_points": [
      0,
      30,
      50,
      80,
      0,
      0
    ],
    "eq_item1": "IT_SG_POT1",
    "eq_num1": [
      0,
      2,
      4,
      0,
      0,
      0
    ],
    "eq_item2": "IT_SG_POT2",
    "eq_num2": [
      0,
      0,
      0,
      1,
      0,
      0
    ],
    "eq_item3": "IT_SG_POT3",
    "eq_num3": [
      0,
      0,
      0,
      0,
      0,
      0
    ],
    "drop": "JIN_0013",
    "hp": 37,
    "mp": 11,
    "atk": 31,
    "def": 27,
    "mag": 31,
    "mnd": 27,
    "dex": 31,
    "spd": 31,
    "cri": 50,
    "luk": 31,
    "af_lvcap": 20,
    "af_unlock": 80,
    "af_unlock_cost": 4000,
    "af_gousei": 75,
    "af_gousei_cost": 25000,
    "af_change": 15,
    "af_change_cost": 4000,
    "af_upcost": 125,
    "card_lvcap": 20,
    "card_awake_count": 5,
    "ch_piece_coin_num": 0,
    "crystal_rank": "B",
    "card_extra_rarity_lvcap": 10
  },
  {
    "unitcap": 50,
    "jobcap": 9,
    "awakecap": 20,
    "piece": 80,
    "ch_piece": 20,
    "ch_piece_select": 25,
    "gain_pp": 20,
    "rareup_cost": 30000,
    "eq_grow": "EQUIP_R4",
    "eq_enhcap": 5,
    "eq_costscale": 150,
    "eq_points": [
      0,
      60,
      100,
      160,
      300,
      500
    ],
    "eq_item1": "IT_SG_POT1",
    "eq_num1": [
      0,
      5,
      4,
      3,
      0,
      5
    ],
    "eq_item2": "IT_SG_POT2",
    "eq_num2": [
      0,
      0,
      1,
      2,
      0,
      0
    ],
    "eq_item3": "IT_SG_POT3",
    "eq_num3": [
      0,
      0,
      0,
      0,
      1,
      1
    ],
    "drop": "JIN_0014",
    "hp": 31,
    "mp": 9,
    "atk": 27,
    "def": 23,
    "mag": 27,
    "mnd": 23,
    "dex": 27,
    "spd": 27,
    "cri": 45,
    "luk": 27,
    "af_lvcap": 25,
    "af_unlock": 150,
    "af_unlock_cost": 8000,
    "af_gousei": 100,
    "af_gousei_cost": 50000,
    "af_change": 20,
    "af_change_cost": 8000,
    "af_upcost": 150,
    "card_lvcap": 25,
    "card_awake_count": 5,
    "ch_piece_coin_num": 0,
    "crystal_rank": "A",
    "card_extra_rarity_lvcap": 10
  },
  {
    "unitcap": 60,
    "jobcap": 11,
    "awakecap": 25,
    "piece": 150,
    "ch_piece": 25,
    "ch_piece_select": 25,
    "gain_pp": 100,
    "rareup_cost": 50000,
    "eq_grow": "EQUIP_R5",
    "eq_enhcap": 5,
    "eq_costscale": 250,
    "eq_points": [
      0,
      90,
      150,
      240,
      450,
      750
    ],
    "eq_item1": "IT_SG_POT1",
    "eq_num1": [
      0,
      1,
      2,
      1,
      2,
      3
    ],
    "eq_item2": "IT_SG_POT2",
    "eq_num2": [
      0,
      1,
      2,
      0,
      1,
      2
    ],
    "eq_item3": "IT_SG_POT3",
    "eq_num3": [
      0,
      0,
      0,
      1,
      1,
      1
    ],
    "drop": "JIN_0015",
    "hp": 25,
    "mp": 7,
    "atk": 23,
    "def": 19,
    "mag": 23,
    "mnd": 19,
    "dex": 23,
    "spd": 23,
    "cri": 40,
    "luk": 23,
    "af_lvcap": 30,
    "af_unlock": 777,
    "af_unlock_cost": 16000,
    "af_gousei": 99999,
    "af_gousei_cost": 100000,
    "af_change": 25,
    "af_change_cost": 16000,
    "af_upcost": 250,
    "card_lvcap": 30,
    "card_awake_count": 5,
    "ch_piece_coin_num": 0,
    "crystal_rank": "S",
    "card_extra_rarity_lvcap": 10
  },
  {
    "unitcap": 70,
    "jobcap": 11,
    "awakecap": 30,
    "piece": 300,
    "ch_piece": 30,
    "ch_piece_select": 25,
    "gain_pp": 300,
    "rareup_cost": 100000,
    "eq_grow": "EQUIP_R6",
    "eq_enhcap": 5,
    "eq_costscale": 300,
    "eq_points": [
      0,
      90,
      150,
      240,
      450,
      750
    ],
    "eq_item1": "IT_SG_POT1",
    "eq_num1": [
      0,
      1,
      2,
      1,
      2,
      3
    ],
    "eq_item2": "IT_SG_POT2",
    "eq_num2": [
      0,
      1,
      2,
      0,
      1,
      2
    ],
    "eq_item3": "IT_SG_POT3",
    "eq_num3": [
      0,
      0,
      0,
      1,
      1,
      1
    ],
    "drop": "JIN_0015",
    "af_lvcap": 35,
    "af_unlock": 400,
    "af_unlock_cost": 32000,
    "af_gousei": 150,
    "af_gousei_cost": 200000,
    "af_change": 30,
    "af_change_cost": 32000,
    "af_upcost": 300,
    "card_lvcap": 35,
    "card_awake_count": 5,
    "ch_piece_coin_num": 0,
    "crystal_rank": "SS",
    "card_extra_rarity_lvcap": 10
  }
]