[
  {
    "iname": "TownQuestListEvent",
    "periods": [
      {
        "sprite_name": "2020may",
        "begin_at": "2024/09/19 15:00:00",
        "end_at": "2024/09/26 9:59:59"
      },
      {
        "sprite_name": "2020june",
        "begin_at": "2024/09/01 0:00:00",
        "end_at": "2024/09/19 14:59:59"
      }
    ]
  },
  {
    "iname": "HomeQuestButton",
    "periods": [
      {
        "sprite_name": "2020may",
        "begin_at": "2024/09/19 15:00:00",
        "end_at": "2024/09/26 9:59:59"
      },
      {
        "sprite_name": "2020june",
        "begin_at": "2024/09/01 0:00:00",
        "end_at": "2024/09/19 14:59:59"
      }
    ]
  },
  {
    "iname": "HomeQuest_Balloon",
    "periods": [
      {
        "sprite_name": "2020may",
        "begin_at": "2024/09/19 15:00:00",
        "end_at": "2024/09/26 9:59:59"
      },
      {
        "sprite_name": "2020june",
        "begin_at": "2024/09/01 0:00:00",
        "end_at": "2024/09/19 14:59:59"
      }
    ]
  }
]