[
  {
    "iname": "RP_POTENTIAL_STATUS_01",
    "need_item": "RP_POTENTIAL_STATUS_ITEM_01",
    "lottery": [
      {
        "draw_name": "HP",
        "type": 1,
        "calc_type": 0,
        "min": 50,
        "max": 150,
        "weight": 10
      },
      {
        "draw_name": "物攻",
        "type": 5,
        "calc_type": 0,
        "min": 25,
        "max": 75,
        "weight": 10
      },
      {
        "draw_name": "物防",
        "type": 6,
        "calc_type": 0,
        "min": 25,
        "max": 75,
        "weight": 10
      }
    ]
  },
  {
    "iname": "RP_POTENTIAL_STATUS_02",
    "need_item": "RP_POTENTIAL_STATUS_ITEM_02",
    "lottery": [
      {
        "draw_name": "HP",
        "type": 1,
        "calc_type": 0,
        "min": 50,
        "max": 150,
        "weight": 10
      },
      {
        "draw_name": "魔攻",
        "type": 7,
        "calc_type": 0,
        "min": 25,
        "max": 75,
        "weight": 10
      },
      {
        "draw_name": "魔防",
        "type": 8,
        "calc_type": 0,
        "min": 25,
        "max": 75,
        "weight": 10
      }
    ]
  },
  {
    "iname": "RP_POTENTIAL_STATUS_03",
    "need_item": "RP_POTENTIAL_STATUS_ITEM_03",
    "lottery": [
      {
        "draw_name": "器用さ",
        "type": 10,
        "calc_type": 0,
        "min": 25,
        "max": 75,
        "weight": 10
      },
      {
        "draw_name": "会心",
        "type": 12,
        "calc_type": 0,
        "min": 25,
        "max": 75,
        "weight": 10
      },
      {
        "draw_name": "運",
        "type": 13,
        "calc_type": 0,
        "min": 25,
        "max": 75,
        "weight": 10
      }
    ]
  },
  {
    "iname": "RP_POTENTIAL_STATUS_04",
    "need_item": "RP_POTENTIAL_STATUS_ITEM_04",
    "lottery": [
      {
        "draw_name": "物攻",
        "type": 5,
        "calc_type": 0,
        "min": 35,
        "max": 75,
        "weight": 10
      },
      {
        "draw_name": "魔攻",
        "type": 7,
        "calc_type": 0,
        "min": 35,
        "max": 75,
        "weight": 10
      },
      {
        "draw_name": "器用さ",
        "type": 10,
        "calc_type": 0,
        "min": 35,
        "max": 75,
        "weight": 10
      },
      {
        "draw_name": "会心",
        "type": 12,
        "calc_type": 0,
        "min": 35,
        "max": 75,
        "weight": 10
      }
    ]
  },
  {
    "iname": "RP_POTENTIAL_STATUS_05",
    "need_item": "RP_POTENTIAL_STATUS_ITEM_05",
    "lottery": [
      {
        "draw_name": "HP",
        "type": 1,
        "calc_type": 0,
        "min": 70,
        "max": 150,
        "weight": 10
      },
      {
        "draw_name": "物防",
        "type": 6,
        "calc_type": 0,
        "min": 35,
        "max": 75,
        "weight": 10
      },
      {
        "draw_name": "魔防",
        "type": 8,
        "calc_type": 0,
        "min": 35,
        "max": 75,
        "weight": 10
      },
      {
        "draw_name": "運",
        "type": 13,
        "calc_type": 0,
        "min": 35,
        "max": 75,
        "weight": 10
      }
    ]
  },
  {
    "iname": "RP_POTENTIAL_STATUS_06",
    "need_item": "RP_POTENTIAL_STATUS_ITEM_06",
    "lottery": [
      {
        "draw_name": "単体攻撃力",
        "type": 123,
        "calc_type": 0,
        "min": 1,
        "max": 20,
        "weight": 10
      },
      {
        "draw_name": "範囲攻撃力",
        "type": 124,
        "calc_type": 0,
        "min": 1,
        "max": 20,
        "weight": 10
      },
      {
        "draw_name": "単体攻撃耐性",
        "type": 125,
        "calc_type": 0,
        "min": 1,
        "max": 20,
        "weight": 10
      },
      {
        "draw_name": "範囲攻撃耐性",
        "type": 126,
        "calc_type": 0,
        "min": 1,
        "max": 20,
        "weight": 10
      }
    ]
  }
]