[
  {
    "iname": "RP_BONUS_STATUS_01",
    "bonuses": [
      {
        "draw_name": "SUB幻影記憶反映率",
        "ex_type": 1,
        "calc_type": 1,
        "value": 10
      }
    ]
  },
  {
    "iname": "RP_BONUS_STATUS_02",
    "bonuses": [
      {
        "draw_name": "HP",
        "type": 1,
        "calc_type": 0,
        "value": 500
      }
    ]
  },
  {
    "iname": "RP_BONUS_STATUS_03",
    "bonuses": [
      {
        "draw_name": "SUB幻影記憶反映率",
        "ex_type": 1,
        "calc_type": 1,
        "value": 10
      }
    ]
  },
  {
    "iname": "RP_BONUS_STATUS_04",
    "bonuses": [
      {
        "draw_name": "SUB幻影記憶反映率",
        "ex_type": 1,
        "calc_type": 1,
        "value": 10
      }
    ]
  },
  {
    "iname": "RP_BONUS_STATUS_05",
    "bonuses": [
      {
        "draw_name": "素早さ",
        "type": 11,
        "calc_type": 0,
        "value": 1
      }
    ]
  }
]