[
  {
    "begin_at": "2022/11/30",
    "end_at": "2099/02/28",
    "resets": [
      {
        "min": 1,
        "max": 1,
        "need_item": "RP_FREE_01"
      },
      {
        "min": 2,
        "max": 5,
        "need_item": "RP_RESET_01"
      },
      {
        "min": 6,
        "max": 10,
        "need_item": "RP_RESET_02"
      },
      {
        "min": 11,
        "need_item": "RP_RESET_03"
      }
    ]
  }
]