[
  {
    "iname": "SKMP_TEST01",
    "manipulate": 1,
    "dmg_type": 2
  },
  {
    "iname": "SKMP_NIGRED_20_LEVI",
    "manipulate": 3,
    "dmg_type": 1,
    "is_break": 1,
    "is_elems": [
      1,
      2,
      4,
      3,
      5,
      6,
      0
    ]
  },
  {
    "iname": "SKMP_CTR_C_RETURN7",
    "manipulate": 1,
    "dmg_type": 3,
    "is_pierce": 1
  },
  {
    "iname": "SKMP_ZAFI01_UPPER_04",
    "manipulate": 3,
    "dmg_type": 1,
    "is_pierce": 1,
    "is_elems": [
      1,
      2,
      4,
      3,
      5,
      6,
      0
    ]
  },
  {
    "iname": "SKMP_ALL",
    "manipulate": 3,
    "dmg_type": 1,
    "is_pierce": 1,
    "is_break": 1,
    "is_elems": [
      1,
      2,
      4,
      3,
      5,
      6,
      0
    ]
  },
  {
    "iname": "SKMP_BREAK",
    "manipulate": 3,
    "dmg_type": 1,
    "is_break": 1,
    "is_elems": [
      1,
      2,
      4,
      3,
      5,
      6,
      0
    ]
  },
  {
    "iname": "SKMP_KAISER_RETURNS11",
    "manipulate": 3,
    "dmg_type": 1,
    "is_break": 1,
    "is_elems": [
      1,
      2,
      4,
      3,
      5,
      6,
      0
    ]
  },
  {
    "iname": "SKMP_POK_SOLO01_UPPER_05",
    "manipulate": 3,
    "dmg_type": 1,
    "is_pierce": 1,
    "is_elems": [
      1,
      2,
      4,
      3,
      5,
      6,
      0
    ]
  },
  {
    "iname": "SKMP_POK_SOLO01_UPPER_05_TB",
    "manipulate": 3,
    "dmg_type": 1,
    "is_pierce": 1,
    "is_elems": [
      1,
      2,
      4,
      3,
      5,
      6,
      0
    ]
  },
  {
    "iname": "SKMP_TOUBATU_01_LEVI",
    "manipulate": 3,
    "dmg_type": 1,
    "is_break": 1,
    "is_elems": [
      1,
      2,
      4,
      3,
      5,
      6,
      0
    ]
  },
  {
    "iname": "SKMP_GT_GINT01_UPPER_4",
    "manipulate": 3,
    "dmg_type": 1,
    "is_pierce": 1,
    "is_elems": [
      1,
      2,
      4,
      3,
      5,
      6,
      0
    ]
  },
  {
    "iname": "SKMP_JK_KUGI01_UPPER_05",
    "manipulate": 3,
    "dmg_type": 1,
    "is_pierce": 1,
    "is_break": 1,
    "is_elems": [
      1,
      2,
      4,
      3,
      5,
      6,
      0
    ]
  },
  {
    "iname": "SKMP_DIAB_UPPER_JK_EX_04",
    "manipulate": 3,
    "dmg_type": 1,
    "is_break": 1
  },
  {
    "iname": "SKMP_ALL_KANTSU_ONLY",
    "manipulate": 3,
    "dmg_type": 1,
    "is_pierce": 1,
    "is_elems": [
      1,
      2,
      4,
      3,
      5,
      6,
      0
    ]
  },
  {
    "iname": "SKMP_ENVYRIA_CANON_LINK_01_VA",
    "manipulate": 3,
    "dmg_type": 1,
    "is_pierce": 1,
    "is_elems": [
      1,
      2,
      4,
      3,
      5,
      6,
      0
    ]
  },
  {
    "iname": "SKMP_POK_YGGDRASILL_01_VA",
    "manipulate": 3,
    "dmg_type": 1,
    "is_pierce": 1,
    "is_elems": [
      1,
      2,
      4,
      3,
      5,
      6,
      0
    ]
  },
  {
    "iname": "SKMP_POK_YGGDRASILL_01_VA_MAX",
    "manipulate": 3,
    "dmg_type": 1,
    "is_pierce": 1,
    "is_elems": [
      1,
      2,
      4,
      3,
      5,
      6,
      0
    ]
  },
  {
    "iname": "SKMP_CRY_02_DARK_OLIVIER_VA",
    "manipulate": 3,
    "dmg_type": 1,
    "is_pierce": 1,
    "is_break": 1,
    "is_elems": [
      1,
      2,
      4,
      3,
      5,
      6,
      0
    ]
  },
  {
    "iname": "SKMP_EX_SP_ASMO",
    "manipulate": 3,
    "dmg_type": 1,
    "is_pierce": 1,
    "is_elems": [
      1,
      2,
      4,
      3,
      5,
      6,
      0
    ]
  },
  {
    "iname": "SKMP_G_GRASS_VEDA125_01",
    "manipulate": 3,
    "dmg_type": 1,
    "is_pierce": 1,
    "is_elems": [
      1,
      2,
      4,
      3,
      5,
      6,
      0
    ]
  },
  {
    "iname": "SKMP_NIDO01_UPPER_04",
    "manipulate": 3,
    "dmg_type": 1,
    "is_pierce": 1,
    "is_elems": [
      1,
      2,
      4,
      3,
      5,
      6,
      0
    ]
  },
  {
    "iname": "SKMP_NIDO01_UPPER_04_TB",
    "manipulate": 3,
    "dmg_type": 1,
    "is_pierce": 1,
    "is_elems": [
      1,
      2,
      4,
      3,
      5,
      6,
      0
    ]
  },
  {
    "iname": "SKMP_NIDO01_TRANS01_UPPER_05",
    "manipulate": 3,
    "dmg_type": 1,
    "is_pierce": 1,
    "is_elems": [
      1,
      2,
      4,
      3,
      5,
      6,
      0
    ]
  },
  {
    "iname": "SKMP_LILL01_UPPER_04",
    "manipulate": 3,
    "dmg_type": 1,
    "is_pierce": 1,
    "is_elems": [
      1,
      2,
      4,
      3,
      5,
      6,
      0
    ]
  },
  {
    "iname": "SKMP_RUI01_UPPER_B",
    "manipulate": 3,
    "dmg_type": 1,
    "is_pierce": 1,
    "is_elems": [
      1,
      2,
      4,
      3,
      5,
      6,
      0
    ]
  },
  {
    "iname": "SKMP_POK_TYRH_LINK01_UPPER",
    "manipulate": 3,
    "dmg_type": 1,
    "is_pierce": 1,
    "is_break": 1,
    "is_elems": [
      1,
      2,
      4,
      3,
      5,
      6,
      0
    ]
  },
  {
    "iname": "SKMP_UROB_NEW01_LOWER_01",
    "manipulate": 3,
    "dmg_type": 1,
    "is_break": 1,
    "is_elems": [
      1,
      2,
      4,
      3,
      5,
      6,
      0
    ]
  }
]