[
  {
    "iname": "SKDS_TRS_BAJI01_UPPER_01",
    "is_self": 1,
    "kind": 1,
    "turn": 3,
    "effects": [
      {
        "min": 4,
        "max": 4,
        "value": -10
      },
      {
        "min": 5,
        "max": 5,
        "value": -15
      },
      {
        "min": 6,
        "max": 6,
        "value": -20
      },
      {
        "min": 7,
        "max": 7,
        "value": -35
      },
      {
        "min": 8,
        "max": 8,
        "value": -50
      },
      {
        "min": 9,
        "max": 9,
        "value": -65
      },
      {
        "min": 10,
        "max": 99,
        "value": -80
      }
    ]
  },
  {
    "iname": "SKDS_TRS_MATS01_UPPER_01",
    "is_self": 1,
    "kind": 1,
    "turn": 3,
    "effects": [
      {
        "min": 4,
        "max": 4,
        "value": -10
      },
      {
        "min": 5,
        "max": 5,
        "value": -15
      },
      {
        "min": 6,
        "max": 6,
        "value": -20
      },
      {
        "min": 7,
        "max": 7,
        "value": -35
      },
      {
        "min": 8,
        "max": 8,
        "value": -50
      },
      {
        "min": 9,
        "max": 9,
        "value": -65
      },
      {
        "min": 10,
        "max": 99,
        "value": -80
      }
    ]
  },
  {
    "iname": "SKDS_TRS_BAJI01_SUPPORT_1",
    "is_self": 1,
    "kind": 1,
    "turn": 3,
    "effects": [
      {
        "min": 4,
        "max": 4,
        "value": -10
      },
      {
        "min": 5,
        "max": 5,
        "value": -15
      },
      {
        "min": 6,
        "max": 6,
        "value": -20
      },
      {
        "min": 7,
        "max": 7,
        "value": -35
      },
      {
        "min": 8,
        "max": 8,
        "value": -50
      },
      {
        "min": 9,
        "max": 9,
        "value": -65
      },
      {
        "min": 10,
        "max": 99,
        "value": -80
      }
    ]
  },
  {
    "iname": "SKDS_TRS_MATS01_SUPPORT_1",
    "is_self": 1,
    "kind": 1,
    "turn": 3,
    "effects": [
      {
        "min": 4,
        "max": 4,
        "value": -10
      },
      {
        "min": 5,
        "max": 5,
        "value": -15
      },
      {
        "min": 6,
        "max": 6,
        "value": -20
      },
      {
        "min": 7,
        "max": 7,
        "value": -35
      },
      {
        "min": 8,
        "max": 8,
        "value": -50
      },
      {
        "min": 9,
        "max": 9,
        "value": -65
      },
      {
        "min": 10,
        "max": 99,
        "value": -80
      }
    ]
  },
  {
    "iname": "SKDS_TRS_BAJI01_SUPPORT_2",
    "is_self": 1,
    "kind": 0,
    "turn": 0,
    "effects": [
      {
        "min": 1,
        "max": 1,
        "value": 20
      },
      {
        "min": 2,
        "max": 2,
        "value": 16
      },
      {
        "min": 3,
        "max": 3,
        "value": 12
      }
    ]
  },
  {
    "iname": "SKDS_TRS_MATS01_SUPPORT_2",
    "is_self": 1,
    "kind": 0,
    "turn": 0,
    "effects": [
      {
        "min": 1,
        "max": 1,
        "value": 20
      },
      {
        "min": 2,
        "max": 2,
        "value": 16
      },
      {
        "min": 3,
        "max": 3,
        "value": 12
      }
    ]
  },
  {
    "iname": "SKDS_HOOD_SUPPORT_1_TRS_EX_04",
    "is_self": 1,
    "kind": 1,
    "turn": 0,
    "effects": [
      {
        "min": 5,
        "max": 5,
        "value": -10
      },
      {
        "min": 6,
        "max": 6,
        "value": -20
      },
      {
        "min": 7,
        "max": 7,
        "value": -30
      },
      {
        "min": 8,
        "max": 8,
        "value": -40
      },
      {
        "min": 9,
        "max": 99,
        "value": -50
      }
    ]
  },
  {
    "iname": "SKDS_HOOD_SUPPORT_2_TRS_EX_04",
    "is_self": 1,
    "kind": 0,
    "turn": 0,
    "effects": [
      {
        "min": 7,
        "max": 7,
        "value": 12
      },
      {
        "min": 8,
        "max": 8,
        "value": 16
      },
      {
        "min": 9,
        "max": 99,
        "value": 20
      }
    ]
  },
  {
    "iname": "SKDS_TRS_HANA01_UPPER_01",
    "is_self": 1,
    "kind": 1,
    "turn": 3,
    "effects": [
      {
        "min": 4,
        "max": 4,
        "value": -10
      },
      {
        "min": 5,
        "max": 5,
        "value": -15
      },
      {
        "min": 6,
        "max": 6,
        "value": -20
      },
      {
        "min": 7,
        "max": 7,
        "value": -35
      },
      {
        "min": 8,
        "max": 8,
        "value": -50
      },
      {
        "min": 9,
        "max": 9,
        "value": -65
      },
      {
        "min": 10,
        "max": 99,
        "value": -80
      }
    ]
  },
  {
    "iname": "SKDS_TRS_SANO01_UPPER_01",
    "is_self": 1,
    "kind": 1,
    "turn": 3,
    "effects": [
      {
        "min": 4,
        "max": 4,
        "value": -10
      },
      {
        "min": 5,
        "max": 5,
        "value": -15
      },
      {
        "min": 6,
        "max": 6,
        "value": -20
      },
      {
        "min": 7,
        "max": 7,
        "value": -35
      },
      {
        "min": 8,
        "max": 8,
        "value": -50
      },
      {
        "min": 9,
        "max": 9,
        "value": -65
      },
      {
        "min": 10,
        "max": 99,
        "value": -80
      }
    ]
  },
  {
    "iname": "SKDS_TRS_RYUG01_UPPER_01",
    "is_self": 1,
    "kind": 1,
    "turn": 3,
    "effects": [
      {
        "min": 4,
        "max": 4,
        "value": -10
      },
      {
        "min": 5,
        "max": 5,
        "value": -15
      },
      {
        "min": 6,
        "max": 6,
        "value": -20
      },
      {
        "min": 7,
        "max": 7,
        "value": -35
      },
      {
        "min": 8,
        "max": 8,
        "value": -50
      },
      {
        "min": 9,
        "max": 9,
        "value": -65
      },
      {
        "min": 10,
        "max": 99,
        "value": -80
      }
    ]
  },
  {
    "iname": "SKDS_TRS_HANA01_SUPPORT_1",
    "is_self": 1,
    "kind": 1,
    "turn": 3,
    "effects": [
      {
        "min": 4,
        "max": 4,
        "value": -10
      },
      {
        "min": 5,
        "max": 5,
        "value": -15
      },
      {
        "min": 6,
        "max": 6,
        "value": -20
      },
      {
        "min": 7,
        "max": 7,
        "value": -35
      },
      {
        "min": 8,
        "max": 8,
        "value": -50
      },
      {
        "min": 9,
        "max": 9,
        "value": -65
      },
      {
        "min": 10,
        "max": 99,
        "value": -80
      }
    ]
  },
  {
    "iname": "SKDS_TRS_SANO01_SUPPORT_1",
    "is_self": 1,
    "kind": 1,
    "turn": 3,
    "effects": [
      {
        "min": 4,
        "max": 4,
        "value": -10
      },
      {
        "min": 5,
        "max": 5,
        "value": -15
      },
      {
        "min": 6,
        "max": 6,
        "value": -20
      },
      {
        "min": 7,
        "max": 7,
        "value": -35
      },
      {
        "min": 8,
        "max": 8,
        "value": -50
      },
      {
        "min": 9,
        "max": 9,
        "value": -65
      },
      {
        "min": 10,
        "max": 99,
        "value": -80
      }
    ]
  },
  {
    "iname": "SKDS_TRS_RYUG01_SUPPORT_1",
    "is_self": 1,
    "kind": 1,
    "turn": 3,
    "effects": [
      {
        "min": 4,
        "max": 4,
        "value": -10
      },
      {
        "min": 5,
        "max": 5,
        "value": -15
      },
      {
        "min": 6,
        "max": 6,
        "value": -20
      },
      {
        "min": 7,
        "max": 7,
        "value": -35
      },
      {
        "min": 8,
        "max": 8,
        "value": -50
      },
      {
        "min": 9,
        "max": 9,
        "value": -65
      },
      {
        "min": 10,
        "max": 99,
        "value": -80
      }
    ]
  },
  {
    "iname": "SKDS_TRS_HANA01_SUPPORT_2",
    "is_self": 1,
    "kind": 0,
    "turn": 0,
    "effects": [
      {
        "min": 1,
        "max": 1,
        "value": 20
      },
      {
        "min": 2,
        "max": 2,
        "value": 16
      },
      {
        "min": 3,
        "max": 3,
        "value": 12
      }
    ]
  },
  {
    "iname": "SKDS_TRS_SANO01_SUPPORT_2",
    "is_self": 1,
    "kind": 0,
    "turn": 0,
    "effects": [
      {
        "min": 1,
        "max": 1,
        "value": 20
      },
      {
        "min": 2,
        "max": 2,
        "value": 16
      },
      {
        "min": 3,
        "max": 3,
        "value": 12
      }
    ]
  },
  {
    "iname": "SKDS_TRS_RYUG01_SUPPORT_2",
    "is_self": 1,
    "kind": 0,
    "turn": 0,
    "effects": [
      {
        "min": 1,
        "max": 1,
        "value": 20
      },
      {
        "min": 2,
        "max": 2,
        "value": 16
      },
      {
        "min": 3,
        "max": 3,
        "value": 12
      }
    ]
  },
  {
    "iname": "SKDS_DISTANCE_DG_0401",
    "is_self": 1,
    "kind": 1,
    "turn": 0,
    "effects": [
      {
        "min": 6,
        "max": 99,
        "value": -60
      }
    ]
  },
  {
    "iname": "SKDS_LIND01_TRANS01_REACTION_01",
    "is_self": 1,
    "kind": 2,
    "turn": 0,
    "effects": [
      {
        "min": 1,
        "max": 1,
        "value": 0
      },
      {
        "min": 2,
        "max": 2,
        "value": -30
      },
      {
        "min": 3,
        "max": 3,
        "value": -60
      },
      {
        "min": 4,
        "max": 99,
        "value": -90
      }
    ]
  },
  {
    "iname": "SKDS_LIND01_REACTION_01",
    "is_self": 1,
    "kind": 2,
    "turn": 0,
    "effects": [
      {
        "min": 1,
        "max": 1,
        "value": 0
      },
      {
        "min": 2,
        "max": 2,
        "value": -60
      },
      {
        "min": 3,
        "max": 4,
        "value": -90
      }
    ]
  },
  {
    "iname": "SKDS_TE_BONUS_MORE_LV20",
    "is_self": 1,
    "kind": 1,
    "turn": 3,
    "effects": [
      {
        "min": 1,
        "max": 1,
        "value": -80
      }
    ]
  },
  {
    "iname": "SKDS_TE_BONUS_EVE_LV20",
    "is_self": 1,
    "kind": 1,
    "turn": 3,
    "effects": [
      {
        "min": 4,
        "max": 4,
        "value": -10
      },
      {
        "min": 5,
        "max": 5,
        "value": -15
      },
      {
        "min": 6,
        "max": 6,
        "value": -20
      },
      {
        "min": 7,
        "max": 7,
        "value": -35
      },
      {
        "min": 8,
        "max": 8,
        "value": -50
      },
      {
        "min": 9,
        "max": 9,
        "value": -65
      },
      {
        "min": 10,
        "max": 99,
        "value": -80
      }
    ]
  },
  {
    "iname": "SKDS_TE_BONUS_EVE_LV20_B",
    "is_self": 1,
    "kind": 0,
    "turn": 4,
    "effects": [
      {
        "min": 1,
        "max": 1,
        "value": 32
      }
    ]
  },
  {
    "iname": "SKDS_NIDO01_UPPER_01",
    "is_self": 1,
    "kind": 1,
    "turn": 3,
    "effects": [
      {
        "min": 4,
        "max": 4,
        "value": -10
      },
      {
        "min": 5,
        "max": 5,
        "value": -15
      },
      {
        "min": 6,
        "max": 6,
        "value": -20
      },
      {
        "min": 7,
        "max": 7,
        "value": -35
      },
      {
        "min": 8,
        "max": 8,
        "value": -50
      },
      {
        "min": 9,
        "max": 9,
        "value": -65
      },
      {
        "min": 10,
        "max": 99,
        "value": -80
      }
    ]
  },
  {
    "iname": "SKDS_NIDO01_SUPPORT_02",
    "is_self": 1,
    "kind": 1,
    "turn": 2,
    "effects": [
      {
        "min": 4,
        "max": 4,
        "value": -10
      },
      {
        "min": 5,
        "max": 5,
        "value": -15
      },
      {
        "min": 6,
        "max": 6,
        "value": -20
      },
      {
        "min": 7,
        "max": 7,
        "value": -35
      },
      {
        "min": 8,
        "max": 8,
        "value": -50
      },
      {
        "min": 9,
        "max": 9,
        "value": -65
      },
      {
        "min": 10,
        "max": 99,
        "value": -80
      }
    ]
  },
  {
    "iname": "SKDS_NIDO01_TRANS01_UPPER_01",
    "is_self": 1,
    "kind": 1,
    "turn": 3,
    "effects": [
      {
        "min": 1,
        "max": 1,
        "value": -50
      },
      {
        "min": 2,
        "max": 2,
        "value": -40
      },
      {
        "min": 3,
        "max": 3,
        "value": -30
      },
      {
        "min": 4,
        "max": 4,
        "value": -20
      }
    ]
  },
  {
    "iname": "SKDS_DISTANCE_GUA_VEDA_R2_130",
    "is_self": 1,
    "kind": 1,
    "turn": 0,
    "effects": [
      {
        "min": 4,
        "max": 4,
        "value": -10
      },
      {
        "min": 5,
        "max": 5,
        "value": -15
      },
      {
        "min": 6,
        "max": 6,
        "value": -20
      },
      {
        "min": 7,
        "max": 7,
        "value": -35
      },
      {
        "min": 8,
        "max": 8,
        "value": -50
      },
      {
        "min": 9,
        "max": 9,
        "value": -65
      },
      {
        "min": 10,
        "max": 99,
        "value": -80
      }
    ]
  },
  {
    "iname": "SKDS_DISTANCE_TE_BONUS_SUZUKA_LV20_A",
    "is_self": 1,
    "kind": 1,
    "turn": 5,
    "effects": [
      {
        "min": 3,
        "max": 99,
        "value": -40
      }
    ]
  },
  {
    "iname": "SKDS_DISTANCE_TE_BONUS_SUZUKA_LV20_B",
    "is_self": 1,
    "kind": 0,
    "turn": 6,
    "effects": [
      {
        "min": 1,
        "max": 1,
        "value": 30
      }
    ]
  },
  {
    "iname": "SKDS_DESERT_LUCIA_01_VA_MAX",
    "is_self": 1,
    "kind": 0,
    "turn": 0,
    "effects": [
      {
        "min": 1,
        "max": 1,
        "value": 20
      },
      {
        "min": 2,
        "max": 2,
        "value": 16
      }
    ]
  },
  {
    "iname": "SKDS_YOMI_LINK01_UPPER_02",
    "is_self": 1,
    "kind": 1,
    "turn": 1,
    "effects": [
      {
        "min": 1,
        "max": 2,
        "value": -50
      }
    ]
  },
  {
    "iname": "SKDS_YOMI_LINK01_UPPER_03",
    "is_self": 1,
    "kind": 1,
    "turn": 1,
    "effects": [
      {
        "min": 1,
        "max": 2,
        "value": -50
      }
    ]
  },
  {
    "iname": "SKDS_YOMI_LINK01_UPPER_04",
    "is_self": 1,
    "kind": 1,
    "turn": 1,
    "effects": [
      {
        "min": 1,
        "max": 2,
        "value": -50
      }
    ]
  },
  {
    "iname": "SKDS_YOMI_LINK01_UPPER_05",
    "is_self": 1,
    "kind": 1,
    "turn": 1,
    "effects": [
      {
        "min": 1,
        "max": 2,
        "value": -50
      }
    ]
  },
  {
    "iname": "SKDS_YOMI_LINK01_UPPER_05_TB",
    "is_self": 1,
    "kind": 1,
    "turn": 1,
    "effects": [
      {
        "min": 1,
        "max": 2,
        "value": -50
      }
    ]
  },
  {
    "iname": "SKDS_YOMI_LINK01_LOWER_03",
    "is_self": 1,
    "kind": 1,
    "turn": 1,
    "effects": [
      {
        "min": 1,
        "max": 2,
        "value": -50
      }
    ]
  },
  {
    "iname": "SKDS_WADA_YOMI_LINK_01_VA",
    "is_self": 1,
    "kind": 1,
    "turn": 1,
    "effects": [
      {
        "min": 1,
        "max": 2,
        "value": -50
      }
    ]
  },
  {
    "iname": "SKDS_WADA_YOMI_LINK_01_VAMAX",
    "is_self": 1,
    "kind": 1,
    "turn": 1,
    "effects": [
      {
        "min": 1,
        "max": 2,
        "value": -50
      }
    ]
  },
  {
    "iname": "SKDS_SP_OGRE_COVER_RANGE_GUARD_VEDA_140",
    "is_self": 1,
    "kind": 1,
    "turn": 0,
    "effects": [
      {
        "min": 3,
        "max": 99,
        "value": -50
      }
    ]
  },
  {
    "iname": "SKDS_EX_SP_BELP",
    "is_self": 1,
    "kind": 2,
    "turn": 0,
    "effects": [
      {
        "min": 4,
        "max": 99,
        "value": 800
      }
    ]
  },
  {
    "iname": "SKDS_ACHAD_SA_GLOVE_TRIAL_01",
    "is_self": 1,
    "kind": 1,
    "turn": 0,
    "effects": [
      {
        "min": 4,
        "max": 4,
        "value": -10
      },
      {
        "min": 5,
        "max": 5,
        "value": -15
      },
      {
        "min": 6,
        "max": 6,
        "value": -20
      },
      {
        "min": 7,
        "max": 7,
        "value": -35
      },
      {
        "min": 8,
        "max": 8,
        "value": -50
      },
      {
        "min": 9,
        "max": 9,
        "value": -65
      },
      {
        "min": 10,
        "max": 99,
        "value": -80
      }
    ]
  },
  {
    "iname": "SKDS_ENAN01_UPPER_01",
    "is_target": 1,
    "kind": 1,
    "turn": 2,
    "effects": [
      {
        "min": 1,
        "max": 3,
        "value": -50
      }
    ]
  },
  {
    "iname": "SKDS_ENAN01_UPPER_02",
    "is_target": 1,
    "kind": 1,
    "turn": 2,
    "effects": [
      {
        "min": 4,
        "max": 99,
        "value": -50
      }
    ]
  },
  {
    "iname": "SKDS_ENAN01_UPPER_03_SA",
    "is_target": 1,
    "kind": 1,
    "turn": 2,
    "effects": [
      {
        "min": 1,
        "max": 3,
        "value": -50
      }
    ]
  },
  {
    "iname": "SKDS_ENAN01_UPPER_04_SA",
    "is_target": 1,
    "kind": 1,
    "turn": 2,
    "effects": [
      {
        "min": 4,
        "max": 99,
        "value": -50
      }
    ]
  },
  {
    "iname": "SKDS_ENAN01_REACTION_01_1",
    "is_self": 1,
    "kind": 1,
    "turn": 2,
    "effects": [
      {
        "min": 1,
        "max": 3,
        "value": -50
      }
    ]
  },
  {
    "iname": "SKDS_ENAN01_REACTION_01_2",
    "is_self": 1,
    "kind": 1,
    "turn": 2,
    "effects": [
      {
        "min": 4,
        "max": 99,
        "value": -50
      }
    ]
  },
  {
    "iname": "SKDS_ENAN01_SUPPORT_01_2_B",
    "is_target": 1,
    "kind": 1,
    "turn": 3,
    "effects": [
      {
        "min": 1,
        "max": 3,
        "value": -50
      }
    ]
  },
  {
    "iname": "SKDS_ENAN01_SUPPORT_02_2_B",
    "is_target": 1,
    "kind": 1,
    "turn": 3,
    "effects": [
      {
        "min": 4,
        "max": 99,
        "value": -50
      }
    ]
  },
  {
    "iname": "SKDS_ENAN01_TRANS01_UPPER_02",
    "is_self": 1,
    "kind": 1,
    "turn": 1,
    "effects": [
      {
        "min": 1,
        "max": 3,
        "value": -70
      }
    ]
  },
  {
    "iname": "SKDS_ENAN01_TRANS01_UPPER_03",
    "is_self": 1,
    "kind": 1,
    "turn": 1,
    "effects": [
      {
        "min": 1,
        "max": 3,
        "value": -70
      }
    ]
  },
  {
    "iname": "SKDS_ENAN01_TRANS01_REACTION_1",
    "is_self": 1,
    "kind": 1,
    "turn": 1,
    "effects": [
      {
        "min": 4,
        "max": 99,
        "value": -50
      }
    ]
  },
  {
    "iname": "SKDS_EVER01_SUPPORT_2_2",
    "is_self": 1,
    "kind": 1,
    "turn": 3,
    "effects": [
      {
        "min": 1,
        "max": 2,
        "value": -50
      }
    ]
  },
  {
    "iname": "SKDS_DMN_WIZ_NIGRED_21_01",
    "is_self": 1,
    "kind": 0,
    "turn": 0,
    "effects": [
      {
        "min": 4,
        "max": 4,
        "value": 10
      },
      {
        "min": 5,
        "max": 5,
        "value": 15
      },
      {
        "min": 6,
        "max": 6,
        "value": 20
      },
      {
        "min": 7,
        "max": 7,
        "value": 30
      },
      {
        "min": 8,
        "max": 8,
        "value": 40
      },
      {
        "min": 9,
        "max": 9,
        "value": 50
      },
      {
        "min": 10,
        "max": 99,
        "value": 100
      }
    ]
  },
  {
    "iname": "SKDS_DMN_WIZ_NIGRED_21_03",
    "is_self": 1,
    "kind": 1,
    "turn": 0,
    "effects": [
      {
        "min": 1,
        "max": 1,
        "value": -50
      },
      {
        "min": 2,
        "max": 2,
        "value": -40
      },
      {
        "min": 3,
        "max": 3,
        "value": -30
      },
      {
        "min": 4,
        "max": 4,
        "value": -20
      },
      {
        "min": 5,
        "max": 5,
        "value": -10
      }
    ]
  },
  {
    "iname": "SKDS_BIG_DEMON_WIZ_PQ_PORT_02_SA_02",
    "is_self": 1,
    "kind": 1,
    "turn": 0,
    "effects": [
      {
        "min": 3,
        "max": 3,
        "value": -50
      },
      {
        "min": 4,
        "max": 4,
        "value": -60
      },
      {
        "min": 5,
        "max": 5,
        "value": -65
      },
      {
        "min": 6,
        "max": 6,
        "value": -75
      },
      {
        "min": 7,
        "max": 7,
        "value": -80
      },
      {
        "min": 8,
        "max": 8,
        "value": -85
      },
      {
        "min": 9,
        "max": 9,
        "value": -90
      },
      {
        "min": 10,
        "max": 99,
        "value": -95
      }
    ]
  },
  {
    "iname": "SKDS_POK_TYRH_LINK01_LOWER_2",
    "is_self": 1,
    "kind": 1,
    "turn": 3,
    "effects": [
      {
        "min": 2,
        "max": 2,
        "value": -10
      },
      {
        "min": 3,
        "max": 3,
        "value": -20
      },
      {
        "min": 4,
        "max": 4,
        "value": -30
      },
      {
        "min": 5,
        "max": 5,
        "value": -40
      },
      {
        "min": 6,
        "max": 6,
        "value": -50
      },
      {
        "min": 7,
        "max": 7,
        "value": -60
      },
      {
        "min": 8,
        "max": 99,
        "value": -70
      }
    ]
  },
  {
    "iname": "SKDS_POK_TYRHUNG_LINK_01_VA_MAX",
    "is_self": 1,
    "kind": 1,
    "turn": 5,
    "effects": [
      {
        "min": 2,
        "max": 2,
        "value": -10
      },
      {
        "min": 3,
        "max": 3,
        "value": -20
      },
      {
        "min": 4,
        "max": 4,
        "value": -30
      },
      {
        "min": 5,
        "max": 5,
        "value": -40
      },
      {
        "min": 6,
        "max": 6,
        "value": -50
      },
      {
        "min": 7,
        "max": 7,
        "value": -60
      },
      {
        "min": 8,
        "max": 99,
        "value": -70
      }
    ]
  },
  {
    "iname": "SKDS_ENAN01_GIMMICK_2_DG_0702",
    "is_target": 1,
    "kind": 1,
    "turn": 3,
    "effects": [
      {
        "min": 1,
        "max": 3,
        "value": -50
      }
    ]
  },
  {
    "iname": "SKDS_OPHI01",
    "is_self": 1,
    "kind": 2,
    "turn": 0,
    "effects": [
      {
        "min": 1,
        "max": 3,
        "value": -50
      },
      {
        "min": 4,
        "max": 4,
        "value": -30
      },
      {
        "min": 5,
        "max": 5,
        "value": -15
      }
    ]
  },
  {
    "iname": "SKDS_OPHI01_TRANS01",
    "is_self": 1,
    "kind": 2,
    "turn": 0,
    "effects": [
      {
        "min": 1,
        "max": 3,
        "value": -50
      },
      {
        "min": 4,
        "max": 4,
        "value": -30
      },
      {
        "min": 5,
        "max": 5,
        "value": -15
      }
    ]
  },
  {
    "iname": "SKDS_NORTH_OPHINEUS_01_VA",
    "is_self": 1,
    "kind": 2,
    "turn": 0,
    "effects": [
      {
        "min": 1,
        "max": 3,
        "value": -50
      },
      {
        "min": 4,
        "max": 4,
        "value": -30
      },
      {
        "min": 5,
        "max": 5,
        "value": -15
      }
    ]
  },
  {
    "iname": "SKDS_ENEMY_GIMMICK_1_XMAS2023_EX_SP",
    "is_self": 1,
    "kind": 1,
    "turn": 0,
    "effects": [
      {
        "min": 1,
        "max": 2,
        "value": -50
      }
    ]
  },
  {
    "iname": "SKDS_ENEMY_GIMMICK_1_XMAS2023_EX_SP2",
    "is_self": 1,
    "kind": 1,
    "turn": 0,
    "effects": [
      {
        "min": 1,
        "max": 2,
        "value": -90
      }
    ]
  },
  {
    "iname": "SKDS_EINZ_LINK01_UPPER",
    "is_self": 1,
    "kind": 2,
    "turn": 0,
    "effects": [
      {
        "min": 1,
        "max": 1,
        "value": 20
      },
      {
        "min": 2,
        "max": 2,
        "value": 16
      },
      {
        "min": 3,
        "max": 3,
        "value": 12
      }
    ]
  },
  {
    "iname": "SKDS_AF_ACCS_LOGI_LINK_02_WA_2_B",
    "is_self": 1,
    "kind": 0,
    "turn": 6,
    "effects": [
      {
        "min": 1,
        "max": 1,
        "value": 20
      },
      {
        "min": 2,
        "max": 2,
        "value": 16
      },
      {
        "min": 3,
        "max": 3,
        "value": 12
      }
    ]
  },
  {
    "iname": "SKDS_UROB_NEW01_UPPER_02",
    "is_self": 1,
    "kind": 2,
    "turn": 0,
    "effects": [
      {
        "min": 1,
        "max": 1,
        "value": 0
      },
      {
        "min": 2,
        "max": 2,
        "value": -20
      },
      {
        "min": 3,
        "max": 3,
        "value": -60
      }
    ]
  },
  {
    "iname": "SKDS_KAISER_NEW_SOLORAID_SP",
    "is_self": 1,
    "kind": 1,
    "turn": 0,
    "effects": [
      {
        "min": 1,
        "max": 3,
        "value": 30
      },
      {
        "min": 4,
        "max": 99,
        "value": -30
      }
    ]
  },
  {
    "iname": "SKDS_VOLO01_UPPER",
    "is_self": 1,
    "kind": 2,
    "turn": 0,
    "effects": [
      {
        "min": 4,
        "max": 4,
        "value": 12
      },
      {
        "min": 5,
        "max": 5,
        "value": 16
      },
      {
        "min": 6,
        "max": 99,
        "value": 20
      }
    ]
  },
  {
    "iname": "SKDS_AF_ACCS_NIGURED_06_WA",
    "is_self": 1,
    "kind": 0,
    "turn": 4,
    "effects": [
      {
        "min": 4,
        "max": 4,
        "value": 4
      },
      {
        "min": 5,
        "max": 5,
        "value": 8
      },
      {
        "min": 6,
        "max": 6,
        "value": 12
      },
      {
        "min": 7,
        "max": 7,
        "value": 16
      },
      {
        "min": 8,
        "max": 99,
        "value": 20
      }
    ]
  },
  {
    "iname": "SKDS_EDGA_LINK01_SUPPORT_01_2",
    "is_self": 1,
    "kind": 1,
    "turn": 0,
    "effects": [
      {
        "min": 4,
        "max": 4,
        "value": -10
      },
      {
        "min": 5,
        "max": 5,
        "value": -20
      },
      {
        "min": 6,
        "max": 6,
        "value": -30
      },
      {
        "min": 7,
        "max": 7,
        "value": -40
      },
      {
        "min": 8,
        "max": 99,
        "value": -50
      }
    ]
  },
  {
    "iname": "SKDS_ORTH_NIGRED_38_SP",
    "is_self": 1,
    "kind": 1,
    "turn": 0,
    "effects": [
      {
        "min": 4,
        "max": 4,
        "value": -30
      },
      {
        "min": 5,
        "max": 5,
        "value": -50
      },
      {
        "min": 6,
        "max": 6,
        "value": -70
      },
      {
        "min": 7,
        "max": 99,
        "value": -90
      }
    ]
  },
  {
    "iname": "SKDS_KAMU_LINK01_LOWER_02",
    "is_self": 1,
    "kind": 1,
    "turn": 3,
    "effects": [
      {
        "min": 2,
        "max": 2,
        "value": -10
      },
      {
        "min": 3,
        "max": 3,
        "value": -20
      },
      {
        "min": 4,
        "max": 4,
        "value": -30
      },
      {
        "min": 5,
        "max": 5,
        "value": -40
      },
      {
        "min": 6,
        "max": 6,
        "value": -50
      },
      {
        "min": 7,
        "max": 7,
        "value": -60
      },
      {
        "min": 8,
        "max": 99,
        "value": -70
      }
    ]
  },
  {
    "iname": "SKDS_AF_ACCS_NIGURED_07_WA",
    "is_self": 1,
    "kind": 0,
    "turn": 4,
    "effects": [
      {
        "min": 1,
        "max": 2,
        "value": 20
      }
    ]
  }
]