[
  {
    "iname": "SKDR_MERA_SUPPORT",
    "resets": [
      {
        "num": 1
      }
    ]
  },
  {
    "iname": "SKDR_TERRY",
    "resets": [
      {
        "buff": "BUFF_KOF_TERRY01_SUPPORT_1_1",
        "skill": "SK_KOF_TERRY01_SUPPORT_1",
        "num": 0
      },
      {
        "buff": "BUFF_KOF_TERRY01_SUPPORT_1_1_2",
        "skill": "SK_KOF_TERRY01_SUPPORT_1_2",
        "num": 0
      }
    ]
  },
  {
    "iname": "SKDR_TERRY_TB",
    "resets": [
      {
        "buff": "BUFF_KOF_TERRY01_SUPPORT_1_1",
        "skill": "SK_KOF_TERRY01_SUPPORT_1",
        "num": 0
      },
      {
        "buff": "BUFF_KOF_TERRY01_SUPPORT_1_1_2",
        "skill": "SK_KOF_TERRY01_SUPPORT_1_2_TB",
        "num": 0
      }
    ]
  },
  {
    "iname": "SKDR_IORI",
    "resets": [
      {
        "buff": "BUFF_KOF_IORI01_SUPPORT_1_1",
        "skill": "SK_KOF_IORI01_SUPPORT_1",
        "num": 0
      },
      {
        "buff": "BUFF_KOF_IORI01_SUPPORT_1_1_2",
        "skill": "SK_KOF_IORI01_SUPPORT_1_2",
        "num": 0
      }
    ]
  },
  {
    "iname": "SKDR_IORI_TB",
    "resets": [
      {
        "buff": "BUFF_KOF_IORI01_SUPPORT_1_1",
        "skill": "SK_KOF_IORI01_SUPPORT_1",
        "num": 0
      },
      {
        "buff": "BUFF_KOF_IORI01_SUPPORT_1_1_2",
        "skill": "SK_KOF_IORI01_SUPPORT_1_2_TB",
        "num": 0
      }
    ]
  },
  {
    "iname": "SKDR_MAI",
    "resets": [
      {
        "buff": "BUFF_KOF_MAI01_SUPPORT_1_1",
        "skill": "SK_KOF_MAI01_SUPPORT_1",
        "num": 0
      },
      {
        "buff": "BUFF_KOF_MAI01_SUPPORT_1_1_2",
        "skill": "SK_KOF_MAI01_SUPPORT_1_2",
        "num": 0
      }
    ]
  },
  {
    "iname": "SKDR_MAI_TB",
    "resets": [
      {
        "buff": "BUFF_KOF_MAI01_SUPPORT_1_1",
        "skill": "SK_KOF_MAI01_SUPPORT_1",
        "num": 0
      },
      {
        "buff": "BUFF_KOF_MAI01_SUPPORT_1_1_2",
        "skill": "SK_KOF_MAI01_SUPPORT_1_2_TB",
        "num": 0
      }
    ]
  },
  {
    "iname": "SKDR_KULA",
    "resets": [
      {
        "buff": "BUFF_KOF_KULA01_SUPPORT_1_1",
        "skill": "SK_KOF_KULA01_SUPPORT_1",
        "num": 0
      },
      {
        "buff": "BUFF_KOF_KULA01_SUPPORT_1_1_2",
        "skill": "SK_KOF_KULA01_SUPPORT_1_2",
        "num": 0
      }
    ]
  },
  {
    "iname": "SKDR_KULA_TB",
    "resets": [
      {
        "buff": "BUFF_KOF_KULA01_SUPPORT_1_1",
        "skill": "SK_KOF_KULA01_SUPPORT_1",
        "num": 0
      },
      {
        "buff": "BUFF_KOF_KULA01_SUPPORT_1_1_2",
        "skill": "SK_KOF_KULA01_SUPPORT_1_2_TB",
        "num": 0
      }
    ]
  },
  {
    "iname": "SKDR_ZEX01_UPPER_3",
    "resets": [
      {
        "buff": "BUFF_ZEX01_SUPPORT_1_1",
        "skill": "SK_ZEX01_SUPPORT_1_1",
        "num": 0
      },
      {
        "buff": "BUFF_ZEX01_SUPPORT_1_1",
        "skill": "SK_ZEX01_SUPPORT_1_1_B",
        "num": 0
      },
      {
        "buff": "BUFF_ZEX01_SUPPORT_1_1_2",
        "skill": "SK_ZEX01_SUPPORT_1_1_2",
        "num": 0
      },
      {
        "buff": "BUFF_ZEX01_SUPPORT_1_1_2",
        "skill": "SK_ZEX01_SUPPORT_1_1_2_B",
        "num": 0
      }
    ]
  },
  {
    "iname": "SKDR_ZEX01_UPPER_4",
    "resets": [
      {
        "buff": "BUFF_ZEX01_SUPPORT_1_1",
        "skill": "SK_ZEX01_SUPPORT_1_1",
        "num": 0
      },
      {
        "buff": "BUFF_ZEX01_SUPPORT_1_1_2",
        "skill": "SK_ZEX01_SUPPORT_1_1_2",
        "num": 0
      }
    ]
  },
  {
    "iname": "SKDR_ZEX01_UPPER_4_B",
    "resets": [
      {
        "buff": "BUFF_ZEX01_SUPPORT_1_1",
        "skill": "SK_ZEX01_SUPPORT_1_1_B",
        "num": 0
      },
      {
        "buff": "BUFF_ZEX01_SUPPORT_1_1_2",
        "skill": "SK_ZEX01_SUPPORT_1_1_2_B",
        "num": 0
      }
    ]
  },
  {
    "iname": "SKDR_ZEX01_UPPER_5",
    "resets": [
      {
        "buff": "BUFF_ZEX01_SUPPORT_1_2",
        "skill": "SK_ZEX01_SUPPORT_1_2",
        "num": 0
      }
    ]
  },
  {
    "iname": "SKDR_AJ7000_INSTALL_GEKITOU_NORMAL_01",
    "resets": [
      {
        "buff": "BUFF_AJ7000_SLASH",
        "skill": "SK_AJ7000_SLASH",
        "num": 0
      },
      {
        "buff": "BUFF_AJ7000_SLASH_CRI",
        "skill": "SK_AJ7000_SLASH_CRI",
        "num": 0
      },
      {
        "buff": "BUFF_AJ7000_STING",
        "skill": "SK_AJ7000_STING",
        "num": 0
      },
      {
        "buff": "BUFF_AJ7000_STING_CRI",
        "skill": "SK_AJ7000_STING_CRI",
        "num": 0
      },
      {
        "buff": "BUFF_AJ7000_SHOT",
        "skill": "SK_AJ7000_SHOT",
        "num": 0
      },
      {
        "buff": "BUFF_AJ7000_SHOT_CRI",
        "skill": "SK_AJ7000_SHOT_CRI",
        "num": 0
      },
      {
        "buff": "BUFF_AJ7000_MAGIC",
        "skill": "SK_AJ7000_MAGIC",
        "num": 0
      },
      {
        "buff": "BUFF_AJ7000_MAGIC_CRI",
        "skill": "SK_AJ7000_MAGIC_CRI",
        "num": 0
      },
      {
        "buff": "BUFF_AJ7000_NO_ELEMENT",
        "skill": "SK_AJ7000_NO_ELEMENT_JWEL",
        "num": 0
      },
      {
        "buff": "BUFF_AJ7000_NO_ELEMENT_CRI",
        "skill": "SK_AJ7000_NO_ELEMENT_CRI",
        "num": 0
      },
      {
        "buff": "BUFF_AJ7000_BLOW",
        "skill": "SK_AJ7000_BLOW",
        "num": 10
      }
    ]
  },
  {
    "iname": "SKDR_AJ7000_GEKITOU_NORMAL_01",
    "resets": [
      {
        "buff": "BUFF_AJ7000_BLOW_CRI",
        "skill": "SK_AJ7000_BLOW_CRI",
        "num": 10
      },
      {
        "buff": "BUFF_AJ7000_BLOW_JWEL",
        "skill": "SK_AJ7000_BLOW_JWEL",
        "num": 0
      }
    ]
  },
  {
    "iname": "SKDR_AJ7000_GEKITOU_NORMAL_02",
    "resets": [
      {
        "buff": "BUFF_AJ7000_BLOW_JWEL",
        "skill": "SK_AJ7000_BLOW_JWEL",
        "num": 10
      }
    ]
  },
  {
    "iname": "SKDR_AJ7000_GEKITOU_NORMAL_03",
    "resets": [
      {
        "buff": "BUFF_AJ7000_BLOW_CRI",
        "skill": "SK_AJ7000_BLOW_CRI",
        "num": 0
      },
      {
        "buff": "BUFF_AJ7000_BLOW_JWEL",
        "skill": "SK_AJ7000_BLOW_JWEL",
        "num": 0
      },
      {
        "buff": "BUFF_AJ7000_BLOW",
        "skill": "SK_AJ7000_BLOW",
        "num": 10
      }
    ]
  },
  {
    "iname": "SKDR_AJ7000_INSTALL_GEKITOU_SLASH_01",
    "resets": [
      {
        "buff": "BUFF_AJ7000_BLOW_CRI",
        "skill": "SK_AJ7000_BLOW_CRI",
        "num": 0
      },
      {
        "buff": "BUFF_AJ7000_BLOW_JWEL",
        "skill": "SK_AJ7000_BLOW_JWEL",
        "num": 0
      },
      {
        "buff": "BUFF_AJ7000_BLOW",
        "skill": "SK_AJ7000_BLOW",
        "num": 0
      },
      {
        "buff": "BUFF_AJ7000_STING",
        "skill": "SK_AJ7000_STING",
        "num": 0
      },
      {
        "buff": "BUFF_AJ7000_STING_CRI",
        "skill": "SK_AJ7000_STING_CRI",
        "num": 0
      },
      {
        "buff": "BUFF_AJ7000_SHOT",
        "skill": "SK_AJ7000_SHOT",
        "num": 0
      },
      {
        "buff": "BUFF_AJ7000_SHOT_CRI",
        "skill": "SK_AJ7000_SHOT_CRI",
        "num": 0
      },
      {
        "buff": "BUFF_AJ7000_MAGIC",
        "skill": "SK_AJ7000_MAGIC",
        "num": 0
      },
      {
        "buff": "BUFF_AJ7000_MAGIC_CRI",
        "skill": "SK_AJ7000_MAGIC_CRI",
        "num": 0
      },
      {
        "buff": "BUFF_AJ7000_NO_ELEMENT",
        "skill": "SK_AJ7000_NO_ELEMENT_JWEL",
        "num": 0
      },
      {
        "buff": "BUFF_AJ7000_NO_ELEMENT_CRI",
        "skill": "SK_AJ7000_NO_ELEMENT_CRI",
        "num": 0
      },
      {
        "buff": "BUFF_AJ7000_SLASH",
        "skill": "SK_AJ7000_SLASH",
        "num": 10
      }
    ]
  },
  {
    "iname": "SKDR_AJ7000_GEKITOU_SLASH_05",
    "resets": [
      {
        "buff": "BUFF_AJ7000_SLASH_CRI",
        "skill": "SK_AJ7000_SLASH_CRI",
        "num": 10
      }
    ]
  },
  {
    "iname": "SKDR_AJ7000_GEKITOU_SLASH_06",
    "resets": [
      {
        "buff": "BUFF_AJ7000_SLASH_CRI",
        "skill": "SK_AJ7000_SLASH_CRI",
        "num": 0
      }
    ]
  },
  {
    "iname": "SKDR_AJ7000_INSTALL_GEKITOU_STING_01",
    "resets": [
      {
        "buff": "BUFF_AJ7000_BLOW_CRI",
        "skill": "SK_AJ7000_BLOW_CRI",
        "num": 0
      },
      {
        "buff": "BUFF_AJ7000_BLOW_JWEL",
        "skill": "SK_AJ7000_BLOW_JWEL",
        "num": 0
      },
      {
        "buff": "BUFF_AJ7000_BLOW",
        "skill": "SK_AJ7000_BLOW",
        "num": 0
      },
      {
        "buff": "BUFF_AJ7000_SLASH",
        "skill": "SK_AJ7000_SLASH",
        "num": 0
      },
      {
        "buff": "BUFF_AJ7000_SLASH_CRI",
        "skill": "SK_AJ7000_SLASH_CRI",
        "num": 0
      },
      {
        "buff": "BUFF_AJ7000_SHOT",
        "skill": "SK_AJ7000_SHOT",
        "num": 0
      },
      {
        "buff": "BUFF_AJ7000_SHOT_CRI",
        "skill": "SK_AJ7000_SHOT_CRI",
        "num": 0
      },
      {
        "buff": "BUFF_AJ7000_MAGIC",
        "skill": "SK_AJ7000_MAGIC",
        "num": 0
      },
      {
        "buff": "BUFF_AJ7000_MAGIC_CRI",
        "skill": "SK_AJ7000_MAGIC_CRI",
        "num": 0
      },
      {
        "buff": "BUFF_AJ7000_NO_ELEMENT",
        "skill": "SK_AJ7000_NO_ELEMENT_JWEL",
        "num": 0
      },
      {
        "buff": "BUFF_AJ7000_NO_ELEMENT_CRI",
        "skill": "SK_AJ7000_NO_ELEMENT_CRI",
        "num": 0
      },
      {
        "buff": "BUFF_AJ7000_STING",
        "skill": "SK_AJ7000_STING",
        "num": 10
      }
    ]
  },
  {
    "iname": "SKDR_AJ7000_GEKITOU_STING_05",
    "resets": [
      {
        "buff": "BUFF_AJ7000_STING_CRI",
        "skill": "SK_AJ7000_STING_CRI",
        "num": 10
      }
    ]
  },
  {
    "iname": "SKDR_AJ7000_GEKITOU_STING_06",
    "resets": [
      {
        "buff": "BUFF_AJ7000_STING_CRI",
        "skill": "SK_AJ7000_STING_CRI",
        "num": 0
      }
    ]
  },
  {
    "iname": "SKDR_AJ7000_INSTALL_GEKITOU_SHOT_01",
    "resets": [
      {
        "buff": "BUFF_AJ7000_BLOW_CRI",
        "skill": "SK_AJ7000_BLOW_CRI",
        "num": 0
      },
      {
        "buff": "BUFF_AJ7000_BLOW_JWEL",
        "skill": "SK_AJ7000_BLOW_JWEL",
        "num": 0
      },
      {
        "buff": "BUFF_AJ7000_BLOW",
        "skill": "SK_AJ7000_BLOW",
        "num": 0
      },
      {
        "buff": "BUFF_AJ7000_SLASH",
        "skill": "SK_AJ7000_SLASH",
        "num": 0
      },
      {
        "buff": "BUFF_AJ7000_SLASH_CRI",
        "skill": "SK_AJ7000_SLASH_CRI",
        "num": 0
      },
      {
        "buff": "BUFF_AJ7000_STING",
        "skill": "SK_AJ7000_STING",
        "num": 0
      },
      {
        "buff": "BUFF_AJ7000_STING_CRI",
        "skill": "SK_AJ7000_STING_CRI",
        "num": 0
      },
      {
        "buff": "BUFF_AJ7000_MAGIC",
        "skill": "SK_AJ7000_MAGIC",
        "num": 0
      },
      {
        "buff": "BUFF_AJ7000_MAGIC_CRI",
        "skill": "SK_AJ7000_MAGIC_CRI",
        "num": 0
      },
      {
        "buff": "BUFF_AJ7000_NO_ELEMENT",
        "skill": "SK_AJ7000_NO_ELEMENT_JWEL",
        "num": 0
      },
      {
        "buff": "BUFF_AJ7000_NO_ELEMENT_CRI",
        "skill": "SK_AJ7000_NO_ELEMENT_CRI",
        "num": 0
      },
      {
        "buff": "BUFF_AJ7000_SHOT",
        "skill": "SK_AJ7000_SHOT",
        "num": 10
      }
    ]
  },
  {
    "iname": "SKDR_AJ7000_GEKITOU_SHOT_05",
    "resets": [
      {
        "buff": "BUFF_AJ7000_SHOT_CRI",
        "skill": "SK_AJ7000_SHOT_CRI",
        "num": 10
      }
    ]
  },
  {
    "iname": "SKDR_AJ7000_GEKITOU_SHOT_06",
    "resets": [
      {
        "buff": "BUFF_AJ7000_SHOT_CRI",
        "skill": "SK_AJ7000_SHOT_CRI",
        "num": 0
      }
    ]
  },
  {
    "iname": "SKDR_AJ7000_INSTALL_GEKITOU_MAGIC_01",
    "resets": [
      {
        "buff": "BUFF_AJ7000_BLOW_CRI",
        "skill": "SK_AJ7000_BLOW_CRI",
        "num": 0
      },
      {
        "buff": "BUFF_AJ7000_BLOW_JWEL",
        "skill": "SK_AJ7000_BLOW_JWEL",
        "num": 0
      },
      {
        "buff": "BUFF_AJ7000_BLOW",
        "skill": "SK_AJ7000_BLOW",
        "num": 0
      },
      {
        "buff": "BUFF_AJ7000_SLASH",
        "skill": "SK_AJ7000_SLASH",
        "num": 0
      },
      {
        "buff": "BUFF_AJ7000_SLASH_CRI",
        "skill": "SK_AJ7000_SLASH_CRI",
        "num": 0
      },
      {
        "buff": "BUFF_AJ7000_STING",
        "skill": "SK_AJ7000_STING",
        "num": 0
      },
      {
        "buff": "BUFF_AJ7000_STING_CRI",
        "skill": "SK_AJ7000_STING_CRI",
        "num": 0
      },
      {
        "buff": "BUFF_AJ7000_SHOT",
        "skill": "SK_AJ7000_SHOT",
        "num": 0
      },
      {
        "buff": "BUFF_AJ7000_SHOT_CRI",
        "skill": "SK_AJ7000_SHOT_CRI",
        "num": 0
      },
      {
        "buff": "BUFF_AJ7000_NO_ELEMENT",
        "skill": "SK_AJ7000_NO_ELEMENT_JWEL",
        "num": 0
      },
      {
        "buff": "BUFF_AJ7000_NO_ELEMENT_CRI",
        "skill": "SK_AJ7000_NO_ELEMENT_CRI",
        "num": 0
      },
      {
        "buff": "BUFF_AJ7000_MAGIC",
        "skill": "SK_AJ7000_MAGIC",
        "num": 10
      }
    ]
  },
  {
    "iname": "SKDR_AJ7000_GEKITOU_MAGIC_05",
    "resets": [
      {
        "buff": "BUFF_AJ7000_MAGIC_CRI",
        "skill": "SK_AJ7000_MAGIC_CRI",
        "num": 10
      }
    ]
  },
  {
    "iname": "SKDR_AJ7000_GEKITOU_MAGIC_06",
    "resets": [
      {
        "buff": "BUFF_AJ7000_MAGIC_CRI",
        "skill": "SK_AJ7000_MAGIC_CRI",
        "num": 0
      }
    ]
  },
  {
    "iname": "SKDR_AJ7000_INSTALL_GEKITOU_NO_ELEMENT_01",
    "resets": [
      {
        "buff": "BUFF_AJ7000_BLOW_CRI",
        "skill": "SK_AJ7000_BLOW_CRI",
        "num": 0
      },
      {
        "buff": "BUFF_AJ7000_BLOW_JWEL",
        "skill": "SK_AJ7000_BLOW_JWEL",
        "num": 0
      },
      {
        "buff": "BUFF_AJ7000_BLOW",
        "skill": "SK_AJ7000_BLOW",
        "num": 0
      },
      {
        "buff": "BUFF_AJ7000_SLASH",
        "skill": "SK_AJ7000_SLASH",
        "num": 0
      },
      {
        "buff": "BUFF_AJ7000_SLASH_CRI",
        "skill": "SK_AJ7000_SLASH_CRI",
        "num": 0
      },
      {
        "buff": "BUFF_AJ7000_STING",
        "skill": "SK_AJ7000_STING",
        "num": 0
      },
      {
        "buff": "BUFF_AJ7000_STING_CRI",
        "skill": "SK_AJ7000_STING_CRI",
        "num": 0
      },
      {
        "buff": "BUFF_AJ7000_SHOT",
        "skill": "SK_AJ7000_SHOT",
        "num": 0
      },
      {
        "buff": "BUFF_AJ7000_SHOT_CRI",
        "skill": "SK_AJ7000_SHOT_CRI",
        "num": 0
      },
      {
        "buff": "BUFF_AJ7000_MAGIC",
        "skill": "SK_AJ7000_MAGIC",
        "num": 0
      },
      {
        "buff": "BUFF_AJ7000_MAGIC_CRI",
        "skill": "SK_AJ7000_MAGIC_CRI",
        "num": 0
      },
      {
        "buff": "BUFF_AJ7000_NO_ELEMENT",
        "skill": "SK_AJ7000_NO_ELEMENT_JWEL",
        "num": 10
      }
    ]
  },
  {
    "iname": "SKDR_AJ7000_GEKITOU_NO_ELEMENT_01",
    "resets": [
      {
        "buff": "BUFF_AJ7000_NO_ELEMENT_CRI",
        "skill": "SK_AJ7000_NO_ELEMENT_CRI",
        "num": 10
      }
    ]
  },
  {
    "iname": "SKDR_AJ7000_GEKITOU_NO_ELEMENT_02",
    "resets": [
      {
        "buff": "BUFF_AJ7000_NO_ELEMENT_CRI",
        "skill": "SK_AJ7000_NO_ELEMENT_CRI",
        "num": 0
      }
    ]
  },
  {
    "iname": "SKDR_CELE01_UPPER_3",
    "resets": [
      {
        "buff": "BUFF_CELE01_SUPPORT_1_1",
        "skill": "SK_CELE01_SUPPORT_1",
        "num": 0
      }
    ]
  },
  {
    "iname": "SKDR_CELE01_UPPER_4",
    "resets": [
      {
        "buff": "BUFF_CELE01_SUPPORT_1_1",
        "skill": "SK_CELE01_SUPPORT_1",
        "num": 0
      }
    ]
  },
  {
    "iname": "SKDR_CELE01_UPPER_4_TB",
    "resets": [
      {
        "buff": "BUFF_CELE01_SUPPORT_1_1",
        "skill": "SK_CELE01_SUPPORT_1",
        "num": 0
      }
    ]
  },
  {
    "iname": "SKDR_BENIKA01_SUPPORT_2",
    "resets": [
      {
        "buff": "BUFF_BENIKA01_SUPPORT_2",
        "skill": "SK_BENIKA01_SUPPORT_2",
        "num": 0
      }
    ]
  },
  {
    "iname": "SKDR_BENIKA01_SUPPORT_2_TB",
    "resets": [
      {
        "buff": "BUFF_BENIKA01_SUPPORT_2",
        "skill": "SK_BENIKA01_SUPPORT_2_TB",
        "num": 0
      }
    ]
  },
  {
    "iname": "SKDR_BENIKA01_UPPER1_B",
    "resets": [
      {
        "buff": "BUFF_BENIKA01_SUPPORT_2",
        "skill": "SK_BENIKA01_SUPPORT_2",
        "num": 0
      },
      {
        "buff": "BUFF_BENIKA01_SUPPORT_2",
        "skill": "SK_BENIKA01_SUPPORT_2_TB",
        "num": 0
      }
    ]
  },
  {
    "iname": "SKDR_BENIKA01_UPPER2",
    "resets": [
      {
        "buff": "BUFF_BENIKA01_SUPPORT_2",
        "skill": "SK_BENIKA01_SUPPORT_2",
        "num": 0
      },
      {
        "buff": "BUFF_BENIKA01_SUPPORT_2",
        "skill": "SK_BENIKA01_SUPPORT_2_TB",
        "num": 0
      }
    ]
  },
  {
    "iname": "SKDR_BENIKA01_UPPER3",
    "resets": [
      {
        "buff": "BUFF_BENIKA01_SUPPORT_2",
        "skill": "SK_BENIKA01_SUPPORT_2",
        "num": 0
      },
      {
        "buff": "BUFF_BENIKA01_SUPPORT_2",
        "skill": "SK_BENIKA01_SUPPORT_2_TB",
        "num": 0
      }
    ]
  },
  {
    "iname": "SKDR_BENIKA01_UPPER4",
    "resets": [
      {
        "buff": "BUFF_BENIKA01_SUPPORT_2",
        "skill": "SK_BENIKA01_SUPPORT_2",
        "num": 0
      },
      {
        "buff": "BUFF_BENIKA01_SUPPORT_2",
        "skill": "SK_BENIKA01_SUPPORT_2_TB",
        "num": 0
      }
    ]
  },
  {
    "iname": "SKDR_BENIKA01_UPPER4_TB",
    "resets": [
      {
        "buff": "BUFF_BENIKA01_SUPPORT_2",
        "skill": "SK_BENIKA01_SUPPORT_2",
        "num": 0
      },
      {
        "buff": "BUFF_BENIKA01_SUPPORT_2",
        "skill": "SK_BENIKA01_SUPPORT_2_TB",
        "num": 0
      }
    ]
  },
  {
    "iname": "SKDR_CTR_H_MT3_EX1_01",
    "resets": [
      {
        "buff": "BUFF_PASSIVE_MT3_EX1_01",
        "skill": "SK_PASSIVE_MT3_EX1_01",
        "num": 1
      },
      {
        "buff": "BUFF_PASSIVE_MT3_EX1_02",
        "skill": "SK_PASSIVE_MT3_EX1_02",
        "num": 0
      }
    ]
  },
  {
    "iname": "SKDR_CTR_H_MT3_EX1_02",
    "resets": [
      {
        "buff": "BUFF_PASSIVE_MT3_EX1_01",
        "skill": "SK_PASSIVE_MT3_EX1_01",
        "num": 0
      },
      {
        "buff": "BUFF_PASSIVE_MT3_EX1_02",
        "skill": "SK_PASSIVE_MT3_EX1_02",
        "num": 1
      }
    ]
  },
  {
    "iname": "SKDR_YURA_UPPER_5",
    "resets": [
      {
        "buff": "BUFF_YURA01_SUPPORT_1_B",
        "skill": "SK_YURA01_SUPPORT_1",
        "num": 0
      }
    ]
  },
  {
    "iname": "SKDR_POK_LOGIS01_UPPER_5",
    "resets": [
      {
        "buff": "BUFF_POK_LOGIS01_SUPPORT_1_1",
        "skill": "SK_POK_LOGIS01_SUPPORT_1",
        "num": 3
      },
      {
        "buff": "BUFF_POK_LOGIS01_SUPPORT_1_1_2",
        "skill": "SK_POK_LOGIS01_SUPPORT_1_2",
        "num": 3
      },
      {
        "buff": "BUFF_POK_LOGIS01_SUPPORT_1_4",
        "skill": "SK_POK_LOGIS01_SUPPORT_1_4",
        "num": 3
      }
    ]
  },
  {
    "iname": "SKDR_POK_LOGIS01_UPPER_5_TB",
    "resets": [
      {
        "buff": "BUFF_POK_LOGIS01_SUPPORT_1_1",
        "skill": "SK_POK_LOGIS01_SUPPORT_1",
        "num": 3
      },
      {
        "buff": "BUFF_POK_LOGIS01_SUPPORT_1_1_2",
        "skill": "SK_POK_LOGIS01_SUPPORT_1_2_TB",
        "num": 3
      },
      {
        "buff": "BUFF_POK_LOGIS01_SUPPORT_1_4",
        "skill": "SK_POK_LOGIS01_SUPPORT_1_4",
        "num": 3
      }
    ]
  },
  {
    "iname": "SKDR_AF_ACCS_LOGISTILLA_01_WA",
    "resets": [
      {
        "buff": "BUFF_POK_LOGIS01_SUPPORT_1_4",
        "skill": "SK_POK_LOGIS01_SUPPORT_1_4",
        "num": 3
      }
    ]
  },
  {
    "iname": "SKDR_POK_IZOKU_CRI_SUPPORT",
    "resets": [
      {
        "buff": "BUFF_POK_IZOKU_CRI_SUPPORT",
        "skill": "SK_POK_IZOKU_CRI_SUPPORT",
        "num": 0
      }
    ]
  },
  {
    "iname": "SKDR_TE_BONUS_AMBROSIA_LV20",
    "resets": [
      {
        "buff": "BUFF_AMBRO01_SUPPORT_1_B",
        "skill": "SK_AMBRO01_SUPPORT_1",
        "num": 10
      }
    ]
  },
  {
    "iname": "SKDR_NIGRED_20_LEVI_REACTION",
    "resets": [
      {
        "buff": "BUFF_NIGRED_20_LEVI_SUPPORT_1",
        "num": 0
      }
    ]
  },
  {
    "iname": "SKDR_SHAYNA",
    "resets": [
      {
        "buff": "BUFF_SHAYNA_STR_CC_SUPPORT_3",
        "skill": "SK_SHAYNA_STR_CC_SUPPORT_3",
        "num": 0
      },
      {
        "buff": "BUFF_SHAYNA_STR_CC_SUPPORT_3_2",
        "skill": "SK_SHAYNA_STR_CC_SUPPORT_3_2",
        "num": 0
      }
    ]
  },
  {
    "iname": "SKDR_MINOTAUR01_DEF_NIGURED_19F_DUMMY",
    "resets": [
      {
        "buff": "BUFF_MINOTAUR01_ATK_NIGURED_19F",
        "skill": "SK_MINOTAUR01_ATK_NIGURED_19F",
        "num": 0
      },
      {
        "buff": "BUFF_MINOTAUR01_DEF_NIGURED_19F",
        "skill": "SK_MINOTAUR01_DEF_NIGURED_19F",
        "num": 10
      }
    ]
  },
  {
    "iname": "SKDR_MINOTAUR01_ATK_NIGURED_19F_DUMMY",
    "resets": [
      {
        "buff": "BUFF_MINOTAUR01_ATK_NIGURED_19F",
        "skill": "SK_MINOTAUR01_ATK_NIGURED_19F",
        "num": 10
      },
      {
        "buff": "BUFF_MINOTAUR01_DEF_NIGURED_19F",
        "skill": "SK_MINOTAUR01_DEF_NIGURED_19F",
        "num": 0
      }
    ]
  },
  {
    "iname": "SKDR_HELENE01_ATK",
    "resets": [
      {
        "buff": "BUFF_HELENE01_SUPPORT_1_2",
        "skill": "SK_HELENE01_SUPPORT_1_2",
        "num": 0
      },
      {
        "buff": "BUFF_HELENE01_SUPPORT_1_2",
        "skill": "SK_HELENE01_SUPPORT_1_2_TB",
        "num": 0
      }
    ]
  },
  {
    "iname": "SKDR_HELENE01_UPPER_1",
    "resets": [
      {
        "buff": "BUFF_HELENE01_SUPPORT_1_2",
        "skill": "SK_HELENE01_SUPPORT_1_2",
        "num": 0
      },
      {
        "buff": "BUFF_HELENE01_SUPPORT_1_2",
        "skill": "SK_HELENE01_SUPPORT_1_2_TB",
        "num": 0
      }
    ]
  },
  {
    "iname": "SKDR_HELENE01_UPPER_2",
    "resets": [
      {
        "buff": "BUFF_HELENE01_SUPPORT_1_2",
        "skill": "SK_HELENE01_SUPPORT_1_2",
        "num": 0
      },
      {
        "buff": "BUFF_HELENE01_SUPPORT_1_2",
        "skill": "SK_HELENE01_SUPPORT_1_2_TB",
        "num": 0
      }
    ]
  },
  {
    "iname": "SKDR_HELENE01_UPPER_5",
    "resets": [
      {
        "buff": "BUFF_HELENE01_SUPPORT_1_2",
        "skill": "SK_HELENE01_SUPPORT_1_2",
        "num": 0
      },
      {
        "buff": "BUFF_HELENE01_SUPPORT_1_2",
        "skill": "SK_HELENE01_SUPPORT_1_2_TB",
        "num": 0
      }
    ]
  },
  {
    "iname": "SKDR_HELENE01_UPPER_5_TB",
    "resets": [
      {
        "buff": "BUFF_HELENE01_SUPPORT_1_2",
        "skill": "SK_HELENE01_SUPPORT_1_2_TB",
        "num": 0
      }
    ]
  },
  {
    "iname": "SKDR_NORTH_HELENE_01_VA",
    "resets": [
      {
        "buff": "BUFF_HELENE01_SUPPORT_1_2",
        "skill": "SK_HELENE01_SUPPORT_1_2",
        "num": 0
      },
      {
        "buff": "BUFF_HELENE01_SUPPORT_1_2",
        "skill": "SK_HELENE01_SUPPORT_1_2_TB",
        "num": 0
      }
    ]
  },
  {
    "iname": "SKDR_NORTH_HELENE_01_VA_MAX",
    "resets": [
      {
        "buff": "BUFF_HELENE01_SUPPORT_1_2",
        "skill": "SK_HELENE01_SUPPORT_1_2",
        "num": 0
      },
      {
        "buff": "BUFF_HELENE01_SUPPORT_1_2",
        "skill": "SK_HELENE01_SUPPORT_1_2_TB",
        "num": 0
      }
    ]
  },
  {
    "iname": "SKDR_DUNG_MINO_BOSS_SUPPORT_SPEED",
    "resets": [
      {
        "buff": "BUFF_DUNG_MINO_BOSS_SUPPORT_SPEED",
        "skill": "SK_DUNG_MINO_BOSS_SUPPORT_SPEED",
        "num": 0
      }
    ]
  },
  {
    "iname": "SKDR_ZAFI01_UPPER_04",
    "resets": [
      {
        "buff": "BUFF_ZAFI01_SUPPORT_1_2",
        "skill": "SK_ZAFI01_SUPPORT_1_2",
        "num": 0
      },
      {
        "buff": "BUFF_ZAFI01_SUPPORT_1_2_B",
        "skill": "SK_ZAFI01_SUPPORT_1_1",
        "num": 0
      }
    ]
  },
  {
    "iname": "SKDR_POINTQUEST01_SUPPORT_03",
    "resets": [
      {
        "buff": "BUFF_POINTQUEST01_SUPPORT_03",
        "skill": "SK_POINTQUEST01_SUPPORT_03",
        "num": 0
      }
    ]
  },
  {
    "iname": "SKDR_BALT_REPPUU",
    "resets": [
      {
        "buff": "BUFF_BALT_SOL_REPPUU",
        "num": 0
      },
      {
        "buff": "BUFF_BALT_SOL_REPPUU_WIND",
        "num": 0
      }
    ]
  },
  {
    "iname": "SKDR_GT_HIJI01_LOWER_01",
    "resets": [
      {
        "buff": "BUFF_GT_HIJI01_SUPPORT_2",
        "skill": "SK_GT_HIJI01_SUPPORT_2",
        "num": 0
      },
      {
        "buff": "BUFF_GT_HIJIKATA_TB_AB_2_B",
        "skill": "SK_GT_HIJIKATA_TB_AB_2_B",
        "num": 0
      }
    ]
  },
  {
    "iname": "SKDR_GT_OKIT01",
    "resets": [
      {
        "buff": "BUFF_GT_OKIT01_SUPPORT_2",
        "skill": "SK_GT_OKIT01_SUPPORT_2",
        "num": 0
      },
      {
        "buff": "BUFF_GT_OKIT01_SUPPORT_2",
        "skill": "SK_GT_OKIT01_SUPPORT_2_TB",
        "num": 0
      },
      {
        "buff": "BUFF_GT_OKITA_TB_AB_2_B",
        "skill": "SK_GT_OKITA_TB_AB_2_B",
        "num": 0
      },
      {
        "buff": "BUFF_GT_OKITA_TB_AB_2_B",
        "skill": "SK_GT_OKITA_TB_AB_2_B_TB",
        "num": 0
      }
    ]
  },
  {
    "iname": "SKDR_MATH01_UPPER_2",
    "resets": [
      {
        "buff": "BUFF_MATH01_SUPPORT_1_2",
        "num": 0
      },
      {
        "buff": "BUFF_AF_ARMO_MATHIAS_01_WA_02",
        "num": 1
      }
    ]
  },
  {
    "iname": "SKDR_ALMI_LINK01_REPPUU",
    "resets": [
      {
        "buff": "BUFF_ALMI_LINK01_REPPUU",
        "num": 0
      },
      {
        "buff": "BUFF_ALMI_LINK01_SUPPORT_2_B_02",
        "num": 1
      }
    ]
  },
  {
    "iname": "SKDR_DUNGTOWER_47_REPPUU",
    "resets": [
      {
        "buff": "BUFF_DUNGTOWER_47_REPPUU",
        "num": 0
      }
    ]
  },
  {
    "iname": "SKDR_DUNG_RYU01_UPPER_03",
    "resets": [
      {
        "buff": "BUFF_DUNG_05_VA",
        "skill": "SK_DUNG_05_VA",
        "num": 0
      },
      {
        "buff": "BUFF_DUNG_05_VA",
        "skill": "SK_DUNG_05_VA_MAX",
        "num": 0
      }
    ]
  },
  {
    "iname": "SKDR_AF_ARMS_DUNG_RYU_01_WA_B",
    "resets": [
      {
        "buff": "BUFF_DUNG_05_VA",
        "skill": "SK_DUNG_05_VA",
        "num": 0
      },
      {
        "buff": "BUFF_DUNG_05_VA",
        "skill": "SK_DUNG_05_VA_MAX",
        "num": 0
      }
    ]
  },
  {
    "iname": "SKDR_TE_BONUS_DUNG_RYU_LV20_B",
    "resets": [
      {
        "buff": "BUFF_DUNG_05_VA",
        "skill": "SK_DUNG_05_VA",
        "num": 0
      },
      {
        "buff": "BUFF_DUNG_05_VA",
        "skill": "SK_DUNG_05_VA_MAX",
        "num": 0
      }
    ]
  },
  {
    "iname": "SKDR_TE_BONUS_DUNG_RYU_LV20_C",
    "resets": [
      {
        "buff": "BUFF_DUNG_05_VA",
        "skill": "SK_DUNG_05_VA",
        "num": 0
      },
      {
        "buff": "BUFF_DUNG_05_VA",
        "skill": "SK_DUNG_05_VA_MAX",
        "num": 0
      }
    ]
  },
  {
    "iname": "SKDR_DUNG_TOWER_51_BOSS_SUPPORT",
    "resets": [
      {
        "buff": "BUFF_DUNG_TOWER_51_BOSS_SUPPORT_1_2",
        "num": 0
      }
    ]
  },
  {
    "iname": "SKDR_DUNG_MINO_ATK_DUNG_SP",
    "resets": [
      {
        "buff": "BUFF_DUNG_MINO_SUPPORT_DUNG_SP_B",
        "skill": "SK_DUNG_MINO_SUPPORT_DUNG_SP_B",
        "num": 0
      }
    ]
  },
  {
    "iname": "SKDR_DUNG_MINO_01_DUNG_SP",
    "resets": [
      {
        "buff": "BUFF_DUNG_MINO_SUPPORT_DUNG_SP_B",
        "skill": "SK_DUNG_MINO_SUPPORT_DUNG_SP_B",
        "num": 0
      }
    ]
  },
  {
    "iname": "SKDR_DUNG_MINO_02_DUNG_SP",
    "resets": [
      {
        "buff": "BUFF_DUNG_MINO_SUPPORT_DUNG_SP_B",
        "skill": "SK_DUNG_MINO_SUPPORT_DUNG_SP_B",
        "num": 0
      }
    ]
  },
  {
    "iname": "SKDR_DUNG_MINO_03_DUNG_SP",
    "resets": [
      {
        "buff": "BUFF_DUNG_MINO_SUPPORT_DUNG_SP_B",
        "skill": "SK_DUNG_MINO_SUPPORT_DUNG_SP_B",
        "num": 0
      }
    ]
  },
  {
    "iname": "SKDR_DUNG_MINO_04_DUNG_SP",
    "resets": [
      {
        "buff": "BUFF_DUNG_MINO_SUPPORT_DUNG_SP_B",
        "skill": "SK_DUNG_MINO_SUPPORT_DUNG_SP_B",
        "num": 0
      }
    ]
  },
  {
    "iname": "SKDR_DUNG_MINO_08_DUNG_SP",
    "resets": [
      {
        "buff": "BUFF_DUNG_MINO_SUPPORT_DUNG_SP_B",
        "skill": "SK_DUNG_MINO_SUPPORT_DUNG_SP_B",
        "num": 0
      }
    ]
  },
  {
    "iname": "SKDR_AF_ARMS_ANNEROSE_LINK_01_WA",
    "resets": [
      {
        "buff": "BUFF_AF_ARMS_ANNEROSE_LINK_01_WA",
        "num": 0
      }
    ]
  },
  {
    "iname": "SKDR_HOOD_DAI_NEWTRIAL_MELVIREI_OUGI",
    "resets": [
      {
        "buff": "BUFF_HOOD_DAI_NEWTRIAL_MELVIREI_SUPPORT",
        "num": 0
      }
    ]
  },
  {
    "iname": "SKDR_MABE01_UPPER",
    "resets": [
      {
        "buff": "BUFF_MABE01_SUPPORT_01",
        "skill": "SK_MABE01_SUPPORT_01_SPD",
        "num": 0
      },
      {
        "buff": "BUFF_MABE01_SUPPORT_01_B",
        "skill": "SK_MABE01_SUPPORT_01",
        "num": 0
      },
      {
        "buff": "BUFF_ARMS_MABEL_01_WA",
        "skill": "SK_ARMS_MABEL_01_WA",
        "num": 0
      }
    ]
  },
  {
    "iname": "SKDR_MABE01_LOWER",
    "resets": [
      {
        "buff": "BUFF_MABE01_SUPPORT_01_B",
        "skill": "SK_MABE01_SUPPORT_01",
        "num": 0
      }
    ]
  },
  {
    "iname": "SKDR_MABE01_VA",
    "resets": [
      {
        "buff": "BUFF_MABE01_SUPPORT_01_B",
        "skill": "SK_MABE01_SUPPORT_01",
        "num": 0
      },
      {
        "buff": "BUFF_ARMS_MABEL_01_WA",
        "skill": "SK_ARMS_MABEL_01_WA",
        "num": 0
      }
    ]
  },
  {
    "iname": "SKDR_TRS_BAJI01_REACTION",
    "resets": [
      {
        "buff": "BUFF_TRS_BAJI01_SUPPORT_2_B_UP",
        "num": 1
      },
      {
        "buff": "BUFF_TRS_BAJI01_SUPPORT_2_B_DOWN",
        "num": 1
      }
    ]
  },
  {
    "iname": "SKDR_TRS_BAJI01_SUPPORT",
    "resets": [
      {
        "buff": "BUFF_TRS_BAJI01_SUPPORT_2_B_UP",
        "num": 3
      },
      {
        "buff": "BUFF_TRS_BAJI01_SUPPORT_2_B_DOWN",
        "num": 3
      }
    ]
  },
  {
    "iname": "SKDR_TRS_02_RYUGUJI_VA",
    "resets": [
      {
        "buff": "BUFF_TRS_02_RYUGUJI_VA_A",
        "num": 0
      },
      {
        "buff": "BUFF_TRS_02_RYUGUJI_VA_A",
        "num": 0
      },
      {
        "buff": "BUFF_TRS_02_RYUGUJI_VA_A",
        "num": 0
      },
      {
        "buff": "BUFF_TRS_02_RYUGUJI_VA_A",
        "num": 0
      },
      {
        "buff": "BUFF_TRS_02_RYUGUJI_VA_A",
        "num": 0
      },
      {
        "buff": "BUFF_TRS_02_RYUGUJI_VA_A",
        "num": 0
      },
      {
        "buff": "BUFF_TRS_02_RYUGUJI_VA_A",
        "num": 0
      },
      {
        "buff": "BUFF_TRS_02_RYUGUJI_VA_MAX_A",
        "num": 0
      },
      {
        "buff": "BUFF_TRS_02_RYUGUJI_VA_MAX_A",
        "num": 0
      },
      {
        "buff": "BUFF_TRS_02_RYUGUJI_VA_MAX_A",
        "num": 0
      },
      {
        "buff": "BUFF_TRS_02_RYUGUJI_VA_MAX_A",
        "num": 0
      },
      {
        "buff": "BUFF_TRS_02_RYUGUJI_VA_MAX_A",
        "num": 0
      },
      {
        "buff": "BUFF_TRS_02_RYUGUJI_VA_MAX_A",
        "num": 0
      },
      {
        "buff": "BUFF_TRS_02_RYUGUJI_VA_MAX_A",
        "num": 0
      },
      {
        "buff": "BUFF_TRS_02_RYUGUJI_VA_A_NEW",
        "num": 0
      },
      {
        "buff": "BUFF_TRS_02_RYUGUJI_VA_MAX_A_NEW",
        "num": 0
      }
    ]
  },
  {
    "iname": "SKDR_LINDRAKE",
    "resets": [
      {
        "buff": "BUFF_LIND01_SUPPORT_01_A",
        "num": 0
      },
      {
        "buff": "BUFF_LIND01_SUPPORT_01_B",
        "num": 0
      }
    ]
  },
  {
    "iname": "SKDR_LINDRAKE_TRANS",
    "resets": [
      {
        "buff": "BUFF_LIND01_SUPPORT_01_A",
        "num": 0
      },
      {
        "buff": "BUFF_LIND01_SUPPORT_01_B",
        "num": 0
      }
    ]
  },
  {
    "iname": "SKDR_DAIS_SA",
    "resets": [
      {
        "buff": "BUFF_DAIS_SPE_SA",
        "num": 0
      }
    ]
  },
  {
    "iname": "SKDR_LORE01_SA_ATK",
    "resets": [
      {
        "buff": "BUFF_LORE01_SUPPORT_01_B",
        "num": 0
      }
    ]
  },
  {
    "iname": "SKDR_LORE01_SA",
    "resets": [
      {
        "buff": "BUFF_LORE01_SUPPORT_01_B",
        "num": 0
      },
      {
        "buff": "BUFF_AF_ARMS_LOREAM_01_WA_A",
        "num": 0
      }
    ]
  },
  {
    "iname": "SKDR_LORE01_SA_LOREAM_NEWTRIAL",
    "resets": [
      {
        "buff": "BUFF_LORE01_SUPPORT_01_B",
        "num": 0
      },
      {
        "buff": "BUFF_AF_ARMS_LOREAM_01_WA_A",
        "num": 0
      }
    ]
  },
  {
    "iname": "SKDR_LORE01_REACTION_01",
    "resets": [
      {
        "buff": "BUFF_LORE01_SUPPORT_01_B",
        "num": 3
      }
    ]
  },
  {
    "iname": "SKDR_MARI_SHN_UPPER_03",
    "resets": [
      {
        "buff": "BUFF_WRATH_MARIANNU_01_VA",
        "num": 0
      },
      {
        "buff": "BUFF_WRATH_MARIANNU_01_VA_MAX",
        "num": 0
      }
    ]
  },
  {
    "iname": "SKDR_MARI_SHN_UPPER_04",
    "resets": [
      {
        "buff": "BUFF_WRATH_MARIANNU_01_VA",
        "num": 0
      },
      {
        "buff": "BUFF_WRATH_MARIANNU_01_VA_MAX",
        "num": 0
      }
    ]
  },
  {
    "iname": "SKDR_MARI_SHN_UPPER_A_03_01",
    "resets": [
      {
        "buff": "BUFF_WRATH_MARIANNU_01_VA",
        "num": 0
      },
      {
        "buff": "BUFF_WRATH_MARIANNU_01_VA_MAX",
        "num": 0
      }
    ]
  },
  {
    "iname": "SKDR_MARI_SHN_UPPER_B_03_01",
    "resets": [
      {
        "buff": "BUFF_WRATH_MARIANNU_01_VA",
        "num": 0
      },
      {
        "buff": "BUFF_WRATH_MARIANNU_01_VA_MAX",
        "num": 0
      }
    ]
  },
  {
    "iname": "SKDR_TSP_VELD01_UPPER_SA",
    "resets": [
      {
        "buff": "BUFF_TSP_05_VA_MAX",
        "num": 0
      }
    ]
  },
  {
    "iname": "SKDR_NIDO01_UPPER",
    "resets": [
      {
        "buff": "BUFF_NIDO01_SUPPORT_01_2",
        "num": 0
      },
      {
        "buff": "BUFF_GLUTTONY_NIDOHEGAL_01_VA",
        "num": 0
      },
      {
        "buff": "BUFF_GLUTTONY_NIDOHEGAL_01_VA_MAX",
        "num": 0
      }
    ]
  },
  {
    "iname": "SKDR_MARC01_UPPER",
    "resets": [
      {
        "buff": "BUFF_MARC01_SUPPORT_01_02",
        "num": 0
      }
    ]
  },
  {
    "iname": "SKDR_AJ7000_WAZA_AJ7000_VISIONBATTLE_PDEFUP",
    "resets": [
      {
        "buff": "BUFF_AJ7000_WAZA_AJ7000_VISIONBATTLE_PDEFUP",
        "num": 0
      },
      {
        "buff": "BUFF_AJ7000_WAZA_AJ7000_VISIONBATTLE_MDEFUP",
        "num": 1
      }
    ]
  },
  {
    "iname": "SKDR_AJ7000_WAZA_AJ7000_VISIONBATTLE_MDEFUP",
    "resets": [
      {
        "buff": "BUFF_AJ7000_WAZA_AJ7000_VISIONBATTLE_PDEFUP",
        "num": 1
      },
      {
        "buff": "BUFF_AJ7000_WAZA_AJ7000_VISIONBATTLE_MDEFUP",
        "num": 0
      }
    ]
  },
  {
    "iname": "SKDR_AJ7000_REACTIN_ATKCHANGE2_AJ7000_VISIONBATTLE_AJ7000_EX_BOSS",
    "resets": [
      {
        "buff": "BUFF_AJ7000_WAZA_AJ7000_VISIONBATTLE_PDEFUP",
        "num": 0
      },
      {
        "buff": "BUFF_AJ7000_WAZA_AJ7000_VISIONBATTLE_MDEFUP",
        "num": 1
      }
    ]
  },
  {
    "iname": "SKDR_AJ7000_REACTIN_MAGICCHANGE2_AJ7000_VISIONBATTLE_AJ7000_EX_BOSS",
    "resets": [
      {
        "buff": "BUFF_AJ7000_WAZA_AJ7000_VISIONBATTLE_PDEFUP",
        "num": 1
      },
      {
        "buff": "BUFF_AJ7000_WAZA_AJ7000_VISIONBATTLE_MDEFUP",
        "num": 0
      }
    ]
  },
  {
    "iname": "SKDR_OTHI_LINK01_SUPPORT_02_AND_SA",
    "resets": [
      {
        "buff": "BUFF_OTHI_LINK01_SUPPORT_02_2",
        "num": 0
      },
      {
        "buff": "BUFF_OTHI_LINK01_SA",
        "num": 0
      }
    ]
  },
  {
    "iname": "SKDR_OTHI_LINK01_SUPPORT_02",
    "resets": [
      {
        "buff": "BUFF_OTHI_LINK01_SUPPORT_02_2",
        "num": 0
      }
    ]
  },
  {
    "iname": "SKDR_LUCIA_MA_01",
    "resets": [
      {
        "buff": "BUFF_LUCIA_MA_01_B",
        "num": 0
      }
    ]
  },
  {
    "iname": "SKDR_AMANE03",
    "resets": [
      {
        "buff": "BUFF_AMANE03_SUPPORT_01_02",
        "num": 0
      }
    ]
  },
  {
    "iname": "SKDR_EX_SP_BELP_SUPPORT_B_1000000",
    "resets": [
      {
        "buff": "BUFF_EX_SP_BELP__SUPPORT_B_1000000",
        "skill": "SK_EX_SP_BELP_SUPPORT_B_1000000",
        "num": 1
      }
    ]
  },
  {
    "iname": "SKDR_EX_SP_BELP_SUPPORT_B_900000",
    "resets": [
      {
        "buff": "BUFF_EX_SP_BELP__SUPPORT_B_900000",
        "skill": "SK_EX_SP_BELP_SUPPORT_B_900000",
        "num": 1
      }
    ]
  },
  {
    "iname": "SKDR_EX_SP_BELP_SUPPORT_B_800000",
    "resets": [
      {
        "buff": "BUFF_EX_SP_BELP__SUPPORT_B_800000",
        "skill": "SK_EX_SP_BELP_SUPPORT_B_800000",
        "num": 1
      }
    ]
  },
  {
    "iname": "SKDR_EX_SP_BELP_SUPPORT_B_700000",
    "resets": [
      {
        "buff": "BUFF_EX_SP_BELP__SUPPORT_B_700000",
        "skill": "SK_EX_SP_BELP_SUPPORT_B_700000",
        "num": 1
      }
    ]
  },
  {
    "iname": "SKDR_EX_SP_BELP_SUPPORT_B_600000",
    "resets": [
      {
        "buff": "BUFF_EX_SP_BELP__SUPPORT_B_600000",
        "skill": "SK_EX_SP_BELP_SUPPORT_B_600000",
        "num": 1
      }
    ]
  },
  {
    "iname": "SKDR_EX_SP_BELP_SUPPORT_B_500000",
    "resets": [
      {
        "buff": "BUFF_EX_SP_BELP__SUPPORT_B_500000",
        "skill": "SK_EX_SP_BELP_SUPPORT_B_500000",
        "num": 1
      }
    ]
  },
  {
    "iname": "SKDR_EX_SP_BELP_SUPPORT_B_400000",
    "resets": [
      {
        "buff": "BUFF_EX_SP_BELP__SUPPORT_B_400000",
        "skill": "SK_EX_SP_BELP_SUPPORT_B_400000",
        "num": 1
      }
    ]
  },
  {
    "iname": "SKDR_EX_SP_BELP_SUPPORT_B_300000",
    "resets": [
      {
        "buff": "BUFF_EX_SP_BELP__SUPPORT_B_300000",
        "skill": "SK_EX_SP_BELP_SUPPORT_B_300000",
        "num": 1
      }
    ]
  },
  {
    "iname": "SKDR_EX_SP_BELP_SUPPORT_B_200000",
    "resets": [
      {
        "buff": "BUFF_EX_SP_BELP__SUPPORT_B_200000",
        "skill": "SK_EX_SP_BELP_SUPPORT_B_200000",
        "num": 1
      }
    ]
  },
  {
    "iname": "SKDR_EX_SP_BELP_SUPPORT_B_100000",
    "resets": [
      {
        "buff": "BUFF_EX_SP_BELP__SUPPORT_B_100000",
        "skill": "SK_EX_SP_BELP_SUPPORT_B_100000",
        "num": 1
      }
    ]
  },
  {
    "iname": "SKDR_AF_ARMO_MATHIAS_01_WA_02_UROB",
    "resets": [
      {
        "buff": "BUFF_AF_ARMO_MATHIAS_01_WA_02",
        "num": 1
      }
    ]
  },
  {
    "iname": "SKDR_CLOE_ALTER_SUPPORT_B",
    "resets": [
      {
        "buff": "BUFF_CLOE_ALTER_SUPPORT_B",
        "skill": "SK_CLOE_ALTER_SUPPORT",
        "num": 4
      }
    ]
  },
  {
    "iname": "SKDR_CLOE_ALTER_UPPER",
    "resets": [
      {
        "buff": "BUFF_CLOE_ALTER_SUPPORT_B",
        "skill": "SK_CLOE_ALTER_SUPPORT",
        "num": 1
      }
    ]
  },
  {
    "iname": "SKDR_ROFI_ALTER_UPPER",
    "resets": [
      {
        "buff": "BUFF_ROFI_ALTER_SUPPORT_02_B",
        "skill": "SK_ROFI_ALTER_SUPPORT_02_B",
        "num": 0
      }
    ]
  },
  {
    "iname": "SKDR_GREED_INCARNATE_GIMMICK_SUPPORT_ST_NO_070120",
    "resets": [
      {
        "buff": "BUFF_GREED_INCARNATE_GIMMICK_SUPPORT_ST_NO_070120",
        "skill": "SK_GREED_INCARNATE_GIMMICK_SUPPORT_ST_NO_070120",
        "num": 0
      }
    ]
  },
  {
    "iname": "SKDR_NIGU_ALTER_UPPER",
    "resets": [
      {
        "buff": "BUFF_NIGU_ALTER_SUPPORT_01_B",
        "skill": "SK_NIGU_ALTER_SUPPORT_01_B",
        "num": 0
      }
    ]
  },
  {
    "iname": "SKDR_ZYVA_ALTER_UPPER_SA",
    "resets": [
      {
        "buff": "BUFF_ZYVA_ALTER_SUPPORT_1_2",
        "num": 1
      },
      {
        "buff": "BUFF_ZYVA_ALTER_SUPPORT_1_2_TB",
        "num": 1
      },
      {
        "buff": "BUFF_ZYVA_ALTER_SUPPORT_1_2_B",
        "num": 0
      },
      {
        "buff": "BUFF_ZYVA_ALTER_SUPPORT_1_2_A",
        "num": 1
      },
      {
        "buff": "BUFF_ZYVA_ALTER_SUPPORT_1_2_A_TB",
        "num": 1
      }
    ]
  },
  {
    "iname": "SKDR_ZYVA_ALTER_SUPPORT",
    "resets": [
      {
        "buff": "BUFF_ZYVA_ALTER_SUPPORT_1_2",
        "num": 1
      },
      {
        "buff": "BUFF_ZYVA_ALTER_SUPPORT_1_2_TB",
        "num": 1
      },
      {
        "buff": "BUFF_ZYVA_ALTER_SUPPORT_1_2_B",
        "num": 0
      },
      {
        "buff": "BUFF_ZYVA_ALTER_SUPPORT_1_2_A",
        "num": 1
      },
      {
        "buff": "BUFF_ZYVA_ALTER_SUPPORT_1_2_A_TB",
        "num": 1
      }
    ]
  },
  {
    "iname": "SKDR_ACHA_ALTER_SUPPORT_01_2",
    "resets": [
      {
        "buff": "BUFF_ACHA_ALTER_SUPPORT_01_2",
        "skill": "SK_ACHA_ALTER_SUPPORT_01_2",
        "num": 0
      }
    ]
  },
  {
    "iname": "SKDR_AF_ARMS_EINZ_01_EINZ_LINK_WA",
    "resets": [
      {
        "buff": "BUFF_AF_ARMS_EINZ_01_EINZ_LINK_WA",
        "skill": "SK_AF_ARMS_EINZ_01_EINZ_LINK_WA",
        "num": 0
      }
    ]
  },
  {
    "iname": "SKDR_ACHA_8TH_RANKQUEST",
    "resets": [
      {
        "buff": "BUFF_ACHA_ALTER_SUPPORT_01_2",
        "skill": "SK_ACHA_8TH_RANKQUEST_SUPPORT_B",
        "num": 0
      }
    ]
  },
  {
    "iname": "SKDR_MATH_8TH_RANKQUEST_HARD",
    "resets": [
      {
        "buff": "BUFF_MATH01_SUPPORT_1_2",
        "num": 0
      },
      {
        "buff": "BUFF_AF_ARMO_MATHIAS_01_WA_02",
        "num": 1
      }
    ]
  },
  {
    "iname": "SKDR_ZAFI_8TH_RANKQUEST",
    "resets": [
      {
        "buff": "BUFF_ZAFI01_SUPPORT_1_2_B",
        "skill": "SK_ZAFI_8TH_RANKQUEST_HARD_SA",
        "num": 0
      },
      {
        "buff": "BUFF_ZAFI01_SUPPORT_1_2",
        "skill": "SK_ZAFI_8TH_RANKQUEST_HARD_SA_B",
        "num": 0
      }
    ]
  },
  {
    "iname": "SKDR_POK_MINERVA_UPPER_SA",
    "resets": [
      {
        "buff": "BUFF_POK_MINERVA_SUPPORT_2_02",
        "num": 0
      }
    ]
  },
  {
    "iname": "SKDR_BELP_NIGRED_35_SA_01",
    "resets": [
      {
        "buff": "BUFF_BELP_NIGRED_35_SA_01",
        "skill": "SK_BELP_NIGRED_35_SA_01",
        "num": 0
      }
    ]
  },
  {
    "iname": "SKDR_ALMI_LINK01_UPPER",
    "resets": [
      {
        "buff": "BUFF_ALMI_LINK01_SUPPORT_2_B_02",
        "num": 1
      }
    ]
  },
  {
    "iname": "SKDR_CRY_OLIVI01_UPPER",
    "resets": [
      {
        "buff": "BUFF_CRY_OLIVI01_SUPPORT_1_4",
        "num": 0
      }
    ]
  },
  {
    "iname": "SKDR_IRA_ALTER_SUPPORT",
    "resets": [
      {
        "buff": "BUFF_IRA_ALTER_SUPPORT_2",
        "num": 0
      }
    ]
  },
  {
    "iname": "SKDR_CLOE01_DARK_UPPER",
    "resets": [
      {
        "buff": "BUFF_CLOE01_DARK_SUPPORT_2_2",
        "num": 1
      }
    ]
  },
  {
    "iname": "SKDR_CLOE01_DARK_SUPPORT_2_C",
    "resets": [
      {
        "buff": "BUFF_CLOE01_DARK_SUPPORT_2_2",
        "num": 4
      }
    ]
  },
  {
    "iname": "SKDR_ZAYI01_DARK_SUPPORT_2_B",
    "resets": [
      {
        "buff": "BUFF_ZAYI01_DARK_SUPPORT_2_B",
        "num": 1
      }
    ]
  },
  {
    "iname": "SKDR_KYAR_ALTER",
    "resets": [
      {
        "buff": "BUFF_KYAR_ALTER_SUPPORT_2_2",
        "num": 0
      }
    ]
  },
  {
    "iname": "SKDR_POK_RAGN01_SUPPORT",
    "resets": [
      {
        "buff": "BUFF_POK_RAGN01_SUPPORT_1_C",
        "num": 1
      },
      {
        "buff": "BUFF_POK_RAGN01_SUPPORT_1_D",
        "num": 1
      },
      {
        "buff": "BUFF_POK_RAGN01_SUPPORT_1_E",
        "num": 1
      }
    ]
  },
  {
    "iname": "SKDR_NATSU01_REACTION",
    "resets": [
      {
        "buff": "BUFF_NATSU01_SUPPORT_1_D",
        "num": 1
      },
      {
        "buff": "BUFF_NATSU01_SUPPORT_1_D_02",
        "num": 1
      }
    ]
  },
  {
    "iname": "SKDR_KAMU_LINK01_SUPPORT_01_3",
    "resets": [
      {
        "buff": "BUFF_KAMU_LINK01_SUPPORT_01_3",
        "num": 1
      }
    ]
  },
  {
    "iname": "SKDR_ACCS_UGACHI_01_WA_TANOSUKE_B",
    "resets": [
      {
        "buff": "BUFF_ACCS_UGACHI_01_WA_TANOSUKE_B",
        "num": 0
      }
    ]
  },
  {
    "iname": "SKDR_IENA01_UPPER5_1",
    "resets": [
      {
        "buff": "BUFF_IENA01_SUPPORT_1_2",
        "num": 15
      }
    ]
  },
  {
    "iname": "SKDR_IENA01_UPPER5_2",
    "resets": [
      {
        "buff": "BUFF_IENA01_SUPPORT_1_3",
        "num": 15
      }
    ]
  },
  {
    "iname": "SKDR_IENA01_UPPER5_3",
    "resets": [
      {
        "buff": "BUFF_IENA01_SUPPORT_1_4",
        "num": 15
      }
    ]
  },
  {
    "iname": "SKDR_SH_SPIC_NIGRED_40_UPPER_06",
    "resets": [
      {
        "buff": "BUFF_SH_SPIC_NIGRED_40_SUPPORT_01",
        "num": 11
      }
    ]
  },
  {
    "iname": "SKDR_SH_SPIC_NIGRED_40_UPPER_04",
    "resets": [
      {
        "buff": "BUFF_SH_SPIC_NIGRED_40_SUPPORT_01",
        "num": 0
      }
    ]
  },
  {
    "iname": "SKDR_LEYD_ALTER_UPPER",
    "resets": [
      {
        "buff": "BUFF_LEYD_ALTER_SUPPORT_01_3",
        "num": 0
      },
      {
        "buff": "BUFF_LEYD_ALTER_SUPPORT_01_3_2",
        "num": 0
      }
    ]
  },
  {
    "iname": "SKDR_IGNA01_SUPPORT_1_B",
    "resets": [
      {
        "buff": "BUFF_IGNA01_SUPPORT_1_B",
        "num": 0
      }
    ]
  },
  {
    "iname": "SKDR_IGNA01_SUPPORT_1_C",
    "resets": [
      {
        "buff": "BUFF_IGNA01_SUPPORT_1_C",
        "num": 0
      },
      {
        "buff": "BUFF_IGNA01_SUPPORT_1_C_2",
        "num": 0
      }
    ]
  },
  {
    "iname": "SKDR_IGNA01_SUPPORT_1_D",
    "resets": [
      {
        "buff": "BUFF_IGNA01_SUPPORT_1_D",
        "num": 0
      }
    ]
  },
  {
    "iname": "SKDR_TEON_VAL_SUPPORT_1_2",
    "resets": [
      {
        "buff": "BUFF_TEON_VAL_SUPPORT_1_3",
        "num": 1
      },
      {
        "buff": "BUFF_TEON_VAL_SUPPORT_1_5",
        "num": 1
      }
    ]
  },
  {
    "iname": "SKDR_TEON_VAL_UPPER_07",
    "resets": [
      {
        "buff": "BUFF_TEON_VAL_SUPPORT_1_3",
        "num": 1
      },
      {
        "buff": "BUFF_TEON_VAL_SUPPORT_1_5",
        "num": 1
      }
    ]
  }
]