[
  {
    "iname": "UPS_20190604",
    "cost_iname": "IT_CHANGEPIECE_COIN",
    "banner": "Banner_EventShop_005_02",
    "begin_at": "2018/06/04",
    "end_at": "2018/06/30 14:59:59"
  },
  {
    "iname": "UPS_20190604_DEV",
    "cost_iname": "IT_CHANGEPIECE_COIN",
    "banner": "Banner_EventShop_005_02",
    "begin_at": "2018/06/04",
    "end_at": "2018/06/30 14:59:59"
  }
]