[
  {
    "iname": "RENT_2019_MOVE01_KASUMI",
    "noti_infos": [
      {
        "pers": [
          20,
          50,
          90
        ],
        "sys_id": "UR_NOTIFICATION_PER"
      },
      {
        "pers": [
          100
        ],
        "sys_id": "UR_NOTIFICATION_MAX"
      }
    ]
  }
]