[
  {
    "id": 0,
    "diff": "初級",
    "min_atk": -300,
    "max_atk": -100,
    "hp": 100,
    "atk": 100,
    "def": 100,
    "matk": 100,
    "mdef": 100,
    "dex": 100,
    "spd": 100,
    "cri": 100,
    "luck": 100,
    "cmb": 100,
    "move": 100,
    "jmp": 100
  },
  {
    "id": 1,
    "diff": "中級",
    "min_atk": -99,
    "max_atk": 100,
    "hp": 100,
    "atk": 100,
    "def": 100,
    "matk": 100,
    "mdef": 100,
    "dex": 100,
    "spd": 100,
    "cri": 100,
    "luck": 100,
    "cmb": 100,
    "move": 100,
    "jmp": 100
  },
  {
    "id": 2,
    "diff": "上級",
    "min_atk": 200,
    "max_atk": 500,
    "hp": 100,
    "atk": 100,
    "def": 100,
    "matk": 100,
    "mdef": 100,
    "dex": 100,
    "spd": 100,
    "cri": 100,
    "luck": 100,
    "cmb": 100,
    "move": 100,
    "jmp": 100
  }
]