[
  {
    "iname": "ADVANCE_STAR_1_NM",
    "stars": [
      {
        "need": 15,
        "reward_id": "ADVANCE_REWARD_1_NM_1ST"
      },
      {
        "need": 25,
        "reward_id": "ADVANCE_REWARD_1_NM_2ND"
      },
      {
        "need": 35,
        "reward_id": "ADVANCE_REWARD_1_NM_3RD"
      }
    ]
  },
  {
    "iname": "ADVANCE_STAR_1_HA",
    "stars": [
      {
        "need": 15,
        "reward_id": "ADVANCE_REWARD_1_HA_1ST"
      },
      {
        "need": 20,
        "reward_id": "ADVANCE_REWARD_1_HA_2ND"
      },
      {
        "need": 25,
        "reward_id": "ADVANCE_REWARD_1_HA_3RD"
      }
    ]
  },
  {
    "iname": "ADVANCE_STAR_2_NM",
    "stars": [
      {
        "need": 15,
        "reward_id": "ADVANCE_REWARD_2_NM_1ST"
      },
      {
        "need": 25,
        "reward_id": "ADVANCE_REWARD_2_NM_2ND"
      },
      {
        "need": 35,
        "reward_id": "ADVANCE_REWARD_2_NM_3RD"
      }
    ]
  },
  {
    "iname": "ADVANCE_STAR_2_HA",
    "stars": [
      {
        "need": 15,
        "reward_id": "ADVANCE_REWARD_2_HA_1ST"
      },
      {
        "need": 20,
        "reward_id": "ADVANCE_REWARD_2_HA_2ND"
      },
      {
        "need": 25,
        "reward_id": "ADVANCE_REWARD_2_HA_3RD"
      }
    ]
  },
  {
    "iname": "ADVANCE_STAR_3_NM",
    "stars": [
      {
        "need": 3,
        "reward_id": "ADVANCE_REWARD_1_NM_1ST"
      },
      {
        "need": 25,
        "reward_id": "ADVANCE_REWARD_1_NM_2ND"
      },
      {
        "need": 35,
        "reward_id": "ADVANCE_REWARD_1_NM_3RD"
      }
    ]
  },
  {
    "iname": "ADVANCE_STAR_3_HA",
    "stars": [
      {
        "need": 15,
        "reward_id": "ADVANCE_REWARD_1_HA_1ST"
      },
      {
        "need": 20,
        "reward_id": "ADVANCE_REWARD_1_HA_2ND"
      },
      {
        "need": 25,
        "reward_id": "ADVANCE_REWARD_1_HA_3RD"
      }
    ]
  },
  {
    "iname": "ADVANCE_STAR_4_NM",
    "stars": [
      {
        "need": 15,
        "reward_id": "ADVANCE_REWARD_2_NM_1ST"
      },
      {
        "need": 25,
        "reward_id": "ADVANCE_REWARD_2_NM_2ND"
      },
      {
        "need": 35,
        "reward_id": "ADVANCE_REWARD_2_NM_3RD"
      }
    ]
  },
  {
    "iname": "ADVANCE_STAR_4_HA",
    "stars": [
      {
        "need": 15,
        "reward_id": "ADVANCE_REWARD_2_HA_1ST"
      },
      {
        "need": 20,
        "reward_id": "ADVANCE_REWARD_2_HA_2ND"
      },
      {
        "need": 25,
        "reward_id": "ADVANCE_REWARD_2_HA_3RD"
      }
    ]
  },
  {
    "iname": "ADVANCE_STAR_5_NM",
    "stars": [
      {
        "need": 15,
        "reward_id": "ADVANCE_REWARD_1_NM_1ST"
      },
      {
        "need": 25,
        "reward_id": "ADVANCE_REWARD_1_NM_2ND"
      },
      {
        "need": 35,
        "reward_id": "ADVANCE_REWARD_1_NM_3RD"
      }
    ]
  },
  {
    "iname": "ADVANCE_STAR_5_HA",
    "stars": [
      {
        "need": 15,
        "reward_id": "ADVANCE_REWARD_1_HA_1ST"
      },
      {
        "need": 20,
        "reward_id": "ADVANCE_REWARD_1_HA_2ND"
      },
      {
        "need": 25,
        "reward_id": "ADVANCE_REWARD_1_HA_3RD"
      }
    ]
  },
  {
    "iname": "ADVANCE_STAR_6_NM",
    "stars": [
      {
        "need": 15,
        "reward_id": "ADVANCE_REWARD_2_NM_1ST"
      },
      {
        "need": 25,
        "reward_id": "ADVANCE_REWARD_2_NM_2ND"
      },
      {
        "need": 35,
        "reward_id": "ADVANCE_REWARD_2_NM_3RD"
      }
    ]
  },
  {
    "iname": "ADVANCE_STAR_6_HA",
    "stars": [
      {
        "need": 15,
        "reward_id": "ADVANCE_REWARD_2_HA_1ST"
      },
      {
        "need": 20,
        "reward_id": "ADVANCE_REWARD_2_HA_2ND"
      },
      {
        "need": 25,
        "reward_id": "ADVANCE_REWARD_2_HA_3RD"
      }
    ]
  },
  {
    "iname": "ADVANCE_STAR_7_NM",
    "stars": [
      {
        "need": 15,
        "reward_id": "ADVANCE_REWARD_2_NM_1ST"
      },
      {
        "need": 25,
        "reward_id": "ADVANCE_REWARD_2_NM_2ND"
      },
      {
        "need": 35,
        "reward_id": "ADVANCE_REWARD_2_NM_3RD"
      }
    ]
  },
  {
    "iname": "ADVANCE_STAR_7_HA",
    "stars": [
      {
        "need": 15,
        "reward_id": "ADVANCE_REWARD_2_HA_1ST"
      },
      {
        "need": 20,
        "reward_id": "ADVANCE_REWARD_2_HA_2ND"
      },
      {
        "need": 25,
        "reward_id": "ADVANCE_REWARD_2_HA_3RD"
      }
    ]
  },
  {
    "iname": "ADVANCE_STAR_8_NM",
    "stars": [
      {
        "need": 15,
        "reward_id": "ADVANCE_REWARD_2_NM_1ST"
      },
      {
        "need": 25,
        "reward_id": "ADVANCE_REWARD_2_NM_2ND"
      },
      {
        "need": 35,
        "reward_id": "ADVANCE_REWARD_2_NM_3RD"
      }
    ]
  },
  {
    "iname": "ADVANCE_STAR_8_HA",
    "stars": [
      {
        "need": 15,
        "reward_id": "ADVANCE_REWARD_2_HA_1ST"
      },
      {
        "need": 20,
        "reward_id": "ADVANCE_REWARD_2_HA_2ND"
      },
      {
        "need": 25,
        "reward_id": "ADVANCE_REWARD_2_HA_3RD"
      }
    ]
  },
  {
    "iname": "ADVANCE_3TITLE_02_NO_STAR_1",
    "stars": [
      {
        "need": 15,
        "reward_id": "ADVANCE_3TITLE_02_NO_REWARD_1_01"
      },
      {
        "need": 26,
        "reward_id": "ADVANCE_3TITLE_02_NO_REWARD_1_02"
      },
      {
        "need": 37,
        "reward_id": "ADVANCE_3TITLE_02_NO_REWARD_1_03"
      }
    ]
  },
  {
    "iname": "ADVANCE_3TITLE_02_HA_STAR_1",
    "stars": [
      {
        "need": 15,
        "reward_id": "ADVANCE_3TITLE_02_HA_REWARD_1_01"
      },
      {
        "need": 20,
        "reward_id": "ADVANCE_3TITLE_02_HA_REWARD_1_02"
      },
      {
        "need": 25,
        "reward_id": "ADVANCE_3TITLE_02_HA_REWARD_1_03"
      }
    ]
  },
  {
    "iname": "ADVANCE_3TITLE_02_EX_STAR_1",
    "stars": [
      {
        "need": 15,
        "reward_id": "ADVANCE_3TITLE_02_EX_REWARD_1_01"
      },
      {
        "need": 20,
        "reward_id": "ADVANCE_3TITLE_02_EX_REWARD_1_02"
      },
      {
        "need": 25,
        "reward_id": "ADVANCE_3TITLE_02_EX_REWARD_1_03"
      }
    ]
  },
  {
    "iname": "ADVANCE_MOVIE_01_NO_STAR_1",
    "stars": [
      {
        "need": 15,
        "reward_id": "ADVANCE_MOVIE_01_NO_REWARD_1_01"
      },
      {
        "need": 26,
        "reward_id": "ADVANCE_MOVIE_01_NO_REWARD_1_02"
      },
      {
        "need": 37,
        "reward_id": "ADVANCE_MOVIE_01_NO_REWARD_1_03"
      }
    ]
  },
  {
    "iname": "ADVANCE_MOVIE_01_HA_STAR_1",
    "stars": [
      {
        "need": 15,
        "reward_id": "ADVANCE_MOVIE_01_HA_REWARD_1_01"
      },
      {
        "need": 20,
        "reward_id": "ADVANCE_MOVIE_01_HA_REWARD_1_02"
      },
      {
        "need": 25,
        "reward_id": "ADVANCE_MOVIE_01_HA_REWARD_1_03"
      }
    ]
  },
  {
    "iname": "ADVANCE_MOVIE_02_NO_STAR_1",
    "stars": [
      {
        "need": 15,
        "reward_id": "ADVANCE_MOVIE_02_NO_REWARD_1_01"
      },
      {
        "need": 26,
        "reward_id": "ADVANCE_MOVIE_02_NO_REWARD_1_02"
      },
      {
        "need": 37,
        "reward_id": "ADVANCE_MOVIE_02_NO_REWARD_1_03"
      }
    ]
  },
  {
    "iname": "ADVANCE_MOVIE_02_HA_STAR_1",
    "stars": [
      {
        "need": 15,
        "reward_id": "ADVANCE_MOVIE_02_HA_REWARD_1_01"
      },
      {
        "need": 20,
        "reward_id": "ADVANCE_MOVIE_02_HA_REWARD_1_02"
      },
      {
        "need": 25,
        "reward_id": "ADVANCE_MOVIE_02_HA_REWARD_1_03"
      }
    ]
  },
  {
    "iname": "ADVANCE_BUTAI_01_NO_STAR_1",
    "stars": [
      {
        "need": 15,
        "reward_id": "ADVANCE_BUTAI_01_NO_REWARD_1_01"
      },
      {
        "need": 26,
        "reward_id": "ADVANCE_BUTAI_01_NO_REWARD_1_02"
      },
      {
        "need": 37,
        "reward_id": "ADVANCE_BUTAI_01_NO_REWARD_1_03"
      }
    ]
  },
  {
    "iname": "ADVANCE_BUTAI_01_HA_STAR_1",
    "stars": [
      {
        "need": 15,
        "reward_id": "ADVANCE_BUTAI_01_HA_REWARD_1_01"
      },
      {
        "need": 20,
        "reward_id": "ADVANCE_BUTAI_01_HA_REWARD_1_02"
      },
      {
        "need": 25,
        "reward_id": "ADVANCE_BUTAI_01_HA_REWARD_1_03"
      }
    ]
  },
  {
    "iname": "ADVANCE_MOVIE_03_NO_STAR_1",
    "stars": [
      {
        "need": 15,
        "reward_id": "ADVANCE_MOVIE_03_NO_REWARD_1_01"
      },
      {
        "need": 26,
        "reward_id": "ADVANCE_MOVIE_03_NO_REWARD_1_02"
      },
      {
        "need": 37,
        "reward_id": "ADVANCE_MOVIE_03_NO_REWARD_1_03"
      }
    ]
  },
  {
    "iname": "ADVANCE_MOVIE_03_HA_STAR_1",
    "stars": [
      {
        "need": 15,
        "reward_id": "ADVANCE_MOVIE_03_HA_REWARD_1_01"
      },
      {
        "need": 20,
        "reward_id": "ADVANCE_MOVIE_03_HA_REWARD_1_02"
      },
      {
        "need": 25,
        "reward_id": "ADVANCE_MOVIE_03_HA_REWARD_1_03"
      }
    ]
  },
  {
    "iname": "ADVANCE_SETSUNA_NOVEL_NO_STAR_1",
    "stars": [
      {
        "need": 15,
        "reward_id": "ADVANCE_SETSUNA_NOVEL_NO_REWARD_1_01"
      },
      {
        "need": 26,
        "reward_id": "ADVANCE_SETSUNA_NOVEL_NO_REWARD_1_02"
      },
      {
        "need": 37,
        "reward_id": "ADVANCE_SETSUNA_NOVEL_NO_REWARD_1_03"
      }
    ]
  },
  {
    "iname": "ADVANCE_SETSUNA_NOVEL_HA_STAR_1",
    "stars": [
      {
        "need": 15,
        "reward_id": "ADVANCE_SETSUNA_NOVEL_HA_REWARD_1_01"
      },
      {
        "need": 20,
        "reward_id": "ADVANCE_SETSUNA_NOVEL_HA_REWARD_1_02"
      },
      {
        "need": 25,
        "reward_id": "ADVANCE_SETSUNA_NOVEL_HA_REWARD_1_03"
      }
    ]
  },
  {
    "iname": "ADVANCE_ALSO_SPRACH_02_NO_STAR_1",
    "stars": [
      {
        "need": 15,
        "reward_id": "ADVANCE_ALSO_SPRACH_02_NO_REWARD_1_01"
      },
      {
        "need": 25,
        "reward_id": "ADVANCE_ALSO_SPRACH_02_NO_REWARD_1_02"
      },
      {
        "need": 35,
        "reward_id": "ADVANCE_ALSO_SPRACH_02_NO_REWARD_1_03"
      }
    ]
  },
  {
    "iname": "ADVANCE_ALSO_SPRACH_02_HA_STAR_1",
    "stars": [
      {
        "need": 15,
        "reward_id": "ADVANCE_ALSO_SPRACH_02_HA_REWARD_1_01"
      },
      {
        "need": 20,
        "reward_id": "ADVANCE_ALSO_SPRACH_02_HA_REWARD_1_02"
      },
      {
        "need": 25,
        "reward_id": "ADVANCE_ALSO_SPRACH_02_HA_REWARD_1_03"
      }
    ]
  },
  {
    "iname": "ADVANCE_TS_02_NO_STAR_1",
    "stars": [
      {
        "need": 20,
        "reward_id": "ADVANCE_TS_02_NO_REWARD_1_01"
      },
      {
        "need": 35,
        "reward_id": "ADVANCE_TS_02_NO_REWARD_1_02"
      },
      {
        "need": 50,
        "reward_id": "ADVANCE_TS_02_NO_REWARD_1_03"
      }
    ]
  },
  {
    "iname": "ADVANCE_TS_02_HA_STAR_1",
    "stars": [
      {
        "need": 19,
        "reward_id": "ADVANCE_TS_02_HA_REWARD_1_01"
      },
      {
        "need": 27,
        "reward_id": "ADVANCE_TS_02_HA_REWARD_1_02"
      },
      {
        "need": 35,
        "reward_id": "ADVANCE_TS_02_HA_REWARD_1_03"
      }
    ]
  },
  {
    "iname": "ADVANCE_TS_02_EX_STAR_1",
    "stars": [
      {
        "need": 15,
        "reward_id": "ADVANCE_TS_02_EX_REWARD_1_01"
      },
      {
        "need": 20,
        "reward_id": "ADVANCE_TS_02_EX_REWARD_1_02"
      },
      {
        "need": 25,
        "reward_id": "ADVANCE_TS_02_EX_REWARD_1_03"
      }
    ]
  },
  {
    "iname": "ADVANCE_TSP_01_NO_STAR_1",
    "stars": [
      {
        "need": 15,
        "reward_id": "ADVANCE_TSP_01_NO_REWARD_1_01"
      },
      {
        "need": 30,
        "reward_id": "ADVANCE_TSP_01_NO_REWARD_1_02"
      },
      {
        "need": 45,
        "reward_id": "ADVANCE_TSP_01_NO_REWARD_1_03"
      }
    ]
  },
  {
    "iname": "ADVANCE_TSP_01_HA_STAR_1",
    "stars": [
      {
        "need": 15,
        "reward_id": "ADVANCE_TSP_01_HA_REWARD_1_01"
      },
      {
        "need": 22,
        "reward_id": "ADVANCE_TSP_01_HA_REWARD_1_02"
      },
      {
        "need": 30,
        "reward_id": "ADVANCE_TSP_01_HA_REWARD_1_03"
      }
    ]
  },
  {
    "iname": "ADVANCE_TSP_01_EX_STAR_1",
    "stars": [
      {
        "need": 15,
        "reward_id": "ADVANCE_TSP_01_EX_REWARD_1_01"
      },
      {
        "need": 22,
        "reward_id": "ADVANCE_TSP_01_EX_REWARD_1_02"
      },
      {
        "need": 30,
        "reward_id": "ADVANCE_TSP_01_EX_REWARD_1_03"
      }
    ]
  },
  {
    "iname": "ADVANCE_ALSO_SPRACH_03_NO_STAR_1",
    "stars": [
      {
        "need": 15,
        "reward_id": "ADVANCE_ALSO_SPRACH_03_NO_REWARD_1_01"
      },
      {
        "need": 25,
        "reward_id": "ADVANCE_ALSO_SPRACH_03_NO_REWARD_1_02"
      },
      {
        "need": 35,
        "reward_id": "ADVANCE_ALSO_SPRACH_03_NO_REWARD_1_03"
      }
    ]
  },
  {
    "iname": "ADVANCE_ALSO_SPRACH_03_HA_STAR_1",
    "stars": [
      {
        "need": 15,
        "reward_id": "ADVANCE_ALSO_SPRACH_03_HA_REWARD_1_01"
      },
      {
        "need": 20,
        "reward_id": "ADVANCE_ALSO_SPRACH_03_HA_REWARD_1_02"
      },
      {
        "need": 25,
        "reward_id": "ADVANCE_ALSO_SPRACH_03_HA_REWARD_1_03"
      }
    ]
  },
  {
    "iname": "ADVANCE_DIE_FROHLICHE_NO_STAR_1",
    "stars": [
      {
        "need": 15,
        "reward_id": "ADVANCE_DIE_FROHLICHE_NO_REWARD_1_01"
      },
      {
        "need": 25,
        "reward_id": "ADVANCE_DIE_FROHLICHE_NO_REWARD_1_02"
      },
      {
        "need": 35,
        "reward_id": "ADVANCE_DIE_FROHLICHE_NO_REWARD_1_03"
      }
    ]
  },
  {
    "iname": "ADVANCE_DIE_FROHLICHE_HA_STAR_1",
    "stars": [
      {
        "need": 15,
        "reward_id": "ADVANCE_DIE_FROHLICHE_HA_REWARD_1_01"
      },
      {
        "need": 20,
        "reward_id": "ADVANCE_DIE_FROHLICHE_HA_REWARD_1_02"
      },
      {
        "need": 25,
        "reward_id": "ADVANCE_DIE_FROHLICHE_HA_REWARD_1_03"
      }
    ]
  },
  {
    "iname": "ADVANCE_DIE_FROHLICHE_EX_STAR_1",
    "stars": [
      {
        "need": 15,
        "reward_id": "ADVANCE_DIE_FROHLICHE_EX_REWARD_1_01"
      },
      {
        "need": 20,
        "reward_id": "ADVANCE_DIE_FROHLICHE_EX_REWARD_1_02"
      },
      {
        "need": 25,
        "reward_id": "ADVANCE_DIE_FROHLICHE_EX_REWARD_1_03"
      }
    ]
  },
  {
    "iname": "ADVANCE_SB_01_NO_STAR_1",
    "stars": [
      {
        "need": 20,
        "reward_id": "ADVANCE_SB_01_NO_REWARD_1_01"
      },
      {
        "need": 35,
        "reward_id": "ADVANCE_SB_01_NO_REWARD_1_02"
      },
      {
        "need": 50,
        "reward_id": "ADVANCE_SB_01_NO_REWARD_1_03"
      }
    ]
  },
  {
    "iname": "ADVANCE_SB_01_HA_STAR_1",
    "stars": [
      {
        "need": 15,
        "reward_id": "ADVANCE_SB_01_HA_REWARD_1_01"
      },
      {
        "need": 20,
        "reward_id": "ADVANCE_SB_01_HA_REWARD_1_02"
      },
      {
        "need": 25,
        "reward_id": "ADVANCE_SB_01_HA_REWARD_1_03"
      }
    ]
  },
  {
    "iname": "ADVANCE_SB_01_EX_STAR_1",
    "stars": [
      {
        "need": 15,
        "reward_id": "ADVANCE_SB_01_EX_REWARD_1_01"
      },
      {
        "need": 20,
        "reward_id": "ADVANCE_SB_01_EX_REWARD_1_02"
      },
      {
        "need": 25,
        "reward_id": "ADVANCE_SB_01_EX_REWARD_1_03"
      }
    ]
  },
  {
    "iname": "ADVANCE_ALSO_SPRACH_04_NO_STAR_1",
    "stars": [
      {
        "need": 15,
        "reward_id": "ADVANCE_ALSO_SPRACH_04_NO_REWARD_1_01"
      },
      {
        "need": 25,
        "reward_id": "ADVANCE_ALSO_SPRACH_04_NO_REWARD_1_02"
      },
      {
        "need": 35,
        "reward_id": "ADVANCE_ALSO_SPRACH_04_NO_REWARD_1_03"
      }
    ]
  },
  {
    "iname": "ADVANCE_ALSO_SPRACH_04_HA_STAR_1",
    "stars": [
      {
        "need": 15,
        "reward_id": "ADVANCE_ALSO_SPRACH_04_HA_REWARD_1_01"
      },
      {
        "need": 20,
        "reward_id": "ADVANCE_ALSO_SPRACH_04_HA_REWARD_1_02"
      },
      {
        "need": 25,
        "reward_id": "ADVANCE_ALSO_SPRACH_04_HA_REWARD_1_03"
      }
    ]
  },
  {
    "iname": "ADVANCE_ALSO_SPRACH_04_EX_STAR_1",
    "stars": [
      {
        "need": 15,
        "reward_id": "ADVANCE_ALSO_SPRACH_04_EX_REWARD_1_01"
      },
      {
        "need": 20,
        "reward_id": "ADVANCE_ALSO_SPRACH_04_EX_REWARD_1_02"
      },
      {
        "need": 25,
        "reward_id": "ADVANCE_ALSO_SPRACH_04_EX_REWARD_1_03"
      }
    ]
  },
  {
    "iname": "ADVANCE_ALSO_SPRACH_05_NO_STAR_1",
    "stars": [
      {
        "need": 15,
        "reward_id": "ADVANCE_ALSO_SPRACH_05_NO_REWARD_1_01"
      },
      {
        "need": 25,
        "reward_id": "ADVANCE_ALSO_SPRACH_05_NO_REWARD_1_02"
      },
      {
        "need": 35,
        "reward_id": "ADVANCE_ALSO_SPRACH_05_NO_REWARD_1_03"
      }
    ]
  },
  {
    "iname": "ADVANCE_ALSO_SPRACH_05_HA_STAR_1",
    "stars": [
      {
        "need": 15,
        "reward_id": "ADVANCE_ALSO_SPRACH_05_HA_REWARD_1_01"
      },
      {
        "need": 20,
        "reward_id": "ADVANCE_ALSO_SPRACH_05_HA_REWARD_1_02"
      },
      {
        "need": 25,
        "reward_id": "ADVANCE_ALSO_SPRACH_05_HA_REWARD_1_03"
      }
    ]
  },
  {
    "iname": "ADVANCE_ALSO_SPRACH_05_EX_STAR_1",
    "stars": [
      {
        "need": 15,
        "reward_id": "ADVANCE_ALSO_SPRACH_05_EX_REWARD_1_01"
      },
      {
        "need": 20,
        "reward_id": "ADVANCE_ALSO_SPRACH_05_EX_REWARD_1_02"
      },
      {
        "need": 25,
        "reward_id": "ADVANCE_ALSO_SPRACH_05_EX_REWARD_1_03"
      }
    ]
  },
  {
    "iname": "ADVANCE_RE0_01_NO_STAR_1",
    "stars": [
      {
        "need": 16,
        "reward_id": "ADVANCE_RE0_01_NO_REWARD_1_01"
      },
      {
        "need": 22,
        "reward_id": "ADVANCE_RE0_01_NO_REWARD_1_02"
      },
      {
        "need": 27,
        "reward_id": "ADVANCE_RE0_01_NO_REWARD_1_03"
      }
    ]
  },
  {
    "iname": "ADVANCE_RE0_01_HA_STAR_1",
    "stars": [
      {
        "need": 15,
        "reward_id": "ADVANCE_RE0_01_HA_REWARD_1_01"
      },
      {
        "need": 20,
        "reward_id": "ADVANCE_RE0_01_HA_REWARD_1_02"
      },
      {
        "need": 25,
        "reward_id": "ADVANCE_RE0_01_HA_REWARD_1_03"
      }
    ]
  },
  {
    "iname": "ADVANCE_RE0_01_EX_STAR_1",
    "stars": [
      {
        "need": 15,
        "reward_id": "ADVANCE_RE0_01_EX_REWARD_1_01"
      },
      {
        "need": 20,
        "reward_id": "ADVANCE_RE0_01_EX_REWARD_1_02"
      },
      {
        "need": 25,
        "reward_id": "ADVANCE_RE0_01_EX_REWARD_1_03"
      }
    ]
  },
  {
    "iname": "ADVANCE_MAGNUS_CC_NO_STAR_1",
    "stars": [
      {
        "need": 15,
        "reward_id": "ADVANCE_MAGNUS_CC_NO_REWARD_1_01"
      },
      {
        "need": 26,
        "reward_id": "ADVANCE_MAGNUS_CC_NO_REWARD_1_02"
      },
      {
        "need": 37,
        "reward_id": "ADVANCE_MAGNUS_CC_NO_REWARD_1_03"
      }
    ]
  },
  {
    "iname": "ADVANCE_MAGNUS_CC_HA_STAR_1",
    "stars": [
      {
        "need": 15,
        "reward_id": "ADVANCE_MAGNUS_CC_HA_REWARD_1_01"
      },
      {
        "need": 20,
        "reward_id": "ADVANCE_MAGNUS_CC_HA_REWARD_1_02"
      },
      {
        "need": 25,
        "reward_id": "ADVANCE_MAGNUS_CC_HA_REWARD_1_03"
      }
    ]
  },
  {
    "iname": "ADVANCE_MAGNUS_CC_EX_STAR_1",
    "stars": [
      {
        "need": 15,
        "reward_id": "ADVANCE_MAGNUS_CC_EX_REWARD_1_01"
      },
      {
        "need": 20,
        "reward_id": "ADVANCE_MAGNUS_CC_EX_REWARD_1_02"
      },
      {
        "need": 25,
        "reward_id": "ADVANCE_MAGNUS_CC_EX_REWARD_1_03"
      }
    ]
  },
  {
    "iname": "ADVANCE_BUTAI_02_NO_STAR_1",
    "stars": [
      {
        "need": 15,
        "reward_id": "ADVANCE_BUTAI_02_NO_REWARD_1_01"
      },
      {
        "need": 30,
        "reward_id": "ADVANCE_BUTAI_02_NO_REWARD_1_02"
      },
      {
        "need": 45,
        "reward_id": "ADVANCE_BUTAI_02_NO_REWARD_1_03"
      }
    ]
  },
  {
    "iname": "ADVANCE_BUTAI_02_HA_STAR_1",
    "stars": [
      {
        "need": 15,
        "reward_id": "ADVANCE_BUTAI_02_HA_REWARD_1_01"
      },
      {
        "need": 20,
        "reward_id": "ADVANCE_BUTAI_02_HA_REWARD_1_02"
      },
      {
        "need": 25,
        "reward_id": "ADVANCE_BUTAI_02_HA_REWARD_1_03"
      }
    ]
  },
  {
    "iname": "ADVANCE_BUTAI_02_EX_STAR_1",
    "stars": [
      {
        "need": 15,
        "reward_id": "ADVANCE_BUTAI_02_EX_REWARD_1_01"
      },
      {
        "need": 20,
        "reward_id": "ADVANCE_BUTAI_02_EX_REWARD_1_02"
      },
      {
        "need": 25,
        "reward_id": "ADVANCE_BUTAI_02_EX_REWARD_1_03"
      }
    ]
  },
  {
    "iname": "ADVANCE_KOF_01_NO_STAR_1",
    "stars": [
      {
        "need": 15,
        "reward_id": "ADVANCE_KOF_01_NO_REWARD_1_01"
      },
      {
        "need": 25,
        "reward_id": "ADVANCE_KOF_01_NO_REWARD_1_02"
      },
      {
        "need": 35,
        "reward_id": "ADVANCE_KOF_01_NO_REWARD_1_03"
      }
    ]
  },
  {
    "iname": "ADVANCE_KOF_01_HA_STAR_1",
    "stars": [
      {
        "need": 15,
        "reward_id": "ADVANCE_KOF_01_HA_REWARD_1_01"
      },
      {
        "need": 20,
        "reward_id": "ADVANCE_KOF_01_HA_REWARD_1_02"
      },
      {
        "need": 25,
        "reward_id": "ADVANCE_KOF_01_HA_REWARD_1_03"
      }
    ]
  },
  {
    "iname": "ADVANCE_KOF_01_EX_STAR_1",
    "stars": [
      {
        "need": 15,
        "reward_id": "ADVANCE_KOF_01_EX_REWARD_1_01"
      },
      {
        "need": 20,
        "reward_id": "ADVANCE_KOF_01_EX_REWARD_1_02"
      },
      {
        "need": 25,
        "reward_id": "ADVANCE_KOF_01_EX_REWARD_1_03"
      }
    ]
  },
  {
    "iname": "ADVANCE_ALSO_SPRACH_06_NO_STAR_1",
    "stars": [
      {
        "need": 15,
        "reward_id": "ADVANCE_ALSO_SPRACH_06_NO_REWARD_1_01"
      },
      {
        "need": 25,
        "reward_id": "ADVANCE_ALSO_SPRACH_06_NO_REWARD_1_02"
      },
      {
        "need": 35,
        "reward_id": "ADVANCE_ALSO_SPRACH_06_NO_REWARD_1_03"
      }
    ]
  },
  {
    "iname": "ADVANCE_ALSO_SPRACH_06_HA_STAR_1",
    "stars": [
      {
        "need": 15,
        "reward_id": "ADVANCE_ALSO_SPRACH_06_HA_REWARD_1_01"
      },
      {
        "need": 20,
        "reward_id": "ADVANCE_ALSO_SPRACH_06_HA_REWARD_1_02"
      },
      {
        "need": 25,
        "reward_id": "ADVANCE_ALSO_SPRACH_06_HA_REWARD_1_03"
      }
    ]
  },
  {
    "iname": "ADVANCE_ALSO_SPRACH_06_EX_STAR_1",
    "stars": [
      {
        "need": 15,
        "reward_id": "ADVANCE_ALSO_SPRACH_06_EX_REWARD_1_01"
      },
      {
        "need": 20,
        "reward_id": "ADVANCE_ALSO_SPRACH_06_EX_REWARD_1_02"
      },
      {
        "need": 25,
        "reward_id": "ADVANCE_ALSO_SPRACH_06_EX_REWARD_1_03"
      }
    ]
  },
  {
    "iname": "ADVANCE_MT3_01_NO_STAR_1",
    "stars": [
      {
        "need": 15,
        "reward_id": "ADVANCE_MT3_01_NO_REWARD_1_01"
      },
      {
        "need": 25,
        "reward_id": "ADVANCE_MT3_01_NO_REWARD_1_02"
      },
      {
        "need": 38,
        "reward_id": "ADVANCE_MT3_01_NO_REWARD_1_03"
      }
    ]
  },
  {
    "iname": "ADVANCE_MT3_01_HA_STAR_1",
    "stars": [
      {
        "need": 15,
        "reward_id": "ADVANCE_MT3_01_HA_REWARD_1_01"
      },
      {
        "need": 20,
        "reward_id": "ADVANCE_MT3_01_HA_REWARD_1_02"
      },
      {
        "need": 25,
        "reward_id": "ADVANCE_MT3_01_HA_REWARD_1_03"
      }
    ]
  },
  {
    "iname": "ADVANCE_MT3_01_EX_STAR_1",
    "stars": [
      {
        "need": 15,
        "reward_id": "ADVANCE_MT3_01_EX_REWARD_1_01"
      },
      {
        "need": 20,
        "reward_id": "ADVANCE_MT3_01_EX_REWARD_1_02"
      },
      {
        "need": 25,
        "reward_id": "ADVANCE_MT3_01_EX_REWARD_1_03"
      }
    ]
  },
  {
    "iname": "ADVANCE_REN_CC_NO_STAR_1",
    "stars": [
      {
        "need": 15,
        "reward_id": "ADVANCE_REN_CC_01_NO_REWARD_1_01"
      },
      {
        "need": 25,
        "reward_id": "ADVANCE_REN_CC_01_NO_REWARD_1_02"
      },
      {
        "need": 35,
        "reward_id": "ADVANCE_REN_CC_01_NO_REWARD_1_03"
      }
    ]
  },
  {
    "iname": "ADVANCE_REN_CC_HA_STAR_1",
    "stars": [
      {
        "need": 15,
        "reward_id": "ADVANCE_REN_CC_01_HA_REWARD_1_01"
      },
      {
        "need": 20,
        "reward_id": "ADVANCE_REN_CC_01_HA_REWARD_1_02"
      },
      {
        "need": 25,
        "reward_id": "ADVANCE_REN_CC_01_HA_REWARD_1_03"
      }
    ]
  },
  {
    "iname": "ADVANCE_REN_CC_EX_STAR_1",
    "stars": [
      {
        "need": 15,
        "reward_id": "ADVANCE_REN_CC_01_EX_REWARD_1_01"
      },
      {
        "need": 20,
        "reward_id": "ADVANCE_REN_CC_01_EX_REWARD_1_02"
      },
      {
        "need": 25,
        "reward_id": "ADVANCE_REN_CC_01_EX_REWARD_1_03"
      }
    ]
  },
  {
    "iname": "ADVANCE_SEIKYOU_BASINI_01_NO_STAR_1",
    "stars": [
      {
        "need": 15,
        "reward_id": "ADVANCE_SEIKYOU_BASINI_01_NO_REWARD_1_01"
      },
      {
        "need": 25,
        "reward_id": "ADVANCE_SEIKYOU_BASINI_01_NO_REWARD_1_02"
      },
      {
        "need": 35,
        "reward_id": "ADVANCE_SEIKYOU_BASINI_01_NO_REWARD_1_03"
      }
    ]
  },
  {
    "iname": "ADVANCE_SEIKYOU_BASINI_01_HA_STAR_1",
    "stars": [
      {
        "need": 15,
        "reward_id": "ADVANCE_SEIKYOU_BASINI_01_HA_REWARD_1_01"
      },
      {
        "need": 20,
        "reward_id": "ADVANCE_SEIKYOU_BASINI_01_HA_REWARD_1_02"
      },
      {
        "need": 25,
        "reward_id": "ADVANCE_SEIKYOU_BASINI_01_HA_REWARD_1_03"
      }
    ]
  },
  {
    "iname": "ADVANCE_SEIKYOU_BASINI_01_EX_STAR_1",
    "stars": [
      {
        "need": 15,
        "reward_id": "ADVANCE_SEIKYOU_BASINI_01_EX_REWARD_1_01"
      },
      {
        "need": 20,
        "reward_id": "ADVANCE_SEIKYOU_BASINI_01_EX_REWARD_1_02"
      },
      {
        "need": 25,
        "reward_id": "ADVANCE_SEIKYOU_BASINI_01_EX_REWARD_1_03"
      }
    ]
  },
  {
    "iname": "ADVANCE_DUNG_01_NO_STAR_1",
    "stars": [
      {
        "need": 15,
        "reward_id": "ADVANCE_DUNG_01_NO_REWARD_1_01"
      },
      {
        "need": 25,
        "reward_id": "ADVANCE_DUNG_01_NO_REWARD_1_02"
      },
      {
        "need": 35,
        "reward_id": "ADVANCE_DUNG_01_NO_REWARD_1_03"
      }
    ]
  },
  {
    "iname": "ADVANCE_DUNG_01_HA_STAR_1",
    "stars": [
      {
        "need": 15,
        "reward_id": "ADVANCE_DUNG_01_HA_REWARD_1_01"
      },
      {
        "need": 20,
        "reward_id": "ADVANCE_DUNG_01_HA_REWARD_1_02"
      },
      {
        "need": 25,
        "reward_id": "ADVANCE_DUNG_01_HA_REWARD_1_03"
      }
    ]
  },
  {
    "iname": "ADVANCE_DUNG_01_EX_STAR_1",
    "stars": [
      {
        "need": 15,
        "reward_id": "ADVANCE_DUNG_01_EX_REWARD_1_01"
      },
      {
        "need": 20,
        "reward_id": "ADVANCE_DUNG_01_EX_REWARD_1_02"
      },
      {
        "need": 25,
        "reward_id": "ADVANCE_DUNG_01_EX_REWARD_1_03"
      }
    ]
  },
  {
    "iname": "ADVANCE_ORION_CC_NO_STAR_1",
    "stars": [
      {
        "need": 15,
        "reward_id": "ADVANCE_ORION_CC_01_NO_REWARD_1_01"
      },
      {
        "need": 25,
        "reward_id": "ADVANCE_ORION_CC_01_NO_REWARD_1_02"
      },
      {
        "need": 37,
        "reward_id": "ADVANCE_ORION_CC_01_NO_REWARD_1_03"
      }
    ]
  },
  {
    "iname": "ADVANCE_ORION_CC_HA_STAR_1",
    "stars": [
      {
        "need": 15,
        "reward_id": "ADVANCE_ORION_CC_01_HA_REWARD_1_01"
      },
      {
        "need": 20,
        "reward_id": "ADVANCE_ORION_CC_01_HA_REWARD_1_02"
      },
      {
        "need": 25,
        "reward_id": "ADVANCE_ORION_CC_01_HA_REWARD_1_03"
      }
    ]
  },
  {
    "iname": "ADVANCE_ORION_CC_EX_STAR_1",
    "stars": [
      {
        "need": 15,
        "reward_id": "ADVANCE_ORION_CC_01_EX_REWARD_1_01"
      },
      {
        "need": 20,
        "reward_id": "ADVANCE_ORION_CC_01_EX_REWARD_1_02"
      },
      {
        "need": 25,
        "reward_id": "ADVANCE_ORION_CC_01_EX_REWARD_1_03"
      }
    ]
  },
  {
    "iname": "ADVANCE_TERESA_PRISCILA_CC_NO_STAR_1",
    "stars": [
      {
        "need": 15,
        "reward_id": "ADVANCE_TERESA_PRISCILA_CC_NO_REWARD_1_01"
      },
      {
        "need": 20,
        "reward_id": "ADVANCE_TERESA_PRISCILA_CC_NO_REWARD_1_02"
      },
      {
        "need": 27,
        "reward_id": "ADVANCE_TERESA_PRISCILA_CC_NO_REWARD_1_03"
      }
    ]
  },
  {
    "iname": "ADVANCE_TERESA_PRISCILA_CC_HA_STAR_1",
    "stars": [
      {
        "need": 15,
        "reward_id": "ADVANCE_TERESA_PRISCILA_CC_HA_REWARD_1_01"
      },
      {
        "need": 20,
        "reward_id": "ADVANCE_TERESA_PRISCILA_CC_HA_REWARD_1_02"
      },
      {
        "need": 25,
        "reward_id": "ADVANCE_TERESA_PRISCILA_CC_HA_REWARD_1_03"
      }
    ]
  },
  {
    "iname": "ADVANCE_TERESA_PRISCILA_CC_EX_STAR_1",
    "stars": [
      {
        "need": 15,
        "reward_id": "ADVANCE_TERESA_PRISCILA_CC_EX_REWARD_1_01"
      },
      {
        "need": 20,
        "reward_id": "ADVANCE_TERESA_PRISCILA_CC_EX_REWARD_1_02"
      },
      {
        "need": 25,
        "reward_id": "ADVANCE_TERESA_PRISCILA_CC_EX_REWARD_1_03"
      }
    ]
  },
  {
    "iname": "ADVANCE_ALMILA_LINK_NO_STAR_1",
    "stars": [
      {
        "need": 15,
        "reward_id": "ADVANCE_ALMILA_LINK_01_NO_REWARD_1_01"
      },
      {
        "need": 20,
        "reward_id": "ADVANCE_ALMILA_LINK_01_NO_REWARD_1_02"
      },
      {
        "need": 27,
        "reward_id": "ADVANCE_ALMILA_LINK_01_NO_REWARD_1_03"
      }
    ]
  },
  {
    "iname": "ADVANCE_ALMILA_LINK_HA_STAR_1",
    "stars": [
      {
        "need": 15,
        "reward_id": "ADVANCE_ALMILA_LINK_01_HA_REWARD_1_01"
      },
      {
        "need": 20,
        "reward_id": "ADVANCE_ALMILA_LINK_01_HA_REWARD_1_02"
      },
      {
        "need": 25,
        "reward_id": "ADVANCE_ALMILA_LINK_01_HA_REWARD_1_03"
      }
    ]
  },
  {
    "iname": "ADVANCE_ALMILA_LINK_EX_STAR_1",
    "stars": [
      {
        "need": 15,
        "reward_id": "ADVANCE_ALMILA_LINK_01_EX_REWARD_1_01"
      },
      {
        "need": 20,
        "reward_id": "ADVANCE_ALMILA_LINK_01_EX_REWARD_1_02"
      },
      {
        "need": 25,
        "reward_id": "ADVANCE_ALMILA_LINK_01_EX_REWARD_1_03"
      }
    ]
  },
  {
    "iname": "ADVANCE_ANNEROSE_LINK_NO_STAR_1",
    "stars": [
      {
        "need": 15,
        "reward_id": "ADVANCE_ANNEROSE_LINK_NO_REWARD_1_01"
      },
      {
        "need": 20,
        "reward_id": "ADVANCE_ANNEROSE_LINK_NO_REWARD_1_02"
      },
      {
        "need": 27,
        "reward_id": "ADVANCE_ANNEROSE_LINK_NO_REWARD_1_03"
      }
    ]
  },
  {
    "iname": "ADVANCE_ANNEROSE_LINK_HA_STAR_1",
    "stars": [
      {
        "need": 15,
        "reward_id": "ADVANCE_ANNEROSE_LINK_HA_REWARD_1_01"
      },
      {
        "need": 20,
        "reward_id": "ADVANCE_ANNEROSE_LINK_HA_REWARD_1_02"
      },
      {
        "need": 25,
        "reward_id": "ADVANCE_ANNEROSE_LINK_HA_REWARD_1_03"
      }
    ]
  },
  {
    "iname": "ADVANCE_ANNEROSE_LINK_EX_STAR_1",
    "stars": [
      {
        "need": 15,
        "reward_id": "ADVANCE_ANNEROSE_LINK_EX_REWARD_1_01"
      },
      {
        "need": 20,
        "reward_id": "ADVANCE_ANNEROSE_LINK_EX_REWARD_1_02"
      },
      {
        "need": 25,
        "reward_id": "ADVANCE_ANNEROSE_LINK_EX_REWARD_1_03"
      }
    ]
  },
  {
    "iname": "ADVANCE_MABEL_EVENT_NO_STAR_1",
    "stars": [
      {
        "need": 15,
        "reward_id": "ADVANCE_MABEL_EVENT_NO_REWARD_1_01"
      },
      {
        "need": 20,
        "reward_id": "ADVANCE_MABEL_EVENT_NO_REWARD_1_02"
      },
      {
        "need": 27,
        "reward_id": "ADVANCE_MABEL_EVENT_NO_REWARD_1_03"
      }
    ]
  },
  {
    "iname": "ADVANCE_MABEL_EVENT_HA_STAR_1",
    "stars": [
      {
        "need": 15,
        "reward_id": "ADVANCE_MABEL_EVENT_HA_REWARD_1_01"
      },
      {
        "need": 20,
        "reward_id": "ADVANCE_MABEL_EVENT_HA_REWARD_1_02"
      },
      {
        "need": 25,
        "reward_id": "ADVANCE_MABEL_EVENT_HA_REWARD_1_03"
      }
    ]
  },
  {
    "iname": "ADVANCE_MABEL_EVENT_EX_STAR_1",
    "stars": [
      {
        "need": 15,
        "reward_id": "ADVANCE_MABEL_EVENT_EX_REWARD_1_01"
      },
      {
        "need": 20,
        "reward_id": "ADVANCE_MABEL_EVENT_EX_REWARD_1_02"
      },
      {
        "need": 25,
        "reward_id": "ADVANCE_MABEL_EVENT_EX_REWARD_1_03"
      }
    ]
  },
  {
    "iname": "ADVANCE_ZAYIN_LINK_NO_STAR_1",
    "stars": [
      {
        "need": 15,
        "reward_id": "ADVANCE_ZAYIN_LINK_NO_REWARD_1_01"
      },
      {
        "need": 20,
        "reward_id": "ADVANCE_ZAYIN_LINK_NO_REWARD_1_02"
      },
      {
        "need": 27,
        "reward_id": "ADVANCE_ZAYIN_LINK_NO_REWARD_1_03"
      }
    ]
  },
  {
    "iname": "ADVANCE_ZAYIN_LINK_HA_STAR_1",
    "stars": [
      {
        "need": 15,
        "reward_id": "ADVANCE_ZAYIN_LINK_HA_REWARD_1_01"
      },
      {
        "need": 20,
        "reward_id": "ADVANCE_ZAYIN_LINK_HA_REWARD_1_02"
      },
      {
        "need": 25,
        "reward_id": "ADVANCE_ZAYIN_LINK_HA_REWARD_1_03"
      }
    ]
  },
  {
    "iname": "ADVANCE_ZAYIN_LINK_EX_STAR_1",
    "stars": [
      {
        "need": 15,
        "reward_id": "ADVANCE_ZAYIN_LINK_EX_REWARD_1_01"
      },
      {
        "need": 20,
        "reward_id": "ADVANCE_ZAYIN_LINK_EX_REWARD_1_02"
      },
      {
        "need": 25,
        "reward_id": "ADVANCE_ZAYIN_LINK_EX_REWARD_1_03"
      }
    ]
  },
  {
    "iname": "ADVANCE_VISIONBATTLE_AJ7000_NO_STAR_1",
    "stars": [
      {
        "need": 9,
        "reward_id": "ADVANCE_VISIONBATTLE_AJ7000_NO_REWARD_1_01"
      }
    ]
  },
  {
    "iname": "ADVANCE_VISIONBATTLE_AJ7000_HA_STAR_1",
    "stars": [
      {
        "need": 15,
        "reward_id": "ADVANCE_VISIONBATTLE_AJ7000_HA_REWARD_1_01"
      }
    ]
  },
  {
    "iname": "ADVANCE_VISIONBATTLE_AJ7000_EX_STAR_1",
    "stars": [
      {
        "need": 15,
        "reward_id": "ADVANCE_VISIONBATTLE_AJ7000_EX_REWARD_1_01"
      }
    ]
  },
  {
    "iname": "ADVANCE_OTHIMA_LINK_NO_STAR_1",
    "stars": [
      {
        "need": 15,
        "reward_id": "ADVANCE_OTHIMA_LINK_NO_REWARD_1_01"
      },
      {
        "need": 20,
        "reward_id": "ADVANCE_OTHIMA_LINK_NO_REWARD_1_02"
      },
      {
        "need": 27,
        "reward_id": "ADVANCE_OTHIMA_LINK_NO_REWARD_1_03"
      }
    ]
  },
  {
    "iname": "ADVANCE_OTHIMA_LINK_HA_STAR_1",
    "stars": [
      {
        "need": 15,
        "reward_id": "ADVANCE_OTHIMA_LINK_HA_REWARD_1_01"
      },
      {
        "need": 20,
        "reward_id": "ADVANCE_OTHIMA_LINK_HA_REWARD_1_02"
      },
      {
        "need": 25,
        "reward_id": "ADVANCE_OTHIMA_LINK_HA_REWARD_1_03"
      }
    ]
  },
  {
    "iname": "ADVANCE_OTHIMA_LINK_EX_STAR_1",
    "stars": [
      {
        "need": 15,
        "reward_id": "ADVANCE_OTHIMA_LINK_EX_REWARD_1_01"
      },
      {
        "need": 20,
        "reward_id": "ADVANCE_OTHIMA_LINK_EX_REWARD_1_02"
      },
      {
        "need": 25,
        "reward_id": "ADVANCE_OTHIMA_LINK_EX_REWARD_1_03"
      }
    ]
  },
  {
    "iname": "ADVANCE_VISIONBATTLE_GODOGRE_NO_STAR_1",
    "stars": [
      {
        "need": 9,
        "reward_id": "ADVANCE_VISIONBATTLE_GODOGRE_NO_REWARD_1_01"
      }
    ]
  },
  {
    "iname": "ADVANCE_VISIONBATTLE_GODOGRE_HA_STAR_1",
    "stars": [
      {
        "need": 15,
        "reward_id": "ADVANCE_VISIONBATTLE_GODOGRE_HA_REWARD_1_01"
      }
    ]
  },
  {
    "iname": "ADVANCE_VISIONBATTLE_GODOGRE_EX_STAR_1",
    "stars": [
      {
        "need": 15,
        "reward_id": "ADVANCE_VISIONBATTLE_GODOGRE_EX_REWARD_1_01"
      }
    ]
  },
  {
    "iname": "ADVANCE_YAULAS_LINK_NO_STAR_1",
    "stars": [
      {
        "need": 15,
        "reward_id": "ADVANCE_YAULAS_LINK_NO_REWARD_1_01"
      },
      {
        "need": 20,
        "reward_id": "ADVANCE_YAULAS_LINK_NO_REWARD_1_02"
      },
      {
        "need": 27,
        "reward_id": "ADVANCE_YAULAS_LINK_NO_REWARD_1_03"
      }
    ]
  },
  {
    "iname": "ADVANCE_YAULAS_LINK_HA_STAR_1",
    "stars": [
      {
        "need": 15,
        "reward_id": "ADVANCE_YAULAS_LINK_HA_REWARD_1_01"
      },
      {
        "need": 20,
        "reward_id": "ADVANCE_YAULAS_LINK_HA_REWARD_1_02"
      },
      {
        "need": 25,
        "reward_id": "ADVANCE_YAULAS_LINK_HA_REWARD_1_03"
      }
    ]
  },
  {
    "iname": "ADVANCE_YAULAS_LINK_EX_STAR_1",
    "stars": [
      {
        "need": 15,
        "reward_id": "ADVANCE_YAULAS_LINK_EX_REWARD_1_01"
      },
      {
        "need": 20,
        "reward_id": "ADVANCE_YAULAS_LINK_EX_REWARD_1_02"
      },
      {
        "need": 25,
        "reward_id": "ADVANCE_YAULAS_LINK_EX_REWARD_1_03"
      }
    ]
  },
  {
    "iname": "ADVANCE_VISIONBATTLE_JAM_NO_STAR_1",
    "stars": [
      {
        "need": 9,
        "reward_id": "ADVANCE_VISIONBATTLE_JAM_NO_REWARD_1_01"
      }
    ]
  },
  {
    "iname": "ADVANCE_VISIONBATTLE_JAM_HA_STAR_1",
    "stars": [
      {
        "need": 15,
        "reward_id": "ADVANCE_VISIONBATTLE_JAM_HA_REWARD_1_01"
      }
    ]
  },
  {
    "iname": "ADVANCE_VISIONBATTLE_JAM_EX_STAR_1",
    "stars": [
      {
        "need": 15,
        "reward_id": "ADVANCE_VISIONBATTLE_JAM_EX_REWARD_1_01"
      }
    ]
  },
  {
    "iname": "ADVANCE_VISIONBATTLE_QUEEN_NO_STAR_1",
    "stars": [
      {
        "need": 9,
        "reward_id": "ADVANCE_VISIONBATTLE_QUEEN_NO_REWARD_1_01"
      }
    ]
  },
  {
    "iname": "ADVANCE_VISIONBATTLE_QUEEN_HA_STAR_1",
    "stars": [
      {
        "need": 15,
        "reward_id": "ADVANCE_VISIONBATTLE_QUEEN_HA_REWARD_1_01"
      }
    ]
  },
  {
    "iname": "ADVANCE_VISIONBATTLE_QUEEN_EX_STAR_1",
    "stars": [
      {
        "need": 15,
        "reward_id": "ADVANCE_VISIONBATTLE_QUEEN_EX_REWARD_1_01"
      }
    ]
  },
  {
    "iname": "ADVANCE_VISIONBATTLE_WISDOMBEAST_NO_STAR_1",
    "stars": [
      {
        "need": 9,
        "reward_id": "ADVANCE_VISIONBATTLE_WISDOMBEAST_NO_REWARD_1_01"
      }
    ]
  },
  {
    "iname": "ADVANCE_VISIONBATTLE_WISDOMBEAST_HA_STAR_1",
    "stars": [
      {
        "need": 9,
        "reward_id": "ADVANCE_VISIONBATTLE_WISDOMBEAST_HA_REWARD_1_01"
      }
    ]
  },
  {
    "iname": "ADVANCE_VISIONBATTLE_WISDOMBEAST_EX_STAR_1",
    "stars": [
      {
        "need": 9,
        "reward_id": "ADVANCE_VISIONBATTLE_WISDOMBEAST_EX_REWARD_1_01"
      }
    ]
  },
  {
    "iname": "ADVANCE_SEIDA_LINK_NO_STAR_1",
    "stars": [
      {
        "need": 15,
        "reward_id": "ADVANCE_SEIDA_LINK_NO_REWARD_1_01"
      },
      {
        "need": 20,
        "reward_id": "ADVANCE_SEIDA_LINK_NO_REWARD_1_02"
      },
      {
        "need": 27,
        "reward_id": "ADVANCE_SEIDA_LINK_NO_REWARD_1_03"
      }
    ]
  },
  {
    "iname": "ADVANCE_SEIDA_LINK_HA_STAR_1",
    "stars": [
      {
        "need": 15,
        "reward_id": "ADVANCE_SEIDA_LINK_HA_REWARD_1_01"
      },
      {
        "need": 20,
        "reward_id": "ADVANCE_SEIDA_LINK_HA_REWARD_1_02"
      },
      {
        "need": 25,
        "reward_id": "ADVANCE_SEIDA_LINK_HA_REWARD_1_03"
      }
    ]
  },
  {
    "iname": "ADVANCE_SEIDA_LINK_EX_STAR_1",
    "stars": [
      {
        "need": 15,
        "reward_id": "ADVANCE_SEIDA_LINK_EX_REWARD_1_01"
      },
      {
        "need": 20,
        "reward_id": "ADVANCE_SEIDA_LINK_EX_REWARD_1_02"
      },
      {
        "need": 25,
        "reward_id": "ADVANCE_SEIDA_LINK_EX_REWARD_1_03"
      }
    ]
  },
  {
    "iname": "ADVANCE_EINZ_LINK_NO_STAR_1",
    "stars": [
      {
        "need": 15,
        "reward_id": "ADVANCE_EINZ_LINK_NO_REWARD_1_01"
      },
      {
        "need": 20,
        "reward_id": "ADVANCE_EINZ_LINK_NO_REWARD_1_02"
      },
      {
        "need": 27,
        "reward_id": "ADVANCE_EINZ_LINK_NO_REWARD_1_03"
      }
    ]
  },
  {
    "iname": "ADVANCE_EINZ_LINK_HA_STAR_1",
    "stars": [
      {
        "need": 15,
        "reward_id": "ADVANCE_EINZ_LINK_HA_REWARD_1_01"
      },
      {
        "need": 20,
        "reward_id": "ADVANCE_EINZ_LINK_HA_REWARD_1_02"
      },
      {
        "need": 25,
        "reward_id": "ADVANCE_EINZ_LINK_HA_REWARD_1_03"
      }
    ]
  },
  {
    "iname": "ADVANCE_EINZ_LINK_EX_STAR_1",
    "stars": [
      {
        "need": 15,
        "reward_id": "ADVANCE_EINZ_LINK_EX_REWARD_1_01"
      },
      {
        "need": 20,
        "reward_id": "ADVANCE_EINZ_LINK_EX_REWARD_1_02"
      },
      {
        "need": 25,
        "reward_id": "ADVANCE_EINZ_LINK_EX_REWARD_1_03"
      }
    ]
  },
  {
    "iname": "ADVANCE_KUDHANSTEIN_LINK_NO_STAR_1",
    "stars": [
      {
        "need": 15,
        "reward_id": "ADVANCE_KUDHANSTEIN_LINK_NO_REWARD_1_01"
      },
      {
        "need": 20,
        "reward_id": "ADVANCE_KUDHANSTEIN_LINK_NO_REWARD_1_02"
      },
      {
        "need": 27,
        "reward_id": "ADVANCE_KUDHANSTEIN_LINK_NO_REWARD_1_03"
      }
    ]
  },
  {
    "iname": "ADVANCE_KUDHANSTEIN_LINK_HA_STAR_1",
    "stars": [
      {
        "need": 15,
        "reward_id": "ADVANCE_KUDHANSTEIN_LINK_HA_REWARD_1_01"
      },
      {
        "need": 20,
        "reward_id": "ADVANCE_KUDHANSTEIN_LINK_HA_REWARD_1_02"
      },
      {
        "need": 25,
        "reward_id": "ADVANCE_KUDHANSTEIN_LINK_HA_REWARD_1_03"
      }
    ]
  },
  {
    "iname": "ADVANCE_KUDHANSTEIN_LINK_EX_STAR_1",
    "stars": [
      {
        "need": 15,
        "reward_id": "ADVANCE_KUDHANSTEIN_LINK_EX_REWARD_1_01"
      },
      {
        "need": 20,
        "reward_id": "ADVANCE_KUDHANSTEIN_LINK_EX_REWARD_1_02"
      },
      {
        "need": 25,
        "reward_id": "ADVANCE_KUDHANSTEIN_LINK_EX_REWARD_1_03"
      }
    ]
  },
  {
    "iname": "ADVANCE_AGATHA_NO_STAR_1",
    "stars": [
      {
        "need": 15,
        "reward_id": "ADVANCE_AGATHA_NO_REWARD_1_01"
      },
      {
        "need": 20,
        "reward_id": "ADVANCE_AGATHA_NO_REWARD_1_02"
      },
      {
        "need": 27,
        "reward_id": "ADVANCE_AGATHA_NO_REWARD_1_03"
      }
    ]
  },
  {
    "iname": "ADVANCE_AGATHA_HA_STAR_1",
    "stars": [
      {
        "need": 15,
        "reward_id": "ADVANCE_AGATHA_HA_REWARD_1_01"
      },
      {
        "need": 20,
        "reward_id": "ADVANCE_AGATHA_HA_REWARD_1_02"
      },
      {
        "need": 25,
        "reward_id": "ADVANCE_AGATHA_HA_REWARD_1_03"
      }
    ]
  },
  {
    "iname": "ADVANCE_AGATHA_EX_STAR_1",
    "stars": [
      {
        "need": 15,
        "reward_id": "ADVANCE_AGATHA_EX_REWARD_1_01"
      },
      {
        "need": 20,
        "reward_id": "ADVANCE_AGATHA_EX_REWARD_1_02"
      },
      {
        "need": 25,
        "reward_id": "ADVANCE_AGATHA_EX_REWARD_1_03"
      }
    ]
  }
]