[
  {
    "iname": "CPQ_FIRE_01",
    "quest_iname_type": 1,
    "quest_iname": "COP_OVER_FIRE_COMBAT_POWER_01",
    "type": 2,
    "num": 150000
  },
  {
    "iname": "CPQ_FIRE_02",
    "quest_iname_type": 1,
    "quest_iname": "COP_OVER_FIRE_COMBAT_POWER_02",
    "type": 2,
    "num": 250000
  },
  {
    "iname": "CPQ_WATER_01",
    "quest_iname_type": 1,
    "quest_iname": "COP_OVER_WATER_COMBAT_POWER_01",
    "type": 3,
    "num": 150000
  },
  {
    "iname": "CPQ_WATER_02",
    "quest_iname_type": 1,
    "quest_iname": "COP_OVER_WATER_COMBAT_POWER_02",
    "type": 3,
    "num": 250000
  },
  {
    "iname": "CPQ_WIND_01",
    "quest_iname_type": 1,
    "quest_iname": "COP_OVER_WIND_COMBAT_POWER_01",
    "type": 5,
    "num": 150000
  },
  {
    "iname": "CPQ_WIND_02",
    "quest_iname_type": 1,
    "quest_iname": "COP_OVER_WIND_COMBAT_POWER_02",
    "type": 5,
    "num": 250000
  },
  {
    "iname": "CPQ_THUNDER_01",
    "quest_iname_type": 1,
    "quest_iname": "COP_OVER_THUNDER_COMBAT_POWER_01",
    "type": 4,
    "num": 150000
  },
  {
    "iname": "CPQ_THUNDER_02",
    "quest_iname_type": 1,
    "quest_iname": "COP_OVER_THUNDER_COMBAT_POWER_02",
    "type": 4,
    "num": 250000
  },
  {
    "iname": "CPQ_SHINE_01",
    "quest_iname_type": 1,
    "quest_iname": "COP_OVER_SHINE_COMBAT_POWER_01",
    "type": 6,
    "num": 150000
  },
  {
    "iname": "CPQ_SHINE_02",
    "quest_iname_type": 1,
    "quest_iname": "COP_OVER_SHINE_COMBAT_POWER_02",
    "type": 6,
    "num": 250000
  },
  {
    "iname": "CPQ_DARK_01",
    "quest_iname_type": 1,
    "quest_iname": "COP_OVER_DARK_COMBAT_POWER_01",
    "type": 7,
    "num": 150000
  },
  {
    "iname": "CPQ_DARK_02",
    "quest_iname_type": 1,
    "quest_iname": "COP_OVER_DARK_COMBAT_POWER_02",
    "type": 7,
    "num": 250000
  }
]