[
  {
    "iname": "QE_EV_RAID_GENESIS_HA_01",
    "round_buff_max": 20,
    "boss_bid": "BUFF_RAID_TS_02_RAID_BOSS4",
    "other_bid": "BUFF_RAID_TS_02_RAID_BOSS4",
    "lap_info": [
      {
        "round": 1,
        "reward_id": "GENESIS_REWARD_3_2_35"
      }
    ]
  },
  {
    "iname": "GENESIS_LAP_BOSS_04_01_EX",
    "round_buff_max": 50,
    "boss_bid": "BUFF_GENESIS_LAP_BOSS_04_01_EX_BOSS",
    "other_bid": "BUFF_GENESIS_LAP_BOSS_04_01_EX_OTHER",
    "lap_info": [
      {
        "round": 1,
        "reward_id": "GENESIS_REWARD_4_1_EB_01"
      },
      {
        "round": 2,
        "reward_id": "GENESIS_REWARD_4_1_EB_02"
      },
      {
        "round": 3,
        "reward_id": "GENESIS_REWARD_4_1_EB_01"
      },
      {
        "round": 4,
        "reward_id": "GENESIS_REWARD_4_1_EB_02"
      },
      {
        "round": 5,
        "reward_id": "GENESIS_REWARD_4_1_EB_03"
      },
      {
        "round": 6,
        "reward_id": "GENESIS_REWARD_4_1_EB_01"
      },
      {
        "round": 7,
        "reward_id": "GENESIS_REWARD_4_1_EB_04"
      },
      {
        "round": 8,
        "reward_id": "GENESIS_REWARD_4_1_EB_01"
      },
      {
        "round": 9,
        "reward_id": "GENESIS_REWARD_4_1_EB_04"
      },
      {
        "round": 10,
        "reward_id": "GENESIS_REWARD_4_1_EB_05"
      },
      {
        "round": 11,
        "reward_id": "GENESIS_REWARD_4_1_EB_06"
      }
    ]
  },
  {
    "iname": "GENESIS_LAP_BOSS_04_02_EX",
    "round_buff_max": 50,
    "boss_bid": "BUFF_GENESIS_LAP_BOSS_04_02_EX_BOSS",
    "other_bid": "BUFF_GENESIS_LAP_BOSS_04_02_EX_OTHER",
    "lap_info": [
      {
        "round": 1,
        "reward_id": "GENESIS_REWARD_4_2_EB_01"
      },
      {
        "round": 2,
        "reward_id": "GENESIS_REWARD_4_2_EB_02"
      },
      {
        "round": 3,
        "reward_id": "GENESIS_REWARD_4_2_EB_01"
      },
      {
        "round": 4,
        "reward_id": "GENESIS_REWARD_4_2_EB_02"
      },
      {
        "round": 5,
        "reward_id": "GENESIS_REWARD_4_2_EB_03"
      },
      {
        "round": 6,
        "reward_id": "GENESIS_REWARD_4_2_EB_01"
      },
      {
        "round": 7,
        "reward_id": "GENESIS_REWARD_4_2_EB_04"
      },
      {
        "round": 8,
        "reward_id": "GENESIS_REWARD_4_2_EB_01"
      },
      {
        "round": 9,
        "reward_id": "GENESIS_REWARD_4_2_EB_04"
      },
      {
        "round": 10,
        "reward_id": "GENESIS_REWARD_4_2_EB_05"
      },
      {
        "round": 11,
        "reward_id": "GENESIS_REWARD_4_2_EB_06"
      },
      {
        "round": 12,
        "reward_id": "GENESIS_REWARD_4_2_EB_06"
      },
      {
        "round": 13,
        "reward_id": "GENESIS_REWARD_4_2_EB_06"
      },
      {
        "round": 14,
        "reward_id": "GENESIS_REWARD_4_2_EB_06"
      },
      {
        "round": 15,
        "reward_id": "GENESIS_REWARD_4_2_EB_06"
      },
      {
        "round": 16,
        "reward_id": "GENESIS_REWARD_4_2_EB_06"
      },
      {
        "round": 17,
        "reward_id": "GENESIS_REWARD_4_2_EB_06"
      },
      {
        "round": 18,
        "reward_id": "GENESIS_REWARD_4_2_EB_06"
      },
      {
        "round": 19,
        "reward_id": "GENESIS_REWARD_4_2_EB_06"
      },
      {
        "round": 20,
        "reward_id": "GENESIS_REWARD_4_2_EB_05"
      },
      {
        "round": 21,
        "reward_id": "GENESIS_REWARD_4_2_EB_06"
      }
    ]
  },
  {
    "iname": "GENESIS_LAP_BOSS_05_01_EX",
    "round_buff_max": 50,
    "boss_bid": "BUFF_GENESIS_LAP_BOSS_05_01_EX_BOSS",
    "other_bid": "BUFF_GENESIS_LAP_BOSS_05_01_EX_OTHER",
    "lap_info": [
      {
        "round": 1,
        "reward_id": "GENESIS_REWARD_5_1_EB_01"
      },
      {
        "round": 2,
        "reward_id": "GENESIS_REWARD_5_1_EB_02"
      },
      {
        "round": 3,
        "reward_id": "GENESIS_REWARD_5_1_EB_01"
      },
      {
        "round": 4,
        "reward_id": "GENESIS_REWARD_5_1_EB_02"
      },
      {
        "round": 5,
        "reward_id": "GENESIS_REWARD_5_1_EB_03"
      },
      {
        "round": 6,
        "reward_id": "GENESIS_REWARD_5_1_EB_01"
      },
      {
        "round": 7,
        "reward_id": "GENESIS_REWARD_5_1_EB_04"
      },
      {
        "round": 8,
        "reward_id": "GENESIS_REWARD_5_1_EB_01"
      },
      {
        "round": 9,
        "reward_id": "GENESIS_REWARD_5_1_EB_04"
      },
      {
        "round": 10,
        "reward_id": "GENESIS_REWARD_5_1_EB_05"
      },
      {
        "round": 11,
        "reward_id": "GENESIS_REWARD_5_1_EB_06"
      },
      {
        "round": 12,
        "reward_id": "GENESIS_REWARD_5_1_EB_06"
      },
      {
        "round": 13,
        "reward_id": "GENESIS_REWARD_5_1_EB_06"
      },
      {
        "round": 14,
        "reward_id": "GENESIS_REWARD_5_1_EB_06"
      },
      {
        "round": 15,
        "reward_id": "GENESIS_REWARD_5_1_EB_06"
      },
      {
        "round": 16,
        "reward_id": "GENESIS_REWARD_5_1_EB_06"
      },
      {
        "round": 17,
        "reward_id": "GENESIS_REWARD_5_1_EB_06"
      },
      {
        "round": 18,
        "reward_id": "GENESIS_REWARD_5_1_EB_06"
      },
      {
        "round": 19,
        "reward_id": "GENESIS_REWARD_5_1_EB_06"
      },
      {
        "round": 20,
        "reward_id": "GENESIS_REWARD_5_1_EB_05"
      },
      {
        "round": 21,
        "reward_id": "GENESIS_REWARD_5_1_EB_06"
      }
    ]
  },
  {
    "iname": "GENESIS_LAP_BOSS_05_02_EX",
    "round_buff_max": 50,
    "boss_bid": "BUFF_GENESIS_LAP_BOSS_05_02_EX_BOSS",
    "other_bid": "BUFF_GENESIS_LAP_BOSS_05_02_EX_OTHER",
    "lap_info": [
      {
        "round": 1,
        "reward_id": "GENESIS_REWARD_5_2_EB_01"
      },
      {
        "round": 2,
        "reward_id": "GENESIS_REWARD_5_2_EB_02"
      },
      {
        "round": 3,
        "reward_id": "GENESIS_REWARD_5_2_EB_01"
      },
      {
        "round": 4,
        "reward_id": "GENESIS_REWARD_5_2_EB_02"
      },
      {
        "round": 5,
        "reward_id": "GENESIS_REWARD_5_2_EB_03"
      },
      {
        "round": 6,
        "reward_id": "GENESIS_REWARD_5_2_EB_01"
      },
      {
        "round": 7,
        "reward_id": "GENESIS_REWARD_5_2_EB_04"
      },
      {
        "round": 8,
        "reward_id": "GENESIS_REWARD_5_2_EB_01"
      },
      {
        "round": 9,
        "reward_id": "GENESIS_REWARD_5_2_EB_04"
      },
      {
        "round": 10,
        "reward_id": "GENESIS_REWARD_5_2_EB_05"
      },
      {
        "round": 11,
        "reward_id": "GENESIS_REWARD_5_2_EB_06"
      },
      {
        "round": 12,
        "reward_id": "GENESIS_REWARD_5_2_EB_06"
      },
      {
        "round": 13,
        "reward_id": "GENESIS_REWARD_5_2_EB_06"
      },
      {
        "round": 14,
        "reward_id": "GENESIS_REWARD_5_2_EB_06"
      },
      {
        "round": 15,
        "reward_id": "GENESIS_REWARD_5_2_EB_06"
      },
      {
        "round": 16,
        "reward_id": "GENESIS_REWARD_5_2_EB_06"
      },
      {
        "round": 17,
        "reward_id": "GENESIS_REWARD_5_2_EB_06"
      },
      {
        "round": 18,
        "reward_id": "GENESIS_REWARD_5_2_EB_06"
      },
      {
        "round": 19,
        "reward_id": "GENESIS_REWARD_5_2_EB_06"
      },
      {
        "round": 20,
        "reward_id": "GENESIS_REWARD_5_2_EB_05"
      },
      {
        "round": 21,
        "reward_id": "GENESIS_REWARD_5_2_EB_06"
      }
    ]
  },
  {
    "iname": "GENESIS_LAP_BOSS_06_01_EX",
    "round_buff_max": 50,
    "boss_bid": "BUFF_GENESIS_LAP_BOSS_06_01_EX_BOSS",
    "other_bid": "BUFF_GENESIS_LAP_BOSS_06_01_EX_OTHER",
    "lap_info": [
      {
        "round": 1,
        "reward_id": "GENESIS_REWARD_6_1_EB_01"
      },
      {
        "round": 2,
        "reward_id": "GENESIS_REWARD_6_1_EB_02"
      },
      {
        "round": 3,
        "reward_id": "GENESIS_REWARD_6_1_EB_01"
      },
      {
        "round": 4,
        "reward_id": "GENESIS_REWARD_6_1_EB_02"
      },
      {
        "round": 5,
        "reward_id": "GENESIS_REWARD_6_1_EB_03"
      },
      {
        "round": 6,
        "reward_id": "GENESIS_REWARD_6_1_EB_01"
      },
      {
        "round": 7,
        "reward_id": "GENESIS_REWARD_6_1_EB_04"
      },
      {
        "round": 8,
        "reward_id": "GENESIS_REWARD_6_1_EB_01"
      },
      {
        "round": 9,
        "reward_id": "GENESIS_REWARD_6_1_EB_04"
      },
      {
        "round": 10,
        "reward_id": "GENESIS_REWARD_6_1_EB_05"
      },
      {
        "round": 11,
        "reward_id": "GENESIS_REWARD_6_1_EB_06"
      },
      {
        "round": 12,
        "reward_id": "GENESIS_REWARD_6_1_EB_06"
      },
      {
        "round": 13,
        "reward_id": "GENESIS_REWARD_6_1_EB_06"
      },
      {
        "round": 14,
        "reward_id": "GENESIS_REWARD_6_1_EB_06"
      },
      {
        "round": 15,
        "reward_id": "GENESIS_REWARD_6_1_EB_06"
      },
      {
        "round": 16,
        "reward_id": "GENESIS_REWARD_6_1_EB_06"
      },
      {
        "round": 17,
        "reward_id": "GENESIS_REWARD_6_1_EB_06"
      },
      {
        "round": 18,
        "reward_id": "GENESIS_REWARD_6_1_EB_06"
      },
      {
        "round": 19,
        "reward_id": "GENESIS_REWARD_6_1_EB_06"
      },
      {
        "round": 20,
        "reward_id": "GENESIS_REWARD_6_1_EB_05"
      },
      {
        "round": 21,
        "reward_id": "GENESIS_REWARD_6_1_EB_06"
      }
    ]
  },
  {
    "iname": "GENESIS_LAP_BOSS_06_02_EX",
    "round_buff_max": 50,
    "boss_bid": "BUFF_GENESIS_LAP_BOSS_06_02_EX_BOSS",
    "other_bid": "BUFF_GENESIS_LAP_BOSS_06_02_EX_OTHER",
    "lap_info": [
      {
        "round": 1,
        "reward_id": "GENESIS_REWARD_6_2_EB_01"
      },
      {
        "round": 2,
        "reward_id": "GENESIS_REWARD_6_2_EB_02"
      },
      {
        "round": 3,
        "reward_id": "GENESIS_REWARD_6_2_EB_01"
      },
      {
        "round": 4,
        "reward_id": "GENESIS_REWARD_6_2_EB_02"
      },
      {
        "round": 5,
        "reward_id": "GENESIS_REWARD_6_2_EB_03"
      },
      {
        "round": 6,
        "reward_id": "GENESIS_REWARD_6_2_EB_01"
      },
      {
        "round": 7,
        "reward_id": "GENESIS_REWARD_6_2_EB_04"
      },
      {
        "round": 8,
        "reward_id": "GENESIS_REWARD_6_2_EB_01"
      },
      {
        "round": 9,
        "reward_id": "GENESIS_REWARD_6_2_EB_04"
      },
      {
        "round": 10,
        "reward_id": "GENESIS_REWARD_6_2_EB_05"
      },
      {
        "round": 11,
        "reward_id": "GENESIS_REWARD_6_2_EB_06"
      },
      {
        "round": 12,
        "reward_id": "GENESIS_REWARD_6_2_EB_06"
      },
      {
        "round": 13,
        "reward_id": "GENESIS_REWARD_6_2_EB_06"
      },
      {
        "round": 14,
        "reward_id": "GENESIS_REWARD_6_2_EB_06"
      },
      {
        "round": 15,
        "reward_id": "GENESIS_REWARD_6_2_EB_06"
      },
      {
        "round": 16,
        "reward_id": "GENESIS_REWARD_6_2_EB_06"
      },
      {
        "round": 17,
        "reward_id": "GENESIS_REWARD_6_2_EB_06"
      },
      {
        "round": 18,
        "reward_id": "GENESIS_REWARD_6_2_EB_06"
      },
      {
        "round": 19,
        "reward_id": "GENESIS_REWARD_6_2_EB_06"
      },
      {
        "round": 20,
        "reward_id": "GENESIS_REWARD_6_2_EB_05"
      },
      {
        "round": 21,
        "reward_id": "GENESIS_REWARD_6_2_EB_06"
      }
    ]
  },
  {
    "iname": "GENESIS_LAP_BOSS_07_01_EX",
    "round_buff_max": 50,
    "boss_bid": "BUFF_GENESIS_LAP_BOSS_07_01_EX_BOSS",
    "other_bid": "BUFF_GENESIS_LAP_BOSS_07_01_EX_OTHER",
    "lap_info": [
      {
        "round": 1,
        "reward_id": "GENESIS_REWARD_7_1_EB_01"
      },
      {
        "round": 2,
        "reward_id": "GENESIS_REWARD_7_1_EB_02"
      },
      {
        "round": 3,
        "reward_id": "GENESIS_REWARD_7_1_EB_01"
      },
      {
        "round": 4,
        "reward_id": "GENESIS_REWARD_7_1_EB_02"
      },
      {
        "round": 5,
        "reward_id": "GENESIS_REWARD_7_1_EB_03"
      },
      {
        "round": 6,
        "reward_id": "GENESIS_REWARD_7_1_EB_01"
      },
      {
        "round": 7,
        "reward_id": "GENESIS_REWARD_7_1_EB_04"
      },
      {
        "round": 8,
        "reward_id": "GENESIS_REWARD_7_1_EB_01"
      },
      {
        "round": 9,
        "reward_id": "GENESIS_REWARD_7_1_EB_04"
      },
      {
        "round": 10,
        "reward_id": "GENESIS_REWARD_7_1_EB_05"
      },
      {
        "round": 11,
        "reward_id": "GENESIS_REWARD_7_1_EB_06"
      },
      {
        "round": 12,
        "reward_id": "GENESIS_REWARD_7_1_EB_07"
      },
      {
        "round": 13,
        "reward_id": "GENESIS_REWARD_7_1_EB_06"
      },
      {
        "round": 14,
        "reward_id": "GENESIS_REWARD_7_1_EB_06"
      },
      {
        "round": 15,
        "reward_id": "GENESIS_REWARD_7_1_EB_06"
      },
      {
        "round": 16,
        "reward_id": "GENESIS_REWARD_7_1_EB_07"
      },
      {
        "round": 17,
        "reward_id": "GENESIS_REWARD_7_1_EB_06"
      },
      {
        "round": 18,
        "reward_id": "GENESIS_REWARD_7_1_EB_06"
      },
      {
        "round": 19,
        "reward_id": "GENESIS_REWARD_7_1_EB_06"
      },
      {
        "round": 20,
        "reward_id": "GENESIS_REWARD_7_1_EB_05"
      },
      {
        "round": 21,
        "reward_id": "GENESIS_REWARD_7_1_EB_08"
      },
      {
        "round": 22,
        "reward_id": "GENESIS_REWARD_7_1_EB_08"
      },
      {
        "round": 23,
        "reward_id": "GENESIS_REWARD_7_1_EB_08"
      },
      {
        "round": 24,
        "reward_id": "GENESIS_REWARD_7_1_EB_09"
      },
      {
        "round": 25,
        "reward_id": "GENESIS_REWARD_7_1_EB_10"
      },
      {
        "round": 26,
        "reward_id": "GENESIS_REWARD_7_1_EB_11"
      }
    ]
  },
  {
    "iname": "GENESIS_LAP_BOSS_07_02_EX",
    "round_buff_max": 50,
    "boss_bid": "BUFF_GENESIS_LAP_BOSS_07_02_EX_BOSS",
    "other_bid": "BUFF_GENESIS_LAP_BOSS_07_02_EX_OTHER",
    "lap_info": [
      {
        "round": 1,
        "reward_id": "GENESIS_REWARD_7_2_EB_01"
      },
      {
        "round": 2,
        "reward_id": "GENESIS_REWARD_7_2_EB_02"
      },
      {
        "round": 3,
        "reward_id": "GENESIS_REWARD_7_2_EB_01"
      },
      {
        "round": 4,
        "reward_id": "GENESIS_REWARD_7_2_EB_02"
      },
      {
        "round": 5,
        "reward_id": "GENESIS_REWARD_7_2_EB_03"
      },
      {
        "round": 6,
        "reward_id": "GENESIS_REWARD_7_2_EB_01"
      },
      {
        "round": 7,
        "reward_id": "GENESIS_REWARD_7_2_EB_04"
      },
      {
        "round": 8,
        "reward_id": "GENESIS_REWARD_7_2_EB_01"
      },
      {
        "round": 9,
        "reward_id": "GENESIS_REWARD_7_2_EB_04"
      },
      {
        "round": 10,
        "reward_id": "GENESIS_REWARD_7_2_EB_05"
      },
      {
        "round": 11,
        "reward_id": "GENESIS_REWARD_7_2_EB_06"
      },
      {
        "round": 12,
        "reward_id": "GENESIS_REWARD_7_2_EB_07"
      },
      {
        "round": 13,
        "reward_id": "GENESIS_REWARD_7_2_EB_06"
      },
      {
        "round": 14,
        "reward_id": "GENESIS_REWARD_7_2_EB_06"
      },
      {
        "round": 15,
        "reward_id": "GENESIS_REWARD_7_2_EB_06"
      },
      {
        "round": 16,
        "reward_id": "GENESIS_REWARD_7_2_EB_07"
      },
      {
        "round": 17,
        "reward_id": "GENESIS_REWARD_7_2_EB_06"
      },
      {
        "round": 18,
        "reward_id": "GENESIS_REWARD_7_2_EB_06"
      },
      {
        "round": 19,
        "reward_id": "GENESIS_REWARD_7_2_EB_06"
      },
      {
        "round": 20,
        "reward_id": "GENESIS_REWARD_7_2_EB_05"
      },
      {
        "round": 21,
        "reward_id": "GENESIS_REWARD_7_2_EB_08"
      },
      {
        "round": 22,
        "reward_id": "GENESIS_REWARD_7_2_EB_08"
      },
      {
        "round": 23,
        "reward_id": "GENESIS_REWARD_7_2_EB_08"
      },
      {
        "round": 24,
        "reward_id": "GENESIS_REWARD_7_2_EB_09"
      },
      {
        "round": 25,
        "reward_id": "GENESIS_REWARD_7_2_EB_10"
      },
      {
        "round": 26,
        "reward_id": "GENESIS_REWARD_7_2_EB_11"
      }
    ]
  },
  {
    "iname": "GENESIS_LAP_BOSS_08_01_EX",
    "round_buff_max": 50,
    "boss_bid": "BUFF_GENESIS_LAP_BOSS_08_01_EX_BOSS",
    "other_bid": "BUFF_GENESIS_LAP_BOSS_08_01_EX_OTHER",
    "lap_info": [
      {
        "round": 1,
        "reward_id": "GENESIS_REWARD_8_1_EB_01"
      },
      {
        "round": 2,
        "reward_id": "GENESIS_REWARD_8_1_EB_02"
      },
      {
        "round": 3,
        "reward_id": "GENESIS_REWARD_8_1_EB_01"
      },
      {
        "round": 4,
        "reward_id": "GENESIS_REWARD_8_1_EB_02"
      },
      {
        "round": 5,
        "reward_id": "GENESIS_REWARD_8_1_EB_03"
      },
      {
        "round": 6,
        "reward_id": "GENESIS_REWARD_8_1_EB_01"
      },
      {
        "round": 7,
        "reward_id": "GENESIS_REWARD_8_1_EB_04"
      },
      {
        "round": 8,
        "reward_id": "GENESIS_REWARD_8_1_EB_01"
      },
      {
        "round": 9,
        "reward_id": "GENESIS_REWARD_8_1_EB_04"
      },
      {
        "round": 10,
        "reward_id": "GENESIS_REWARD_8_1_EB_05"
      },
      {
        "round": 11,
        "reward_id": "GENESIS_REWARD_8_1_EB_06"
      },
      {
        "round": 12,
        "reward_id": "GENESIS_REWARD_8_1_EB_07"
      },
      {
        "round": 13,
        "reward_id": "GENESIS_REWARD_8_1_EB_06"
      },
      {
        "round": 14,
        "reward_id": "GENESIS_REWARD_8_1_EB_06"
      },
      {
        "round": 15,
        "reward_id": "GENESIS_REWARD_8_1_EB_06"
      },
      {
        "round": 16,
        "reward_id": "GENESIS_REWARD_8_1_EB_07"
      },
      {
        "round": 17,
        "reward_id": "GENESIS_REWARD_8_1_EB_06"
      },
      {
        "round": 18,
        "reward_id": "GENESIS_REWARD_8_1_EB_06"
      },
      {
        "round": 19,
        "reward_id": "GENESIS_REWARD_8_1_EB_06"
      },
      {
        "round": 20,
        "reward_id": "GENESIS_REWARD_8_1_EB_05"
      },
      {
        "round": 21,
        "reward_id": "GENESIS_REWARD_8_1_EB_08"
      },
      {
        "round": 22,
        "reward_id": "GENESIS_REWARD_8_1_EB_08"
      },
      {
        "round": 23,
        "reward_id": "GENESIS_REWARD_8_1_EB_08"
      },
      {
        "round": 24,
        "reward_id": "GENESIS_REWARD_8_1_EB_09"
      },
      {
        "round": 25,
        "reward_id": "GENESIS_REWARD_8_1_EB_10"
      },
      {
        "round": 26,
        "reward_id": "GENESIS_REWARD_8_1_EB_11"
      }
    ]
  },
  {
    "iname": "GENESIS_LAP_BOSS_08_02_EX",
    "round_buff_max": 50,
    "boss_bid": "BUFF_GENESIS_LAP_BOSS_08_02_EX_BOSS",
    "other_bid": "BUFF_GENESIS_LAP_BOSS_08_02_EX_OTHER",
    "lap_info": [
      {
        "round": 1,
        "reward_id": "GENESIS_REWARD_8_2_EB_01"
      },
      {
        "round": 2,
        "reward_id": "GENESIS_REWARD_8_2_EB_02"
      },
      {
        "round": 3,
        "reward_id": "GENESIS_REWARD_8_2_EB_01"
      },
      {
        "round": 4,
        "reward_id": "GENESIS_REWARD_8_2_EB_02"
      },
      {
        "round": 5,
        "reward_id": "GENESIS_REWARD_8_2_EB_03"
      },
      {
        "round": 6,
        "reward_id": "GENESIS_REWARD_8_2_EB_01"
      },
      {
        "round": 7,
        "reward_id": "GENESIS_REWARD_8_2_EB_04"
      },
      {
        "round": 8,
        "reward_id": "GENESIS_REWARD_8_2_EB_01"
      },
      {
        "round": 9,
        "reward_id": "GENESIS_REWARD_8_2_EB_04"
      },
      {
        "round": 10,
        "reward_id": "GENESIS_REWARD_8_2_EB_05"
      },
      {
        "round": 11,
        "reward_id": "GENESIS_REWARD_8_2_EB_06"
      },
      {
        "round": 12,
        "reward_id": "GENESIS_REWARD_8_2_EB_07"
      },
      {
        "round": 13,
        "reward_id": "GENESIS_REWARD_8_2_EB_06"
      },
      {
        "round": 14,
        "reward_id": "GENESIS_REWARD_8_2_EB_06"
      },
      {
        "round": 15,
        "reward_id": "GENESIS_REWARD_8_2_EB_06"
      },
      {
        "round": 16,
        "reward_id": "GENESIS_REWARD_8_2_EB_07"
      },
      {
        "round": 17,
        "reward_id": "GENESIS_REWARD_8_2_EB_06"
      },
      {
        "round": 18,
        "reward_id": "GENESIS_REWARD_8_2_EB_06"
      },
      {
        "round": 19,
        "reward_id": "GENESIS_REWARD_8_2_EB_06"
      },
      {
        "round": 20,
        "reward_id": "GENESIS_REWARD_8_2_EB_05"
      },
      {
        "round": 21,
        "reward_id": "GENESIS_REWARD_8_2_EB_08"
      },
      {
        "round": 22,
        "reward_id": "GENESIS_REWARD_8_2_EB_08"
      },
      {
        "round": 23,
        "reward_id": "GENESIS_REWARD_8_2_EB_08"
      },
      {
        "round": 24,
        "reward_id": "GENESIS_REWARD_8_2_EB_09"
      },
      {
        "round": 25,
        "reward_id": "GENESIS_REWARD_8_2_EB_10"
      },
      {
        "round": 26,
        "reward_id": "GENESIS_REWARD_8_2_EB_11"
      }
    ]
  },
  {
    "iname": "GENESIS_LAP_BOSS_09_01_EX",
    "round_buff_max": 50,
    "boss_bid": "BUFF_GENESIS_LAP_BOSS_09_01_EX_BOSS",
    "other_bid": "BUFF_GENESIS_LAP_BOSS_09_01_EX_OTHER",
    "lap_info": [
      {
        "round": 1,
        "reward_id": "GENESIS_REWARD_9_1_EB_01"
      },
      {
        "round": 2,
        "reward_id": "GENESIS_REWARD_9_1_EB_02"
      },
      {
        "round": 3,
        "reward_id": "GENESIS_REWARD_9_1_EB_01"
      },
      {
        "round": 4,
        "reward_id": "GENESIS_REWARD_9_1_EB_02"
      },
      {
        "round": 5,
        "reward_id": "GENESIS_REWARD_9_1_EB_03"
      },
      {
        "round": 6,
        "reward_id": "GENESIS_REWARD_9_1_EB_01"
      },
      {
        "round": 7,
        "reward_id": "GENESIS_REWARD_9_1_EB_04"
      },
      {
        "round": 8,
        "reward_id": "GENESIS_REWARD_9_1_EB_01"
      },
      {
        "round": 9,
        "reward_id": "GENESIS_REWARD_9_1_EB_04"
      },
      {
        "round": 10,
        "reward_id": "GENESIS_REWARD_9_1_EB_05"
      },
      {
        "round": 11,
        "reward_id": "GENESIS_REWARD_9_1_EB_06"
      },
      {
        "round": 12,
        "reward_id": "GENESIS_REWARD_9_1_EB_07"
      },
      {
        "round": 13,
        "reward_id": "GENESIS_REWARD_9_1_EB_06"
      },
      {
        "round": 14,
        "reward_id": "GENESIS_REWARD_9_1_EB_06"
      },
      {
        "round": 15,
        "reward_id": "GENESIS_REWARD_9_1_EB_06"
      },
      {
        "round": 16,
        "reward_id": "GENESIS_REWARD_9_1_EB_07"
      },
      {
        "round": 17,
        "reward_id": "GENESIS_REWARD_9_1_EB_06"
      },
      {
        "round": 18,
        "reward_id": "GENESIS_REWARD_9_1_EB_06"
      },
      {
        "round": 19,
        "reward_id": "GENESIS_REWARD_9_1_EB_06"
      },
      {
        "round": 20,
        "reward_id": "GENESIS_REWARD_9_1_EB_05"
      },
      {
        "round": 21,
        "reward_id": "GENESIS_REWARD_9_1_EB_08"
      },
      {
        "round": 22,
        "reward_id": "GENESIS_REWARD_9_1_EB_08"
      },
      {
        "round": 23,
        "reward_id": "GENESIS_REWARD_9_1_EB_08"
      },
      {
        "round": 24,
        "reward_id": "GENESIS_REWARD_9_1_EB_09"
      },
      {
        "round": 25,
        "reward_id": "GENESIS_REWARD_9_1_EB_10"
      },
      {
        "round": 26,
        "reward_id": "GENESIS_REWARD_9_1_EB_11"
      }
    ]
  },
  {
    "iname": "GENESIS_LAP_BOSS_09_02_EX",
    "round_buff_max": 50,
    "boss_bid": "BUFF_GENESIS_LAP_BOSS_09_02_EX_BOSS",
    "other_bid": "BUFF_GENESIS_LAP_BOSS_09_02_EX_OTHER",
    "lap_info": [
      {
        "round": 1,
        "reward_id": "GENESIS_REWARD_9_2_EB_01"
      },
      {
        "round": 2,
        "reward_id": "GENESIS_REWARD_9_2_EB_02"
      },
      {
        "round": 3,
        "reward_id": "GENESIS_REWARD_9_2_EB_01"
      },
      {
        "round": 4,
        "reward_id": "GENESIS_REWARD_9_2_EB_02"
      },
      {
        "round": 5,
        "reward_id": "GENESIS_REWARD_9_2_EB_03"
      },
      {
        "round": 6,
        "reward_id": "GENESIS_REWARD_9_2_EB_01"
      },
      {
        "round": 7,
        "reward_id": "GENESIS_REWARD_9_2_EB_04"
      },
      {
        "round": 8,
        "reward_id": "GENESIS_REWARD_9_2_EB_01"
      },
      {
        "round": 9,
        "reward_id": "GENESIS_REWARD_9_2_EB_04"
      },
      {
        "round": 10,
        "reward_id": "GENESIS_REWARD_9_2_EB_05"
      },
      {
        "round": 11,
        "reward_id": "GENESIS_REWARD_9_2_EB_06"
      },
      {
        "round": 12,
        "reward_id": "GENESIS_REWARD_9_2_EB_07"
      },
      {
        "round": 13,
        "reward_id": "GENESIS_REWARD_9_2_EB_06"
      },
      {
        "round": 14,
        "reward_id": "GENESIS_REWARD_9_2_EB_06"
      },
      {
        "round": 15,
        "reward_id": "GENESIS_REWARD_9_2_EB_06"
      },
      {
        "round": 16,
        "reward_id": "GENESIS_REWARD_9_2_EB_07"
      },
      {
        "round": 17,
        "reward_id": "GENESIS_REWARD_9_2_EB_06"
      },
      {
        "round": 18,
        "reward_id": "GENESIS_REWARD_9_2_EB_06"
      },
      {
        "round": 19,
        "reward_id": "GENESIS_REWARD_9_2_EB_06"
      },
      {
        "round": 20,
        "reward_id": "GENESIS_REWARD_9_2_EB_05"
      },
      {
        "round": 21,
        "reward_id": "GENESIS_REWARD_9_2_EB_08"
      },
      {
        "round": 22,
        "reward_id": "GENESIS_REWARD_9_2_EB_08"
      },
      {
        "round": 23,
        "reward_id": "GENESIS_REWARD_9_2_EB_08"
      },
      {
        "round": 24,
        "reward_id": "GENESIS_REWARD_9_2_EB_09"
      },
      {
        "round": 25,
        "reward_id": "GENESIS_REWARD_9_2_EB_10"
      },
      {
        "round": 26,
        "reward_id": "GENESIS_REWARD_9_2_EB_11"
      }
    ]
  },
  {
    "iname": "GENESIS_LAP_BOSS_09_03_EX",
    "round_buff_max": 50,
    "boss_bid": "BUFF_GENESIS_LAP_BOSS_09_03_EX_BOSS",
    "other_bid": "BUFF_GENESIS_LAP_BOSS_09_03_EX_OTHER",
    "lap_info": [
      {
        "round": 1,
        "reward_id": "GENESIS_REWARD_9_3_EB_01"
      },
      {
        "round": 2,
        "reward_id": "GENESIS_REWARD_9_3_EB_02"
      },
      {
        "round": 3,
        "reward_id": "GENESIS_REWARD_9_3_EB_01"
      },
      {
        "round": 4,
        "reward_id": "GENESIS_REWARD_9_3_EB_02"
      },
      {
        "round": 5,
        "reward_id": "GENESIS_REWARD_9_3_EB_03"
      },
      {
        "round": 6,
        "reward_id": "GENESIS_REWARD_9_3_EB_01"
      },
      {
        "round": 7,
        "reward_id": "GENESIS_REWARD_9_3_EB_04"
      },
      {
        "round": 8,
        "reward_id": "GENESIS_REWARD_9_3_EB_01"
      },
      {
        "round": 9,
        "reward_id": "GENESIS_REWARD_9_3_EB_04"
      },
      {
        "round": 10,
        "reward_id": "GENESIS_REWARD_9_3_EB_05"
      },
      {
        "round": 11,
        "reward_id": "GENESIS_REWARD_9_3_EB_06"
      },
      {
        "round": 12,
        "reward_id": "GENESIS_REWARD_9_3_EB_07"
      },
      {
        "round": 13,
        "reward_id": "GENESIS_REWARD_9_3_EB_06"
      },
      {
        "round": 14,
        "reward_id": "GENESIS_REWARD_9_3_EB_06"
      },
      {
        "round": 15,
        "reward_id": "GENESIS_REWARD_9_3_EB_06"
      },
      {
        "round": 16,
        "reward_id": "GENESIS_REWARD_9_3_EB_07"
      },
      {
        "round": 17,
        "reward_id": "GENESIS_REWARD_9_3_EB_06"
      },
      {
        "round": 18,
        "reward_id": "GENESIS_REWARD_9_3_EB_06"
      },
      {
        "round": 19,
        "reward_id": "GENESIS_REWARD_9_3_EB_06"
      },
      {
        "round": 20,
        "reward_id": "GENESIS_REWARD_9_3_EB_05"
      },
      {
        "round": 21,
        "reward_id": "GENESIS_REWARD_9_3_EB_08"
      },
      {
        "round": 22,
        "reward_id": "GENESIS_REWARD_9_3_EB_08"
      },
      {
        "round": 23,
        "reward_id": "GENESIS_REWARD_9_3_EB_08"
      },
      {
        "round": 24,
        "reward_id": "GENESIS_REWARD_9_3_EB_09"
      },
      {
        "round": 25,
        "reward_id": "GENESIS_REWARD_9_3_EB_10"
      },
      {
        "round": 26,
        "reward_id": "GENESIS_REWARD_9_3_EB_11"
      }
    ]
  }
]