[
  {
    "id": 4,
    "min_member_num": 15,
    "prepare_start_at": "2020/10/23 22:00:00",
    "begin_at": "2020/10/24",
    "end_at": "2020/10/30 23:59:59",
    "exit_at": "2020/11/02 23:59:59",
    "declaration_start_time": "12:30",
    "declaration_end_time": "19:59:59",
    "declaration_cool_minutes": 3,
    "battle_start_time": "21:00",
    "battle_cool_start_time": "21:15",
    "battle_cool_end_time": "21:20",
    "battle_end_time": "21:35",
    "declared_cool_minutes": 5,
    "battle_cool_seconds": 20,
    "declare_num": 3,
    "map_idx": 0,
    "matching_count_min": 3,
    "matching_count_max": 4,
    "first_occupy_node_num": 2,
    "defense_unit_min": 3,
    "url": "notice/detail/event/gvg_20201022",
    "url_title": "ポートバトルお知らせ",
    "rule_cycle": [
      "GVG_RULE_UNIT30"
    ]
  },
  {
    "id": 5,
    "min_member_num": 15,
    "prepare_start_at": "2020/11/25 23:59:59",
    "begin_at": "2020/11/26 2:00:00",
    "end_at": "2020/12/02 23:59:59",
    "exit_at": "2020/12/05 23:59:59",
    "declaration_start_time": "12:30",
    "declaration_end_time": "19:59:59",
    "declaration_cool_minutes": 3,
    "battle_start_time": "21:00",
    "battle_cool_start_time": "21:15",
    "battle_cool_end_time": "21:20",
    "battle_end_time": "21:35",
    "declared_cool_minutes": 5,
    "battle_cool_seconds": 20,
    "declare_num": 3,
    "map_idx": 0,
    "matching_count_min": 3,
    "matching_count_max": 4,
    "first_occupy_node_num": 2,
    "defense_unit_min": 3,
    "url": "notice/detail/event/gvg_20201119",
    "url_title": "ポートバトルお知らせ",
    "rule_cycle": [
      "GVG_RULE_UNIT30"
    ]
  },
  {
    "id": 6,
    "min_member_num": 15,
    "prepare_start_at": "2021/01/19 22:00:00",
    "begin_at": "2021/01/20",
    "end_at": "2021/01/26 23:59:59",
    "exit_at": "2021/01/30 23:59:59",
    "declaration_start_time": "12:30",
    "declaration_end_time": "19:59:59",
    "declaration_cool_minutes": 3,
    "battle_start_time": "21:00",
    "battle_cool_start_time": "21:15",
    "battle_cool_end_time": "21:20",
    "battle_end_time": "21:35",
    "declared_cool_minutes": 5,
    "battle_cool_seconds": 20,
    "declare_num": 3,
    "map_idx": 0,
    "matching_count_min": 3,
    "matching_count_max": 4,
    "first_occupy_node_num": 2,
    "defense_unit_min": 3,
    "url": "notice/detail/event/gvg_20210114",
    "url_title": "ポートバトルお知らせ",
    "rule_cycle": [
      "GVG_RULE_UNIT30"
    ]
  },
  {
    "id": 7,
    "min_member_num": 15,
    "prepare_start_at": "2021/02/21 22:00:00",
    "begin_at": "2021/02/22",
    "end_at": "2021/02/28 23:59:59",
    "exit_at": "2021/03/03 23:59:59",
    "declaration_start_time": "12:30",
    "declaration_end_time": "19:59:59",
    "declaration_cool_minutes": 3,
    "battle_start_time": "21:00",
    "battle_cool_start_time": "21:15",
    "battle_cool_end_time": "21:20",
    "battle_end_time": "21:35",
    "declared_cool_minutes": 5,
    "battle_cool_seconds": 20,
    "declare_num": 3,
    "map_idx": 0,
    "matching_count_min": 3,
    "matching_count_max": 4,
    "first_occupy_node_num": 2,
    "defense_unit_min": 3,
    "url": "notice/detail/event/gvg_20210218",
    "url_title": "ポートバトルお知らせ",
    "rule_cycle": [
      "GVG_RULE_UNIT30"
    ]
  },
  {
    "id": 8,
    "min_member_num": 15,
    "prepare_start_at": "2021/04/28 22:00:00",
    "begin_at": "2021/04/29",
    "end_at": "2021/05/05 23:59:59",
    "exit_at": "2021/05/08 23:59:59",
    "declaration_start_time": "12:30",
    "declaration_end_time": "19:59:59",
    "declaration_cool_minutes": 3,
    "battle_start_time": "21:00",
    "battle_cool_start_time": "21:15",
    "battle_cool_end_time": "21:20",
    "battle_end_time": "21:35",
    "declared_cool_minutes": 5,
    "battle_cool_seconds": 20,
    "declare_num": 3,
    "map_idx": 0,
    "matching_count_min": 3,
    "matching_count_max": 4,
    "first_occupy_node_num": 2,
    "defense_unit_min": 3,
    "url": "notice/detail/event/gvg_20210429",
    "url_title": "ポートバトルお知らせ",
    "rule_cycle": [
      "GVG_RULE_UNIT30"
    ]
  },
  {
    "id": 9,
    "min_member_num": 15,
    "prepare_start_at": "2021/08/23 22:00:00",
    "begin_at": "2021/08/24",
    "end_at": "2021/08/30 23:59:59",
    "exit_at": "2021/09/03 23:59:59",
    "declaration_start_time": "12:30",
    "declaration_end_time": "19:59:59",
    "declaration_cool_minutes": 3,
    "battle_start_time": "21:00",
    "battle_cool_start_time": "21:15",
    "battle_cool_end_time": "21:20",
    "battle_end_time": "21:35",
    "declared_cool_minutes": 5,
    "battle_cool_seconds": 20,
    "declare_num": 3,
    "map_idx": 0,
    "matching_count_min": 3,
    "matching_count_max": 4,
    "first_occupy_node_num": 2,
    "defense_unit_min": 3,
    "url": "notice/detail/event/gvg_20210819",
    "url_title": "ポートバトルお知らせ",
    "rule_cycle": [
      "GVG_RULE_UNIT30"
    ]
  },
  {
    "id": 10,
    "min_member_num": 15,
    "prepare_start_at": "2021/11/23 22:00:00",
    "begin_at": "2021/11/24",
    "end_at": "2021/11/30 23:59:59",
    "exit_at": "2021/12/03 23:59:59",
    "declaration_start_time": "12:30",
    "declaration_end_time": "19:59:59",
    "declaration_cool_minutes": 3,
    "battle_start_time": "21:00",
    "battle_cool_start_time": "21:15",
    "battle_cool_end_time": "21:20",
    "battle_end_time": "21:35",
    "declared_cool_minutes": 5,
    "battle_cool_seconds": 20,
    "declare_num": 3,
    "map_idx": 0,
    "matching_count_min": 3,
    "matching_count_max": 4,
    "first_occupy_node_num": 2,
    "defense_unit_min": 3,
    "url": "notice/detail/event/gvg_20211118",
    "url_title": "ポートバトルお知らせ",
    "rule_cycle": [
      "GVG_RULE_UNIT30"
    ]
  },
  {
    "id": 11,
    "min_member_num": 15,
    "prepare_start_at": "2022/04/22 22:00:00",
    "begin_at": "2022/04/23",
    "end_at": "2022/04/29 23:59:59",
    "exit_at": "2022/05/02 23:59:59",
    "declaration_start_time": "12:30",
    "declaration_end_time": "19:59:59",
    "declaration_cool_minutes": 3,
    "battle_start_time": "21:00",
    "battle_cool_start_time": "21:15",
    "battle_cool_end_time": "21:20",
    "battle_end_time": "21:35",
    "declared_cool_minutes": 5,
    "battle_cool_seconds": 20,
    "declare_num": 3,
    "map_idx": 0,
    "matching_count_min": 3,
    "matching_count_max": 4,
    "first_occupy_node_num": 2,
    "defense_unit_min": 3,
    "url": "notice/detail/event/gvg_20220421",
    "url_title": "ポートバトルお知らせ",
    "rule_cycle": [
      "GVG_RULE_UNIT30"
    ]
  },
  {
    "id": 12,
    "min_member_num": 15,
    "prepare_start_at": "2022/08/26 22:00:00",
    "begin_at": "2022/08/27",
    "end_at": "2022/08/31 23:59:59",
    "exit_at": "2022/09/03 23:59:59",
    "declaration_start_time": "12:30",
    "declaration_end_time": "19:59:59",
    "declaration_cool_minutes": 3,
    "battle_start_time": "21:00",
    "battle_cool_start_time": "21:15",
    "battle_cool_end_time": "21:20",
    "battle_end_time": "21:35",
    "declared_cool_minutes": 5,
    "battle_cool_seconds": 20,
    "declare_num": 2,
    "map_idx": 1,
    "matching_count_min": 3,
    "matching_count_max": 4,
    "first_occupy_node_num": 3,
    "defense_unit_min": 3,
    "url": "notice/detail/event/gvg_20220825",
    "url_title": "ポートバトルお知らせ",
    "rule_cycle": [
      "GVG_RULE_UNIT30"
    ]
  },
  {
    "id": 13,
    "min_member_num": 15,
    "prepare_start_at": "2022/11/23 22:00:00",
    "begin_at": "2022/11/24",
    "end_at": "2022/11/28 23:59:59",
    "exit_at": "2022/12/01 23:59:59",
    "declaration_start_time": "12:30",
    "declaration_end_time": "19:59:59",
    "declaration_cool_minutes": 3,
    "battle_start_time": "21:00",
    "battle_cool_start_time": "21:15",
    "battle_cool_end_time": "21:20",
    "battle_end_time": "21:35",
    "declared_cool_minutes": 5,
    "battle_cool_seconds": 20,
    "declare_num": 3,
    "map_idx": 1,
    "matching_count_min": 3,
    "matching_count_max": 4,
    "first_occupy_node_num": 3,
    "defense_unit_min": 3,
    "url": "notice/detail/event/gvg_20221124",
    "url_title": "ポートバトルお知らせ",
    "rule_cycle": [
      "GVG_RULE_UNIT30"
    ]
  },
  {
    "id": 14,
    "min_member_num": 15,
    "prepare_start_at": "2023/1/17 22:00:00",
    "begin_at": "2023/1/18",
    "end_at": "2023/1/22 23:59:59",
    "exit_at": "2023/1/25 23:59:59",
    "declaration_start_time": "12:30",
    "declaration_end_time": "19:59:59",
    "declaration_cool_minutes": 3,
    "battle_start_time": "21:00",
    "battle_cool_start_time": "21:15",
    "battle_cool_end_time": "21:20",
    "battle_end_time": "21:35",
    "declared_cool_minutes": 5,
    "battle_cool_seconds": 20,
    "declare_num": 3,
    "map_idx": 1,
    "matching_count_min": 3,
    "matching_count_max": 4,
    "first_occupy_node_num": 3,
    "defense_unit_min": 3,
    "url": "notice/detail/event/gvg_20230118",
    "url_title": "ポートバトルお知らせ",
    "rule_cycle": [
      "GVG_RULE_UNIT30"
    ]
  },
  {
    "id": 15,
    "min_member_num": 15,
    "prepare_start_at": "2023/3/24 22:00:00",
    "begin_at": "2023/3/25",
    "end_at": "2023/3/29 23:59:59",
    "exit_at": "2023/4/1 23:59:59",
    "declaration_start_time": "12:30",
    "declaration_end_time": "19:59:59",
    "declaration_cool_minutes": 3,
    "battle_start_time": "21:00",
    "battle_cool_start_time": "21:15",
    "battle_cool_end_time": "21:20",
    "battle_end_time": "21:35",
    "declared_cool_minutes": 5,
    "battle_cool_seconds": 20,
    "declare_num": 3,
    "map_idx": 1,
    "matching_count_min": 3,
    "matching_count_max": 4,
    "first_occupy_node_num": 3,
    "defense_unit_min": 3,
    "url": "notice/detail/event/gvg_20230323",
    "url_title": "ポートバトルお知らせ",
    "rule_cycle": [
      "GVG_RULE_UNIT30"
    ]
  },
  {
    "id": 16,
    "min_member_num": 15,
    "prepare_start_at": "2023/5/25 22:00:00",
    "begin_at": "2023/5/26",
    "end_at": "2023/5/30 23:59:59",
    "exit_at": "2023/6/2 23:59:59",
    "declaration_start_time": "12:30",
    "declaration_end_time": "19:59:59",
    "declaration_cool_minutes": 3,
    "battle_start_time": "21:00",
    "battle_cool_start_time": "21:15",
    "battle_cool_end_time": "21:20",
    "battle_end_time": "21:35",
    "declared_cool_minutes": 5,
    "battle_cool_seconds": 20,
    "declare_num": 3,
    "map_idx": 1,
    "matching_count_min": 3,
    "matching_count_max": 4,
    "first_occupy_node_num": 3,
    "defense_unit_min": 3,
    "url": "notice/detail/event/gvg_20230526",
    "url_title": "ポートバトルお知らせ",
    "rule_cycle": [
      "GVG_RULE_UNIT30"
    ]
  },
  {
    "id": 17,
    "min_member_num": 15,
    "prepare_start_at": "2023/8/24 22:00:00",
    "begin_at": "2023/8/25",
    "end_at": "2023/8/29 23:59:59",
    "exit_at": "2023/9/1 23:59:59",
    "declaration_start_time": "12:30",
    "declaration_end_time": "19:59:59",
    "declaration_cool_minutes": 3,
    "battle_start_time": "21:00",
    "battle_cool_start_time": "21:15",
    "battle_cool_end_time": "21:20",
    "battle_end_time": "21:35",
    "declared_cool_minutes": 5,
    "battle_cool_seconds": 20,
    "declare_num": 3,
    "map_idx": 1,
    "matching_count_min": 3,
    "matching_count_max": 4,
    "first_occupy_node_num": 3,
    "defense_unit_min": 3,
    "url": "notice/detail/event/gvg_20230824",
    "url_title": "ポートバトルお知らせ",
    "rule_cycle": [
      "GVG_RULE_UNIT30"
    ]
  },
  {
    "id": 18,
    "min_member_num": 15,
    "prepare_start_at": "2023/10/20 22:00:00",
    "begin_at": "2023/10/21",
    "end_at": "2023/10/25 23:59:59",
    "exit_at": "2023/10/28 23:59:59",
    "declaration_start_time": "12:30",
    "declaration_end_time": "19:59:59",
    "declaration_cool_minutes": 3,
    "battle_start_time": "21:00",
    "battle_cool_start_time": "21:15",
    "battle_cool_end_time": "21:20",
    "battle_end_time": "21:35",
    "declared_cool_minutes": 5,
    "battle_cool_seconds": 20,
    "declare_num": 3,
    "map_idx": 1,
    "matching_count_min": 3,
    "matching_count_max": 4,
    "first_occupy_node_num": 3,
    "defense_unit_min": 3,
    "url": "notice/detail/event/gvg_20231016",
    "url_title": "ポートバトルお知らせ",
    "rule_cycle": [
      "GVG_RULE_UNIT30"
    ]
  },
  {
    "id": 19,
    "min_member_num": 15,
    "prepare_start_at": "2023/12/22 22:00:00",
    "begin_at": "2023/12/23",
    "end_at": "2023/12/27 23:59:59",
    "exit_at": "2023/12/30 23:59:59",
    "declaration_start_time": "12:30",
    "declaration_end_time": "19:59:59",
    "declaration_cool_minutes": 3,
    "battle_start_time": "21:00",
    "battle_cool_start_time": "21:15",
    "battle_cool_end_time": "21:20",
    "battle_end_time": "21:35",
    "declared_cool_minutes": 5,
    "battle_cool_seconds": 20,
    "declare_num": 3,
    "map_idx": 1,
    "matching_count_min": 3,
    "matching_count_max": 4,
    "first_occupy_node_num": 3,
    "defense_unit_min": 3,
    "url": "notice/detail/event/gvg_20231221",
    "url_title": "ポートバトルお知らせ",
    "rule_cycle": [
      "GVG_RULE_UNIT30"
    ]
  },
  {
    "id": 20,
    "min_member_num": 15,
    "prepare_start_at": "2024/2/23 22:00:00",
    "begin_at": "2024/2/24",
    "end_at": "2024/2/28 23:59:59",
    "exit_at": "2024/3/2 23:59:59",
    "declaration_start_time": "12:30",
    "declaration_end_time": "19:59:59",
    "declaration_cool_minutes": 3,
    "battle_start_time": "21:00",
    "battle_cool_start_time": "21:15",
    "battle_cool_end_time": "21:20",
    "battle_end_time": "21:35",
    "declared_cool_minutes": 5,
    "battle_cool_seconds": 20,
    "declare_num": 3,
    "map_idx": 1,
    "matching_count_min": 3,
    "matching_count_max": 4,
    "first_occupy_node_num": 3,
    "defense_unit_min": 3,
    "url": "notice/detail/event/gvg_20240222",
    "url_title": "ポートバトルお知らせ",
    "rule_cycle": [
      "GVG_RULE_UNIT30"
    ]
  },
  {
    "id": 21,
    "min_member_num": 15,
    "prepare_start_at": "2024/4/25 22:00:00",
    "begin_at": "2024/4/26",
    "end_at": "2024/4/30 23:59:59",
    "exit_at": "2024/5/3 23:59:59",
    "declaration_start_time": "12:30",
    "declaration_end_time": "19:59:59",
    "declaration_cool_minutes": 3,
    "battle_start_time": "21:00",
    "battle_cool_start_time": "21:15",
    "battle_cool_end_time": "21:20",
    "battle_end_time": "21:35",
    "declared_cool_minutes": 5,
    "battle_cool_seconds": 20,
    "declare_num": 3,
    "map_idx": 1,
    "matching_count_min": 3,
    "matching_count_max": 4,
    "first_occupy_node_num": 3,
    "defense_unit_min": 3,
    "url": "notice/detail/event/gvg_20240418",
    "url_title": "ポートバトルお知らせ",
    "rule_cycle": [
      "GVG_RULE_UNIT30"
    ]
  },
  {
    "id": 22,
    "min_member_num": 15,
    "prepare_start_at": "2024/6/21 22:00:00",
    "begin_at": "2024/6/22",
    "end_at": "2024/6/26 23:59:59",
    "exit_at": "2024/6/29 23:59:59",
    "declaration_start_time": "12:30",
    "declaration_end_time": "19:59:59",
    "declaration_cool_minutes": 3,
    "battle_start_time": "21:00",
    "battle_cool_start_time": "21:15",
    "battle_cool_end_time": "21:20",
    "battle_end_time": "21:35",
    "declared_cool_minutes": 5,
    "battle_cool_seconds": 20,
    "declare_num": 3,
    "map_idx": 1,
    "matching_count_min": 3,
    "matching_count_max": 4,
    "first_occupy_node_num": 3,
    "defense_unit_min": 3,
    "url": "notice/detail/event/gvg_20240620",
    "url_title": "ポートバトルお知らせ",
    "rule_cycle": [
      "GVG_RULE_UNIT30"
    ]
  },
  {
    "id": 23,
    "min_member_num": 15,
    "prepare_start_at": "2024/8/23 22:00:00",
    "begin_at": "2024/8/24",
    "end_at": "2024/8/28 23:59:59",
    "exit_at": "2024/8/31 23:59:59",
    "declaration_start_time": "12:30",
    "declaration_end_time": "19:59:59",
    "declaration_cool_minutes": 3,
    "battle_start_time": "21:00",
    "battle_cool_start_time": "21:15",
    "battle_cool_end_time": "21:20",
    "battle_end_time": "21:35",
    "declared_cool_minutes": 5,
    "battle_cool_seconds": 20,
    "declare_num": 3,
    "map_idx": 1,
    "matching_count_min": 3,
    "matching_count_max": 4,
    "first_occupy_node_num": 3,
    "defense_unit_min": 3,
    "url": "notice/detail/event/gvg_20240822",
    "url_title": "ポートバトルお知らせ",
    "rule_cycle": [
      "GVG_RULE_UNIT30"
    ]
  },
  {
    "id": 24,
    "min_member_num": 15,
    "prepare_start_at": "2024/10/25 22:00:00",
    "begin_at": "2024/10/26",
    "end_at": "2024/10/30 23:59:59",
    "exit_at": "2024/11/2 23:59:59",
    "declaration_start_time": "12:30",
    "declaration_end_time": "19:59:59",
    "declaration_cool_minutes": 3,
    "battle_start_time": "21:00",
    "battle_cool_start_time": "21:15",
    "battle_cool_end_time": "21:20",
    "battle_end_time": "21:35",
    "declared_cool_minutes": 5,
    "battle_cool_seconds": 20,
    "declare_num": 3,
    "map_idx": 1,
    "matching_count_min": 3,
    "matching_count_max": 4,
    "first_occupy_node_num": 3,
    "defense_unit_min": 3,
    "url": "notice/detail/event/gvg_20241024",
    "url_title": "ポートバトルお知らせ",
    "rule_cycle": [
      "GVG_RULE_UNIT30"
    ]
  }
]