[
  {
    "id": "GVG_RWD_NODE_01",
    "rewards": [
      {
        "item_type": 0,
        "item_iname": "IT_EVENT_PORT_COIN_XMAS",
        "item_num": 250
      }
    ]
  },
  {
    "id": "GVG_RWD_NODE_02",
    "rewards": [
      {
        "item_type": 0,
        "item_iname": "IT_EVENT_PORT_COIN_XMAS",
        "item_num": 50
      }
    ]
  },
  {
    "id": "GVG_RWD_NODE_03",
    "rewards": [
      {
        "item_type": 0,
        "item_iname": "IT_EVENT_PORT_COIN_XMAS",
        "item_num": 10
      }
    ]
  },
  {
    "id": "GVG_RWD_RANKING_01",
    "rewards": [
      {
        "item_type": 0,
        "item_iname": "IT_EVENT_PORT_COIN_XMAS",
        "item_num": 5000
      },
      {
        "item_type": 0,
        "item_iname": "IT_CV_GOLD4",
        "item_num": 500
      }
    ]
  },
  {
    "id": "GVG_RWD_RANKING_02",
    "rewards": [
      {
        "item_type": 0,
        "item_iname": "IT_EVENT_PORT_COIN_XMAS",
        "item_num": 3000
      },
      {
        "item_type": 0,
        "item_iname": "IT_CV_GOLD4",
        "item_num": 300
      }
    ]
  },
  {
    "id": "GVG_RWD_RANKING_03",
    "rewards": [
      {
        "item_type": 0,
        "item_iname": "IT_EVENT_PORT_COIN_XMAS",
        "item_num": 1000
      },
      {
        "item_type": 0,
        "item_iname": "IT_CV_GOLD4",
        "item_num": 100
      }
    ]
  },
  {
    "id": "GVG_RWD_RANKING_04",
    "rewards": [
      {
        "item_type": 0,
        "item_iname": "IT_EVENT_PORT_COIN_XMAS",
        "item_num": 500
      },
      {
        "item_type": 0,
        "item_iname": "IT_CV_GOLD4",
        "item_num": 50
      }
    ]
  },
  {
    "id": "GVG_RWD_LEG_01_NODE_01_SEASON_01",
    "rewards": [
      {
        "item_type": 0,
        "item_iname": "IT_EVENT_PORT_COIN_XMAS",
        "item_num": 10
      }
    ]
  },
  {
    "id": "GVG_RWD_LEG_02_NODE_01_SEASON_01",
    "rewards": [
      {
        "item_type": 0,
        "item_iname": "IT_EVENT_PORT_COIN_XMAS",
        "item_num": 10
      }
    ]
  },
  {
    "id": "GVG_RWD_LEG_03_NODE_01_SEASON_01",
    "rewards": [
      {
        "item_type": 0,
        "item_iname": "IT_EVENT_PORT_COIN_XMAS",
        "item_num": 10
      }
    ]
  },
  {
    "id": "GVG_RWD_DIA_01_NODE_01_SEASON_01",
    "rewards": [
      {
        "item_type": 0,
        "item_iname": "IT_EVENT_PORT_COIN_XMAS",
        "item_num": 10
      }
    ]
  },
  {
    "id": "GVG_RWD_DIA_02_NODE_01_SEASON_01",
    "rewards": [
      {
        "item_type": 0,
        "item_iname": "IT_EVENT_PORT_COIN_XMAS",
        "item_num": 10
      }
    ]
  },
  {
    "id": "GVG_RWD_DIA_03_NODE_01_SEASON_01",
    "rewards": [
      {
        "item_type": 0,
        "item_iname": "IT_EVENT_PORT_COIN_XMAS",
        "item_num": 10
      }
    ]
  },
  {
    "id": "GVG_RWD_GOL_01_NODE_01_SEASON_01",
    "rewards": [
      {
        "item_type": 0,
        "item_iname": "IT_EVENT_PORT_COIN_XMAS",
        "item_num": 10
      }
    ]
  },
  {
    "id": "GVG_RWD_GOL_02_NODE_01_SEASON_01",
    "rewards": [
      {
        "item_type": 0,
        "item_iname": "IT_EVENT_PORT_COIN_XMAS",
        "item_num": 10
      }
    ]
  },
  {
    "id": "GVG_RWD_GOL_03_NODE_01_SEASON_01",
    "rewards": [
      {
        "item_type": 0,
        "item_iname": "IT_EVENT_PORT_COIN_XMAS",
        "item_num": 10
      }
    ]
  },
  {
    "id": "GVG_RWD_SIL_01_NODE_01_SEASON_01",
    "rewards": [
      {
        "item_type": 0,
        "item_iname": "IT_EVENT_PORT_COIN_XMAS",
        "item_num": 10
      }
    ]
  },
  {
    "id": "GVG_RWD_SIL_02_NODE_01_SEASON_01",
    "rewards": [
      {
        "item_type": 0,
        "item_iname": "IT_EVENT_PORT_COIN_XMAS",
        "item_num": 10
      }
    ]
  },
  {
    "id": "GVG_RWD_SIL_03_NODE_01_SEASON_01",
    "rewards": [
      {
        "item_type": 0,
        "item_iname": "IT_EVENT_PORT_COIN_XMAS",
        "item_num": 10
      }
    ]
  },
  {
    "id": "GVG_RWD_BRN_01_NODE_01_SEASON_01",
    "rewards": [
      {
        "item_type": 0,
        "item_iname": "IT_EVENT_PORT_COIN_XMAS",
        "item_num": 10
      }
    ]
  },
  {
    "id": "GVG_RWD_LEG_01_NODE_02_SEASON_01",
    "rewards": [
      {
        "item_type": 0,
        "item_iname": "IT_EVENT_PORT_COIN_XMAS",
        "item_num": 50
      }
    ]
  },
  {
    "id": "GVG_RWD_LEG_02_NODE_02_SEASON_01",
    "rewards": [
      {
        "item_type": 0,
        "item_iname": "IT_EVENT_PORT_COIN_XMAS",
        "item_num": 50
      }
    ]
  },
  {
    "id": "GVG_RWD_LEG_03_NODE_02_SEASON_01",
    "rewards": [
      {
        "item_type": 0,
        "item_iname": "IT_EVENT_PORT_COIN_XMAS",
        "item_num": 50
      }
    ]
  },
  {
    "id": "GVG_RWD_DIA_01_NODE_02_SEASON_01",
    "rewards": [
      {
        "item_type": 0,
        "item_iname": "IT_EVENT_PORT_COIN_XMAS",
        "item_num": 50
      }
    ]
  },
  {
    "id": "GVG_RWD_DIA_02_NODE_02_SEASON_01",
    "rewards": [
      {
        "item_type": 0,
        "item_iname": "IT_EVENT_PORT_COIN_XMAS",
        "item_num": 50
      }
    ]
  },
  {
    "id": "GVG_RWD_DIA_03_NODE_02_SEASON_01",
    "rewards": [
      {
        "item_type": 0,
        "item_iname": "IT_EVENT_PORT_COIN_XMAS",
        "item_num": 50
      }
    ]
  },
  {
    "id": "GVG_RWD_GOL_01_NODE_02_SEASON_01",
    "rewards": [
      {
        "item_type": 0,
        "item_iname": "IT_EVENT_PORT_COIN_XMAS",
        "item_num": 50
      }
    ]
  },
  {
    "id": "GVG_RWD_GOL_02_NODE_02_SEASON_01",
    "rewards": [
      {
        "item_type": 0,
        "item_iname": "IT_EVENT_PORT_COIN_XMAS",
        "item_num": 50
      }
    ]
  },
  {
    "id": "GVG_RWD_GOL_03_NODE_02_SEASON_01",
    "rewards": [
      {
        "item_type": 0,
        "item_iname": "IT_EVENT_PORT_COIN_XMAS",
        "item_num": 50
      }
    ]
  },
  {
    "id": "GVG_RWD_SIL_01_NODE_02_SEASON_01",
    "rewards": [
      {
        "item_type": 0,
        "item_iname": "IT_EVENT_PORT_COIN_XMAS",
        "item_num": 50
      }
    ]
  },
  {
    "id": "GVG_RWD_SIL_02_NODE_02_SEASON_01",
    "rewards": [
      {
        "item_type": 0,
        "item_iname": "IT_EVENT_PORT_COIN_XMAS",
        "item_num": 50
      }
    ]
  },
  {
    "id": "GVG_RWD_SIL_03_NODE_02_SEASON_01",
    "rewards": [
      {
        "item_type": 0,
        "item_iname": "IT_EVENT_PORT_COIN_XMAS",
        "item_num": 50
      }
    ]
  },
  {
    "id": "GVG_RWD_BRN_01_NODE_02_SEASON_01",
    "rewards": [
      {
        "item_type": 0,
        "item_iname": "IT_EVENT_PORT_COIN_XMAS",
        "item_num": 50
      }
    ]
  },
  {
    "id": "GVG_RWD_LEG_01_NODE_03_SEASON_01",
    "rewards": [
      {
        "item_type": 0,
        "item_iname": "IT_EVENT_PORT_COIN_XMAS",
        "item_num": 250
      }
    ]
  },
  {
    "id": "GVG_RWD_LEG_02_NODE_03_SEASON_01",
    "rewards": [
      {
        "item_type": 0,
        "item_iname": "IT_EVENT_PORT_COIN_XMAS",
        "item_num": 250
      }
    ]
  },
  {
    "id": "GVG_RWD_LEG_03_NODE_03_SEASON_01",
    "rewards": [
      {
        "item_type": 0,
        "item_iname": "IT_EVENT_PORT_COIN_XMAS",
        "item_num": 250
      }
    ]
  },
  {
    "id": "GVG_RWD_DIA_01_NODE_03_SEASON_01",
    "rewards": [
      {
        "item_type": 0,
        "item_iname": "IT_EVENT_PORT_COIN_XMAS",
        "item_num": 250
      }
    ]
  },
  {
    "id": "GVG_RWD_DIA_02_NODE_03_SEASON_01",
    "rewards": [
      {
        "item_type": 0,
        "item_iname": "IT_EVENT_PORT_COIN_XMAS",
        "item_num": 250
      }
    ]
  },
  {
    "id": "GVG_RWD_DIA_03_NODE_03_SEASON_01",
    "rewards": [
      {
        "item_type": 0,
        "item_iname": "IT_EVENT_PORT_COIN_XMAS",
        "item_num": 250
      }
    ]
  },
  {
    "id": "GVG_RWD_GOL_01_NODE_03_SEASON_01",
    "rewards": [
      {
        "item_type": 0,
        "item_iname": "IT_EVENT_PORT_COIN_XMAS",
        "item_num": 250
      }
    ]
  },
  {
    "id": "GVG_RWD_GOL_02_NODE_03_SEASON_01",
    "rewards": [
      {
        "item_type": 0,
        "item_iname": "IT_EVENT_PORT_COIN_XMAS",
        "item_num": 250
      }
    ]
  },
  {
    "id": "GVG_RWD_GOL_03_NODE_03_SEASON_01",
    "rewards": [
      {
        "item_type": 0,
        "item_iname": "IT_EVENT_PORT_COIN_XMAS",
        "item_num": 250
      }
    ]
  },
  {
    "id": "GVG_RWD_SIL_01_NODE_03_SEASON_01",
    "rewards": [
      {
        "item_type": 0,
        "item_iname": "IT_EVENT_PORT_COIN_XMAS",
        "item_num": 250
      }
    ]
  },
  {
    "id": "GVG_RWD_SIL_02_NODE_03_SEASON_01",
    "rewards": [
      {
        "item_type": 0,
        "item_iname": "IT_EVENT_PORT_COIN_XMAS",
        "item_num": 250
      }
    ]
  },
  {
    "id": "GVG_RWD_SIL_03_NODE_03_SEASON_01",
    "rewards": [
      {
        "item_type": 0,
        "item_iname": "IT_EVENT_PORT_COIN_XMAS",
        "item_num": 250
      }
    ]
  },
  {
    "id": "GVG_RWD_BRN_01_NODE_03_SEASON_01",
    "rewards": [
      {
        "item_type": 0,
        "item_iname": "IT_EVENT_PORT_COIN_XMAS",
        "item_num": 250
      }
    ]
  },
  {
    "id": "GVG_RWD_LEG_01_SEASON_01_1st",
    "rewards": [
      {
        "item_type": 0,
        "item_iname": "IT_EVENT_PORT_COIN_XMAS",
        "item_num": 10000
      },
      {
        "item_type": 2,
        "item_num": 2500
      },
      {
        "item_type": 0,
        "item_iname": "IT_PI_COMMON_ALL",
        "item_num": 100
      }
    ]
  },
  {
    "id": "GVG_RWD_LEG_01_SEASON_01_2nd",
    "rewards": [
      {
        "item_type": 0,
        "item_iname": "IT_EVENT_PORT_COIN_XMAS",
        "item_num": 9500
      },
      {
        "item_type": 2,
        "item_num": 2500
      },
      {
        "item_type": 0,
        "item_iname": "IT_PI_COMMON_ALL",
        "item_num": 100
      }
    ]
  },
  {
    "id": "GVG_RWD_LEG_01_SEASON_01_3rd",
    "rewards": [
      {
        "item_type": 0,
        "item_iname": "IT_EVENT_PORT_COIN_XMAS",
        "item_num": 9000
      },
      {
        "item_type": 2,
        "item_num": 2500
      },
      {
        "item_type": 0,
        "item_iname": "IT_PI_COMMON_ALL",
        "item_num": 100
      }
    ]
  },
  {
    "id": "GVG_RWD_LEG_01_SEASON_01_4th",
    "rewards": [
      {
        "item_type": 0,
        "item_iname": "IT_EVENT_PORT_COIN_XMAS",
        "item_num": 8500
      },
      {
        "item_type": 2,
        "item_num": 2500
      },
      {
        "item_type": 0,
        "item_iname": "IT_PI_COMMON_ALL",
        "item_num": 100
      }
    ]
  },
  {
    "id": "GVG_RWD_LEG_02_SEASON_01_1st",
    "rewards": [
      {
        "item_type": 0,
        "item_iname": "IT_EVENT_PORT_COIN_XMAS",
        "item_num": 10000
      },
      {
        "item_type": 2,
        "item_num": 2500
      },
      {
        "item_type": 0,
        "item_iname": "IT_PI_COMMON_ALL",
        "item_num": 110
      }
    ]
  },
  {
    "id": "GVG_RWD_LEG_02_SEASON_01_2nd",
    "rewards": [
      {
        "item_type": 0,
        "item_iname": "IT_EVENT_PORT_COIN_XMAS",
        "item_num": 9500
      },
      {
        "item_type": 2,
        "item_num": 2500
      },
      {
        "item_type": 0,
        "item_iname": "IT_PI_COMMON_ALL",
        "item_num": 110
      }
    ]
  },
  {
    "id": "GVG_RWD_LEG_02_SEASON_01_3rd",
    "rewards": [
      {
        "item_type": 0,
        "item_iname": "IT_EVENT_PORT_COIN_XMAS",
        "item_num": 9000
      },
      {
        "item_type": 2,
        "item_num": 2500
      },
      {
        "item_type": 0,
        "item_iname": "IT_PI_COMMON_ALL",
        "item_num": 110
      }
    ]
  },
  {
    "id": "GVG_RWD_LEG_02_SEASON_01_4th",
    "rewards": [
      {
        "item_type": 0,
        "item_iname": "IT_EVENT_PORT_COIN_XMAS",
        "item_num": 8500
      },
      {
        "item_type": 2,
        "item_num": 2500
      },
      {
        "item_type": 0,
        "item_iname": "IT_PI_COMMON_ALL",
        "item_num": 110
      }
    ]
  },
  {
    "id": "GVG_RWD_LEG_03_SEASON_01_1st",
    "rewards": [
      {
        "item_type": 0,
        "item_iname": "IT_EVENT_PORT_COIN_XMAS",
        "item_num": 10000
      },
      {
        "item_type": 2,
        "item_num": 2500
      },
      {
        "item_type": 0,
        "item_iname": "IT_PI_COMMON_ALL",
        "item_num": 120
      }
    ]
  },
  {
    "id": "GVG_RWD_LEG_03_SEASON_01_2nd",
    "rewards": [
      {
        "item_type": 0,
        "item_iname": "IT_EVENT_PORT_COIN_XMAS",
        "item_num": 9500
      },
      {
        "item_type": 2,
        "item_num": 2500
      },
      {
        "item_type": 0,
        "item_iname": "IT_PI_COMMON_ALL",
        "item_num": 120
      }
    ]
  },
  {
    "id": "GVG_RWD_LEG_03_SEASON_01_3rd",
    "rewards": [
      {
        "item_type": 0,
        "item_iname": "IT_EVENT_PORT_COIN_XMAS",
        "item_num": 9000
      },
      {
        "item_type": 2,
        "item_num": 2500
      },
      {
        "item_type": 0,
        "item_iname": "IT_PI_COMMON_ALL",
        "item_num": 120
      }
    ]
  },
  {
    "id": "GVG_RWD_LEG_03_SEASON_01_4th",
    "rewards": [
      {
        "item_type": 0,
        "item_iname": "IT_EVENT_PORT_COIN_XMAS",
        "item_num": 8500
      },
      {
        "item_type": 2,
        "item_num": 2500
      },
      {
        "item_type": 0,
        "item_iname": "IT_PI_COMMON_ALL",
        "item_num": 120
      }
    ]
  },
  {
    "id": "GVG_RWD_DIA_01_SEASON_01_1st",
    "rewards": [
      {
        "item_type": 0,
        "item_iname": "IT_EVENT_PORT_COIN_XMAS",
        "item_num": 8000
      },
      {
        "item_type": 2,
        "item_num": 2000
      },
      {
        "item_type": 0,
        "item_iname": "IT_PI_COMMON_ALL",
        "item_num": 90
      }
    ]
  },
  {
    "id": "GVG_RWD_DIA_01_SEASON_01_2nd",
    "rewards": [
      {
        "item_type": 0,
        "item_iname": "IT_EVENT_PORT_COIN_XMAS",
        "item_num": 7500
      },
      {
        "item_type": 2,
        "item_num": 2000
      },
      {
        "item_type": 0,
        "item_iname": "IT_PI_COMMON_ALL",
        "item_num": 90
      }
    ]
  },
  {
    "id": "GVG_RWD_DIA_01_SEASON_01_3rd",
    "rewards": [
      {
        "item_type": 0,
        "item_iname": "IT_EVENT_PORT_COIN_XMAS",
        "item_num": 7000
      },
      {
        "item_type": 2,
        "item_num": 2000
      },
      {
        "item_type": 0,
        "item_iname": "IT_PI_COMMON_ALL",
        "item_num": 90
      }
    ]
  },
  {
    "id": "GVG_RWD_DIA_01_SEASON_01_4th",
    "rewards": [
      {
        "item_type": 0,
        "item_iname": "IT_EVENT_PORT_COIN_XMAS",
        "item_num": 6500
      },
      {
        "item_type": 2,
        "item_num": 2000
      },
      {
        "item_type": 0,
        "item_iname": "IT_PI_COMMON_ALL",
        "item_num": 90
      }
    ]
  },
  {
    "id": "GVG_RWD_DIA_02_SEASON_01_1st",
    "rewards": [
      {
        "item_type": 0,
        "item_iname": "IT_EVENT_PORT_COIN_XMAS",
        "item_num": 8000
      },
      {
        "item_type": 2,
        "item_num": 2000
      },
      {
        "item_type": 0,
        "item_iname": "IT_PI_COMMON_ALL",
        "item_num": 80
      }
    ]
  },
  {
    "id": "GVG_RWD_DIA_02_SEASON_01_2nd",
    "rewards": [
      {
        "item_type": 0,
        "item_iname": "IT_EVENT_PORT_COIN_XMAS",
        "item_num": 7500
      },
      {
        "item_type": 2,
        "item_num": 2000
      },
      {
        "item_type": 0,
        "item_iname": "IT_PI_COMMON_ALL",
        "item_num": 80
      }
    ]
  },
  {
    "id": "GVG_RWD_DIA_02_SEASON_01_3rd",
    "rewards": [
      {
        "item_type": 0,
        "item_iname": "IT_EVENT_PORT_COIN_XMAS",
        "item_num": 7000
      },
      {
        "item_type": 2,
        "item_num": 2000
      },
      {
        "item_type": 0,
        "item_iname": "IT_PI_COMMON_ALL",
        "item_num": 80
      }
    ]
  },
  {
    "id": "GVG_RWD_DIA_02_SEASON_01_4th",
    "rewards": [
      {
        "item_type": 0,
        "item_iname": "IT_EVENT_PORT_COIN_XMAS",
        "item_num": 6500
      },
      {
        "item_type": 2,
        "item_num": 2000
      },
      {
        "item_type": 0,
        "item_iname": "IT_PI_COMMON_ALL",
        "item_num": 80
      }
    ]
  },
  {
    "id": "GVG_RWD_DIA_03_SEASON_01_1st",
    "rewards": [
      {
        "item_type": 0,
        "item_iname": "IT_EVENT_PORT_COIN_XMAS",
        "item_num": 8000
      },
      {
        "item_type": 2,
        "item_num": 2000
      },
      {
        "item_type": 0,
        "item_iname": "IT_PI_COMMON_ALL",
        "item_num": 70
      }
    ]
  },
  {
    "id": "GVG_RWD_DIA_03_SEASON_01_2nd",
    "rewards": [
      {
        "item_type": 0,
        "item_iname": "IT_EVENT_PORT_COIN_XMAS",
        "item_num": 7500
      },
      {
        "item_type": 2,
        "item_num": 2000
      },
      {
        "item_type": 0,
        "item_iname": "IT_PI_COMMON_ALL",
        "item_num": 70
      }
    ]
  },
  {
    "id": "GVG_RWD_DIA_03_SEASON_01_3rd",
    "rewards": [
      {
        "item_type": 0,
        "item_iname": "IT_EVENT_PORT_COIN_XMAS",
        "item_num": 7000
      },
      {
        "item_type": 2,
        "item_num": 2000
      },
      {
        "item_type": 0,
        "item_iname": "IT_PI_COMMON_ALL",
        "item_num": 70
      }
    ]
  },
  {
    "id": "GVG_RWD_DIA_03_SEASON_01_4th",
    "rewards": [
      {
        "item_type": 0,
        "item_iname": "IT_EVENT_PORT_COIN_XMAS",
        "item_num": 6500
      },
      {
        "item_type": 2,
        "item_num": 2000
      },
      {
        "item_type": 0,
        "item_iname": "IT_PI_COMMON_ALL",
        "item_num": 70
      }
    ]
  },
  {
    "id": "GVG_RWD_GOL_01_SEASON_01_1st",
    "rewards": [
      {
        "item_type": 0,
        "item_iname": "IT_EVENT_PORT_COIN_XMAS",
        "item_num": 6000
      },
      {
        "item_type": 2,
        "item_num": 1500
      },
      {
        "item_type": 0,
        "item_iname": "IT_PI_COMMON_ALL",
        "item_num": 60
      }
    ]
  },
  {
    "id": "GVG_RWD_GOL_01_SEASON_01_2nd",
    "rewards": [
      {
        "item_type": 0,
        "item_iname": "IT_EVENT_PORT_COIN_XMAS",
        "item_num": 5500
      },
      {
        "item_type": 2,
        "item_num": 1500
      },
      {
        "item_type": 0,
        "item_iname": "IT_PI_COMMON_ALL",
        "item_num": 60
      }
    ]
  },
  {
    "id": "GVG_RWD_GOL_01_SEASON_01_3rd",
    "rewards": [
      {
        "item_type": 0,
        "item_iname": "IT_EVENT_PORT_COIN_XMAS",
        "item_num": 5000
      },
      {
        "item_type": 2,
        "item_num": 1500
      },
      {
        "item_type": 0,
        "item_iname": "IT_PI_COMMON_ALL",
        "item_num": 60
      }
    ]
  },
  {
    "id": "GVG_RWD_GOL_01_SEASON_01_4th",
    "rewards": [
      {
        "item_type": 0,
        "item_iname": "IT_EVENT_PORT_COIN_XMAS",
        "item_num": 4500
      },
      {
        "item_type": 2,
        "item_num": 1500
      },
      {
        "item_type": 0,
        "item_iname": "IT_PI_COMMON_ALL",
        "item_num": 60
      }
    ]
  },
  {
    "id": "GVG_RWD_GOL_02_SEASON_01_1st",
    "rewards": [
      {
        "item_type": 0,
        "item_iname": "IT_EVENT_PORT_COIN_XMAS",
        "item_num": 6000
      },
      {
        "item_type": 2,
        "item_num": 1500
      },
      {
        "item_type": 0,
        "item_iname": "IT_PI_COMMON_ALL",
        "item_num": 55
      }
    ]
  },
  {
    "id": "GVG_RWD_GOL_02_SEASON_01_2nd",
    "rewards": [
      {
        "item_type": 0,
        "item_iname": "IT_EVENT_PORT_COIN_XMAS",
        "item_num": 5500
      },
      {
        "item_type": 2,
        "item_num": 1500
      },
      {
        "item_type": 0,
        "item_iname": "IT_PI_COMMON_ALL",
        "item_num": 55
      }
    ]
  },
  {
    "id": "GVG_RWD_GOL_02_SEASON_01_3rd",
    "rewards": [
      {
        "item_type": 0,
        "item_iname": "IT_EVENT_PORT_COIN_XMAS",
        "item_num": 5000
      },
      {
        "item_type": 2,
        "item_num": 1500
      },
      {
        "item_type": 0,
        "item_iname": "IT_PI_COMMON_ALL",
        "item_num": 55
      }
    ]
  },
  {
    "id": "GVG_RWD_GOL_02_SEASON_01_4th",
    "rewards": [
      {
        "item_type": 0,
        "item_iname": "IT_EVENT_PORT_COIN_XMAS",
        "item_num": 4500
      },
      {
        "item_type": 2,
        "item_num": 1500
      },
      {
        "item_type": 0,
        "item_iname": "IT_PI_COMMON_ALL",
        "item_num": 55
      }
    ]
  },
  {
    "id": "GVG_RWD_GOL_03_SEASON_01_1st",
    "rewards": [
      {
        "item_type": 0,
        "item_iname": "IT_EVENT_PORT_COIN_XMAS",
        "item_num": 6000
      },
      {
        "item_type": 2,
        "item_num": 1500
      },
      {
        "item_type": 0,
        "item_iname": "IT_PI_COMMON_ALL",
        "item_num": 50
      }
    ]
  },
  {
    "id": "GVG_RWD_GOL_03_SEASON_01_2nd",
    "rewards": [
      {
        "item_type": 0,
        "item_iname": "IT_EVENT_PORT_COIN_XMAS",
        "item_num": 5500
      },
      {
        "item_type": 2,
        "item_num": 1500
      },
      {
        "item_type": 0,
        "item_iname": "IT_PI_COMMON_ALL",
        "item_num": 50
      }
    ]
  },
  {
    "id": "GVG_RWD_GOL_03_SEASON_01_3rd",
    "rewards": [
      {
        "item_type": 0,
        "item_iname": "IT_EVENT_PORT_COIN_XMAS",
        "item_num": 5000
      },
      {
        "item_type": 2,
        "item_num": 1500
      },
      {
        "item_type": 0,
        "item_iname": "IT_PI_COMMON_ALL",
        "item_num": 50
      }
    ]
  },
  {
    "id": "GVG_RWD_GOL_03_SEASON_01_4th",
    "rewards": [
      {
        "item_type": 0,
        "item_iname": "IT_EVENT_PORT_COIN_XMAS",
        "item_num": 4500
      },
      {
        "item_type": 2,
        "item_num": 1500
      },
      {
        "item_type": 0,
        "item_iname": "IT_PI_COMMON_ALL",
        "item_num": 50
      }
    ]
  },
  {
    "id": "GVG_RWD_SIL_01_SEASON_01_1st",
    "rewards": [
      {
        "item_type": 0,
        "item_iname": "IT_EVENT_PORT_COIN_XMAS",
        "item_num": 4000
      },
      {
        "item_type": 2,
        "item_num": 1000
      },
      {
        "item_type": 0,
        "item_iname": "IT_PI_COMMON_ALL",
        "item_num": 45
      }
    ]
  },
  {
    "id": "GVG_RWD_SIL_01_SEASON_01_2nd",
    "rewards": [
      {
        "item_type": 0,
        "item_iname": "IT_EVENT_PORT_COIN_XMAS",
        "item_num": 3500
      },
      {
        "item_type": 2,
        "item_num": 1000
      },
      {
        "item_type": 0,
        "item_iname": "IT_PI_COMMON_ALL",
        "item_num": 45
      }
    ]
  },
  {
    "id": "GVG_RWD_SIL_01_SEASON_01_3rd",
    "rewards": [
      {
        "item_type": 0,
        "item_iname": "IT_EVENT_PORT_COIN_XMAS",
        "item_num": 3000
      },
      {
        "item_type": 2,
        "item_num": 1000
      },
      {
        "item_type": 0,
        "item_iname": "IT_PI_COMMON_ALL",
        "item_num": 45
      }
    ]
  },
  {
    "id": "GVG_RWD_SIL_01_SEASON_01_4th",
    "rewards": [
      {
        "item_type": 0,
        "item_iname": "IT_EVENT_PORT_COIN_XMAS",
        "item_num": 2500
      },
      {
        "item_type": 2,
        "item_num": 1000
      },
      {
        "item_type": 0,
        "item_iname": "IT_PI_COMMON_ALL",
        "item_num": 45
      }
    ]
  },
  {
    "id": "GVG_RWD_SIL_02_SEASON_01_1st",
    "rewards": [
      {
        "item_type": 0,
        "item_iname": "IT_EVENT_PORT_COIN_XMAS",
        "item_num": 4000
      },
      {
        "item_type": 2,
        "item_num": 1000
      },
      {
        "item_type": 0,
        "item_iname": "IT_PI_COMMON_ALL",
        "item_num": 40
      }
    ]
  },
  {
    "id": "GVG_RWD_SIL_02_SEASON_01_2nd",
    "rewards": [
      {
        "item_type": 0,
        "item_iname": "IT_EVENT_PORT_COIN_XMAS",
        "item_num": 3500
      },
      {
        "item_type": 2,
        "item_num": 1000
      },
      {
        "item_type": 0,
        "item_iname": "IT_PI_COMMON_ALL",
        "item_num": 40
      }
    ]
  },
  {
    "id": "GVG_RWD_SIL_02_SEASON_01_3rd",
    "rewards": [
      {
        "item_type": 0,
        "item_iname": "IT_EVENT_PORT_COIN_XMAS",
        "item_num": 3000
      },
      {
        "item_type": 2,
        "item_num": 1000
      },
      {
        "item_type": 0,
        "item_iname": "IT_PI_COMMON_ALL",
        "item_num": 40
      }
    ]
  },
  {
    "id": "GVG_RWD_SIL_02_SEASON_01_4th",
    "rewards": [
      {
        "item_type": 0,
        "item_iname": "IT_EVENT_PORT_COIN_XMAS",
        "item_num": 2500
      },
      {
        "item_type": 2,
        "item_num": 1000
      },
      {
        "item_type": 0,
        "item_iname": "IT_PI_COMMON_ALL",
        "item_num": 40
      }
    ]
  },
  {
    "id": "GVG_RWD_SIL_03_SEASON_01_1st",
    "rewards": [
      {
        "item_type": 0,
        "item_iname": "IT_EVENT_PORT_COIN_XMAS",
        "item_num": 4000
      },
      {
        "item_type": 2,
        "item_num": 1000
      },
      {
        "item_type": 0,
        "item_iname": "IT_PI_COMMON_ALL",
        "item_num": 35
      }
    ]
  },
  {
    "id": "GVG_RWD_SIL_03_SEASON_01_2nd",
    "rewards": [
      {
        "item_type": 0,
        "item_iname": "IT_EVENT_PORT_COIN_XMAS",
        "item_num": 3500
      },
      {
        "item_type": 2,
        "item_num": 1000
      },
      {
        "item_type": 0,
        "item_iname": "IT_PI_COMMON_ALL",
        "item_num": 35
      }
    ]
  },
  {
    "id": "GVG_RWD_SIL_03_SEASON_01_3rd",
    "rewards": [
      {
        "item_type": 0,
        "item_iname": "IT_EVENT_PORT_COIN_XMAS",
        "item_num": 3000
      },
      {
        "item_type": 2,
        "item_num": 1000
      },
      {
        "item_type": 0,
        "item_iname": "IT_PI_COMMON_ALL",
        "item_num": 35
      }
    ]
  },
  {
    "id": "GVG_RWD_SIL_03_SEASON_01_4th",
    "rewards": [
      {
        "item_type": 0,
        "item_iname": "IT_EVENT_PORT_COIN_XMAS",
        "item_num": 2500
      },
      {
        "item_type": 2,
        "item_num": 1000
      },
      {
        "item_type": 0,
        "item_iname": "IT_PI_COMMON_ALL",
        "item_num": 35
      }
    ]
  },
  {
    "id": "GVG_RWD_BRN_01_SEASON_01_1st",
    "rewards": [
      {
        "item_type": 0,
        "item_iname": "IT_EVENT_PORT_COIN_XMAS",
        "item_num": 2000
      },
      {
        "item_type": 2,
        "item_num": 500
      },
      {
        "item_type": 0,
        "item_iname": "IT_PI_COMMON_ALL",
        "item_num": 25
      }
    ]
  },
  {
    "id": "GVG_RWD_BRN_01_SEASON_01_2nd",
    "rewards": [
      {
        "item_type": 0,
        "item_iname": "IT_EVENT_PORT_COIN_XMAS",
        "item_num": 1500
      },
      {
        "item_type": 2,
        "item_num": 500
      },
      {
        "item_type": 0,
        "item_iname": "IT_PI_COMMON_ALL",
        "item_num": 25
      }
    ]
  },
  {
    "id": "GVG_RWD_BRN_01_SEASON_01_3rd",
    "rewards": [
      {
        "item_type": 0,
        "item_iname": "IT_EVENT_PORT_COIN_XMAS",
        "item_num": 1000
      },
      {
        "item_type": 2,
        "item_num": 500
      },
      {
        "item_type": 0,
        "item_iname": "IT_PI_COMMON_ALL",
        "item_num": 25
      }
    ]
  },
  {
    "id": "GVG_RWD_BRN_01_SEASON_01_4th",
    "rewards": [
      {
        "item_type": 0,
        "item_iname": "IT_EVENT_PORT_COIN_XMAS",
        "item_num": 500
      }
    ]
  }
]