[
  {
    "season_id": 1,
    "iname": "LEAGUEMATCH_MISSION_01_01",
    "name": "ダイヤモンドランクⅠに昇格しよう！",
    "type": 3,
    "ival": 1000,
    "reward_id": "LEAGUEMATCH_REWARD_MISSION_01"
  },
  {
    "season_id": 1,
    "iname": "LEAGUEMATCH_MISSION_01_02",
    "name": "ダイヤモンドランクⅡに昇格しよう！",
    "type": 3,
    "ival": 900,
    "reward_id": "LEAGUEMATCH_REWARD_MISSION_02"
  },
  {
    "season_id": 1,
    "iname": "LEAGUEMATCH_MISSION_01_03",
    "name": "ダイヤモンドランクⅢに昇格しよう！",
    "type": 3,
    "ival": 800,
    "reward_id": "LEAGUEMATCH_REWARD_MISSION_03"
  },
  {
    "season_id": 1,
    "iname": "LEAGUEMATCH_MISSION_01_04",
    "name": "プラチナランクⅠに昇格しよう！",
    "type": 3,
    "ival": 700,
    "reward_id": "LEAGUEMATCH_REWARD_MISSION_04"
  },
  {
    "season_id": 1,
    "iname": "LEAGUEMATCH_MISSION_01_05",
    "name": "プラチナランクⅡに昇格しよう！",
    "type": 3,
    "ival": 600,
    "reward_id": "LEAGUEMATCH_REWARD_MISSION_05"
  },
  {
    "season_id": 1,
    "iname": "LEAGUEMATCH_MISSION_01_06",
    "name": "プラチナランクⅢに昇格しよう！",
    "type": 3,
    "ival": 500,
    "reward_id": "LEAGUEMATCH_REWARD_MISSION_06"
  },
  {
    "season_id": 1,
    "iname": "LEAGUEMATCH_MISSION_01_07",
    "name": "ゴールドランクⅠに昇格しよう！",
    "type": 3,
    "ival": 400,
    "reward_id": "LEAGUEMATCH_REWARD_MISSION_07"
  },
  {
    "season_id": 1,
    "iname": "LEAGUEMATCH_MISSION_01_08",
    "name": "ゴールドランクⅡに昇格しよう！",
    "type": 3,
    "ival": 300,
    "reward_id": "LEAGUEMATCH_REWARD_MISSION_08"
  },
  {
    "season_id": 1,
    "iname": "LEAGUEMATCH_MISSION_01_09",
    "name": "ゴールドランクⅢに昇格しよう！",
    "type": 3,
    "ival": 200,
    "reward_id": "LEAGUEMATCH_REWARD_MISSION_09"
  },
  {
    "season_id": 1,
    "iname": "LEAGUEMATCH_MISSION_01_10",
    "name": "シルバーランクⅠに昇格しよう！",
    "type": 3,
    "ival": 150,
    "reward_id": "LEAGUEMATCH_REWARD_MISSION_10"
  },
  {
    "season_id": 1,
    "iname": "LEAGUEMATCH_MISSION_01_11",
    "name": "シルバーランクⅡに昇格しよう！",
    "type": 3,
    "ival": 100,
    "reward_id": "LEAGUEMATCH_REWARD_MISSION_11"
  },
  {
    "season_id": 1,
    "iname": "LEAGUEMATCH_MISSION_01_12",
    "name": "シルバーランクⅢに昇格しよう！",
    "type": 3,
    "ival": 75,
    "reward_id": "LEAGUEMATCH_REWARD_MISSION_12"
  },
  {
    "season_id": 1,
    "iname": "LEAGUEMATCH_MISSION_01_13",
    "name": "ブロンズランクⅠに昇格しよう！",
    "type": 3,
    "ival": 50,
    "reward_id": "LEAGUEMATCH_REWARD_MISSION_13"
  },
  {
    "season_id": 1,
    "iname": "LEAGUEMATCH_MISSION_01_14",
    "name": "ブロンズランクⅡに昇格しよう！",
    "type": 3,
    "ival": 25,
    "reward_id": "LEAGUEMATCH_REWARD_MISSION_14"
  },
  {
    "season_id": 2,
    "iname": "LEAGUEMATCH_MISSION_02_14",
    "name": "ブロンズランクⅡに昇格しよう！",
    "type": 3,
    "ival": 100,
    "reward_id": "LEAGUEMATCH_REWARD_MISSION_02_14"
  },
  {
    "season_id": 2,
    "iname": "LEAGUEMATCH_MISSION_02_13",
    "name": "ブロンズランクⅠに昇格しよう！",
    "type": 3,
    "ival": 200,
    "reward_id": "LEAGUEMATCH_REWARD_MISSION_02_13"
  },
  {
    "season_id": 2,
    "iname": "LEAGUEMATCH_MISSION_02_12",
    "name": "シルバーランクⅢに昇格しよう！",
    "type": 3,
    "ival": 300,
    "reward_id": "LEAGUEMATCH_REWARD_MISSION_02_12"
  },
  {
    "season_id": 2,
    "iname": "LEAGUEMATCH_MISSION_02_11",
    "name": "シルバーランクⅡに昇格しよう！",
    "type": 3,
    "ival": 350,
    "reward_id": "LEAGUEMATCH_REWARD_MISSION_02_11"
  },
  {
    "season_id": 2,
    "iname": "LEAGUEMATCH_MISSION_02_10",
    "name": "シルバーランクⅠに昇格しよう！",
    "type": 3,
    "ival": 400,
    "reward_id": "LEAGUEMATCH_REWARD_MISSION_02_10"
  },
  {
    "season_id": 2,
    "iname": "LEAGUEMATCH_MISSION_02_09",
    "name": "ゴールドランクⅢに昇格しよう！",
    "type": 3,
    "ival": 500,
    "reward_id": "LEAGUEMATCH_REWARD_MISSION_02_09"
  },
  {
    "season_id": 2,
    "iname": "LEAGUEMATCH_MISSION_02_08",
    "name": "ゴールドランクⅡに昇格しよう！",
    "type": 3,
    "ival": 550,
    "reward_id": "LEAGUEMATCH_REWARD_MISSION_02_08"
  },
  {
    "season_id": 2,
    "iname": "LEAGUEMATCH_MISSION_02_07",
    "name": "ゴールドランクⅠに昇格しよう！",
    "type": 3,
    "ival": 600,
    "reward_id": "LEAGUEMATCH_REWARD_MISSION_02_07"
  },
  {
    "season_id": 2,
    "iname": "LEAGUEMATCH_MISSION_02_06",
    "name": "プラチナランクⅢに昇格しよう！",
    "type": 3,
    "ival": 700,
    "reward_id": "LEAGUEMATCH_REWARD_MISSION_02_06"
  },
  {
    "season_id": 2,
    "iname": "LEAGUEMATCH_MISSION_02_05",
    "name": "プラチナランクⅡに昇格しよう！",
    "type": 3,
    "ival": 750,
    "reward_id": "LEAGUEMATCH_REWARD_MISSION_02_05"
  },
  {
    "season_id": 2,
    "iname": "LEAGUEMATCH_MISSION_02_04",
    "name": "プラチナランクⅠに昇格しよう！",
    "type": 3,
    "ival": 800,
    "reward_id": "LEAGUEMATCH_REWARD_MISSION_02_04"
  },
  {
    "season_id": 2,
    "iname": "LEAGUEMATCH_MISSION_02_03",
    "name": "ダイヤモンドランクⅢに昇格しよう！",
    "type": 3,
    "ival": 850,
    "reward_id": "LEAGUEMATCH_REWARD_MISSION_02_03"
  },
  {
    "season_id": 2,
    "iname": "LEAGUEMATCH_MISSION_02_02",
    "name": "ダイヤモンドランクⅡに昇格しよう！",
    "type": 3,
    "ival": 900,
    "reward_id": "LEAGUEMATCH_REWARD_MISSION_02_02"
  },
  {
    "season_id": 2,
    "iname": "LEAGUEMATCH_MISSION_02_01",
    "name": "ダイヤモンドランクⅠに昇格しよう！",
    "type": 3,
    "ival": 1000,
    "reward_id": "LEAGUEMATCH_REWARD_MISSION_02_01"
  },
  {
    "season_id": 3,
    "iname": "LEAGUEMATCH_MISSION_03_14",
    "name": "ブロンズランクⅡに昇格しよう！",
    "type": 3,
    "ival": 100,
    "reward_id": "LEAGUEMATCH_REWARD_MISSION_03_14"
  },
  {
    "season_id": 3,
    "iname": "LEAGUEMATCH_MISSION_03_13",
    "name": "ブロンズランクⅠに昇格しよう！",
    "type": 3,
    "ival": 200,
    "reward_id": "LEAGUEMATCH_REWARD_MISSION_03_13"
  },
  {
    "season_id": 3,
    "iname": "LEAGUEMATCH_MISSION_03_12",
    "name": "シルバーランクⅢに昇格しよう！",
    "type": 3,
    "ival": 300,
    "reward_id": "LEAGUEMATCH_REWARD_MISSION_03_12"
  },
  {
    "season_id": 3,
    "iname": "LEAGUEMATCH_MISSION_03_11",
    "name": "シルバーランクⅡに昇格しよう！",
    "type": 3,
    "ival": 350,
    "reward_id": "LEAGUEMATCH_REWARD_MISSION_03_11"
  },
  {
    "season_id": 3,
    "iname": "LEAGUEMATCH_MISSION_03_10",
    "name": "シルバーランクⅠに昇格しよう！",
    "type": 3,
    "ival": 400,
    "reward_id": "LEAGUEMATCH_REWARD_MISSION_03_10"
  },
  {
    "season_id": 3,
    "iname": "LEAGUEMATCH_MISSION_03_09",
    "name": "ゴールドランクⅢに昇格しよう！",
    "type": 3,
    "ival": 500,
    "reward_id": "LEAGUEMATCH_REWARD_MISSION_03_09"
  },
  {
    "season_id": 3,
    "iname": "LEAGUEMATCH_MISSION_03_08",
    "name": "ゴールドランクⅡに昇格しよう！",
    "type": 3,
    "ival": 550,
    "reward_id": "LEAGUEMATCH_REWARD_MISSION_03_08"
  },
  {
    "season_id": 3,
    "iname": "LEAGUEMATCH_MISSION_03_07",
    "name": "ゴールドランクⅠに昇格しよう！",
    "type": 3,
    "ival": 600,
    "reward_id": "LEAGUEMATCH_REWARD_MISSION_03_07"
  },
  {
    "season_id": 3,
    "iname": "LEAGUEMATCH_MISSION_03_06",
    "name": "プラチナランクⅢに昇格しよう！",
    "type": 3,
    "ival": 700,
    "reward_id": "LEAGUEMATCH_REWARD_MISSION_03_06"
  },
  {
    "season_id": 3,
    "iname": "LEAGUEMATCH_MISSION_03_05",
    "name": "プラチナランクⅡに昇格しよう！",
    "type": 3,
    "ival": 750,
    "reward_id": "LEAGUEMATCH_REWARD_MISSION_03_05"
  },
  {
    "season_id": 3,
    "iname": "LEAGUEMATCH_MISSION_03_04",
    "name": "プラチナランクⅠに昇格しよう！",
    "type": 3,
    "ival": 800,
    "reward_id": "LEAGUEMATCH_REWARD_MISSION_03_04"
  },
  {
    "season_id": 3,
    "iname": "LEAGUEMATCH_MISSION_03_03",
    "name": "ダイヤモンドランクⅢに昇格しよう！",
    "type": 3,
    "ival": 850,
    "reward_id": "LEAGUEMATCH_REWARD_MISSION_03_03"
  },
  {
    "season_id": 3,
    "iname": "LEAGUEMATCH_MISSION_03_02",
    "name": "ダイヤモンドランクⅡに昇格しよう！",
    "type": 3,
    "ival": 900,
    "reward_id": "LEAGUEMATCH_REWARD_MISSION_03_02"
  },
  {
    "season_id": 3,
    "iname": "LEAGUEMATCH_MISSION_03_01",
    "name": "ダイヤモンドランクⅠに昇格しよう！",
    "type": 3,
    "ival": 1000,
    "reward_id": "LEAGUEMATCH_REWARD_MISSION_03_01"
  },
  {
    "season_id": 4,
    "iname": "LEAGUEMATCH_MISSION_04_14",
    "name": "ブロンズランクⅡに昇格しよう！",
    "type": 3,
    "ival": 100,
    "reward_id": "LEAGUEMATCH_REWARD_MISSION_04_14"
  },
  {
    "season_id": 4,
    "iname": "LEAGUEMATCH_MISSION_04_13",
    "name": "ブロンズランクⅠに昇格しよう！",
    "type": 3,
    "ival": 200,
    "reward_id": "LEAGUEMATCH_REWARD_MISSION_04_13"
  },
  {
    "season_id": 4,
    "iname": "LEAGUEMATCH_MISSION_04_12",
    "name": "シルバーランクⅢに昇格しよう！",
    "type": 3,
    "ival": 300,
    "reward_id": "LEAGUEMATCH_REWARD_MISSION_04_12"
  },
  {
    "season_id": 4,
    "iname": "LEAGUEMATCH_MISSION_04_11",
    "name": "シルバーランクⅡに昇格しよう！",
    "type": 3,
    "ival": 350,
    "reward_id": "LEAGUEMATCH_REWARD_MISSION_04_11"
  },
  {
    "season_id": 4,
    "iname": "LEAGUEMATCH_MISSION_04_10",
    "name": "シルバーランクⅠに昇格しよう！",
    "type": 3,
    "ival": 400,
    "reward_id": "LEAGUEMATCH_REWARD_MISSION_04_10"
  },
  {
    "season_id": 4,
    "iname": "LEAGUEMATCH_MISSION_04_09",
    "name": "ゴールドランクⅢに昇格しよう！",
    "type": 3,
    "ival": 500,
    "reward_id": "LEAGUEMATCH_REWARD_MISSION_04_09"
  },
  {
    "season_id": 4,
    "iname": "LEAGUEMATCH_MISSION_04_08",
    "name": "ゴールドランクⅡに昇格しよう！",
    "type": 3,
    "ival": 550,
    "reward_id": "LEAGUEMATCH_REWARD_MISSION_04_08"
  },
  {
    "season_id": 4,
    "iname": "LEAGUEMATCH_MISSION_04_07",
    "name": "ゴールドランクⅠに昇格しよう！",
    "type": 3,
    "ival": 600,
    "reward_id": "LEAGUEMATCH_REWARD_MISSION_04_07"
  },
  {
    "season_id": 4,
    "iname": "LEAGUEMATCH_MISSION_04_06",
    "name": "プラチナランクⅢに昇格しよう！",
    "type": 3,
    "ival": 700,
    "reward_id": "LEAGUEMATCH_REWARD_MISSION_04_06"
  },
  {
    "season_id": 4,
    "iname": "LEAGUEMATCH_MISSION_04_05",
    "name": "プラチナランクⅡに昇格しよう！",
    "type": 3,
    "ival": 750,
    "reward_id": "LEAGUEMATCH_REWARD_MISSION_04_05"
  },
  {
    "season_id": 4,
    "iname": "LEAGUEMATCH_MISSION_04_04",
    "name": "プラチナランクⅠに昇格しよう！",
    "type": 3,
    "ival": 800,
    "reward_id": "LEAGUEMATCH_REWARD_MISSION_04_04"
  },
  {
    "season_id": 4,
    "iname": "LEAGUEMATCH_MISSION_04_03",
    "name": "ダイヤモンドランクⅢに昇格しよう！",
    "type": 3,
    "ival": 850,
    "reward_id": "LEAGUEMATCH_REWARD_MISSION_04_03"
  },
  {
    "season_id": 4,
    "iname": "LEAGUEMATCH_MISSION_04_02",
    "name": "ダイヤモンドランクⅡに昇格しよう！",
    "type": 3,
    "ival": 900,
    "reward_id": "LEAGUEMATCH_REWARD_MISSION_04_02"
  },
  {
    "season_id": 4,
    "iname": "LEAGUEMATCH_MISSION_04_01",
    "name": "ダイヤモンドランクⅠに昇格しよう！",
    "type": 3,
    "ival": 1000,
    "reward_id": "LEAGUEMATCH_REWARD_MISSION_04_01"
  },
  {
    "season_id": 5,
    "iname": "LEAGUEMATCH_MISSION_05_14",
    "name": "ブロンズランクⅡに昇格しよう！",
    "type": 3,
    "ival": 100,
    "reward_id": "LEAGUEMATCH_REWARD_MISSION_05_14"
  },
  {
    "season_id": 5,
    "iname": "LEAGUEMATCH_MISSION_05_13",
    "name": "ブロンズランクⅠに昇格しよう！",
    "type": 3,
    "ival": 200,
    "reward_id": "LEAGUEMATCH_REWARD_MISSION_05_13"
  },
  {
    "season_id": 5,
    "iname": "LEAGUEMATCH_MISSION_05_12",
    "name": "シルバーランクⅢに昇格しよう！",
    "type": 3,
    "ival": 300,
    "reward_id": "LEAGUEMATCH_REWARD_MISSION_05_12"
  },
  {
    "season_id": 5,
    "iname": "LEAGUEMATCH_MISSION_05_11",
    "name": "シルバーランクⅡに昇格しよう！",
    "type": 3,
    "ival": 350,
    "reward_id": "LEAGUEMATCH_REWARD_MISSION_05_11"
  },
  {
    "season_id": 5,
    "iname": "LEAGUEMATCH_MISSION_05_10",
    "name": "シルバーランクⅠに昇格しよう！",
    "type": 3,
    "ival": 400,
    "reward_id": "LEAGUEMATCH_REWARD_MISSION_05_10"
  },
  {
    "season_id": 5,
    "iname": "LEAGUEMATCH_MISSION_05_09",
    "name": "ゴールドランクⅢに昇格しよう！",
    "type": 3,
    "ival": 500,
    "reward_id": "LEAGUEMATCH_REWARD_MISSION_05_09"
  },
  {
    "season_id": 5,
    "iname": "LEAGUEMATCH_MISSION_05_08",
    "name": "ゴールドランクⅡに昇格しよう！",
    "type": 3,
    "ival": 550,
    "reward_id": "LEAGUEMATCH_REWARD_MISSION_05_08"
  },
  {
    "season_id": 5,
    "iname": "LEAGUEMATCH_MISSION_05_07",
    "name": "ゴールドランクⅠに昇格しよう！",
    "type": 3,
    "ival": 600,
    "reward_id": "LEAGUEMATCH_REWARD_MISSION_05_07"
  },
  {
    "season_id": 5,
    "iname": "LEAGUEMATCH_MISSION_05_06",
    "name": "プラチナランクⅢに昇格しよう！",
    "type": 3,
    "ival": 700,
    "reward_id": "LEAGUEMATCH_REWARD_MISSION_05_06"
  },
  {
    "season_id": 5,
    "iname": "LEAGUEMATCH_MISSION_05_05",
    "name": "プラチナランクⅡに昇格しよう！",
    "type": 3,
    "ival": 750,
    "reward_id": "LEAGUEMATCH_REWARD_MISSION_05_05"
  },
  {
    "season_id": 5,
    "iname": "LEAGUEMATCH_MISSION_05_04",
    "name": "プラチナランクⅠに昇格しよう！",
    "type": 3,
    "ival": 800,
    "reward_id": "LEAGUEMATCH_REWARD_MISSION_05_04"
  },
  {
    "season_id": 5,
    "iname": "LEAGUEMATCH_MISSION_05_03",
    "name": "ダイヤモンドランクⅢに昇格しよう！",
    "type": 3,
    "ival": 850,
    "reward_id": "LEAGUEMATCH_REWARD_MISSION_05_03"
  },
  {
    "season_id": 5,
    "iname": "LEAGUEMATCH_MISSION_05_02",
    "name": "ダイヤモンドランクⅡに昇格しよう！",
    "type": 3,
    "ival": 900,
    "reward_id": "LEAGUEMATCH_REWARD_MISSION_05_02"
  },
  {
    "season_id": 5,
    "iname": "LEAGUEMATCH_MISSION_05_01",
    "name": "ダイヤモンドランクⅠに昇格しよう！",
    "type": 3,
    "ival": 1000,
    "reward_id": "LEAGUEMATCH_REWARD_MISSION_05_01"
  },
  {
    "season_id": 6,
    "iname": "LEAGUEMATCH_MISSION_06_14",
    "name": "ブロンズランクⅡに昇格しよう！",
    "type": 3,
    "ival": 100,
    "reward_id": "LEAGUEMATCH_REWARD_MISSION_06_14"
  },
  {
    "season_id": 6,
    "iname": "LEAGUEMATCH_MISSION_06_13",
    "name": "ブロンズランクⅠに昇格しよう！",
    "type": 3,
    "ival": 200,
    "reward_id": "LEAGUEMATCH_REWARD_MISSION_06_13"
  },
  {
    "season_id": 6,
    "iname": "LEAGUEMATCH_MISSION_06_12",
    "name": "シルバーランクⅢに昇格しよう！",
    "type": 3,
    "ival": 300,
    "reward_id": "LEAGUEMATCH_REWARD_MISSION_06_12"
  },
  {
    "season_id": 6,
    "iname": "LEAGUEMATCH_MISSION_06_11",
    "name": "シルバーランクⅡに昇格しよう！",
    "type": 3,
    "ival": 350,
    "reward_id": "LEAGUEMATCH_REWARD_MISSION_06_11"
  },
  {
    "season_id": 6,
    "iname": "LEAGUEMATCH_MISSION_06_10",
    "name": "シルバーランクⅠに昇格しよう！",
    "type": 3,
    "ival": 400,
    "reward_id": "LEAGUEMATCH_REWARD_MISSION_06_10"
  },
  {
    "season_id": 6,
    "iname": "LEAGUEMATCH_MISSION_06_09",
    "name": "ゴールドランクⅢに昇格しよう！",
    "type": 3,
    "ival": 500,
    "reward_id": "LEAGUEMATCH_REWARD_MISSION_06_09"
  },
  {
    "season_id": 6,
    "iname": "LEAGUEMATCH_MISSION_06_08",
    "name": "ゴールドランクⅡに昇格しよう！",
    "type": 3,
    "ival": 550,
    "reward_id": "LEAGUEMATCH_REWARD_MISSION_06_08"
  },
  {
    "season_id": 6,
    "iname": "LEAGUEMATCH_MISSION_06_07",
    "name": "ゴールドランクⅠに昇格しよう！",
    "type": 3,
    "ival": 600,
    "reward_id": "LEAGUEMATCH_REWARD_MISSION_06_07"
  },
  {
    "season_id": 6,
    "iname": "LEAGUEMATCH_MISSION_06_06",
    "name": "プラチナランクⅢに昇格しよう！",
    "type": 3,
    "ival": 700,
    "reward_id": "LEAGUEMATCH_REWARD_MISSION_06_06"
  },
  {
    "season_id": 6,
    "iname": "LEAGUEMATCH_MISSION_06_05",
    "name": "プラチナランクⅡに昇格しよう！",
    "type": 3,
    "ival": 750,
    "reward_id": "LEAGUEMATCH_REWARD_MISSION_06_05"
  },
  {
    "season_id": 6,
    "iname": "LEAGUEMATCH_MISSION_06_04",
    "name": "プラチナランクⅠに昇格しよう！",
    "type": 3,
    "ival": 800,
    "reward_id": "LEAGUEMATCH_REWARD_MISSION_06_04"
  },
  {
    "season_id": 6,
    "iname": "LEAGUEMATCH_MISSION_06_03",
    "name": "ダイヤモンドランクⅢに昇格しよう！",
    "type": 3,
    "ival": 850,
    "reward_id": "LEAGUEMATCH_REWARD_MISSION_06_03"
  },
  {
    "season_id": 6,
    "iname": "LEAGUEMATCH_MISSION_06_02",
    "name": "ダイヤモンドランクⅡに昇格しよう！",
    "type": 3,
    "ival": 900,
    "reward_id": "LEAGUEMATCH_REWARD_MISSION_06_02"
  },
  {
    "season_id": 6,
    "iname": "LEAGUEMATCH_MISSION_06_01",
    "name": "ダイヤモンドランクⅠに昇格しよう！",
    "type": 3,
    "ival": 1000,
    "reward_id": "LEAGUEMATCH_REWARD_MISSION_06_01"
  },
  {
    "season_id": 7,
    "iname": "LEAGUEMATCH_MISSION_07_14",
    "name": "ブロンズランクⅡに昇格しよう！",
    "type": 3,
    "ival": 100,
    "reward_id": "LEAGUEMATCH_REWARD_MISSION_07_14"
  },
  {
    "season_id": 7,
    "iname": "LEAGUEMATCH_MISSION_07_13",
    "name": "ブロンズランクⅠに昇格しよう！",
    "type": 3,
    "ival": 200,
    "reward_id": "LEAGUEMATCH_REWARD_MISSION_07_13"
  },
  {
    "season_id": 7,
    "iname": "LEAGUEMATCH_MISSION_07_12",
    "name": "シルバーランクⅢに昇格しよう！",
    "type": 3,
    "ival": 300,
    "reward_id": "LEAGUEMATCH_REWARD_MISSION_07_12"
  },
  {
    "season_id": 7,
    "iname": "LEAGUEMATCH_MISSION_07_11",
    "name": "シルバーランクⅡに昇格しよう！",
    "type": 3,
    "ival": 350,
    "reward_id": "LEAGUEMATCH_REWARD_MISSION_07_11"
  },
  {
    "season_id": 7,
    "iname": "LEAGUEMATCH_MISSION_07_10",
    "name": "シルバーランクⅠに昇格しよう！",
    "type": 3,
    "ival": 400,
    "reward_id": "LEAGUEMATCH_REWARD_MISSION_07_10"
  },
  {
    "season_id": 7,
    "iname": "LEAGUEMATCH_MISSION_07_09",
    "name": "ゴールドランクⅢに昇格しよう！",
    "type": 3,
    "ival": 500,
    "reward_id": "LEAGUEMATCH_REWARD_MISSION_07_09"
  },
  {
    "season_id": 7,
    "iname": "LEAGUEMATCH_MISSION_07_08",
    "name": "ゴールドランクⅡに昇格しよう！",
    "type": 3,
    "ival": 550,
    "reward_id": "LEAGUEMATCH_REWARD_MISSION_07_08"
  },
  {
    "season_id": 7,
    "iname": "LEAGUEMATCH_MISSION_07_07",
    "name": "ゴールドランクⅠに昇格しよう！",
    "type": 3,
    "ival": 600,
    "reward_id": "LEAGUEMATCH_REWARD_MISSION_07_07"
  },
  {
    "season_id": 7,
    "iname": "LEAGUEMATCH_MISSION_07_06",
    "name": "プラチナランクⅢに昇格しよう！",
    "type": 3,
    "ival": 700,
    "reward_id": "LEAGUEMATCH_REWARD_MISSION_07_06"
  },
  {
    "season_id": 7,
    "iname": "LEAGUEMATCH_MISSION_07_05",
    "name": "プラチナランクⅡに昇格しよう！",
    "type": 3,
    "ival": 750,
    "reward_id": "LEAGUEMATCH_REWARD_MISSION_07_05"
  },
  {
    "season_id": 7,
    "iname": "LEAGUEMATCH_MISSION_07_04",
    "name": "プラチナランクⅠに昇格しよう！",
    "type": 3,
    "ival": 800,
    "reward_id": "LEAGUEMATCH_REWARD_MISSION_07_04"
  },
  {
    "season_id": 7,
    "iname": "LEAGUEMATCH_MISSION_07_03",
    "name": "ダイヤモンドランクⅢに昇格しよう！",
    "type": 3,
    "ival": 850,
    "reward_id": "LEAGUEMATCH_REWARD_MISSION_07_03"
  },
  {
    "season_id": 7,
    "iname": "LEAGUEMATCH_MISSION_07_02",
    "name": "ダイヤモンドランクⅡに昇格しよう！",
    "type": 3,
    "ival": 900,
    "reward_id": "LEAGUEMATCH_REWARD_MISSION_07_02"
  },
  {
    "season_id": 7,
    "iname": "LEAGUEMATCH_MISSION_07_01",
    "name": "ダイヤモンドランクⅠに昇格しよう！",
    "type": 3,
    "ival": 1000,
    "reward_id": "LEAGUEMATCH_REWARD_MISSION_07_01"
  },
  {
    "season_id": 8,
    "iname": "LEAGUEMATCH_MISSION_08_14",
    "name": "ブロンズランクⅡに昇格しよう！",
    "type": 3,
    "ival": 100,
    "reward_id": "LEAGUEMATCH_REWARD_MISSION_08_14"
  },
  {
    "season_id": 8,
    "iname": "LEAGUEMATCH_MISSION_08_13",
    "name": "ブロンズランクⅠに昇格しよう！",
    "type": 3,
    "ival": 200,
    "reward_id": "LEAGUEMATCH_REWARD_MISSION_08_13"
  },
  {
    "season_id": 8,
    "iname": "LEAGUEMATCH_MISSION_08_12",
    "name": "シルバーランクⅢに昇格しよう！",
    "type": 3,
    "ival": 300,
    "reward_id": "LEAGUEMATCH_REWARD_MISSION_08_12"
  },
  {
    "season_id": 8,
    "iname": "LEAGUEMATCH_MISSION_08_11",
    "name": "シルバーランクⅡに昇格しよう！",
    "type": 3,
    "ival": 350,
    "reward_id": "LEAGUEMATCH_REWARD_MISSION_08_11"
  },
  {
    "season_id": 8,
    "iname": "LEAGUEMATCH_MISSION_08_10",
    "name": "シルバーランクⅠに昇格しよう！",
    "type": 3,
    "ival": 400,
    "reward_id": "LEAGUEMATCH_REWARD_MISSION_08_10"
  },
  {
    "season_id": 8,
    "iname": "LEAGUEMATCH_MISSION_08_09",
    "name": "ゴールドランクⅢに昇格しよう！",
    "type": 3,
    "ival": 500,
    "reward_id": "LEAGUEMATCH_REWARD_MISSION_08_09"
  },
  {
    "season_id": 8,
    "iname": "LEAGUEMATCH_MISSION_08_08",
    "name": "ゴールドランクⅡに昇格しよう！",
    "type": 3,
    "ival": 550,
    "reward_id": "LEAGUEMATCH_REWARD_MISSION_08_08"
  },
  {
    "season_id": 8,
    "iname": "LEAGUEMATCH_MISSION_08_07",
    "name": "ゴールドランクⅠに昇格しよう！",
    "type": 3,
    "ival": 600,
    "reward_id": "LEAGUEMATCH_REWARD_MISSION_08_07"
  },
  {
    "season_id": 8,
    "iname": "LEAGUEMATCH_MISSION_08_06",
    "name": "プラチナランクⅢに昇格しよう！",
    "type": 3,
    "ival": 700,
    "reward_id": "LEAGUEMATCH_REWARD_MISSION_08_06"
  },
  {
    "season_id": 8,
    "iname": "LEAGUEMATCH_MISSION_08_05",
    "name": "プラチナランクⅡに昇格しよう！",
    "type": 3,
    "ival": 750,
    "reward_id": "LEAGUEMATCH_REWARD_MISSION_08_05"
  },
  {
    "season_id": 8,
    "iname": "LEAGUEMATCH_MISSION_08_04",
    "name": "プラチナランクⅠに昇格しよう！",
    "type": 3,
    "ival": 800,
    "reward_id": "LEAGUEMATCH_REWARD_MISSION_08_04"
  },
  {
    "season_id": 8,
    "iname": "LEAGUEMATCH_MISSION_08_03",
    "name": "ダイヤモンドランクⅢに昇格しよう！",
    "type": 3,
    "ival": 850,
    "reward_id": "LEAGUEMATCH_REWARD_MISSION_08_03"
  },
  {
    "season_id": 8,
    "iname": "LEAGUEMATCH_MISSION_08_02",
    "name": "ダイヤモンドランクⅡに昇格しよう！",
    "type": 3,
    "ival": 900,
    "reward_id": "LEAGUEMATCH_REWARD_MISSION_08_02"
  },
  {
    "season_id": 8,
    "iname": "LEAGUEMATCH_MISSION_08_01",
    "name": "ダイヤモンドランクⅠに昇格しよう！",
    "type": 3,
    "ival": 1000,
    "reward_id": "LEAGUEMATCH_REWARD_MISSION_08_01"
  },
  {
    "season_id": 9,
    "iname": "LEAGUEMATCH_MISSION_09_14",
    "name": "ブロンズランクⅡに昇格しよう！",
    "type": 3,
    "ival": 100,
    "reward_id": "LEAGUEMATCH_REWARD_MISSION_09_14"
  },
  {
    "season_id": 9,
    "iname": "LEAGUEMATCH_MISSION_09_13",
    "name": "ブロンズランクⅠに昇格しよう！",
    "type": 3,
    "ival": 200,
    "reward_id": "LEAGUEMATCH_REWARD_MISSION_09_13"
  },
  {
    "season_id": 9,
    "iname": "LEAGUEMATCH_MISSION_09_12",
    "name": "シルバーランクⅢに昇格しよう！",
    "type": 3,
    "ival": 300,
    "reward_id": "LEAGUEMATCH_REWARD_MISSION_09_12"
  },
  {
    "season_id": 9,
    "iname": "LEAGUEMATCH_MISSION_09_11",
    "name": "シルバーランクⅡに昇格しよう！",
    "type": 3,
    "ival": 350,
    "reward_id": "LEAGUEMATCH_REWARD_MISSION_09_11"
  },
  {
    "season_id": 9,
    "iname": "LEAGUEMATCH_MISSION_09_10",
    "name": "シルバーランクⅠに昇格しよう！",
    "type": 3,
    "ival": 400,
    "reward_id": "LEAGUEMATCH_REWARD_MISSION_09_10"
  },
  {
    "season_id": 9,
    "iname": "LEAGUEMATCH_MISSION_09_09",
    "name": "ゴールドランクⅢに昇格しよう！",
    "type": 3,
    "ival": 500,
    "reward_id": "LEAGUEMATCH_REWARD_MISSION_09_09"
  },
  {
    "season_id": 9,
    "iname": "LEAGUEMATCH_MISSION_09_08",
    "name": "ゴールドランクⅡに昇格しよう！",
    "type": 3,
    "ival": 550,
    "reward_id": "LEAGUEMATCH_REWARD_MISSION_09_08"
  },
  {
    "season_id": 9,
    "iname": "LEAGUEMATCH_MISSION_09_07",
    "name": "ゴールドランクⅠに昇格しよう！",
    "type": 3,
    "ival": 600,
    "reward_id": "LEAGUEMATCH_REWARD_MISSION_09_07"
  },
  {
    "season_id": 9,
    "iname": "LEAGUEMATCH_MISSION_09_06",
    "name": "プラチナランクⅢに昇格しよう！",
    "type": 3,
    "ival": 700,
    "reward_id": "LEAGUEMATCH_REWARD_MISSION_09_06"
  },
  {
    "season_id": 9,
    "iname": "LEAGUEMATCH_MISSION_09_05",
    "name": "プラチナランクⅡに昇格しよう！",
    "type": 3,
    "ival": 750,
    "reward_id": "LEAGUEMATCH_REWARD_MISSION_09_05"
  },
  {
    "season_id": 9,
    "iname": "LEAGUEMATCH_MISSION_09_04",
    "name": "プラチナランクⅠに昇格しよう！",
    "type": 3,
    "ival": 800,
    "reward_id": "LEAGUEMATCH_REWARD_MISSION_09_04"
  },
  {
    "season_id": 9,
    "iname": "LEAGUEMATCH_MISSION_09_03",
    "name": "ダイヤモンドランクⅢに昇格しよう！",
    "type": 3,
    "ival": 850,
    "reward_id": "LEAGUEMATCH_REWARD_MISSION_09_03"
  },
  {
    "season_id": 9,
    "iname": "LEAGUEMATCH_MISSION_09_02",
    "name": "ダイヤモンドランクⅡに昇格しよう！",
    "type": 3,
    "ival": 900,
    "reward_id": "LEAGUEMATCH_REWARD_MISSION_09_02"
  },
  {
    "season_id": 9,
    "iname": "LEAGUEMATCH_MISSION_09_01",
    "name": "ダイヤモンドランクⅠに昇格しよう！",
    "type": 3,
    "ival": 1000,
    "reward_id": "LEAGUEMATCH_REWARD_MISSION_09_01"
  },
  {
    "season_id": 10,
    "iname": "LEAGUEMATCH_MISSION_10_14",
    "name": "ブロンズランクⅡに昇格しよう！",
    "type": 3,
    "ival": 100,
    "reward_id": "LEAGUEMATCH_REWARD_MISSION_10_14"
  },
  {
    "season_id": 10,
    "iname": "LEAGUEMATCH_MISSION_10_13",
    "name": "ブロンズランクⅠに昇格しよう！",
    "type": 3,
    "ival": 200,
    "reward_id": "LEAGUEMATCH_REWARD_MISSION_10_13"
  },
  {
    "season_id": 10,
    "iname": "LEAGUEMATCH_MISSION_10_12",
    "name": "シルバーランクⅢに昇格しよう！",
    "type": 3,
    "ival": 300,
    "reward_id": "LEAGUEMATCH_REWARD_MISSION_10_12"
  },
  {
    "season_id": 10,
    "iname": "LEAGUEMATCH_MISSION_10_11",
    "name": "シルバーランクⅡに昇格しよう！",
    "type": 3,
    "ival": 350,
    "reward_id": "LEAGUEMATCH_REWARD_MISSION_10_11"
  },
  {
    "season_id": 10,
    "iname": "LEAGUEMATCH_MISSION_10_10",
    "name": "シルバーランクⅠに昇格しよう！",
    "type": 3,
    "ival": 400,
    "reward_id": "LEAGUEMATCH_REWARD_MISSION_10_10"
  },
  {
    "season_id": 10,
    "iname": "LEAGUEMATCH_MISSION_10_09",
    "name": "ゴールドランクⅢに昇格しよう！",
    "type": 3,
    "ival": 500,
    "reward_id": "LEAGUEMATCH_REWARD_MISSION_10_09"
  },
  {
    "season_id": 10,
    "iname": "LEAGUEMATCH_MISSION_10_08",
    "name": "ゴールドランクⅡに昇格しよう！",
    "type": 3,
    "ival": 550,
    "reward_id": "LEAGUEMATCH_REWARD_MISSION_10_08"
  },
  {
    "season_id": 10,
    "iname": "LEAGUEMATCH_MISSION_10_07",
    "name": "ゴールドランクⅠに昇格しよう！",
    "type": 3,
    "ival": 600,
    "reward_id": "LEAGUEMATCH_REWARD_MISSION_10_07"
  },
  {
    "season_id": 10,
    "iname": "LEAGUEMATCH_MISSION_10_06",
    "name": "プラチナランクⅢに昇格しよう！",
    "type": 3,
    "ival": 700,
    "reward_id": "LEAGUEMATCH_REWARD_MISSION_10_06"
  },
  {
    "season_id": 10,
    "iname": "LEAGUEMATCH_MISSION_10_05",
    "name": "プラチナランクⅡに昇格しよう！",
    "type": 3,
    "ival": 750,
    "reward_id": "LEAGUEMATCH_REWARD_MISSION_10_05"
  },
  {
    "season_id": 10,
    "iname": "LEAGUEMATCH_MISSION_10_04",
    "name": "プラチナランクⅠに昇格しよう！",
    "type": 3,
    "ival": 800,
    "reward_id": "LEAGUEMATCH_REWARD_MISSION_10_04"
  },
  {
    "season_id": 10,
    "iname": "LEAGUEMATCH_MISSION_10_03",
    "name": "ダイヤモンドランクⅢに昇格しよう！",
    "type": 3,
    "ival": 850,
    "reward_id": "LEAGUEMATCH_REWARD_MISSION_10_03"
  },
  {
    "season_id": 10,
    "iname": "LEAGUEMATCH_MISSION_10_02",
    "name": "ダイヤモンドランクⅡに昇格しよう！",
    "type": 3,
    "ival": 900,
    "reward_id": "LEAGUEMATCH_REWARD_MISSION_10_02"
  },
  {
    "season_id": 10,
    "iname": "LEAGUEMATCH_MISSION_10_01",
    "name": "ダイヤモンドランクⅠに昇格しよう！",
    "type": 3,
    "ival": 1000,
    "reward_id": "LEAGUEMATCH_REWARD_MISSION_10_01"
  },
  {
    "season_id": 11,
    "iname": "LEAGUEMATCH_MISSION_11_14",
    "name": "ブロンズランクⅡに昇格しよう！",
    "type": 3,
    "ival": 100,
    "reward_id": "LEAGUEMATCH_REWARD_MISSION_11_14"
  },
  {
    "season_id": 11,
    "iname": "LEAGUEMATCH_MISSION_11_13",
    "name": "ブロンズランクⅠに昇格しよう！",
    "type": 3,
    "ival": 200,
    "reward_id": "LEAGUEMATCH_REWARD_MISSION_11_13"
  },
  {
    "season_id": 11,
    "iname": "LEAGUEMATCH_MISSION_11_12",
    "name": "シルバーランクⅢに昇格しよう！",
    "type": 3,
    "ival": 300,
    "reward_id": "LEAGUEMATCH_REWARD_MISSION_11_12"
  },
  {
    "season_id": 11,
    "iname": "LEAGUEMATCH_MISSION_11_11",
    "name": "シルバーランクⅡに昇格しよう！",
    "type": 3,
    "ival": 350,
    "reward_id": "LEAGUEMATCH_REWARD_MISSION_11_11"
  },
  {
    "season_id": 11,
    "iname": "LEAGUEMATCH_MISSION_11_10",
    "name": "シルバーランクⅠに昇格しよう！",
    "type": 3,
    "ival": 400,
    "reward_id": "LEAGUEMATCH_REWARD_MISSION_11_10"
  },
  {
    "season_id": 11,
    "iname": "LEAGUEMATCH_MISSION_11_09",
    "name": "ゴールドランクⅢに昇格しよう！",
    "type": 3,
    "ival": 500,
    "reward_id": "LEAGUEMATCH_REWARD_MISSION_11_09"
  },
  {
    "season_id": 11,
    "iname": "LEAGUEMATCH_MISSION_11_08",
    "name": "ゴールドランクⅡに昇格しよう！",
    "type": 3,
    "ival": 550,
    "reward_id": "LEAGUEMATCH_REWARD_MISSION_11_08"
  },
  {
    "season_id": 11,
    "iname": "LEAGUEMATCH_MISSION_11_07",
    "name": "ゴールドランクⅠに昇格しよう！",
    "type": 3,
    "ival": 600,
    "reward_id": "LEAGUEMATCH_REWARD_MISSION_11_07"
  },
  {
    "season_id": 11,
    "iname": "LEAGUEMATCH_MISSION_11_06",
    "name": "プラチナランクⅢに昇格しよう！",
    "type": 3,
    "ival": 700,
    "reward_id": "LEAGUEMATCH_REWARD_MISSION_11_06"
  },
  {
    "season_id": 11,
    "iname": "LEAGUEMATCH_MISSION_11_05",
    "name": "プラチナランクⅡに昇格しよう！",
    "type": 3,
    "ival": 750,
    "reward_id": "LEAGUEMATCH_REWARD_MISSION_11_05"
  },
  {
    "season_id": 11,
    "iname": "LEAGUEMATCH_MISSION_11_04",
    "name": "プラチナランクⅠに昇格しよう！",
    "type": 3,
    "ival": 800,
    "reward_id": "LEAGUEMATCH_REWARD_MISSION_11_04"
  },
  {
    "season_id": 11,
    "iname": "LEAGUEMATCH_MISSION_11_03",
    "name": "ダイヤモンドランクⅢに昇格しよう！",
    "type": 3,
    "ival": 850,
    "reward_id": "LEAGUEMATCH_REWARD_MISSION_11_03"
  },
  {
    "season_id": 11,
    "iname": "LEAGUEMATCH_MISSION_11_02",
    "name": "ダイヤモンドランクⅡに昇格しよう！",
    "type": 3,
    "ival": 900,
    "reward_id": "LEAGUEMATCH_REWARD_MISSION_11_02"
  },
  {
    "season_id": 11,
    "iname": "LEAGUEMATCH_MISSION_11_01",
    "name": "ダイヤモンドランクⅠに昇格しよう！",
    "type": 3,
    "ival": 1000,
    "reward_id": "LEAGUEMATCH_REWARD_MISSION_11_01"
  },
  {
    "season_id": 12,
    "iname": "LEAGUEMATCH_MISSION_12_14",
    "name": "ブロンズランクⅡに昇格しよう！",
    "type": 3,
    "ival": 100,
    "reward_id": "LEAGUEMATCH_REWARD_MISSION_12_14"
  },
  {
    "season_id": 12,
    "iname": "LEAGUEMATCH_MISSION_12_13",
    "name": "ブロンズランクⅠに昇格しよう！",
    "type": 3,
    "ival": 200,
    "reward_id": "LEAGUEMATCH_REWARD_MISSION_12_13"
  },
  {
    "season_id": 12,
    "iname": "LEAGUEMATCH_MISSION_12_12",
    "name": "シルバーランクⅢに昇格しよう！",
    "type": 3,
    "ival": 300,
    "reward_id": "LEAGUEMATCH_REWARD_MISSION_12_12"
  },
  {
    "season_id": 12,
    "iname": "LEAGUEMATCH_MISSION_12_11",
    "name": "シルバーランクⅡに昇格しよう！",
    "type": 3,
    "ival": 350,
    "reward_id": "LEAGUEMATCH_REWARD_MISSION_12_11"
  },
  {
    "season_id": 12,
    "iname": "LEAGUEMATCH_MISSION_12_10",
    "name": "シルバーランクⅠに昇格しよう！",
    "type": 3,
    "ival": 400,
    "reward_id": "LEAGUEMATCH_REWARD_MISSION_12_10"
  },
  {
    "season_id": 12,
    "iname": "LEAGUEMATCH_MISSION_12_09",
    "name": "ゴールドランクⅢに昇格しよう！",
    "type": 3,
    "ival": 500,
    "reward_id": "LEAGUEMATCH_REWARD_MISSION_12_09"
  },
  {
    "season_id": 12,
    "iname": "LEAGUEMATCH_MISSION_12_08",
    "name": "ゴールドランクⅡに昇格しよう！",
    "type": 3,
    "ival": 550,
    "reward_id": "LEAGUEMATCH_REWARD_MISSION_12_08"
  },
  {
    "season_id": 12,
    "iname": "LEAGUEMATCH_MISSION_12_07",
    "name": "ゴールドランクⅠに昇格しよう！",
    "type": 3,
    "ival": 600,
    "reward_id": "LEAGUEMATCH_REWARD_MISSION_12_07"
  },
  {
    "season_id": 12,
    "iname": "LEAGUEMATCH_MISSION_12_06",
    "name": "プラチナランクⅢに昇格しよう！",
    "type": 3,
    "ival": 700,
    "reward_id": "LEAGUEMATCH_REWARD_MISSION_12_06"
  },
  {
    "season_id": 12,
    "iname": "LEAGUEMATCH_MISSION_12_05",
    "name": "プラチナランクⅡに昇格しよう！",
    "type": 3,
    "ival": 750,
    "reward_id": "LEAGUEMATCH_REWARD_MISSION_12_05"
  },
  {
    "season_id": 12,
    "iname": "LEAGUEMATCH_MISSION_12_04",
    "name": "プラチナランクⅠに昇格しよう！",
    "type": 3,
    "ival": 800,
    "reward_id": "LEAGUEMATCH_REWARD_MISSION_12_04"
  },
  {
    "season_id": 12,
    "iname": "LEAGUEMATCH_MISSION_12_03",
    "name": "ダイヤモンドランクⅢに昇格しよう！",
    "type": 3,
    "ival": 850,
    "reward_id": "LEAGUEMATCH_REWARD_MISSION_12_03"
  },
  {
    "season_id": 12,
    "iname": "LEAGUEMATCH_MISSION_12_02",
    "name": "ダイヤモンドランクⅡに昇格しよう！",
    "type": 3,
    "ival": 900,
    "reward_id": "LEAGUEMATCH_REWARD_MISSION_12_02"
  },
  {
    "season_id": 12,
    "iname": "LEAGUEMATCH_MISSION_12_01",
    "name": "ダイヤモンドランクⅠに昇格しよう！",
    "type": 3,
    "ival": 1000,
    "reward_id": "LEAGUEMATCH_REWARD_MISSION_12_01"
  },
  {
    "season_id": 13,
    "iname": "LEAGUEMATCH_MISSION_13_14",
    "name": "ブロンズランクⅡに昇格しよう！",
    "type": 3,
    "ival": 100,
    "reward_id": "LEAGUEMATCH_REWARD_MISSION_13_14"
  },
  {
    "season_id": 13,
    "iname": "LEAGUEMATCH_MISSION_13_13",
    "name": "ブロンズランクⅠに昇格しよう！",
    "type": 3,
    "ival": 200,
    "reward_id": "LEAGUEMATCH_REWARD_MISSION_13_13"
  },
  {
    "season_id": 13,
    "iname": "LEAGUEMATCH_MISSION_13_12",
    "name": "シルバーランクⅢに昇格しよう！",
    "type": 3,
    "ival": 300,
    "reward_id": "LEAGUEMATCH_REWARD_MISSION_13_12"
  },
  {
    "season_id": 13,
    "iname": "LEAGUEMATCH_MISSION_13_11",
    "name": "シルバーランクⅡに昇格しよう！",
    "type": 3,
    "ival": 350,
    "reward_id": "LEAGUEMATCH_REWARD_MISSION_13_11"
  },
  {
    "season_id": 13,
    "iname": "LEAGUEMATCH_MISSION_13_10",
    "name": "シルバーランクⅠに昇格しよう！",
    "type": 3,
    "ival": 400,
    "reward_id": "LEAGUEMATCH_REWARD_MISSION_13_10"
  },
  {
    "season_id": 13,
    "iname": "LEAGUEMATCH_MISSION_13_09",
    "name": "ゴールドランクⅢに昇格しよう！",
    "type": 3,
    "ival": 500,
    "reward_id": "LEAGUEMATCH_REWARD_MISSION_13_09"
  },
  {
    "season_id": 13,
    "iname": "LEAGUEMATCH_MISSION_13_08",
    "name": "ゴールドランクⅡに昇格しよう！",
    "type": 3,
    "ival": 550,
    "reward_id": "LEAGUEMATCH_REWARD_MISSION_13_08"
  },
  {
    "season_id": 13,
    "iname": "LEAGUEMATCH_MISSION_13_07",
    "name": "ゴールドランクⅠに昇格しよう！",
    "type": 3,
    "ival": 600,
    "reward_id": "LEAGUEMATCH_REWARD_MISSION_13_07"
  },
  {
    "season_id": 13,
    "iname": "LEAGUEMATCH_MISSION_13_06",
    "name": "プラチナランクⅢに昇格しよう！",
    "type": 3,
    "ival": 700,
    "reward_id": "LEAGUEMATCH_REWARD_MISSION_13_06"
  },
  {
    "season_id": 13,
    "iname": "LEAGUEMATCH_MISSION_13_05",
    "name": "プラチナランクⅡに昇格しよう！",
    "type": 3,
    "ival": 750,
    "reward_id": "LEAGUEMATCH_REWARD_MISSION_13_05"
  },
  {
    "season_id": 13,
    "iname": "LEAGUEMATCH_MISSION_13_04",
    "name": "プラチナランクⅠに昇格しよう！",
    "type": 3,
    "ival": 800,
    "reward_id": "LEAGUEMATCH_REWARD_MISSION_13_04"
  },
  {
    "season_id": 13,
    "iname": "LEAGUEMATCH_MISSION_13_03",
    "name": "ダイヤモンドランクⅢに昇格しよう！",
    "type": 3,
    "ival": 850,
    "reward_id": "LEAGUEMATCH_REWARD_MISSION_13_03"
  },
  {
    "season_id": 13,
    "iname": "LEAGUEMATCH_MISSION_13_02",
    "name": "ダイヤモンドランクⅡに昇格しよう！",
    "type": 3,
    "ival": 900,
    "reward_id": "LEAGUEMATCH_REWARD_MISSION_13_02"
  },
  {
    "season_id": 13,
    "iname": "LEAGUEMATCH_MISSION_13_01",
    "name": "ダイヤモンドランクⅠに昇格しよう！",
    "type": 3,
    "ival": 1000,
    "reward_id": "LEAGUEMATCH_REWARD_MISSION_13_01"
  },
  {
    "season_id": 14,
    "iname": "LEAGUEMATCH_MISSION_14_14",
    "name": "ブロンズランクⅡに昇格しよう！",
    "type": 3,
    "ival": 100,
    "reward_id": "LEAGUEMATCH_REWARD_MISSION_14_14"
  },
  {
    "season_id": 14,
    "iname": "LEAGUEMATCH_MISSION_14_13",
    "name": "ブロンズランクⅠに昇格しよう！",
    "type": 3,
    "ival": 200,
    "reward_id": "LEAGUEMATCH_REWARD_MISSION_14_13"
  },
  {
    "season_id": 14,
    "iname": "LEAGUEMATCH_MISSION_14_12",
    "name": "シルバーランクⅢに昇格しよう！",
    "type": 3,
    "ival": 300,
    "reward_id": "LEAGUEMATCH_REWARD_MISSION_14_12"
  },
  {
    "season_id": 14,
    "iname": "LEAGUEMATCH_MISSION_14_11",
    "name": "シルバーランクⅡに昇格しよう！",
    "type": 3,
    "ival": 350,
    "reward_id": "LEAGUEMATCH_REWARD_MISSION_14_11"
  },
  {
    "season_id": 14,
    "iname": "LEAGUEMATCH_MISSION_14_10",
    "name": "シルバーランクⅠに昇格しよう！",
    "type": 3,
    "ival": 400,
    "reward_id": "LEAGUEMATCH_REWARD_MISSION_14_10"
  },
  {
    "season_id": 14,
    "iname": "LEAGUEMATCH_MISSION_14_09",
    "name": "ゴールドランクⅢに昇格しよう！",
    "type": 3,
    "ival": 500,
    "reward_id": "LEAGUEMATCH_REWARD_MISSION_14_09"
  },
  {
    "season_id": 14,
    "iname": "LEAGUEMATCH_MISSION_14_08",
    "name": "ゴールドランクⅡに昇格しよう！",
    "type": 3,
    "ival": 550,
    "reward_id": "LEAGUEMATCH_REWARD_MISSION_14_08"
  },
  {
    "season_id": 14,
    "iname": "LEAGUEMATCH_MISSION_14_07",
    "name": "ゴールドランクⅠに昇格しよう！",
    "type": 3,
    "ival": 600,
    "reward_id": "LEAGUEMATCH_REWARD_MISSION_14_07"
  },
  {
    "season_id": 14,
    "iname": "LEAGUEMATCH_MISSION_14_06",
    "name": "プラチナランクⅢに昇格しよう！",
    "type": 3,
    "ival": 700,
    "reward_id": "LEAGUEMATCH_REWARD_MISSION_14_06"
  },
  {
    "season_id": 14,
    "iname": "LEAGUEMATCH_MISSION_14_05",
    "name": "プラチナランクⅡに昇格しよう！",
    "type": 3,
    "ival": 750,
    "reward_id": "LEAGUEMATCH_REWARD_MISSION_14_05"
  },
  {
    "season_id": 14,
    "iname": "LEAGUEMATCH_MISSION_14_04",
    "name": "プラチナランクⅠに昇格しよう！",
    "type": 3,
    "ival": 800,
    "reward_id": "LEAGUEMATCH_REWARD_MISSION_14_04"
  },
  {
    "season_id": 14,
    "iname": "LEAGUEMATCH_MISSION_14_03",
    "name": "ダイヤモンドランクⅢに昇格しよう！",
    "type": 3,
    "ival": 850,
    "reward_id": "LEAGUEMATCH_REWARD_MISSION_14_03"
  },
  {
    "season_id": 14,
    "iname": "LEAGUEMATCH_MISSION_14_02",
    "name": "ダイヤモンドランクⅡに昇格しよう！",
    "type": 3,
    "ival": 900,
    "reward_id": "LEAGUEMATCH_REWARD_MISSION_14_02"
  },
  {
    "season_id": 14,
    "iname": "LEAGUEMATCH_MISSION_14_01",
    "name": "ダイヤモンドランクⅠに昇格しよう！",
    "type": 3,
    "ival": 1000,
    "reward_id": "LEAGUEMATCH_REWARD_MISSION_14_01"
  }
]