[
  {
    "id": 1,
    "begin_at": "2016/01/01",
    "end_at": "2016/01/02",
    "visible_begin_at": "2016/01/01",
    "visible_end_at": "2016/01/02",
    "reward_begin_at": "2016/01/01",
    "reward_end_at": "2016/01/02"
  },
  {
    "id": 2,
    "begin_at": "2017/11/16 15:00:00",
    "end_at": "2017/11/23 14:59:59",
    "visible_begin_at": "2017/11/16 15:00:00",
    "visible_end_at": "2017/11/24 14:59:59",
    "reward_begin_at": "2017/11/16 15:00:00",
    "reward_end_at": "2017/11/30 23:59:59"
  },
  {
    "id": 3,
    "begin_at": "2017/11/16 15:00:00",
    "end_at": "2017/11/23 14:59:59",
    "visible_begin_at": "2017/11/16 15:00:00",
    "visible_end_at": "2017/11/24 14:59:59",
    "reward_begin_at": "2017/11/16 15:00:00",
    "reward_end_at": "2017/11/30 23:59:59"
  },
  {
    "id": 4,
    "begin_at": "2017/11/16 15:00:00",
    "end_at": "2017/11/23 14:59:59",
    "visible_begin_at": "2017/11/16 15:00:00",
    "visible_end_at": "2017/11/24 14:59:59",
    "reward_begin_at": "2017/11/16 15:00:00",
    "reward_end_at": "2017/11/30 23:59:59"
  },
  {
    "id": 6,
    "begin_at": "2017/12/28",
    "end_at": "2018/01/05 14:59:59",
    "visible_begin_at": "2017/12/28",
    "visible_end_at": "2018/01/27 14:59:59",
    "reward_begin_at": "2017/12/28",
    "reward_end_at": "2018/01/27 14:59:59"
  },
  {
    "id": 7,
    "begin_at": "2017/12/28",
    "end_at": "2018/01/05 14:59:59",
    "visible_begin_at": "2017/12/28",
    "visible_end_at": "2018/01/27 14:59:59",
    "reward_begin_at": "2017/12/28",
    "reward_end_at": "2018/01/27 14:59:59"
  },
  {
    "id": 8,
    "begin_at": "2018/01/04 15:00:00",
    "end_at": "2018/01/11 14:59:59",
    "visible_begin_at": "2018/01/04 15:00:00",
    "visible_end_at": "2018/01/27 14:59:59",
    "reward_begin_at": "2018/01/04 15:00:00",
    "reward_end_at": "2018/01/27 14:59:59"
  },
  {
    "id": 9,
    "begin_at": "2018/01/04 15:00:00",
    "end_at": "2018/01/11 14:59:59",
    "visible_begin_at": "2018/01/04 15:00:00",
    "visible_end_at": "2018/01/27 14:59:59",
    "reward_begin_at": "2018/01/04 15:00:00",
    "reward_end_at": "2018/01/27 14:59:59"
  },
  {
    "id": 10,
    "begin_at": "2018/01/11 15:00:00",
    "end_at": "2018/01/17 14:59:59",
    "visible_begin_at": "2018/01/11 15:00:00",
    "visible_end_at": "2018/01/18 14:59:59",
    "reward_begin_at": "2018/01/11 15:00:00",
    "reward_end_at": "2018/01/27 14:59:59"
  },
  {
    "id": 11,
    "begin_at": "2018/01/18 15:00:00",
    "end_at": "2018/01/25 14:59:59",
    "visible_begin_at": "2018/01/18 15:00:00",
    "visible_end_at": "2018/01/27 14:59:59",
    "reward_begin_at": "2018/01/18 15:00:00",
    "reward_end_at": "2018/01/27 14:59:59"
  },
  {
    "id": 12,
    "begin_at": "2018/01/18 15:00:00",
    "end_at": "2018/01/25 14:59:59",
    "visible_begin_at": "2018/01/18 15:00:00",
    "visible_end_at": "2018/01/27 14:59:59",
    "reward_begin_at": "2018/01/18 15:00:00",
    "reward_end_at": "2018/01/27 14:59:59"
  },
  {
    "id": 13,
    "begin_at": "2018/01/18 15:00:00",
    "end_at": "2018/03/08 14:59:59",
    "visible_begin_at": "2018/01/18 15:00:00",
    "visible_end_at": "2018/03/10 14:59:59",
    "reward_begin_at": "2018/01/18 15:00:00",
    "reward_end_at": "2018/03/10 14:59:59"
  },
  {
    "id": 14,
    "begin_at": "2018/06/21 15:00:00",
    "end_at": "2018/06/27 23:59:59",
    "visible_begin_at": "2018/06/21 15:00:00",
    "visible_end_at": "2018/06/28 23:59:59",
    "reward_begin_at": "2018/06/21 15:00:00",
    "reward_end_at": "2018/06/29 23:59:59"
  },
  {
    "id": 15,
    "begin_at": "2018/06/21 15:00:00",
    "end_at": "2018/07/18 14:59:59",
    "visible_begin_at": "2018/06/21 15:00:00",
    "visible_end_at": "2018/07/19 14:59:59",
    "reward_begin_at": "2018/06/21 15:00:00",
    "reward_end_at": "2018/07/19 14:59:59"
  },
  {
    "id": 16,
    "begin_at": "2018/08/16 15:00:00",
    "end_at": "2018/08/22 23:59:59",
    "visible_begin_at": "2018/08/16 15:00:00",
    "visible_end_at": "2018/08/23 23:59:59",
    "reward_begin_at": "2018/08/16 15:00:00",
    "reward_end_at": "2018/08/22 23:59:59"
  },
  {
    "id": 17,
    "begin_at": "2018/09/06 15:00:00",
    "end_at": "2018/09/12 23:59:59",
    "visible_begin_at": "2018/09/06 15:00:00",
    "visible_end_at": "2018/09/20 14:59:59",
    "reward_begin_at": "2018/09/06 15:00:00",
    "reward_end_at": "2018/09/20 14:59:59"
  },
  {
    "id": 18,
    "begin_at": "2018/09/06 15:00:00",
    "end_at": "2018/09/12 23:59:59",
    "visible_begin_at": "2018/09/06 15:00:00",
    "visible_end_at": "2018/09/20 14:59:59",
    "reward_begin_at": "2018/09/06 15:00:00",
    "reward_end_at": "2018/09/20 14:59:59"
  },
  {
    "id": 19,
    "begin_at": "2018/09/13 15:00:00",
    "end_at": "2018/09/19 23:59:59",
    "visible_begin_at": "2018/09/13 15:00:00",
    "visible_end_at": "2018/09/20 14:59:59",
    "reward_begin_at": "2018/09/13 15:00:00",
    "reward_end_at": "2018/09/20 14:59:59"
  },
  {
    "id": 20,
    "begin_at": "2018/09/13 15:00:00",
    "end_at": "2018/09/19 23:59:59",
    "visible_begin_at": "2018/09/13 15:00:00",
    "visible_end_at": "2018/09/20 14:59:59",
    "reward_begin_at": "2018/09/13 15:00:00",
    "reward_end_at": "2018/09/20 14:59:59"
  },
  {
    "id": 21,
    "begin_at": "2018/10/01 15:00:00",
    "end_at": "2018/10/11 14:59:59",
    "visible_begin_at": "2018/10/01 15:00:00",
    "visible_end_at": "2018/10/18 23:59:59",
    "reward_begin_at": "2018/10/11 14:59:59",
    "reward_end_at": "2018/10/18 23:59:59"
  },
  {
    "id": 22,
    "begin_at": "2018/10/01 15:00:00",
    "end_at": "2018/10/31 23:59:59",
    "visible_begin_at": "2018/10/01 15:00:00",
    "visible_end_at": "2018/11/15 23:59:59",
    "reward_begin_at": "2018/11/01",
    "reward_end_at": "2018/11/15 23:59:59"
  },
  {
    "id": 23,
    "begin_at": "2019/01/10 15:00:00",
    "end_at": "2019/01/16 14:59:59",
    "visible_begin_at": "2019/01/10 15:00:00",
    "visible_end_at": "2019/01/17 14:59:59",
    "reward_begin_at": "2019/01/10 15:00:00",
    "reward_end_at": "2019/01/16 14:59:59"
  },
  {
    "id": 24,
    "begin_at": "2019/01/10 15:00:00",
    "end_at": "2019/01/16 14:59:59",
    "visible_begin_at": "2019/01/10 15:00:00",
    "visible_end_at": "2019/01/24 14:59:59",
    "reward_begin_at": "2019/01/10 15:00:00",
    "reward_end_at": "2019/01/24 14:59:59"
  },
  {
    "id": 25,
    "begin_at": "2019/01/17 15:00:00",
    "end_at": "2019/01/23 14:59:59",
    "visible_begin_at": "2019/01/17 15:00:00",
    "visible_end_at": "2019/01/24 14:59:59",
    "reward_begin_at": "2019/01/17 15:00:00",
    "reward_end_at": "2019/01/24 14:59:59"
  },
  {
    "id": 26,
    "begin_at": "2019/02/21 15:00:00",
    "end_at": "2019/02/28 23:59:59",
    "visible_begin_at": "2019/02/21 15:00:00",
    "visible_end_at": "2019/03/07 14:59:59",
    "reward_begin_at": "2019/02/21 15:00:00",
    "reward_end_at": "2019/03/07 14:59:59"
  },
  {
    "id": 27,
    "begin_at": "2018/04/24 15:00:00",
    "end_at": "2018/04/24 15:59:59",
    "visible_begin_at": "2018/04/24 15:00:00",
    "visible_end_at": "2018/04/24 15:59:59",
    "reward_begin_at": "2018/04/24 15:00:00",
    "reward_end_at": "2018/04/24 15:59:59"
  },
  {
    "id": 28,
    "begin_at": "2019/05/01",
    "end_at": "2019/05/08 14:59:59",
    "visible_begin_at": "2019/05/01",
    "visible_end_at": "2019/05/16 14:59:59",
    "reward_begin_at": "2019/05/01",
    "reward_end_at": "2019/05/16 14:59:59"
  },
  {
    "id": 29,
    "begin_at": "2019/05/01",
    "end_at": "2019/05/08 14:59:59",
    "visible_begin_at": "2019/05/01",
    "visible_end_at": "2019/05/16 14:59:59",
    "reward_begin_at": "2019/05/01",
    "reward_end_at": "2019/05/16 14:59:59"
  },
  {
    "id": 30,
    "begin_at": "2019/05/09 15:00:00",
    "end_at": "2019/05/15 14:59:59",
    "visible_begin_at": "2019/05/09 15:00:00",
    "visible_end_at": "2019/05/16 14:59:59",
    "reward_begin_at": "2019/05/09 15:00:00",
    "reward_end_at": "2019/05/16 14:59:59"
  },
  {
    "id": 31,
    "begin_at": "2019/09/12 15:00:00",
    "end_at": "2019/09/18 14:59:59",
    "visible_begin_at": "2019/09/12 15:00:00",
    "visible_end_at": "2019/09/19 14:59:59",
    "reward_begin_at": "2019/09/12 15:00:00",
    "reward_end_at": "2019/09/19 14:59:59"
  },
  {
    "id": 32,
    "begin_at": "2020/06/11 15:00:00",
    "end_at": "2020/06/18 9:59:59",
    "visible_begin_at": "2020/06/11 15:00:00",
    "visible_end_at": "2020/06/19 14:59:59",
    "reward_begin_at": "2020/06/11 15:00:00",
    "reward_end_at": "2020/06/19 14:59:59"
  },
  {
    "id": 33,
    "begin_at": "2021/01/14 15:00:00",
    "end_at": "2021/01/21 14:59:59",
    "visible_begin_at": "2021/01/14 15:00:00",
    "visible_end_at": "2021/01/22 14:59:59",
    "reward_begin_at": "2021/01/14 15:00:00",
    "reward_end_at": "2021/01/27 14:59:59"
  }
]