[
  {
    "iname": "AR_GT_PQ",
    "is_valid": 1,
    "exit_at": "2022/1/06  14:59:59",
    "is_port_top_ranking_hidden": 1
  },
  {
    "iname": "AR_PQ_PORT_01",
    "is_valid": 1,
    "exit_at": "2022/1/13  14:59:59",
    "is_port_top_ranking_hidden": 1
  },
  {
    "iname": "AR_PQ_PORT_TSP_01",
    "is_valid": 1,
    "exit_at": "2023/1/13 14:59:59"
  },
  {
    "iname": "AR_PQ_PORT_02",
    "is_valid": 1,
    "exit_at": "2023/9/7 14:59:59"
  },
  {
    "iname": "AR_PQ_PORT_03",
    "is_valid": 1,
    "exit_at": "2024/2/8 14:59:59"
  },
  {
    "iname": "AR_PQ_20240430",
    "is_valid": 1,
    "exit_at": "2024/5/16 9:59:59",
    "is_port_top_ranking_hidden": 1
  },
  {
    "iname": "AR_PQ_PORT_20240531",
    "is_valid": 1,
    "exit_at": "2024/6/7 14:59:59",
    "is_port_top_ranking_hidden": 1
  },
  {
    "iname": "AR_PQ_20240718",
    "is_valid": 1,
    "exit_at": "2024/7/31 23:59:59",
    "is_port_top_ranking_hidden": 1
  },
  {
    "iname": "AR_PQ_20240831",
    "is_valid": 1,
    "exit_at": "2024/9/19 14:59:59",
    "is_port_top_ranking_hidden": 1
  }
]