[
  {
    "iname": "VS_BETA_RANK_MISSION_01",
    "name": "ランクマッチに1回挑戦しよう！",
    "type": 1,
    "ival": 1,
    "reward_id": "VS_BETA_MISSION_01"
  },
  {
    "iname": "VS_BETA_RANK_MISSION_02",
    "name": "ランクマッチに2回挑戦しよう！",
    "type": 1,
    "ival": 2,
    "reward_id": "VS_BETA_MISSION_02"
  },
  {
    "iname": "VS_BETA_RANK_MISSION_03",
    "name": "ランクマッチに3回挑戦しよう！",
    "type": 1,
    "ival": 3,
    "reward_id": "VS_BETA_MISSION_03"
  },
  {
    "iname": "VS_BETA_RANK_MISSION_04",
    "name": "ランクマッチに6回挑戦しよう！",
    "type": 1,
    "ival": 6,
    "reward_id": "VS_BETA_MISSION_04"
  },
  {
    "iname": "VS_BETA_RANK_MISSION_05",
    "name": "ランクマッチに10回挑戦しよう！",
    "type": 1,
    "ival": 10,
    "reward_id": "VS_BETA_MISSION_05"
  },
  {
    "iname": "VS_BETA_RANK_MISSION_06",
    "name": "ランクマッチで1回勝利しよう！",
    "type": 2,
    "ival": 1,
    "reward_id": "VS_BETA_MISSION_06"
  },
  {
    "iname": "VS_BETA_RANK_MISSION_07",
    "name": "ランクマッチで2回勝利しよう！",
    "type": 2,
    "ival": 2,
    "reward_id": "VS_BETA_MISSION_07"
  },
  {
    "iname": "VS_BETA_RANK_MISSION_08",
    "name": "ランクマッチで3回勝利しよう！",
    "type": 2,
    "ival": 3,
    "reward_id": "VS_BETA_MISSION_08"
  },
  {
    "iname": "VS_BETA_RANK_MISSION_09",
    "name": "ランクマッチで6回勝利しよう！",
    "type": 2,
    "ival": 6,
    "reward_id": "VS_BETA_MISSION_09"
  },
  {
    "iname": "VS_BETA_RANK_MISSION_10",
    "name": "ランクマッチで10回勝利しよう！",
    "type": 2,
    "ival": 10,
    "reward_id": "VS_BETA_MISSION_10"
  },
  {
    "iname": "VS_BETA_RANK_MISSION_11",
    "name": "ブロンズランクに昇格しよう！",
    "type": 3,
    "ival": 200,
    "reward_id": "VS_BETA_MISSION_11"
  },
  {
    "iname": "VS_BETA_RANK_MISSION_12",
    "name": "シルバーランクに昇格しよう！",
    "type": 3,
    "ival": 1500,
    "reward_id": "VS_BETA_MISSION_12"
  },
  {
    "iname": "VS_BETA_RANK_MISSION_13",
    "name": "ゴールドランクに昇格しよう！",
    "type": 3,
    "ival": 2600,
    "reward_id": "VS_BETA_MISSION_13"
  },
  {
    "iname": "VS_BETA_RANK_MISSION_14",
    "name": "プラチナランクに昇格しよう！",
    "type": 3,
    "ival": 3500,
    "reward_id": "VS_BETA_MISSION_14"
  },
  {
    "iname": "VS_RANK_0426_MISSION_01",
    "name": "ブロンズランクに昇格しよう！",
    "type": 3,
    "ival": 200,
    "reward_id": "VS_BETA_MISSION_06"
  },
  {
    "iname": "VS_RANK_0426_MISSION_02",
    "name": "シルバーランクに昇格しよう！",
    "type": 3,
    "ival": 500,
    "reward_id": "VS_BETA_MISSION_06"
  },
  {
    "iname": "VS_RANK_0426_MISSION_03",
    "name": "ゴールドランクに昇格しよう！",
    "type": 3,
    "ival": 900,
    "reward_id": "VS_BETA_MISSION_06"
  },
  {
    "iname": "VS_RANK_0426_MISSION_04",
    "name": "プラチナランクに昇格しよう！",
    "type": 3,
    "ival": 1400,
    "reward_id": "VS_BETA_MISSION_07"
  },
  {
    "iname": "VS_RANK_0426_MISSION_05",
    "name": "ダイヤモンドランクに昇格しよう！",
    "type": 3,
    "ival": 2000,
    "reward_id": "VS_BETA_MISSION_08"
  },
  {
    "iname": "VS_RANK_0426_MISSION_06",
    "name": "ランクマッチで1回勝利しよう！",
    "type": 2,
    "ival": 1,
    "reward_id": "VS_MISSION_2018_0426_01"
  },
  {
    "iname": "VS_RANK_0426_MISSION_07",
    "name": "ランクマッチで2回勝利しよう！",
    "type": 2,
    "ival": 2,
    "reward_id": "VS_MISSION_2018_0426_01"
  },
  {
    "iname": "VS_RANK_0426_MISSION_08",
    "name": "ランクマッチで3回勝利しよう！",
    "type": 2,
    "ival": 3,
    "reward_id": "VS_MISSION_2018_0426_01"
  },
  {
    "iname": "VS_RANK_0426_MISSION_09",
    "name": "ランクマッチで6回勝利しよう！",
    "type": 2,
    "ival": 6,
    "reward_id": "VS_MISSION_2018_0426_01"
  },
  {
    "iname": "VS_RANK_0426_MISSION_10",
    "name": "ランクマッチで10回勝利しよう！",
    "type": 2,
    "ival": 10,
    "reward_id": "VS_MISSION_2018_0426_01"
  },
  {
    "iname": "VS_RANK_0607_MISSION_01",
    "name": "ブロンズランクに昇格しよう！",
    "type": 3,
    "ival": 100,
    "reward_id": "VS_BETA_MISSION_06"
  },
  {
    "iname": "VS_RANK_0607_MISSION_02",
    "name": "シルバーランクに昇格しよう！",
    "type": 3,
    "ival": 250,
    "reward_id": "VS_BETA_MISSION_06"
  },
  {
    "iname": "VS_RANK_0607_MISSION_03",
    "name": "ゴールドランクに昇格しよう！",
    "type": 3,
    "ival": 450,
    "reward_id": "VS_BETA_MISSION_06"
  },
  {
    "iname": "VS_RANK_0607_MISSION_04",
    "name": "プラチナランクに昇格しよう！",
    "type": 3,
    "ival": 700,
    "reward_id": "VS_BETA_MISSION_06"
  },
  {
    "iname": "VS_RANK_0607_MISSION_05",
    "name": "ダイヤモンドランクに昇格しよう！",
    "type": 3,
    "ival": 1000,
    "reward_id": "VS_BETA_MISSION_06"
  },
  {
    "iname": "VS_RANK_0607_MISSION_06",
    "name": "ランクマッチで1回勝利しよう！",
    "type": 2,
    "ival": 1,
    "reward_id": "VS_MISSION_2018_0426_01"
  },
  {
    "iname": "VS_RANK_0607_MISSION_07",
    "name": "ランクマッチで2回勝利しよう！",
    "type": 2,
    "ival": 2,
    "reward_id": "VS_MISSION_2018_0426_01"
  },
  {
    "iname": "VS_RANK_0607_MISSION_08",
    "name": "ランクマッチで3回勝利しよう！",
    "type": 2,
    "ival": 3,
    "reward_id": "VS_MISSION_2018_0426_01"
  },
  {
    "iname": "VS_RANK_0607_MISSION_09",
    "name": "ランクマッチで6回勝利しよう！",
    "type": 2,
    "ival": 6,
    "reward_id": "VS_MISSION_2018_0426_01"
  },
  {
    "iname": "VS_RANK_0607_MISSION_10",
    "name": "ランクマッチで10回勝利しよう！",
    "type": 2,
    "ival": 10,
    "reward_id": "VS_MISSION_2018_0426_01"
  },
  {
    "iname": "VS_RANK_0621_MISSION_01",
    "name": "ブロンズランクに昇格しよう！",
    "type": 3,
    "ival": 100,
    "reward_id": "VS_BETA_MISSION_06"
  },
  {
    "iname": "VS_RANK_0621_MISSION_02",
    "name": "シルバーランクに昇格しよう！",
    "type": 3,
    "ival": 250,
    "reward_id": "VS_BETA_MISSION_06"
  },
  {
    "iname": "VS_RANK_0621_MISSION_03",
    "name": "ゴールドランクに昇格しよう！",
    "type": 3,
    "ival": 450,
    "reward_id": "VS_BETA_MISSION_06"
  },
  {
    "iname": "VS_RANK_0621_MISSION_04",
    "name": "プラチナランクに昇格しよう！",
    "type": 3,
    "ival": 700,
    "reward_id": "VS_BETA_MISSION_06"
  },
  {
    "iname": "VS_RANK_0621_MISSION_05",
    "name": "ダイヤモンドランクに昇格しよう！",
    "type": 3,
    "ival": 1000,
    "reward_id": "VS_BETA_MISSION_06"
  },
  {
    "iname": "VS_RANK_0621_MISSION_06",
    "name": "ランクマッチで1回勝利しよう！",
    "type": 2,
    "ival": 1,
    "reward_id": "VS_MISSION_2018_0426_01"
  },
  {
    "iname": "VS_RANK_0621_MISSION_07",
    "name": "ランクマッチで2回勝利しよう！",
    "type": 2,
    "ival": 2,
    "reward_id": "VS_MISSION_2018_0426_01"
  },
  {
    "iname": "VS_RANK_0621_MISSION_08",
    "name": "ランクマッチで3回勝利しよう！",
    "type": 2,
    "ival": 3,
    "reward_id": "VS_MISSION_2018_0426_01"
  },
  {
    "iname": "VS_RANK_0621_MISSION_09",
    "name": "ランクマッチで6回勝利しよう！",
    "type": 2,
    "ival": 6,
    "reward_id": "VS_MISSION_2018_0426_01"
  },
  {
    "iname": "VS_RANK_0621_MISSION_10",
    "name": "ランクマッチで10回勝利しよう！",
    "type": 2,
    "ival": 10,
    "reward_id": "VS_MISSION_2018_0426_01"
  },
  {
    "iname": "VS_RANK_0712_MISSION_01",
    "name": "ブロンズランクに昇格しよう！",
    "type": 3,
    "ival": 100,
    "reward_id": "VS_BETA_MISSION_06"
  },
  {
    "iname": "VS_RANK_0712_MISSION_02",
    "name": "シルバーランクに昇格しよう！",
    "type": 3,
    "ival": 250,
    "reward_id": "VS_BETA_MISSION_06"
  },
  {
    "iname": "VS_RANK_0712_MISSION_03",
    "name": "ゴールドランクに昇格しよう！",
    "type": 3,
    "ival": 450,
    "reward_id": "VS_BETA_MISSION_06"
  },
  {
    "iname": "VS_RANK_0712_MISSION_04",
    "name": "プラチナランクに昇格しよう！",
    "type": 3,
    "ival": 700,
    "reward_id": "VS_BETA_MISSION_06"
  },
  {
    "iname": "VS_RANK_0712_MISSION_05",
    "name": "ダイヤモンドランクに昇格しよう！",
    "type": 3,
    "ival": 1000,
    "reward_id": "VS_BETA_MISSION_06"
  },
  {
    "iname": "VS_RANK_0712_MISSION_06",
    "name": "ランクマッチで1回勝利しよう！",
    "type": 2,
    "ival": 1,
    "reward_id": "VS_MISSION_2018_0426_01"
  },
  {
    "iname": "VS_RANK_0712_MISSION_07",
    "name": "ランクマッチで2回勝利しよう！",
    "type": 2,
    "ival": 2,
    "reward_id": "VS_MISSION_2018_0426_01"
  },
  {
    "iname": "VS_RANK_0712_MISSION_08",
    "name": "ランクマッチで3回勝利しよう！",
    "type": 2,
    "ival": 3,
    "reward_id": "VS_MISSION_2018_0426_01"
  },
  {
    "iname": "VS_RANK_0712_MISSION_09",
    "name": "ランクマッチで6回勝利しよう！",
    "type": 2,
    "ival": 6,
    "reward_id": "VS_MISSION_2018_0426_01"
  },
  {
    "iname": "VS_RANK_0712_MISSION_10",
    "name": "ランクマッチで10回勝利しよう！",
    "type": 2,
    "ival": 10,
    "reward_id": "VS_MISSION_2018_0426_01"
  },
  {
    "iname": "VS_RANK_0712_MISSION_11",
    "name": "ランクマッチに1回挑戦しよう！",
    "type": 1,
    "ival": 1,
    "reward_id": "VS_0721_MISSION_01"
  },
  {
    "iname": "VS_RANK_0712_MISSION_12",
    "name": "ランクマッチに3回挑戦しよう！",
    "type": 1,
    "ival": 3,
    "reward_id": "VS_0721_MISSION_02"
  },
  {
    "iname": "VS_RANK_0712_MISSION_13",
    "name": "ランクマッチに6回挑戦しよう！",
    "type": 1,
    "ival": 6,
    "reward_id": "VS_0721_MISSION_03"
  },
  {
    "iname": "VS_RANK_0712_MISSION_14",
    "name": "ランクマッチに9回挑戦しよう！",
    "type": 1,
    "ival": 9,
    "reward_id": "VS_0721_MISSION_04"
  },
  {
    "iname": "VS_RANK_0712_MISSION_15",
    "name": "ランクマッチに12回挑戦しよう！",
    "type": 1,
    "ival": 12,
    "reward_id": "VS_0721_MISSION_05"
  },
  {
    "iname": "VS_RANK_0712_MISSION_16",
    "name": "ランクマッチに15回挑戦しよう！",
    "type": 1,
    "ival": 15,
    "reward_id": "VS_0721_MISSION_06"
  },
  {
    "iname": "VS_RANK_0809_MISSION_01",
    "name": "ブロンズランクに昇格しよう！",
    "type": 3,
    "ival": 100,
    "reward_id": "VS_BETA_MISSION_06"
  },
  {
    "iname": "VS_RANK_0809_MISSION_02",
    "name": "シルバーランクに昇格しよう！",
    "type": 3,
    "ival": 250,
    "reward_id": "VS_BETA_MISSION_06"
  },
  {
    "iname": "VS_RANK_0809_MISSION_03",
    "name": "ゴールドランクに昇格しよう！",
    "type": 3,
    "ival": 450,
    "reward_id": "VS_BETA_MISSION_06"
  },
  {
    "iname": "VS_RANK_0809_MISSION_04",
    "name": "プラチナランクに昇格しよう！",
    "type": 3,
    "ival": 700,
    "reward_id": "VS_BETA_MISSION_06"
  },
  {
    "iname": "VS_RANK_0809_MISSION_05",
    "name": "ダイヤモンドランクに昇格しよう！",
    "type": 3,
    "ival": 1000,
    "reward_id": "VS_BETA_MISSION_06"
  },
  {
    "iname": "VS_RANK_0809_MISSION_06",
    "name": "ランクマッチで1回勝利しよう！",
    "type": 2,
    "ival": 1,
    "reward_id": "VS_MISSION_2018_0426_01"
  },
  {
    "iname": "VS_RANK_0809_MISSION_07",
    "name": "ランクマッチで2回勝利しよう！",
    "type": 2,
    "ival": 2,
    "reward_id": "VS_MISSION_2018_0426_01"
  },
  {
    "iname": "VS_RANK_0809_MISSION_08",
    "name": "ランクマッチで3回勝利しよう！",
    "type": 2,
    "ival": 3,
    "reward_id": "VS_MISSION_2018_0426_01"
  },
  {
    "iname": "VS_RANK_0809_MISSION_09",
    "name": "ランクマッチで6回勝利しよう！",
    "type": 2,
    "ival": 6,
    "reward_id": "VS_MISSION_2018_0426_01"
  },
  {
    "iname": "VS_RANK_0809_MISSION_10",
    "name": "ランクマッチで10回勝利しよう！",
    "type": 2,
    "ival": 10,
    "reward_id": "VS_MISSION_2018_0426_01"
  },
  {
    "iname": "VS_RANK_0809_MISSION_11",
    "name": "ランクマッチに1回挑戦しよう！",
    "type": 1,
    "ival": 1,
    "reward_id": "VS_0721_MISSION_01"
  },
  {
    "iname": "VS_RANK_0809_MISSION_12",
    "name": "ランクマッチに3回挑戦しよう！",
    "type": 1,
    "ival": 3,
    "reward_id": "VS_0721_MISSION_02"
  },
  {
    "iname": "VS_RANK_0809_MISSION_13",
    "name": "ランクマッチに6回挑戦しよう！",
    "type": 1,
    "ival": 6,
    "reward_id": "VS_0721_MISSION_03"
  },
  {
    "iname": "VS_RANK_0809_MISSION_14",
    "name": "ランクマッチに9回挑戦しよう！",
    "type": 1,
    "ival": 9,
    "reward_id": "VS_0721_MISSION_04"
  },
  {
    "iname": "VS_RANK_0809_MISSION_15",
    "name": "ランクマッチに12回挑戦しよう！",
    "type": 1,
    "ival": 12,
    "reward_id": "VS_0721_MISSION_05"
  },
  {
    "iname": "VS_RANK_0809_MISSION_16",
    "name": "ランクマッチに15回挑戦しよう！",
    "type": 1,
    "ival": 15,
    "reward_id": "VS_0721_MISSION_06"
  },
  {
    "iname": "VS_RANK_0823_MISSION_01",
    "name": "ブロンズランクに昇格しよう！",
    "type": 3,
    "ival": 100,
    "reward_id": "VS_BETA_MISSION_06"
  },
  {
    "iname": "VS_RANK_0823_MISSION_02",
    "name": "シルバーランクに昇格しよう！",
    "type": 3,
    "ival": 250,
    "reward_id": "VS_BETA_MISSION_06"
  },
  {
    "iname": "VS_RANK_0823_MISSION_03",
    "name": "ゴールドランクに昇格しよう！",
    "type": 3,
    "ival": 450,
    "reward_id": "VS_BETA_MISSION_06"
  },
  {
    "iname": "VS_RANK_0823_MISSION_04",
    "name": "プラチナランクに昇格しよう！",
    "type": 3,
    "ival": 700,
    "reward_id": "VS_BETA_MISSION_06"
  },
  {
    "iname": "VS_RANK_0823_MISSION_05",
    "name": "ダイヤモンドランクに昇格しよう！",
    "type": 3,
    "ival": 1000,
    "reward_id": "VS_BETA_MISSION_06"
  },
  {
    "iname": "VS_RANK_0823_MISSION_06",
    "name": "ランクマッチで1回勝利しよう！",
    "type": 2,
    "ival": 1,
    "reward_id": "VS_MISSION_2018_0426_01"
  },
  {
    "iname": "VS_RANK_0823_MISSION_07",
    "name": "ランクマッチで2回勝利しよう！",
    "type": 2,
    "ival": 2,
    "reward_id": "VS_MISSION_2018_0426_01"
  },
  {
    "iname": "VS_RANK_0823_MISSION_08",
    "name": "ランクマッチで3回勝利しよう！",
    "type": 2,
    "ival": 3,
    "reward_id": "VS_MISSION_2018_0426_01"
  },
  {
    "iname": "VS_RANK_0823_MISSION_09",
    "name": "ランクマッチで6回勝利しよう！",
    "type": 2,
    "ival": 6,
    "reward_id": "VS_MISSION_2018_0426_01"
  },
  {
    "iname": "VS_RANK_0823_MISSION_10",
    "name": "ランクマッチで10回勝利しよう！",
    "type": 2,
    "ival": 10,
    "reward_id": "VS_MISSION_2018_0426_01"
  },
  {
    "iname": "VS_RANK_0823_MISSION_11",
    "name": "ランクマッチに1回挑戦しよう！",
    "type": 1,
    "ival": 1,
    "reward_id": "VS_0721_MISSION_01"
  },
  {
    "iname": "VS_RANK_0823_MISSION_12",
    "name": "ランクマッチに3回挑戦しよう！",
    "type": 1,
    "ival": 3,
    "reward_id": "VS_0721_MISSION_02"
  },
  {
    "iname": "VS_RANK_0823_MISSION_13",
    "name": "ランクマッチに6回挑戦しよう！",
    "type": 1,
    "ival": 6,
    "reward_id": "VS_0721_MISSION_03"
  },
  {
    "iname": "VS_RANK_0823_MISSION_14",
    "name": "ランクマッチに9回挑戦しよう！",
    "type": 1,
    "ival": 9,
    "reward_id": "VS_0721_MISSION_04"
  },
  {
    "iname": "VS_RANK_0823_MISSION_15",
    "name": "ランクマッチに12回挑戦しよう！",
    "type": 1,
    "ival": 12,
    "reward_id": "VS_0721_MISSION_05"
  },
  {
    "iname": "VS_RANK_0823_MISSION_16",
    "name": "ランクマッチに15回挑戦しよう！",
    "type": 1,
    "ival": 15,
    "reward_id": "VS_0721_MISSION_06"
  },
  {
    "iname": "VS_RANK_1011_MISSION_01",
    "name": "ブロンズランクに昇格しよう！",
    "type": 3,
    "ival": 100,
    "reward_id": "VS_BETA_MISSION_06"
  },
  {
    "iname": "VS_RANK_1011_MISSION_02",
    "name": "シルバーランクに昇格しよう！",
    "type": 3,
    "ival": 250,
    "reward_id": "VS_BETA_MISSION_06"
  },
  {
    "iname": "VS_RANK_1011_MISSION_03",
    "name": "ゴールドランクに昇格しよう！",
    "type": 3,
    "ival": 450,
    "reward_id": "VS_BETA_MISSION_06"
  },
  {
    "iname": "VS_RANK_1011_MISSION_04",
    "name": "プラチナランクに昇格しよう！",
    "type": 3,
    "ival": 700,
    "reward_id": "VS_BETA_MISSION_06"
  },
  {
    "iname": "VS_RANK_1011_MISSION_05",
    "name": "ダイヤモンドランクに昇格しよう！",
    "type": 3,
    "ival": 1000,
    "reward_id": "VS_BETA_MISSION_06"
  },
  {
    "iname": "VS_RANK_1011_MISSION_06",
    "name": "ランクマッチで1回勝利しよう！",
    "type": 2,
    "ival": 1,
    "reward_id": "VS_MISSION_2018_0426_01"
  },
  {
    "iname": "VS_RANK_1011_MISSION_07",
    "name": "ランクマッチで2回勝利しよう！",
    "type": 2,
    "ival": 2,
    "reward_id": "VS_MISSION_2018_0426_01"
  },
  {
    "iname": "VS_RANK_1011_MISSION_08",
    "name": "ランクマッチで3回勝利しよう！",
    "type": 2,
    "ival": 3,
    "reward_id": "VS_MISSION_2018_0426_01"
  },
  {
    "iname": "VS_RANK_1011_MISSION_09",
    "name": "ランクマッチで6回勝利しよう！",
    "type": 2,
    "ival": 6,
    "reward_id": "VS_MISSION_2018_0426_01"
  },
  {
    "iname": "VS_RANK_1011_MISSION_10",
    "name": "ランクマッチで10回勝利しよう！",
    "type": 2,
    "ival": 10,
    "reward_id": "VS_MISSION_2018_0426_01"
  },
  {
    "iname": "VS_RANK_1011_MISSION_11",
    "name": "ランクマッチに1回挑戦しよう！",
    "type": 1,
    "ival": 1,
    "reward_id": "VS_0721_MISSION_01"
  },
  {
    "iname": "VS_RANK_1011_MISSION_12",
    "name": "ランクマッチに3回挑戦しよう！",
    "type": 1,
    "ival": 3,
    "reward_id": "VS_0721_MISSION_02"
  },
  {
    "iname": "VS_RANK_1011_MISSION_13",
    "name": "ランクマッチに6回挑戦しよう！",
    "type": 1,
    "ival": 6,
    "reward_id": "VS_0721_MISSION_03"
  },
  {
    "iname": "VS_RANK_1011_MISSION_14",
    "name": "ランクマッチに9回挑戦しよう！",
    "type": 1,
    "ival": 9,
    "reward_id": "VS_0721_MISSION_04"
  },
  {
    "iname": "VS_RANK_1011_MISSION_15",
    "name": "ランクマッチに12回挑戦しよう！",
    "type": 1,
    "ival": 12,
    "reward_id": "VS_0721_MISSION_05"
  },
  {
    "iname": "VS_RANK_1011_MISSION_16",
    "name": "ランクマッチに15回挑戦しよう！",
    "type": 1,
    "ival": 15,
    "reward_id": "VS_0721_MISSION_06"
  },
  {
    "iname": "VS_RANK_1213_MISSION_01",
    "name": "ブロンズランクに昇格しよう！",
    "type": 3,
    "ival": 100,
    "reward_id": "VS_BETA_MISSION_06"
  },
  {
    "iname": "VS_RANK_1213_MISSION_02",
    "name": "シルバーランクに昇格しよう！",
    "type": 3,
    "ival": 250,
    "reward_id": "VS_BETA_MISSION_06"
  },
  {
    "iname": "VS_RANK_1213_MISSION_03",
    "name": "ゴールドランクに昇格しよう！",
    "type": 3,
    "ival": 450,
    "reward_id": "VS_BETA_MISSION_06"
  },
  {
    "iname": "VS_RANK_1213_MISSION_04",
    "name": "プラチナランクに昇格しよう！",
    "type": 3,
    "ival": 700,
    "reward_id": "VS_BETA_MISSION_06"
  },
  {
    "iname": "VS_RANK_1213_MISSION_05",
    "name": "ダイヤモンドランクに昇格しよう！",
    "type": 3,
    "ival": 1000,
    "reward_id": "VS_BETA_MISSION_06"
  },
  {
    "iname": "VS_RANK_1213_MISSION_06",
    "name": "ランクマッチで1回勝利しよう！",
    "type": 2,
    "ival": 1,
    "reward_id": "VS_MISSION_2018_0426_01"
  },
  {
    "iname": "VS_RANK_1213_MISSION_07",
    "name": "ランクマッチで2回勝利しよう！",
    "type": 2,
    "ival": 2,
    "reward_id": "VS_MISSION_2018_0426_01"
  },
  {
    "iname": "VS_RANK_1213_MISSION_08",
    "name": "ランクマッチで3回勝利しよう！",
    "type": 2,
    "ival": 3,
    "reward_id": "VS_MISSION_2018_0426_01"
  },
  {
    "iname": "VS_RANK_1213_MISSION_09",
    "name": "ランクマッチで6回勝利しよう！",
    "type": 2,
    "ival": 6,
    "reward_id": "VS_MISSION_2018_0426_01"
  },
  {
    "iname": "VS_RANK_1213_MISSION_10",
    "name": "ランクマッチで10回勝利しよう！",
    "type": 2,
    "ival": 10,
    "reward_id": "VS_MISSION_2018_0426_01"
  },
  {
    "iname": "VS_RANK_1213_MISSION_11",
    "name": "ランクマッチに1回挑戦しよう！",
    "type": 1,
    "ival": 1,
    "reward_id": "VS_0721_MISSION_01"
  },
  {
    "iname": "VS_RANK_1213_MISSION_12",
    "name": "ランクマッチに3回挑戦しよう！",
    "type": 1,
    "ival": 3,
    "reward_id": "VS_0721_MISSION_02"
  },
  {
    "iname": "VS_RANK_1213_MISSION_13",
    "name": "ランクマッチに6回挑戦しよう！",
    "type": 1,
    "ival": 6,
    "reward_id": "VS_0721_MISSION_03"
  },
  {
    "iname": "VS_RANK_1213_MISSION_14",
    "name": "ランクマッチに9回挑戦しよう！",
    "type": 1,
    "ival": 9,
    "reward_id": "VS_0721_MISSION_04"
  },
  {
    "iname": "VS_RANK_1213_MISSION_15",
    "name": "ランクマッチに12回挑戦しよう！",
    "type": 1,
    "ival": 12,
    "reward_id": "VS_0721_MISSION_05"
  },
  {
    "iname": "VS_RANK_1213_MISSION_16",
    "name": "ランクマッチに15回挑戦しよう！",
    "type": 1,
    "ival": 15,
    "reward_id": "VS_0721_MISSION_06"
  },
  {
    "iname": "VS_RANK_0214_MISSION_01",
    "name": "ブロンズランクに昇格しよう！",
    "type": 3,
    "ival": 100,
    "reward_id": "VS_BETA_MISSION_06"
  },
  {
    "iname": "VS_RANK_0214_MISSION_02",
    "name": "シルバーランクに昇格しよう！",
    "type": 3,
    "ival": 250,
    "reward_id": "VS_BETA_MISSION_06"
  },
  {
    "iname": "VS_RANK_0214_MISSION_03",
    "name": "ゴールドランクに昇格しよう！",
    "type": 3,
    "ival": 450,
    "reward_id": "VS_BETA_MISSION_06"
  },
  {
    "iname": "VS_RANK_0214_MISSION_04",
    "name": "プラチナランクに昇格しよう！",
    "type": 3,
    "ival": 700,
    "reward_id": "VS_BETA_MISSION_06"
  },
  {
    "iname": "VS_RANK_0214_MISSION_05",
    "name": "ダイヤモンドランクに昇格しよう！",
    "type": 3,
    "ival": 1000,
    "reward_id": "VS_BETA_MISSION_06"
  },
  {
    "iname": "VS_RANK_0214_MISSION_06",
    "name": "ランクマッチで1回勝利しよう！",
    "type": 2,
    "ival": 1,
    "reward_id": "VS_MISSION_2018_0426_01"
  },
  {
    "iname": "VS_RANK_0214_MISSION_07",
    "name": "ランクマッチで2回勝利しよう！",
    "type": 2,
    "ival": 2,
    "reward_id": "VS_MISSION_2018_0426_01"
  },
  {
    "iname": "VS_RANK_0214_MISSION_08",
    "name": "ランクマッチで3回勝利しよう！",
    "type": 2,
    "ival": 3,
    "reward_id": "VS_MISSION_2018_0426_01"
  },
  {
    "iname": "VS_RANK_0214_MISSION_09",
    "name": "ランクマッチで6回勝利しよう！",
    "type": 2,
    "ival": 6,
    "reward_id": "VS_MISSION_2018_0426_01"
  },
  {
    "iname": "VS_RANK_0214_MISSION_10",
    "name": "ランクマッチで10回勝利しよう！",
    "type": 2,
    "ival": 10,
    "reward_id": "VS_MISSION_2018_0426_01"
  },
  {
    "iname": "VS_RANK_0214_MISSION_11",
    "name": "ランクマッチに1回挑戦しよう！",
    "type": 1,
    "ival": 1,
    "reward_id": "VS_0721_MISSION_01"
  },
  {
    "iname": "VS_RANK_0214_MISSION_12",
    "name": "ランクマッチに3回挑戦しよう！",
    "type": 1,
    "ival": 3,
    "reward_id": "VS_0721_MISSION_02"
  },
  {
    "iname": "VS_RANK_0214_MISSION_13",
    "name": "ランクマッチに6回挑戦しよう！",
    "type": 1,
    "ival": 6,
    "reward_id": "VS_0721_MISSION_03"
  },
  {
    "iname": "VS_RANK_0214_MISSION_14",
    "name": "ランクマッチに9回挑戦しよう！",
    "type": 1,
    "ival": 9,
    "reward_id": "VS_0721_MISSION_04"
  },
  {
    "iname": "VS_RANK_0214_MISSION_15",
    "name": "ランクマッチに12回挑戦しよう！",
    "type": 1,
    "ival": 12,
    "reward_id": "VS_0721_MISSION_05"
  },
  {
    "iname": "VS_RANK_0214_MISSION_16",
    "name": "ランクマッチに15回挑戦しよう！",
    "type": 1,
    "ival": 15,
    "reward_id": "VS_0721_MISSION_06"
  },
  {
    "iname": "VS_RANK_0307_MISSION_01",
    "name": "ブロンズランクに昇格しよう！",
    "type": 3,
    "ival": 100,
    "reward_id": "VS_BETA_MISSION_06"
  },
  {
    "iname": "VS_RANK_0307_MISSION_02",
    "name": "シルバーランクに昇格しよう！",
    "type": 3,
    "ival": 250,
    "reward_id": "VS_BETA_MISSION_06"
  },
  {
    "iname": "VS_RANK_0307_MISSION_03",
    "name": "ゴールドランクに昇格しよう！",
    "type": 3,
    "ival": 450,
    "reward_id": "VS_BETA_MISSION_06"
  },
  {
    "iname": "VS_RANK_0307_MISSION_04",
    "name": "プラチナランクに昇格しよう！",
    "type": 3,
    "ival": 700,
    "reward_id": "VS_BETA_MISSION_06"
  },
  {
    "iname": "VS_RANK_0307_MISSION_05",
    "name": "ダイヤモンドランクに昇格しよう！",
    "type": 3,
    "ival": 1000,
    "reward_id": "VS_BETA_MISSION_06"
  },
  {
    "iname": "VS_RANK_0307_MISSION_06",
    "name": "ランクマッチで1回勝利しよう！",
    "type": 2,
    "ival": 1,
    "reward_id": "VS_MISSION_2018_0426_01"
  },
  {
    "iname": "VS_RANK_0307_MISSION_07",
    "name": "ランクマッチで2回勝利しよう！",
    "type": 2,
    "ival": 2,
    "reward_id": "VS_MISSION_2018_0426_01"
  },
  {
    "iname": "VS_RANK_0307_MISSION_08",
    "name": "ランクマッチで3回勝利しよう！",
    "type": 2,
    "ival": 3,
    "reward_id": "VS_MISSION_2018_0426_01"
  },
  {
    "iname": "VS_RANK_0307_MISSION_09",
    "name": "ランクマッチで6回勝利しよう！",
    "type": 2,
    "ival": 6,
    "reward_id": "VS_MISSION_2018_0426_01"
  },
  {
    "iname": "VS_RANK_0307_MISSION_10",
    "name": "ランクマッチで10回勝利しよう！",
    "type": 2,
    "ival": 10,
    "reward_id": "VS_MISSION_2018_0426_01"
  },
  {
    "iname": "VS_RANK_0307_MISSION_11",
    "name": "ランクマッチに1回挑戦しよう！",
    "type": 1,
    "ival": 1,
    "reward_id": "VS_0721_MISSION_01"
  },
  {
    "iname": "VS_RANK_0307_MISSION_12",
    "name": "ランクマッチに3回挑戦しよう！",
    "type": 1,
    "ival": 3,
    "reward_id": "VS_0721_MISSION_02"
  },
  {
    "iname": "VS_RANK_0307_MISSION_13",
    "name": "ランクマッチに6回挑戦しよう！",
    "type": 1,
    "ival": 6,
    "reward_id": "VS_0721_MISSION_03"
  },
  {
    "iname": "VS_RANK_0307_MISSION_14",
    "name": "ランクマッチに9回挑戦しよう！",
    "type": 1,
    "ival": 9,
    "reward_id": "VS_0721_MISSION_04"
  },
  {
    "iname": "VS_RANK_0307_MISSION_15",
    "name": "ランクマッチに12回挑戦しよう！",
    "type": 1,
    "ival": 12,
    "reward_id": "VS_0721_MISSION_05"
  },
  {
    "iname": "VS_RANK_0307_MISSION_16",
    "name": "ランクマッチに15回挑戦しよう！",
    "type": 1,
    "ival": 15,
    "reward_id": "VS_0721_MISSION_06"
  },
  {
    "iname": "VS_RANK_0411_MISSION_01",
    "name": "ブロンズランクに昇格しよう！",
    "type": 3,
    "ival": 100,
    "reward_id": "VS_BETA_MISSION_06"
  },
  {
    "iname": "VS_RANK_0411_MISSION_02",
    "name": "シルバーランクに昇格しよう！",
    "type": 3,
    "ival": 250,
    "reward_id": "VS_BETA_MISSION_06"
  },
  {
    "iname": "VS_RANK_0411_MISSION_03",
    "name": "ゴールドランクに昇格しよう！",
    "type": 3,
    "ival": 450,
    "reward_id": "VS_BETA_MISSION_06"
  },
  {
    "iname": "VS_RANK_0411_MISSION_04",
    "name": "プラチナランクに昇格しよう！",
    "type": 3,
    "ival": 700,
    "reward_id": "VS_BETA_MISSION_06"
  },
  {
    "iname": "VS_RANK_0411_MISSION_05",
    "name": "ダイヤモンドランクに昇格しよう！",
    "type": 3,
    "ival": 1000,
    "reward_id": "VS_BETA_MISSION_06"
  },
  {
    "iname": "VS_RANK_0411_MISSION_06",
    "name": "ランクマッチで1回勝利しよう！",
    "type": 2,
    "ival": 1,
    "reward_id": "VS_MISSION_2018_0426_01"
  },
  {
    "iname": "VS_RANK_0411_MISSION_07",
    "name": "ランクマッチで2回勝利しよう！",
    "type": 2,
    "ival": 2,
    "reward_id": "VS_MISSION_2018_0426_01"
  },
  {
    "iname": "VS_RANK_0411_MISSION_08",
    "name": "ランクマッチで3回勝利しよう！",
    "type": 2,
    "ival": 3,
    "reward_id": "VS_MISSION_2018_0426_01"
  },
  {
    "iname": "VS_RANK_0411_MISSION_09",
    "name": "ランクマッチで6回勝利しよう！",
    "type": 2,
    "ival": 6,
    "reward_id": "VS_MISSION_2018_0426_01"
  },
  {
    "iname": "VS_RANK_0411_MISSION_10",
    "name": "ランクマッチで10回勝利しよう！",
    "type": 2,
    "ival": 10,
    "reward_id": "VS_MISSION_2018_0426_01"
  },
  {
    "iname": "VS_RANK_0411_MISSION_11",
    "name": "ランクマッチに1回挑戦しよう！",
    "type": 1,
    "ival": 1,
    "reward_id": "VS_0721_MISSION_01"
  },
  {
    "iname": "VS_RANK_0411_MISSION_12",
    "name": "ランクマッチに3回挑戦しよう！",
    "type": 1,
    "ival": 3,
    "reward_id": "VS_0721_MISSION_02"
  },
  {
    "iname": "VS_RANK_0411_MISSION_13",
    "name": "ランクマッチに6回挑戦しよう！",
    "type": 1,
    "ival": 6,
    "reward_id": "VS_0721_MISSION_03"
  },
  {
    "iname": "VS_RANK_0411_MISSION_14",
    "name": "ランクマッチに9回挑戦しよう！",
    "type": 1,
    "ival": 9,
    "reward_id": "VS_0721_MISSION_04"
  },
  {
    "iname": "VS_RANK_0411_MISSION_15",
    "name": "ランクマッチに12回挑戦しよう！",
    "type": 1,
    "ival": 12,
    "reward_id": "VS_0721_MISSION_05"
  },
  {
    "iname": "VS_RANK_0411_MISSION_16",
    "name": "ランクマッチに15回挑戦しよう！",
    "type": 1,
    "ival": 15,
    "reward_id": "VS_0721_MISSION_06"
  },
  {
    "iname": "VS_RANK_0523_MISSION_01",
    "name": "ブロンズランクに昇格しよう！",
    "type": 3,
    "ival": 100,
    "reward_id": "VS_BETA_MISSION_06"
  },
  {
    "iname": "VS_RANK_0523_MISSION_02",
    "name": "シルバーランクに昇格しよう！",
    "type": 3,
    "ival": 250,
    "reward_id": "VS_BETA_MISSION_06"
  },
  {
    "iname": "VS_RANK_0523_MISSION_03",
    "name": "ゴールドランクに昇格しよう！",
    "type": 3,
    "ival": 450,
    "reward_id": "VS_BETA_MISSION_06"
  },
  {
    "iname": "VS_RANK_0523_MISSION_04",
    "name": "プラチナランクに昇格しよう！",
    "type": 3,
    "ival": 700,
    "reward_id": "VS_BETA_MISSION_06"
  },
  {
    "iname": "VS_RANK_0523_MISSION_05",
    "name": "ダイヤモンドランクに昇格しよう！",
    "type": 3,
    "ival": 1000,
    "reward_id": "VS_BETA_MISSION_06"
  },
  {
    "iname": "VS_RANK_0523_MISSION_06",
    "name": "ランクマッチで1回勝利しよう！",
    "type": 2,
    "ival": 1,
    "reward_id": "VS_MISSION_2018_0426_01"
  },
  {
    "iname": "VS_RANK_0523_MISSION_07",
    "name": "ランクマッチで2回勝利しよう！",
    "type": 2,
    "ival": 2,
    "reward_id": "VS_MISSION_2018_0426_01"
  },
  {
    "iname": "VS_RANK_0523_MISSION_08",
    "name": "ランクマッチで3回勝利しよう！",
    "type": 2,
    "ival": 3,
    "reward_id": "VS_MISSION_2018_0426_01"
  },
  {
    "iname": "VS_RANK_0523_MISSION_09",
    "name": "ランクマッチで6回勝利しよう！",
    "type": 2,
    "ival": 6,
    "reward_id": "VS_MISSION_2018_0426_01"
  },
  {
    "iname": "VS_RANK_0523_MISSION_10",
    "name": "ランクマッチで10回勝利しよう！",
    "type": 2,
    "ival": 10,
    "reward_id": "VS_MISSION_2018_0426_01"
  },
  {
    "iname": "VS_RANK_0523_MISSION_11",
    "name": "ランクマッチに1回挑戦しよう！",
    "type": 1,
    "ival": 1,
    "reward_id": "VS_0721_MISSION_01"
  },
  {
    "iname": "VS_RANK_0523_MISSION_12",
    "name": "ランクマッチに3回挑戦しよう！",
    "type": 1,
    "ival": 3,
    "reward_id": "VS_0721_MISSION_02"
  },
  {
    "iname": "VS_RANK_0523_MISSION_13",
    "name": "ランクマッチに6回挑戦しよう！",
    "type": 1,
    "ival": 6,
    "reward_id": "VS_0721_MISSION_03"
  },
  {
    "iname": "VS_RANK_0523_MISSION_14",
    "name": "ランクマッチに9回挑戦しよう！",
    "type": 1,
    "ival": 9,
    "reward_id": "VS_0721_MISSION_04"
  },
  {
    "iname": "VS_RANK_0523_MISSION_15",
    "name": "ランクマッチに12回挑戦しよう！",
    "type": 1,
    "ival": 12,
    "reward_id": "VS_0721_MISSION_05"
  },
  {
    "iname": "VS_RANK_0523_MISSION_16",
    "name": "ランクマッチに15回挑戦しよう！",
    "type": 1,
    "ival": 15,
    "reward_id": "VS_0721_MISSION_06"
  },
  {
    "iname": "VS_RANK_0621_MISSION_11",
    "name": "ランクマッチに1回挑戦しよう！",
    "type": 1,
    "ival": 1,
    "reward_id": "VS_0721_MISSION_01"
  },
  {
    "iname": "VS_RANK_0621_MISSION_12",
    "name": "ランクマッチに3回挑戦しよう！",
    "type": 1,
    "ival": 3,
    "reward_id": "VS_0721_MISSION_02"
  },
  {
    "iname": "VS_RANK_0621_MISSION_13",
    "name": "ランクマッチに6回挑戦しよう！",
    "type": 1,
    "ival": 6,
    "reward_id": "VS_0721_MISSION_03"
  },
  {
    "iname": "VS_RANK_0621_MISSION_14",
    "name": "ランクマッチに9回挑戦しよう！",
    "type": 1,
    "ival": 9,
    "reward_id": "VS_0721_MISSION_04"
  },
  {
    "iname": "VS_RANK_0621_MISSION_15",
    "name": "ランクマッチに12回挑戦しよう！",
    "type": 1,
    "ival": 12,
    "reward_id": "VS_0721_MISSION_05"
  },
  {
    "iname": "VS_RANK_0621_MISSION_16",
    "name": "ランクマッチに15回挑戦しよう！",
    "type": 1,
    "ival": 15,
    "reward_id": "VS_0721_MISSION_06"
  },
  {
    "iname": "VS_RANK_0808_MISSION_01",
    "name": "ブロンズランクに昇格しよう！",
    "type": 3,
    "ival": 100,
    "reward_id": "VS_BETA_MISSION_06"
  },
  {
    "iname": "VS_RANK_0808_MISSION_02",
    "name": "シルバーランクに昇格しよう！",
    "type": 3,
    "ival": 250,
    "reward_id": "VS_BETA_MISSION_06"
  },
  {
    "iname": "VS_RANK_0808_MISSION_03",
    "name": "ゴールドランクに昇格しよう！",
    "type": 3,
    "ival": 450,
    "reward_id": "VS_BETA_MISSION_06"
  },
  {
    "iname": "VS_RANK_0808_MISSION_04",
    "name": "プラチナランクに昇格しよう！",
    "type": 3,
    "ival": 700,
    "reward_id": "VS_BETA_MISSION_06"
  },
  {
    "iname": "VS_RANK_0808_MISSION_05",
    "name": "ダイヤモンドランクに昇格しよう！",
    "type": 3,
    "ival": 1000,
    "reward_id": "VS_BETA_MISSION_06"
  },
  {
    "iname": "VS_RANK_0808_MISSION_06",
    "name": "ランクマッチで1回勝利しよう！",
    "type": 2,
    "ival": 1,
    "reward_id": "VS_MISSION_2018_0426_01"
  },
  {
    "iname": "VS_RANK_0808_MISSION_07",
    "name": "ランクマッチで2回勝利しよう！",
    "type": 2,
    "ival": 2,
    "reward_id": "VS_MISSION_2018_0426_01"
  },
  {
    "iname": "VS_RANK_0808_MISSION_08",
    "name": "ランクマッチで3回勝利しよう！",
    "type": 2,
    "ival": 3,
    "reward_id": "VS_MISSION_2018_0426_01"
  },
  {
    "iname": "VS_RANK_0808_MISSION_09",
    "name": "ランクマッチで6回勝利しよう！",
    "type": 2,
    "ival": 6,
    "reward_id": "VS_MISSION_2018_0426_01"
  },
  {
    "iname": "VS_RANK_0808_MISSION_10",
    "name": "ランクマッチで10回勝利しよう！",
    "type": 2,
    "ival": 10,
    "reward_id": "VS_MISSION_2018_0426_01"
  },
  {
    "iname": "VS_RANK_0808_MISSION_11",
    "name": "ランクマッチに1回挑戦しよう！",
    "type": 1,
    "ival": 1,
    "reward_id": "VS_0721_MISSION_01"
  },
  {
    "iname": "VS_RANK_0808_MISSION_12",
    "name": "ランクマッチに3回挑戦しよう！",
    "type": 1,
    "ival": 3,
    "reward_id": "VS_0721_MISSION_02"
  },
  {
    "iname": "VS_RANK_0808_MISSION_13",
    "name": "ランクマッチに6回挑戦しよう！",
    "type": 1,
    "ival": 6,
    "reward_id": "VS_0721_MISSION_03"
  },
  {
    "iname": "VS_RANK_0808_MISSION_14",
    "name": "ランクマッチに9回挑戦しよう！",
    "type": 1,
    "ival": 9,
    "reward_id": "VS_0721_MISSION_04"
  },
  {
    "iname": "VS_RANK_0808_MISSION_15",
    "name": "ランクマッチに12回挑戦しよう！",
    "type": 1,
    "ival": 12,
    "reward_id": "VS_0721_MISSION_05"
  },
  {
    "iname": "VS_RANK_0808_MISSION_16",
    "name": "ランクマッチに15回挑戦しよう！",
    "type": 1,
    "ival": 15,
    "reward_id": "VS_0721_MISSION_06"
  },
  {
    "iname": "VS_RANK_0912_MISSION_01",
    "name": "ブロンズランクに昇格しよう！",
    "type": 3,
    "ival": 100,
    "reward_id": "VS_BETA_MISSION_06"
  },
  {
    "iname": "VS_RANK_0912_MISSION_02",
    "name": "シルバーランクに昇格しよう！",
    "type": 3,
    "ival": 250,
    "reward_id": "VS_BETA_MISSION_06"
  },
  {
    "iname": "VS_RANK_0912_MISSION_03",
    "name": "ゴールドランクに昇格しよう！",
    "type": 3,
    "ival": 450,
    "reward_id": "VS_BETA_MISSION_06"
  },
  {
    "iname": "VS_RANK_0912_MISSION_04",
    "name": "プラチナランクに昇格しよう！",
    "type": 3,
    "ival": 700,
    "reward_id": "VS_BETA_MISSION_06"
  },
  {
    "iname": "VS_RANK_0912_MISSION_05",
    "name": "ダイヤモンドランクに昇格しよう！",
    "type": 3,
    "ival": 1000,
    "reward_id": "VS_BETA_MISSION_06"
  },
  {
    "iname": "VS_RANK_0912_MISSION_06",
    "name": "ランクマッチで1回勝利しよう！",
    "type": 2,
    "ival": 1,
    "reward_id": "VS_MISSION_2018_0426_01"
  },
  {
    "iname": "VS_RANK_0912_MISSION_07",
    "name": "ランクマッチで2回勝利しよう！",
    "type": 2,
    "ival": 2,
    "reward_id": "VS_MISSION_2018_0426_01"
  },
  {
    "iname": "VS_RANK_0912_MISSION_08",
    "name": "ランクマッチで3回勝利しよう！",
    "type": 2,
    "ival": 3,
    "reward_id": "VS_MISSION_2018_0426_01"
  },
  {
    "iname": "VS_RANK_0912_MISSION_09",
    "name": "ランクマッチで6回勝利しよう！",
    "type": 2,
    "ival": 6,
    "reward_id": "VS_MISSION_2018_0426_01"
  },
  {
    "iname": "VS_RANK_0912_MISSION_10",
    "name": "ランクマッチで10回勝利しよう！",
    "type": 2,
    "ival": 10,
    "reward_id": "VS_MISSION_2018_0426_01"
  },
  {
    "iname": "VS_RANK_0912_MISSION_11",
    "name": "ランクマッチに1回挑戦しよう！",
    "type": 1,
    "ival": 1,
    "reward_id": "VS_0721_MISSION_01"
  },
  {
    "iname": "VS_RANK_0912_MISSION_12",
    "name": "ランクマッチに3回挑戦しよう！",
    "type": 1,
    "ival": 3,
    "reward_id": "VS_0721_MISSION_02"
  },
  {
    "iname": "VS_RANK_0912_MISSION_13",
    "name": "ランクマッチに6回挑戦しよう！",
    "type": 1,
    "ival": 6,
    "reward_id": "VS_0721_MISSION_03"
  },
  {
    "iname": "VS_RANK_0912_MISSION_14",
    "name": "ランクマッチに9回挑戦しよう！",
    "type": 1,
    "ival": 9,
    "reward_id": "VS_0721_MISSION_04"
  },
  {
    "iname": "VS_RANK_0912_MISSION_15",
    "name": "ランクマッチに12回挑戦しよう！",
    "type": 1,
    "ival": 12,
    "reward_id": "VS_0721_MISSION_05"
  },
  {
    "iname": "VS_RANK_0912_MISSION_16",
    "name": "ランクマッチに15回挑戦しよう！",
    "type": 1,
    "ival": 15,
    "reward_id": "VS_0721_MISSION_06"
  },
  {
    "iname": "VS_RANK_1010_MISSION_01",
    "name": "ブロンズランクに昇格しよう！",
    "type": 3,
    "ival": 100,
    "reward_id": "VS_BETA_MISSION_06"
  },
  {
    "iname": "VS_RANK_1010_MISSION_02",
    "name": "シルバーランクに昇格しよう！",
    "type": 3,
    "ival": 250,
    "reward_id": "VS_BETA_MISSION_06"
  },
  {
    "iname": "VS_RANK_1010_MISSION_03",
    "name": "ゴールドランクに昇格しよう！",
    "type": 3,
    "ival": 450,
    "reward_id": "VS_BETA_MISSION_06"
  },
  {
    "iname": "VS_RANK_1010_MISSION_04",
    "name": "プラチナランクに昇格しよう！",
    "type": 3,
    "ival": 700,
    "reward_id": "VS_BETA_MISSION_06"
  },
  {
    "iname": "VS_RANK_1010_MISSION_05",
    "name": "ダイヤモンドランクに昇格しよう！",
    "type": 3,
    "ival": 1000,
    "reward_id": "VS_BETA_MISSION_06"
  },
  {
    "iname": "VS_RANK_1010_MISSION_06",
    "name": "ランクマッチで1回勝利しよう！",
    "type": 2,
    "ival": 1,
    "reward_id": "VS_MISSION_2018_0426_01"
  },
  {
    "iname": "VS_RANK_1010_MISSION_07",
    "name": "ランクマッチで2回勝利しよう！",
    "type": 2,
    "ival": 2,
    "reward_id": "VS_MISSION_2018_0426_01"
  },
  {
    "iname": "VS_RANK_1010_MISSION_08",
    "name": "ランクマッチで3回勝利しよう！",
    "type": 2,
    "ival": 3,
    "reward_id": "VS_MISSION_2018_0426_01"
  },
  {
    "iname": "VS_RANK_1010_MISSION_09",
    "name": "ランクマッチで6回勝利しよう！",
    "type": 2,
    "ival": 6,
    "reward_id": "VS_MISSION_2018_0426_01"
  },
  {
    "iname": "VS_RANK_1010_MISSION_10",
    "name": "ランクマッチで10回勝利しよう！",
    "type": 2,
    "ival": 10,
    "reward_id": "VS_MISSION_2018_0426_01"
  },
  {
    "iname": "VS_RANK_1010_MISSION_11",
    "name": "ランクマッチに1回挑戦しよう！",
    "type": 1,
    "ival": 1,
    "reward_id": "VS_0721_MISSION_01"
  },
  {
    "iname": "VS_RANK_1010_MISSION_12",
    "name": "ランクマッチに3回挑戦しよう！",
    "type": 1,
    "ival": 3,
    "reward_id": "VS_0721_MISSION_02"
  },
  {
    "iname": "VS_RANK_1010_MISSION_13",
    "name": "ランクマッチに6回挑戦しよう！",
    "type": 1,
    "ival": 6,
    "reward_id": "VS_0721_MISSION_03"
  },
  {
    "iname": "VS_RANK_1010_MISSION_14",
    "name": "ランクマッチに9回挑戦しよう！",
    "type": 1,
    "ival": 9,
    "reward_id": "VS_0721_MISSION_04"
  },
  {
    "iname": "VS_RANK_1010_MISSION_15",
    "name": "ランクマッチに12回挑戦しよう！",
    "type": 1,
    "ival": 12,
    "reward_id": "VS_0721_MISSION_05"
  },
  {
    "iname": "VS_RANK_1010_MISSION_16",
    "name": "ランクマッチに15回挑戦しよう！",
    "type": 1,
    "ival": 15,
    "reward_id": "VS_0721_MISSION_06"
  },
  {
    "iname": "VS_RANK_1107_MISSION_01",
    "name": "ブロンズランクに昇格しよう！",
    "type": 3,
    "ival": 100,
    "reward_id": "VS_BETA_MISSION_06"
  },
  {
    "iname": "VS_RANK_1107_MISSION_02",
    "name": "シルバーランクに昇格しよう！",
    "type": 3,
    "ival": 250,
    "reward_id": "VS_BETA_MISSION_06"
  },
  {
    "iname": "VS_RANK_1107_MISSION_03",
    "name": "ゴールドランクに昇格しよう！",
    "type": 3,
    "ival": 450,
    "reward_id": "VS_BETA_MISSION_06"
  },
  {
    "iname": "VS_RANK_1107_MISSION_04",
    "name": "プラチナランクに昇格しよう！",
    "type": 3,
    "ival": 700,
    "reward_id": "VS_BETA_MISSION_06"
  },
  {
    "iname": "VS_RANK_1107_MISSION_05",
    "name": "ダイヤモンドランクに昇格しよう！",
    "type": 3,
    "ival": 1000,
    "reward_id": "VS_BETA_MISSION_06"
  },
  {
    "iname": "VS_RANK_1107_MISSION_06",
    "name": "ランクマッチで1回勝利しよう！",
    "type": 2,
    "ival": 1,
    "reward_id": "VS_MISSION_2018_0426_01"
  },
  {
    "iname": "VS_RANK_1107_MISSION_07",
    "name": "ランクマッチで2回勝利しよう！",
    "type": 2,
    "ival": 2,
    "reward_id": "VS_MISSION_2018_0426_01"
  },
  {
    "iname": "VS_RANK_1107_MISSION_08",
    "name": "ランクマッチで3回勝利しよう！",
    "type": 2,
    "ival": 3,
    "reward_id": "VS_MISSION_2018_0426_01"
  },
  {
    "iname": "VS_RANK_1107_MISSION_09",
    "name": "ランクマッチで6回勝利しよう！",
    "type": 2,
    "ival": 6,
    "reward_id": "VS_MISSION_2018_0426_01"
  },
  {
    "iname": "VS_RANK_1107_MISSION_10",
    "name": "ランクマッチで10回勝利しよう！",
    "type": 2,
    "ival": 10,
    "reward_id": "VS_MISSION_2018_0426_01"
  },
  {
    "iname": "VS_RANK_1107_MISSION_11",
    "name": "ランクマッチに1回挑戦しよう！",
    "type": 1,
    "ival": 1,
    "reward_id": "VS_0721_MISSION_01"
  },
  {
    "iname": "VS_RANK_1107_MISSION_12",
    "name": "ランクマッチに3回挑戦しよう！",
    "type": 1,
    "ival": 3,
    "reward_id": "VS_0721_MISSION_02"
  },
  {
    "iname": "VS_RANK_1107_MISSION_13",
    "name": "ランクマッチに6回挑戦しよう！",
    "type": 1,
    "ival": 6,
    "reward_id": "VS_0721_MISSION_03"
  },
  {
    "iname": "VS_RANK_1107_MISSION_14",
    "name": "ランクマッチに9回挑戦しよう！",
    "type": 1,
    "ival": 9,
    "reward_id": "VS_0721_MISSION_04"
  },
  {
    "iname": "VS_RANK_1107_MISSION_15",
    "name": "ランクマッチに12回挑戦しよう！",
    "type": 1,
    "ival": 12,
    "reward_id": "VS_0721_MISSION_05"
  },
  {
    "iname": "VS_RANK_1107_MISSION_16",
    "name": "ランクマッチに15回挑戦しよう！",
    "type": 1,
    "ival": 15,
    "reward_id": "VS_0721_MISSION_06"
  },
  {
    "iname": "VS_RANK_1212_MISSION_01",
    "name": "ブロンズランクに昇格しよう！",
    "type": 3,
    "ival": 100,
    "reward_id": "VS_BETA_MISSION_06"
  },
  {
    "iname": "VS_RANK_1212_MISSION_02",
    "name": "シルバーランクに昇格しよう！",
    "type": 3,
    "ival": 250,
    "reward_id": "VS_BETA_MISSION_06"
  },
  {
    "iname": "VS_RANK_1212_MISSION_03",
    "name": "ゴールドランクに昇格しよう！",
    "type": 3,
    "ival": 450,
    "reward_id": "VS_BETA_MISSION_06"
  },
  {
    "iname": "VS_RANK_1212_MISSION_04",
    "name": "プラチナランクに昇格しよう！",
    "type": 3,
    "ival": 700,
    "reward_id": "VS_BETA_MISSION_06"
  },
  {
    "iname": "VS_RANK_1212_MISSION_05",
    "name": "ダイヤモンドランクに昇格しよう！",
    "type": 3,
    "ival": 1000,
    "reward_id": "VS_BETA_MISSION_06"
  },
  {
    "iname": "VS_RANK_1212_MISSION_06",
    "name": "ランクマッチで1回勝利しよう！",
    "type": 2,
    "ival": 1,
    "reward_id": "VS_MISSION_2018_0426_01"
  },
  {
    "iname": "VS_RANK_1212_MISSION_07",
    "name": "ランクマッチで2回勝利しよう！",
    "type": 2,
    "ival": 2,
    "reward_id": "VS_MISSION_2018_0426_01"
  },
  {
    "iname": "VS_RANK_1212_MISSION_08",
    "name": "ランクマッチで3回勝利しよう！",
    "type": 2,
    "ival": 3,
    "reward_id": "VS_MISSION_2018_0426_01"
  },
  {
    "iname": "VS_RANK_1212_MISSION_09",
    "name": "ランクマッチで6回勝利しよう！",
    "type": 2,
    "ival": 6,
    "reward_id": "VS_MISSION_2018_0426_01"
  },
  {
    "iname": "VS_RANK_1212_MISSION_10",
    "name": "ランクマッチで10回勝利しよう！",
    "type": 2,
    "ival": 10,
    "reward_id": "VS_MISSION_2018_0426_01"
  },
  {
    "iname": "VS_RANK_1212_MISSION_11",
    "name": "ランクマッチに1回挑戦しよう！",
    "type": 1,
    "ival": 1,
    "reward_id": "VS_0721_MISSION_01"
  },
  {
    "iname": "VS_RANK_1212_MISSION_12",
    "name": "ランクマッチに3回挑戦しよう！",
    "type": 1,
    "ival": 3,
    "reward_id": "VS_0721_MISSION_02"
  },
  {
    "iname": "VS_RANK_1212_MISSION_13",
    "name": "ランクマッチに6回挑戦しよう！",
    "type": 1,
    "ival": 6,
    "reward_id": "VS_0721_MISSION_03"
  },
  {
    "iname": "VS_RANK_1212_MISSION_14",
    "name": "ランクマッチに9回挑戦しよう！",
    "type": 1,
    "ival": 9,
    "reward_id": "VS_0721_MISSION_04"
  },
  {
    "iname": "VS_RANK_1212_MISSION_15",
    "name": "ランクマッチに12回挑戦しよう！",
    "type": 1,
    "ival": 12,
    "reward_id": "VS_0721_MISSION_05"
  },
  {
    "iname": "VS_RANK_1212_MISSION_16",
    "name": "ランクマッチに15回挑戦しよう！",
    "type": 1,
    "ival": 15,
    "reward_id": "VS_0721_MISSION_06"
  },
  {
    "iname": "VS_RANK_0206_MISSION_01",
    "name": "ブロンズランクに昇格しよう！",
    "type": 3,
    "ival": 100,
    "reward_id": "VS_BETA_MISSION_06"
  },
  {
    "iname": "VS_RANK_0206_MISSION_02",
    "name": "シルバーランクに昇格しよう！",
    "type": 3,
    "ival": 250,
    "reward_id": "VS_BETA_MISSION_06"
  },
  {
    "iname": "VS_RANK_0206_MISSION_03",
    "name": "ゴールドランクに昇格しよう！",
    "type": 3,
    "ival": 450,
    "reward_id": "VS_BETA_MISSION_06"
  },
  {
    "iname": "VS_RANK_0206_MISSION_04",
    "name": "プラチナランクに昇格しよう！",
    "type": 3,
    "ival": 700,
    "reward_id": "VS_BETA_MISSION_06"
  },
  {
    "iname": "VS_RANK_0206_MISSION_05",
    "name": "ダイヤモンドランクに昇格しよう！",
    "type": 3,
    "ival": 1000,
    "reward_id": "VS_BETA_MISSION_06"
  },
  {
    "iname": "VS_RANK_0206_MISSION_06",
    "name": "ランクマッチで1回勝利しよう！",
    "type": 2,
    "ival": 1,
    "reward_id": "VS_MISSION_2018_0426_01"
  },
  {
    "iname": "VS_RANK_0206_MISSION_07",
    "name": "ランクマッチで2回勝利しよう！",
    "type": 2,
    "ival": 2,
    "reward_id": "VS_MISSION_2018_0426_01"
  },
  {
    "iname": "VS_RANK_0206_MISSION_08",
    "name": "ランクマッチで3回勝利しよう！",
    "type": 2,
    "ival": 3,
    "reward_id": "VS_MISSION_2018_0426_01"
  },
  {
    "iname": "VS_RANK_0206_MISSION_09",
    "name": "ランクマッチで6回勝利しよう！",
    "type": 2,
    "ival": 6,
    "reward_id": "VS_MISSION_2018_0426_01"
  },
  {
    "iname": "VS_RANK_0206_MISSION_10",
    "name": "ランクマッチで10回勝利しよう！",
    "type": 2,
    "ival": 10,
    "reward_id": "VS_MISSION_2018_0426_01"
  },
  {
    "iname": "VS_RANK_0206_MISSION_11",
    "name": "ランクマッチに1回挑戦しよう！",
    "type": 1,
    "ival": 1,
    "reward_id": "VS_0721_MISSION_01"
  },
  {
    "iname": "VS_RANK_0206_MISSION_12",
    "name": "ランクマッチに3回挑戦しよう！",
    "type": 1,
    "ival": 3,
    "reward_id": "VS_0721_MISSION_02"
  },
  {
    "iname": "VS_RANK_0206_MISSION_13",
    "name": "ランクマッチに6回挑戦しよう！",
    "type": 1,
    "ival": 6,
    "reward_id": "VS_0721_MISSION_03"
  },
  {
    "iname": "VS_RANK_0206_MISSION_14",
    "name": "ランクマッチに9回挑戦しよう！",
    "type": 1,
    "ival": 9,
    "reward_id": "VS_0721_MISSION_04"
  },
  {
    "iname": "VS_RANK_0206_MISSION_15",
    "name": "ランクマッチに12回挑戦しよう！",
    "type": 1,
    "ival": 12,
    "reward_id": "VS_0721_MISSION_05"
  },
  {
    "iname": "VS_RANK_0206_MISSION_16",
    "name": "ランクマッチに15回挑戦しよう！",
    "type": 1,
    "ival": 15,
    "reward_id": "VS_0721_MISSION_06"
  },
  {
    "iname": "VS_RANK_0514_MISSION_01",
    "name": "ブロンズランクに昇格しよう！",
    "type": 3,
    "ival": 100,
    "reward_id": "VS_BETA_MISSION_06"
  },
  {
    "iname": "VS_RANK_0514_MISSION_02",
    "name": "シルバーランクに昇格しよう！",
    "type": 3,
    "ival": 250,
    "reward_id": "VS_BETA_MISSION_06"
  },
  {
    "iname": "VS_RANK_0514_MISSION_03",
    "name": "ゴールドランクに昇格しよう！",
    "type": 3,
    "ival": 450,
    "reward_id": "VS_BETA_MISSION_06"
  },
  {
    "iname": "VS_RANK_0514_MISSION_04",
    "name": "プラチナランクに昇格しよう！",
    "type": 3,
    "ival": 700,
    "reward_id": "VS_BETA_MISSION_06"
  },
  {
    "iname": "VS_RANK_0514_MISSION_05",
    "name": "ダイヤモンドランクに昇格しよう！",
    "type": 3,
    "ival": 1000,
    "reward_id": "VS_BETA_MISSION_06"
  },
  {
    "iname": "VS_RANK_0514_MISSION_06",
    "name": "ランクマッチで1回勝利しよう！",
    "type": 2,
    "ival": 1,
    "reward_id": "VS_MISSION_2018_0426_01"
  },
  {
    "iname": "VS_RANK_0514_MISSION_07",
    "name": "ランクマッチで2回勝利しよう！",
    "type": 2,
    "ival": 2,
    "reward_id": "VS_MISSION_2018_0426_01"
  },
  {
    "iname": "VS_RANK_0514_MISSION_08",
    "name": "ランクマッチで3回勝利しよう！",
    "type": 2,
    "ival": 3,
    "reward_id": "VS_MISSION_2018_0426_01"
  },
  {
    "iname": "VS_RANK_0514_MISSION_09",
    "name": "ランクマッチで6回勝利しよう！",
    "type": 2,
    "ival": 6,
    "reward_id": "VS_MISSION_2018_0426_01"
  },
  {
    "iname": "VS_RANK_0514_MISSION_10",
    "name": "ランクマッチで10回勝利しよう！",
    "type": 2,
    "ival": 10,
    "reward_id": "VS_MISSION_2018_0426_01"
  },
  {
    "iname": "VS_RANK_0514_MISSION_11",
    "name": "ランクマッチに1回挑戦しよう！",
    "type": 1,
    "ival": 1,
    "reward_id": "VS_0721_MISSION_01"
  },
  {
    "iname": "VS_RANK_0514_MISSION_12",
    "name": "ランクマッチに3回挑戦しよう！",
    "type": 1,
    "ival": 3,
    "reward_id": "VS_0721_MISSION_02"
  },
  {
    "iname": "VS_RANK_0514_MISSION_13",
    "name": "ランクマッチに6回挑戦しよう！",
    "type": 1,
    "ival": 6,
    "reward_id": "VS_0721_MISSION_03"
  },
  {
    "iname": "VS_RANK_0514_MISSION_14",
    "name": "ランクマッチに9回挑戦しよう！",
    "type": 1,
    "ival": 9,
    "reward_id": "VS_0721_MISSION_04"
  },
  {
    "iname": "VS_RANK_0514_MISSION_15",
    "name": "ランクマッチに12回挑戦しよう！",
    "type": 1,
    "ival": 12,
    "reward_id": "VS_0721_MISSION_05"
  },
  {
    "iname": "VS_RANK_0514_MISSION_16",
    "name": "ランクマッチに15回挑戦しよう！",
    "type": 1,
    "ival": 15,
    "reward_id": "VS_0721_MISSION_06"
  },
  {
    "iname": "VS_RANK_201217_MISSION_01",
    "name": "ブロンズランクに昇格しよう！",
    "type": 3,
    "ival": 100,
    "reward_id": "VS_RANK_NEW_MISSION_01"
  },
  {
    "iname": "VS_RANK_201217_MISSION_02",
    "name": "シルバーランクに昇格しよう！",
    "type": 3,
    "ival": 250,
    "reward_id": "VS_RANK_NEW_MISSION_02"
  },
  {
    "iname": "VS_RANK_201217_MISSION_03",
    "name": "ゴールドランクに昇格しよう！",
    "type": 3,
    "ival": 450,
    "reward_id": "VS_RANK_NEW_MISSION_03"
  },
  {
    "iname": "VS_RANK_201217_MISSION_04",
    "name": "プラチナランクに昇格しよう！",
    "type": 3,
    "ival": 700,
    "reward_id": "VS_RANK_NEW_MISSION_04"
  },
  {
    "iname": "VS_RANK_201217_MISSION_05",
    "name": "ダイヤモンドランクに昇格しよう！",
    "type": 3,
    "ival": 1000,
    "reward_id": "VS_RANK_NEW_MISSION_05"
  },
  {
    "iname": "VS_RANK_210210_MISSION_01",
    "name": "ブロンズランクに昇格しよう！",
    "type": 3,
    "ival": 100,
    "reward_id": "VS_RANK_NEW_MISSION_01"
  },
  {
    "iname": "VS_RANK_210210_MISSION_02",
    "name": "シルバーランクに昇格しよう！",
    "type": 3,
    "ival": 250,
    "reward_id": "VS_RANK_NEW_MISSION_02"
  },
  {
    "iname": "VS_RANK_210210_MISSION_03",
    "name": "ゴールドランクに昇格しよう！",
    "type": 3,
    "ival": 450,
    "reward_id": "VS_RANK_NEW_MISSION_03"
  },
  {
    "iname": "VS_RANK_210210_MISSION_04",
    "name": "プラチナランクに昇格しよう！",
    "type": 3,
    "ival": 700,
    "reward_id": "VS_RANK_NEW_MISSION_04"
  },
  {
    "iname": "VS_RANK_210210_MISSION_05",
    "name": "ダイヤモンドランクに昇格しよう！",
    "type": 3,
    "ival": 1000,
    "reward_id": "VS_RANK_NEW_MISSION_05"
  },
  {
    "iname": "VS_RANK_210325_MISSION_01",
    "name": "ブロンズランクに昇格しよう！",
    "type": 3,
    "ival": 100,
    "reward_id": "VS_RANK_NEW_MISSION_01"
  },
  {
    "iname": "VS_RANK_210325_MISSION_02",
    "name": "シルバーランクに昇格しよう！",
    "type": 3,
    "ival": 250,
    "reward_id": "VS_RANK_NEW_MISSION_02"
  },
  {
    "iname": "VS_RANK_210325_MISSION_03",
    "name": "ゴールドランクに昇格しよう！",
    "type": 3,
    "ival": 450,
    "reward_id": "VS_RANK_NEW_MISSION_03"
  },
  {
    "iname": "VS_RANK_210325_MISSION_04",
    "name": "プラチナランクに昇格しよう！",
    "type": 3,
    "ival": 700,
    "reward_id": "VS_RANK_NEW_MISSION_04"
  },
  {
    "iname": "VS_RANK_210325_MISSION_05",
    "name": "ダイヤモンドランクに昇格しよう！",
    "type": 3,
    "ival": 1000,
    "reward_id": "VS_RANK_NEW_MISSION_05"
  },
  {
    "iname": "VS_RANK_210415_MISSION_01",
    "name": "ブロンズランクに昇格しよう！",
    "type": 3,
    "ival": 100,
    "reward_id": "VS_RANK_NEW_MISSION_01"
  },
  {
    "iname": "VS_RANK_210415_MISSION_02",
    "name": "シルバーランクに昇格しよう！",
    "type": 3,
    "ival": 250,
    "reward_id": "VS_RANK_NEW_MISSION_02"
  },
  {
    "iname": "VS_RANK_210415_MISSION_03",
    "name": "ゴールドランクに昇格しよう！",
    "type": 3,
    "ival": 450,
    "reward_id": "VS_RANK_NEW_MISSION_03"
  },
  {
    "iname": "VS_RANK_210415_MISSION_04",
    "name": "プラチナランクに昇格しよう！",
    "type": 3,
    "ival": 700,
    "reward_id": "VS_RANK_NEW_MISSION_04"
  },
  {
    "iname": "VS_RANK_210415_MISSION_05",
    "name": "ダイヤモンドランクに昇格しよう！",
    "type": 3,
    "ival": 1000,
    "reward_id": "VS_RANK_NEW_MISSION_05"
  },
  {
    "iname": "VS_RANK_210513_MISSION_01",
    "name": "ブロンズランクに昇格しよう！",
    "type": 3,
    "ival": 100,
    "reward_id": "VS_RANK_NEW_MISSION_01"
  },
  {
    "iname": "VS_RANK_210513_MISSION_02",
    "name": "シルバーランクに昇格しよう！",
    "type": 3,
    "ival": 250,
    "reward_id": "VS_RANK_NEW_MISSION_02"
  },
  {
    "iname": "VS_RANK_210513_MISSION_03",
    "name": "ゴールドランクに昇格しよう！",
    "type": 3,
    "ival": 450,
    "reward_id": "VS_RANK_NEW_MISSION_03"
  },
  {
    "iname": "VS_RANK_210513_MISSION_04",
    "name": "プラチナランクに昇格しよう！",
    "type": 3,
    "ival": 700,
    "reward_id": "VS_RANK_NEW_MISSION_04"
  },
  {
    "iname": "VS_RANK_210513_MISSION_05",
    "name": "ダイヤモンドランクに昇格しよう！",
    "type": 3,
    "ival": 1000,
    "reward_id": "VS_RANK_NEW_MISSION_05"
  },
  {
    "iname": "VS_RANK_210715_MISSION_01",
    "name": "ブロンズランクに昇格しよう！",
    "type": 3,
    "ival": 100,
    "reward_id": "VS_RANK_NEW_MISSION_01"
  },
  {
    "iname": "VS_RANK_210715_MISSION_02",
    "name": "シルバーランクに昇格しよう！",
    "type": 3,
    "ival": 250,
    "reward_id": "VS_RANK_NEW_MISSION_02"
  },
  {
    "iname": "VS_RANK_210715_MISSION_03",
    "name": "ゴールドランクに昇格しよう！",
    "type": 3,
    "ival": 450,
    "reward_id": "VS_RANK_NEW_MISSION_03"
  },
  {
    "iname": "VS_RANK_210715_MISSION_04",
    "name": "プラチナランクに昇格しよう！",
    "type": 3,
    "ival": 700,
    "reward_id": "VS_RANK_NEW_MISSION_04"
  },
  {
    "iname": "VS_RANK_210715_MISSION_05",
    "name": "ダイヤモンドランクに昇格しよう！",
    "type": 3,
    "ival": 1000,
    "reward_id": "VS_RANK_NEW_MISSION_05"
  },
  {
    "iname": "VS_RANK_210916_MISSION_01",
    "name": "ブロンズランクに昇格しよう！",
    "type": 3,
    "ival": 100,
    "reward_id": "VS_RANK_NEW_MISSION_01"
  },
  {
    "iname": "VS_RANK_210916_MISSION_02",
    "name": "シルバーランクに昇格しよう！",
    "type": 3,
    "ival": 250,
    "reward_id": "VS_RANK_NEW_MISSION_02"
  },
  {
    "iname": "VS_RANK_210916_MISSION_03",
    "name": "ゴールドランクに昇格しよう！",
    "type": 3,
    "ival": 450,
    "reward_id": "VS_RANK_NEW_MISSION_03"
  },
  {
    "iname": "VS_RANK_210916_MISSION_04",
    "name": "プラチナランクに昇格しよう！",
    "type": 3,
    "ival": 700,
    "reward_id": "VS_RANK_NEW_MISSION_04"
  },
  {
    "iname": "VS_RANK_210916_MISSION_05",
    "name": "ダイヤモンドランクに昇格しよう！",
    "type": 3,
    "ival": 1000,
    "reward_id": "VS_RANK_NEW_MISSION_05"
  },
  {
    "iname": "VS_RANK_211111_MISSION_01",
    "name": "ブロンズランクに昇格しよう！",
    "type": 3,
    "ival": 100,
    "reward_id": "VS_RANK_NEW_MISSION_01"
  },
  {
    "iname": "VS_RANK_211111_MISSION_02",
    "name": "シルバーランクに昇格しよう！",
    "type": 3,
    "ival": 250,
    "reward_id": "VS_RANK_NEW_MISSION_02"
  },
  {
    "iname": "VS_RANK_211111_MISSION_03",
    "name": "ゴールドランクに昇格しよう！",
    "type": 3,
    "ival": 450,
    "reward_id": "VS_RANK_NEW_MISSION_03"
  },
  {
    "iname": "VS_RANK_211111_MISSION_04",
    "name": "プラチナランクに昇格しよう！",
    "type": 3,
    "ival": 700,
    "reward_id": "VS_RANK_NEW_MISSION_04"
  },
  {
    "iname": "VS_RANK_211111_MISSION_05",
    "name": "ダイヤモンドランクに昇格しよう！",
    "type": 3,
    "ival": 1000,
    "reward_id": "VS_RANK_NEW_MISSION_05"
  },
  {
    "iname": "VS_RANK_220317_MISSION_01",
    "name": "ブロンズランクに昇格しよう！",
    "type": 3,
    "ival": 100,
    "reward_id": "VS_RANK_NEW_MISSION_01_WHITEDAYCUP_2022"
  },
  {
    "iname": "VS_RANK_220317_MISSION_02",
    "name": "シルバーランクに昇格しよう！",
    "type": 3,
    "ival": 250,
    "reward_id": "VS_RANK_NEW_MISSION_02"
  },
  {
    "iname": "VS_RANK_220317_MISSION_03",
    "name": "ゴールドランクに昇格しよう！",
    "type": 3,
    "ival": 450,
    "reward_id": "VS_RANK_NEW_MISSION_03"
  },
  {
    "iname": "VS_RANK_220317_MISSION_04",
    "name": "プラチナランクに昇格しよう！",
    "type": 3,
    "ival": 700,
    "reward_id": "VS_RANK_NEW_MISSION_04"
  },
  {
    "iname": "VS_RANK_220317_MISSION_05",
    "name": "ダイヤモンドランクに昇格しよう！",
    "type": 3,
    "ival": 1000,
    "reward_id": "VS_RANK_NEW_MISSION_05"
  },
  {
    "iname": "VS_RANK_220512_MISSION_01",
    "name": "ブロンズランクに昇格しよう！",
    "type": 3,
    "ival": 100,
    "reward_id": "VS_RANK_NEW_MISSION_01"
  },
  {
    "iname": "VS_RANK_220512_MISSION_02",
    "name": "シルバーランクに昇格しよう！",
    "type": 3,
    "ival": 250,
    "reward_id": "VS_RANK_NEW_MISSION_02"
  },
  {
    "iname": "VS_RANK_220512_MISSION_03",
    "name": "ゴールドランクに昇格しよう！",
    "type": 3,
    "ival": 450,
    "reward_id": "VS_RANK_NEW_MISSION_03"
  },
  {
    "iname": "VS_RANK_220512_MISSION_04",
    "name": "プラチナランクに昇格しよう！",
    "type": 3,
    "ival": 700,
    "reward_id": "VS_RANK_NEW_MISSION_04"
  },
  {
    "iname": "VS_RANK_220512_MISSION_05",
    "name": "ダイヤモンドランクに昇格しよう！",
    "type": 3,
    "ival": 1000,
    "reward_id": "VS_RANK_NEW_MISSION_05"
  },
  {
    "iname": "VS_RANK_220818_MISSION_01",
    "name": "ブロンズランクに昇格しよう！",
    "type": 3,
    "ival": 100,
    "reward_id": "VS_RANK_NEW_MISSION_01"
  },
  {
    "iname": "VS_RANK_220818_MISSION_02",
    "name": "シルバーランクに昇格しよう！",
    "type": 3,
    "ival": 250,
    "reward_id": "VS_RANK_NEW_MISSION_02"
  },
  {
    "iname": "VS_RANK_220818_MISSION_03",
    "name": "ゴールドランクに昇格しよう！",
    "type": 3,
    "ival": 450,
    "reward_id": "VS_RANK_NEW_MISSION_03"
  },
  {
    "iname": "VS_RANK_220818_MISSION_04",
    "name": "プラチナランクに昇格しよう！",
    "type": 3,
    "ival": 700,
    "reward_id": "VS_RANK_NEW_MISSION_04"
  },
  {
    "iname": "VS_RANK_220818_MISSION_05",
    "name": "ダイヤモンドランクに昇格しよう！",
    "type": 3,
    "ival": 1000,
    "reward_id": "VS_RANK_NEW_MISSION_05"
  },
  {
    "iname": "VS_RANK_220915_MISSION_01",
    "name": "ブロンズランクに昇格しよう！",
    "type": 3,
    "ival": 100,
    "reward_id": "VS_RANK_NEW_MISSION_01"
  },
  {
    "iname": "VS_RANK_220915_MISSION_02",
    "name": "シルバーランクに昇格しよう！",
    "type": 3,
    "ival": 250,
    "reward_id": "VS_RANK_NEW_MISSION_02"
  },
  {
    "iname": "VS_RANK_220915_MISSION_03",
    "name": "ゴールドランクに昇格しよう！",
    "type": 3,
    "ival": 450,
    "reward_id": "VS_RANK_NEW_MISSION_03"
  },
  {
    "iname": "VS_RANK_220915_MISSION_04",
    "name": "プラチナランクに昇格しよう！",
    "type": 3,
    "ival": 700,
    "reward_id": "VS_RANK_NEW_MISSION_04"
  },
  {
    "iname": "VS_RANK_220915_MISSION_05",
    "name": "ダイヤモンドランクに昇格しよう！",
    "type": 3,
    "ival": 1000,
    "reward_id": "VS_RANK_NEW_MISSION_05"
  },
  {
    "iname": "VS_RANK_221013_MISSION_01",
    "name": "ブロンズランクに昇格しよう！",
    "type": 3,
    "ival": 100,
    "reward_id": "VS_RANK_NEW_MISSION_01"
  },
  {
    "iname": "VS_RANK_221013_MISSION_02",
    "name": "シルバーランクに昇格しよう！",
    "type": 3,
    "ival": 250,
    "reward_id": "VS_RANK_NEW_MISSION_02"
  },
  {
    "iname": "VS_RANK_221013_MISSION_03",
    "name": "ゴールドランクに昇格しよう！",
    "type": 3,
    "ival": 450,
    "reward_id": "VS_RANK_NEW_MISSION_03"
  },
  {
    "iname": "VS_RANK_221013_MISSION_04",
    "name": "プラチナランクに昇格しよう！",
    "type": 3,
    "ival": 700,
    "reward_id": "VS_RANK_NEW_MISSION_04"
  },
  {
    "iname": "VS_RANK_221013_MISSION_05",
    "name": "ダイヤモンドランクに昇格しよう！",
    "type": 3,
    "ival": 1000,
    "reward_id": "VS_RANK_NEW_MISSION_05"
  },
  {
    "iname": "VS_RANK_221117_MISSION_01",
    "name": "ブロンズランクに昇格しよう！",
    "type": 3,
    "ival": 100,
    "reward_id": "VS_RANK_NEW_MISSION_01"
  },
  {
    "iname": "VS_RANK_221117_MISSION_02",
    "name": "シルバーランクに昇格しよう！",
    "type": 3,
    "ival": 250,
    "reward_id": "VS_RANK_NEW_MISSION_02"
  },
  {
    "iname": "VS_RANK_221117_MISSION_03",
    "name": "ゴールドランクに昇格しよう！",
    "type": 3,
    "ival": 450,
    "reward_id": "VS_RANK_NEW_MISSION_03"
  },
  {
    "iname": "VS_RANK_221117_MISSION_04",
    "name": "プラチナランクに昇格しよう！",
    "type": 3,
    "ival": 700,
    "reward_id": "VS_RANK_NEW_MISSION_04"
  },
  {
    "iname": "VS_RANK_221117_MISSION_05",
    "name": "ダイヤモンドランクに昇格しよう！",
    "type": 3,
    "ival": 1000,
    "reward_id": "VS_RANK_NEW_MISSION_05"
  },
  {
    "iname": "VS_RANK_230309_MISSION_01",
    "name": "ブロンズランクに昇格しよう！",
    "type": 3,
    "ival": 100,
    "reward_id": "VS_RANK_NEW_MISSION_01"
  },
  {
    "iname": "VS_RANK_230309_MISSION_02",
    "name": "シルバーランクに昇格しよう！",
    "type": 3,
    "ival": 250,
    "reward_id": "VS_RANK_NEW_MISSION_02"
  },
  {
    "iname": "VS_RANK_230309_MISSION_03",
    "name": "ゴールドランクに昇格しよう！",
    "type": 3,
    "ival": 450,
    "reward_id": "VS_RANK_NEW_MISSION_03"
  },
  {
    "iname": "VS_RANK_230309_MISSION_04",
    "name": "プラチナランクに昇格しよう！",
    "type": 3,
    "ival": 700,
    "reward_id": "VS_RANK_NEW_MISSION_04"
  },
  {
    "iname": "VS_RANK_230309_MISSION_05",
    "name": "ダイヤモンドランクに昇格しよう！",
    "type": 3,
    "ival": 1000,
    "reward_id": "VS_RANK_NEW_MISSION_05"
  },
  {
    "iname": "VS_RANK_230511_MISSION_01",
    "name": "ブロンズランクに昇格しよう！",
    "type": 3,
    "ival": 100,
    "reward_id": "VS_RANK_NEW_MISSION_01"
  },
  {
    "iname": "VS_RANK_230511_MISSION_02",
    "name": "シルバーランクに昇格しよう！",
    "type": 3,
    "ival": 250,
    "reward_id": "VS_RANK_NEW_MISSION_02"
  },
  {
    "iname": "VS_RANK_230511_MISSION_03",
    "name": "ゴールドランクに昇格しよう！",
    "type": 3,
    "ival": 450,
    "reward_id": "VS_RANK_NEW_MISSION_03"
  },
  {
    "iname": "VS_RANK_230511_MISSION_04",
    "name": "プラチナランクに昇格しよう！",
    "type": 3,
    "ival": 700,
    "reward_id": "VS_RANK_NEW_MISSION_04"
  },
  {
    "iname": "VS_RANK_230511_MISSION_05",
    "name": "ダイヤモンドランクに昇格しよう！",
    "type": 3,
    "ival": 1000,
    "reward_id": "VS_RANK_NEW_MISSION_05"
  },
  {
    "iname": "VS_RANK_230713_MISSION_01",
    "name": "ブロンズランクに昇格しよう！",
    "type": 3,
    "ival": 100,
    "reward_id": "VS_RANK_NEW_MISSION_01"
  },
  {
    "iname": "VS_RANK_230713_MISSION_02",
    "name": "シルバーランクに昇格しよう！",
    "type": 3,
    "ival": 250,
    "reward_id": "VS_RANK_NEW_MISSION_02"
  },
  {
    "iname": "VS_RANK_230713_MISSION_03",
    "name": "ゴールドランクに昇格しよう！",
    "type": 3,
    "ival": 450,
    "reward_id": "VS_RANK_NEW_MISSION_03"
  },
  {
    "iname": "VS_RANK_230713_MISSION_04",
    "name": "プラチナランクに昇格しよう！",
    "type": 3,
    "ival": 700,
    "reward_id": "VS_RANK_NEW_MISSION_04"
  },
  {
    "iname": "VS_RANK_230713_MISSION_05",
    "name": "ダイヤモンドランクに昇格しよう！",
    "type": 3,
    "ival": 1000,
    "reward_id": "VS_RANK_NEW_MISSION_05"
  },
  {
    "iname": "VS_RANK_230907_MISSION_01",
    "name": "ブロンズランクに昇格しよう！",
    "type": 3,
    "ival": 100,
    "reward_id": "VS_RANK_NEW_MISSION_01"
  },
  {
    "iname": "VS_RANK_230907_MISSION_02",
    "name": "シルバーランクに昇格しよう！",
    "type": 3,
    "ival": 250,
    "reward_id": "VS_RANK_NEW_MISSION_02"
  },
  {
    "iname": "VS_RANK_230907_MISSION_03",
    "name": "ゴールドランクに昇格しよう！",
    "type": 3,
    "ival": 450,
    "reward_id": "VS_RANK_NEW_MISSION_03"
  },
  {
    "iname": "VS_RANK_230907_MISSION_04",
    "name": "プラチナランクに昇格しよう！",
    "type": 3,
    "ival": 700,
    "reward_id": "VS_RANK_NEW_MISSION_04"
  },
  {
    "iname": "VS_RANK_230907_MISSION_05",
    "name": "ダイヤモンドランクに昇格しよう！",
    "type": 3,
    "ival": 1000,
    "reward_id": "VS_RANK_NEW_MISSION_05"
  },
  {
    "iname": "VS_RANK_231109_MISSION_01",
    "name": "ブロンズランクに昇格しよう！",
    "type": 3,
    "ival": 100,
    "reward_id": "VS_RANK_NEW_MISSION_01"
  },
  {
    "iname": "VS_RANK_231109_MISSION_02",
    "name": "シルバーランクに昇格しよう！",
    "type": 3,
    "ival": 250,
    "reward_id": "VS_RANK_NEW_MISSION_02"
  },
  {
    "iname": "VS_RANK_231109_MISSION_03",
    "name": "ゴールドランクに昇格しよう！",
    "type": 3,
    "ival": 450,
    "reward_id": "VS_RANK_NEW_MISSION_03"
  },
  {
    "iname": "VS_RANK_231109_MISSION_04",
    "name": "プラチナランクに昇格しよう！",
    "type": 3,
    "ival": 700,
    "reward_id": "VS_RANK_NEW_MISSION_04"
  },
  {
    "iname": "VS_RANK_231109_MISSION_05",
    "name": "ダイヤモンドランクに昇格しよう！",
    "type": 3,
    "ival": 1000,
    "reward_id": "VS_RANK_NEW_MISSION_05"
  },
  {
    "iname": "VS_RANK_240111_MISSION_01",
    "name": "ブロンズランクに昇格しよう！",
    "type": 3,
    "ival": 100,
    "reward_id": "VS_RANK_NEW_MISSION_01"
  },
  {
    "iname": "VS_RANK_240111_MISSION_02",
    "name": "シルバーランクに昇格しよう！",
    "type": 3,
    "ival": 250,
    "reward_id": "VS_RANK_NEW_MISSION_02"
  },
  {
    "iname": "VS_RANK_240111_MISSION_03",
    "name": "ゴールドランクに昇格しよう！",
    "type": 3,
    "ival": 450,
    "reward_id": "VS_RANK_NEW_MISSION_03"
  },
  {
    "iname": "VS_RANK_240111_MISSION_04",
    "name": "プラチナランクに昇格しよう！",
    "type": 3,
    "ival": 700,
    "reward_id": "VS_RANK_NEW_MISSION_04"
  },
  {
    "iname": "VS_RANK_240111_MISSION_05",
    "name": "ダイヤモンドランクに昇格しよう！",
    "type": 3,
    "ival": 1000,
    "reward_id": "VS_RANK_NEW_MISSION_05"
  },
  {
    "iname": "VS_RANK_240307_MISSION_01",
    "name": "ブロンズランクに昇格しよう！",
    "type": 3,
    "ival": 100,
    "reward_id": "VS_RANK_NEW_MISSION_01"
  },
  {
    "iname": "VS_RANK_240307_MISSION_02",
    "name": "シルバーランクに昇格しよう！",
    "type": 3,
    "ival": 250,
    "reward_id": "VS_RANK_NEW_MISSION_02"
  },
  {
    "iname": "VS_RANK_240307_MISSION_03",
    "name": "ゴールドランクに昇格しよう！",
    "type": 3,
    "ival": 450,
    "reward_id": "VS_RANK_NEW_MISSION_03"
  },
  {
    "iname": "VS_RANK_240307_MISSION_04",
    "name": "プラチナランクに昇格しよう！",
    "type": 3,
    "ival": 700,
    "reward_id": "VS_RANK_NEW_MISSION_04"
  },
  {
    "iname": "VS_RANK_240307_MISSION_05",
    "name": "ダイヤモンドランクに昇格しよう！",
    "type": 3,
    "ival": 1000,
    "reward_id": "VS_RANK_NEW_MISSION_05"
  },
  {
    "iname": "VS_RANK_240509_MISSION_01",
    "name": "ブロンズランクに昇格しよう！",
    "type": 3,
    "ival": 100,
    "reward_id": "VS_RANK_NEW_MISSION_01"
  },
  {
    "iname": "VS_RANK_240509_MISSION_02",
    "name": "シルバーランクに昇格しよう！",
    "type": 3,
    "ival": 250,
    "reward_id": "VS_RANK_NEW_MISSION_02"
  },
  {
    "iname": "VS_RANK_240509_MISSION_03",
    "name": "ゴールドランクに昇格しよう！",
    "type": 3,
    "ival": 450,
    "reward_id": "VS_RANK_NEW_MISSION_03"
  },
  {
    "iname": "VS_RANK_240509_MISSION_04",
    "name": "プラチナランクに昇格しよう！",
    "type": 3,
    "ival": 700,
    "reward_id": "VS_RANK_NEW_MISSION_04"
  },
  {
    "iname": "VS_RANK_240509_MISSION_05",
    "name": "ダイヤモンドランクに昇格しよう！",
    "type": 3,
    "ival": 1000,
    "reward_id": "VS_RANK_NEW_MISSION_05"
  },
  {
    "iname": "VS_RANK_240711_MISSION_01",
    "name": "ブロンズランクに昇格しよう！",
    "type": 3,
    "ival": 100,
    "reward_id": "VS_RANK_NEW_MISSION_01"
  },
  {
    "iname": "VS_RANK_240711_MISSION_02",
    "name": "シルバーランクに昇格しよう！",
    "type": 3,
    "ival": 250,
    "reward_id": "VS_RANK_NEW_MISSION_02"
  },
  {
    "iname": "VS_RANK_240711_MISSION_03",
    "name": "ゴールドランクに昇格しよう！",
    "type": 3,
    "ival": 450,
    "reward_id": "VS_RANK_NEW_MISSION_03"
  },
  {
    "iname": "VS_RANK_240711_MISSION_04",
    "name": "プラチナランクに昇格しよう！",
    "type": 3,
    "ival": 700,
    "reward_id": "VS_RANK_NEW_MISSION_04"
  },
  {
    "iname": "VS_RANK_240711_MISSION_05",
    "name": "ダイヤモンドランクに昇格しよう！",
    "type": 3,
    "ival": 1000,
    "reward_id": "VS_RANK_NEW_MISSION_05"
  },
  {
    "iname": "VS_RANK_240912_MISSION_01",
    "name": "ブロンズランクに昇格しよう！",
    "type": 3,
    "ival": 100,
    "reward_id": "VS_RANK_NEW_MISSION_01"
  },
  {
    "iname": "VS_RANK_240912_MISSION_02",
    "name": "シルバーランクに昇格しよう！",
    "type": 3,
    "ival": 250,
    "reward_id": "VS_RANK_NEW_MISSION_02"
  },
  {
    "iname": "VS_RANK_240912_MISSION_03",
    "name": "ゴールドランクに昇格しよう！",
    "type": 3,
    "ival": 450,
    "reward_id": "VS_RANK_NEW_MISSION_03"
  },
  {
    "iname": "VS_RANK_240912_MISSION_04",
    "name": "プラチナランクに昇格しよう！",
    "type": 3,
    "ival": 700,
    "reward_id": "VS_RANK_NEW_MISSION_04"
  },
  {
    "iname": "VS_RANK_240912_MISSION_05",
    "name": "ダイヤモンドランクに昇格しよう！",
    "type": 3,
    "ival": 1000,
    "reward_id": "VS_RANK_NEW_MISSION_05"
  },
  {
    "iname": "VS_RANK_241010_MISSION_01",
    "name": "ブロンズランクに昇格しよう！",
    "type": 3,
    "ival": 100,
    "reward_id": "VS_RANK_NEW_MISSION_01"
  },
  {
    "iname": "VS_RANK_241010_MISSION_02",
    "name": "シルバーランクに昇格しよう！",
    "type": 3,
    "ival": 250,
    "reward_id": "VS_RANK_NEW_MISSION_02"
  },
  {
    "iname": "VS_RANK_241010_MISSION_03",
    "name": "ゴールドランクに昇格しよう！",
    "type": 3,
    "ival": 450,
    "reward_id": "VS_RANK_NEW_MISSION_03"
  },
  {
    "iname": "VS_RANK_241010_MISSION_04",
    "name": "プラチナランクに昇格しよう！",
    "type": 3,
    "ival": 700,
    "reward_id": "VS_RANK_NEW_MISSION_04"
  },
  {
    "iname": "VS_RANK_241010_MISSION_05",
    "name": "ダイヤモンドランクに昇格しよう！",
    "type": 3,
    "ival": 1000,
    "reward_id": "VS_RANK_NEW_MISSION_05"
  },
  {
    "iname": "VS_RANK_241114_MISSION_01",
    "name": "ブロンズランクに昇格しよう！",
    "type": 3,
    "ival": 100,
    "reward_id": "VS_RANK_NEW_MISSION_01"
  },
  {
    "iname": "VS_RANK_241114_MISSION_02",
    "name": "シルバーランクに昇格しよう！",
    "type": 3,
    "ival": 250,
    "reward_id": "VS_RANK_NEW_MISSION_02"
  },
  {
    "iname": "VS_RANK_241114_MISSION_03",
    "name": "ゴールドランクに昇格しよう！",
    "type": 3,
    "ival": 450,
    "reward_id": "VS_RANK_NEW_MISSION_03"
  },
  {
    "iname": "VS_RANK_241114_MISSION_04",
    "name": "プラチナランクに昇格しよう！",
    "type": 3,
    "ival": 700,
    "reward_id": "VS_RANK_NEW_MISSION_04"
  },
  {
    "iname": "VS_RANK_241114_MISSION_05",
    "name": "ダイヤモンドランクに昇格しよう！",
    "type": 3,
    "ival": 1000,
    "reward_id": "VS_RANK_NEW_MISSION_05"
  }
]