[
  {
    "schedule_id": 20180322,
    "type": 1,
    "up_pt": 200,
    "down_pt": 0,
    "down_losing_streak": 0,
    "reward_id": "VS_BETA_RWD_01",
    "win_pt_max": 500,
    "win_pt_min": 10,
    "lose_pt_min": 0,
    "lose_pt_max": 0
  },
  {
    "schedule_id": 20180322,
    "type": 2,
    "up_pt": 1500,
    "down_pt": 0,
    "down_losing_streak": 0,
    "reward_id": "VS_BETA_RWD_02",
    "win_pt_max": 500,
    "win_pt_min": 10,
    "lose_pt_min": -10,
    "lose_pt_max": 0
  },
  {
    "schedule_id": 20180322,
    "type": 3,
    "up_pt": 2600,
    "down_pt": 1500,
    "down_losing_streak": 0,
    "reward_id": "VS_BETA_RWD_03",
    "win_pt_max": 500,
    "win_pt_min": 10,
    "lose_pt_min": -50,
    "lose_pt_max": -5
  },
  {
    "schedule_id": 20180322,
    "type": 4,
    "up_pt": 3500,
    "down_pt": 2600,
    "down_losing_streak": 0,
    "reward_id": "VS_BETA_RWD_04",
    "win_pt_max": 500,
    "win_pt_min": 10,
    "lose_pt_min": -50,
    "lose_pt_max": -5
  },
  {
    "schedule_id": 20180322,
    "type": 5,
    "up_pt": 0,
    "down_pt": 3500,
    "down_losing_streak": 0,
    "reward_id": "VS_BETA_RWD_05",
    "win_pt_max": 500,
    "win_pt_min": 10,
    "lose_pt_min": -50,
    "lose_pt_max": -5
  },
  {
    "schedule_id": 20180426,
    "type": 1,
    "up_pt": 200,
    "down_pt": 0,
    "down_losing_streak": 0,
    "reward_id": "VS_RWD_RANK_2018_0426_01",
    "win_pt_max": 500,
    "win_pt_min": 50,
    "lose_pt_min": 0,
    "lose_pt_max": 0
  },
  {
    "schedule_id": 20180426,
    "type": 2,
    "up_pt": 500,
    "down_pt": 0,
    "down_losing_streak": 0,
    "reward_id": "VS_RWD_RANK_2018_0426_02",
    "win_pt_max": 500,
    "win_pt_min": 50,
    "lose_pt_min": -50,
    "lose_pt_max": -5
  },
  {
    "schedule_id": 20180426,
    "type": 3,
    "up_pt": 900,
    "down_pt": 500,
    "down_losing_streak": 0,
    "reward_id": "VS_RWD_RANK_2018_0426_03",
    "win_pt_max": 500,
    "win_pt_min": 50,
    "lose_pt_min": -50,
    "lose_pt_max": -5
  },
  {
    "schedule_id": 20180426,
    "type": 4,
    "up_pt": 1400,
    "down_pt": 900,
    "down_losing_streak": 0,
    "reward_id": "VS_RWD_RANK_2018_0426_04",
    "win_pt_max": 500,
    "win_pt_min": 50,
    "lose_pt_min": -50,
    "lose_pt_max": -5
  },
  {
    "schedule_id": 20180426,
    "type": 5,
    "up_pt": 2000,
    "down_pt": 1400,
    "down_losing_streak": 0,
    "reward_id": "VS_RWD_RANK_2018_0426_05",
    "win_pt_max": 500,
    "win_pt_min": 50,
    "lose_pt_min": -50,
    "lose_pt_max": -5
  },
  {
    "schedule_id": 20180426,
    "type": 6,
    "up_pt": 0,
    "down_pt": 2000,
    "down_losing_streak": 0,
    "reward_id": "VS_RWD_RANK_2018_0426_06",
    "win_pt_max": 500,
    "win_pt_min": 50,
    "lose_pt_min": -50,
    "lose_pt_max": -5
  },
  {
    "schedule_id": 20180607,
    "type": 1,
    "up_pt": 100,
    "down_pt": 0,
    "down_losing_streak": 0,
    "reward_id": "VS_RWD_RANK_2018_0426_01",
    "win_pt_max": 500,
    "win_pt_min": 50,
    "lose_pt_min": 0,
    "lose_pt_max": 0
  },
  {
    "schedule_id": 20180607,
    "type": 2,
    "up_pt": 250,
    "down_pt": 0,
    "down_losing_streak": 0,
    "reward_id": "VS_RWD_RANK_2018_0426_02",
    "win_pt_max": 500,
    "win_pt_min": 50,
    "lose_pt_min": -50,
    "lose_pt_max": -5
  },
  {
    "schedule_id": 20180607,
    "type": 3,
    "up_pt": 450,
    "down_pt": 250,
    "down_losing_streak": 0,
    "reward_id": "VS_RWD_RANK_2018_0426_03",
    "win_pt_max": 500,
    "win_pt_min": 50,
    "lose_pt_min": -50,
    "lose_pt_max": -5
  },
  {
    "schedule_id": 20180607,
    "type": 4,
    "up_pt": 700,
    "down_pt": 450,
    "down_losing_streak": 0,
    "reward_id": "VS_RWD_RANK_2018_0426_04",
    "win_pt_max": 500,
    "win_pt_min": 50,
    "lose_pt_min": -50,
    "lose_pt_max": -5
  },
  {
    "schedule_id": 20180607,
    "type": 5,
    "up_pt": 1000,
    "down_pt": 700,
    "down_losing_streak": 0,
    "reward_id": "VS_RWD_RANK_2018_0426_05",
    "win_pt_max": 500,
    "win_pt_min": 50,
    "lose_pt_min": -50,
    "lose_pt_max": -5
  },
  {
    "schedule_id": 20180607,
    "type": 6,
    "up_pt": 0,
    "down_pt": 1000,
    "down_losing_streak": 0,
    "reward_id": "VS_RWD_RANK_2018_0426_06",
    "win_pt_max": 500,
    "win_pt_min": 50,
    "lose_pt_min": -50,
    "lose_pt_max": -5
  },
  {
    "schedule_id": 20180621,
    "type": 1,
    "up_pt": 100,
    "down_pt": 0,
    "down_losing_streak": 0,
    "reward_id": "VS_RWD_RANK_2018_0426_01",
    "win_pt_max": 500,
    "win_pt_min": 50,
    "lose_pt_min": 0,
    "lose_pt_max": 0
  },
  {
    "schedule_id": 20180621,
    "type": 2,
    "up_pt": 250,
    "down_pt": 0,
    "down_losing_streak": 0,
    "reward_id": "VS_RWD_RANK_2018_0426_02",
    "win_pt_max": 500,
    "win_pt_min": 50,
    "lose_pt_min": -50,
    "lose_pt_max": -5
  },
  {
    "schedule_id": 20180621,
    "type": 3,
    "up_pt": 450,
    "down_pt": 250,
    "down_losing_streak": 0,
    "reward_id": "VS_RWD_RANK_2018_0426_03",
    "win_pt_max": 500,
    "win_pt_min": 50,
    "lose_pt_min": -50,
    "lose_pt_max": -5
  },
  {
    "schedule_id": 20180621,
    "type": 4,
    "up_pt": 700,
    "down_pt": 450,
    "down_losing_streak": 0,
    "reward_id": "VS_RWD_RANK_2018_0426_04",
    "win_pt_max": 500,
    "win_pt_min": 50,
    "lose_pt_min": -50,
    "lose_pt_max": -5
  },
  {
    "schedule_id": 20180621,
    "type": 5,
    "up_pt": 1000,
    "down_pt": 700,
    "down_losing_streak": 0,
    "reward_id": "VS_RWD_RANK_2018_0426_05",
    "win_pt_max": 500,
    "win_pt_min": 50,
    "lose_pt_min": -50,
    "lose_pt_max": -5
  },
  {
    "schedule_id": 20180621,
    "type": 6,
    "up_pt": 0,
    "down_pt": 1000,
    "down_losing_streak": 0,
    "reward_id": "VS_RWD_RANK_2018_0426_06",
    "win_pt_max": 500,
    "win_pt_min": 50,
    "lose_pt_min": -50,
    "lose_pt_max": -5
  },
  {
    "schedule_id": 20180712,
    "type": 1,
    "up_pt": 100,
    "down_pt": 0,
    "down_losing_streak": 0,
    "reward_id": "VS_RWD_RANK_2018_0426_01",
    "win_pt_max": 500,
    "win_pt_min": 100,
    "lose_pt_min": 0,
    "lose_pt_max": 0
  },
  {
    "schedule_id": 20180712,
    "type": 2,
    "up_pt": 250,
    "down_pt": 0,
    "down_losing_streak": 0,
    "reward_id": "VS_RWD_RANK_2018_0426_02",
    "win_pt_max": 500,
    "win_pt_min": 100,
    "lose_pt_min": -100,
    "lose_pt_max": -5
  },
  {
    "schedule_id": 20180712,
    "type": 3,
    "up_pt": 450,
    "down_pt": 250,
    "down_losing_streak": 0,
    "reward_id": "VS_RWD_RANK_2018_0426_03",
    "win_pt_max": 500,
    "win_pt_min": 100,
    "lose_pt_min": -100,
    "lose_pt_max": -5
  },
  {
    "schedule_id": 20180712,
    "type": 4,
    "up_pt": 700,
    "down_pt": 450,
    "down_losing_streak": 0,
    "reward_id": "VS_RWD_RANK_2018_0426_04",
    "win_pt_max": 500,
    "win_pt_min": 100,
    "lose_pt_min": -100,
    "lose_pt_max": -5
  },
  {
    "schedule_id": 20180712,
    "type": 5,
    "up_pt": 1000,
    "down_pt": 700,
    "down_losing_streak": 0,
    "reward_id": "VS_RWD_RANK_2018_0426_05",
    "win_pt_max": 500,
    "win_pt_min": 100,
    "lose_pt_min": -100,
    "lose_pt_max": -5
  },
  {
    "schedule_id": 20180712,
    "type": 6,
    "up_pt": 0,
    "down_pt": 1000,
    "down_losing_streak": 0,
    "reward_id": "VS_RWD_RANK_2018_0426_06",
    "win_pt_max": 500,
    "win_pt_min": 100,
    "lose_pt_min": -100,
    "lose_pt_max": -5
  },
  {
    "schedule_id": 20180809,
    "type": 1,
    "up_pt": 100,
    "down_pt": 0,
    "down_losing_streak": 0,
    "reward_id": "VS_RWD_RANK_2018_0426_01",
    "win_pt_max": 500,
    "win_pt_min": 100,
    "lose_pt_min": 0,
    "lose_pt_max": 0
  },
  {
    "schedule_id": 20180809,
    "type": 2,
    "up_pt": 250,
    "down_pt": 0,
    "down_losing_streak": 0,
    "reward_id": "VS_RWD_RANK_2018_0426_02",
    "win_pt_max": 500,
    "win_pt_min": 100,
    "lose_pt_min": -100,
    "lose_pt_max": -5
  },
  {
    "schedule_id": 20180809,
    "type": 3,
    "up_pt": 450,
    "down_pt": 250,
    "down_losing_streak": 0,
    "reward_id": "VS_RWD_RANK_2018_0426_03",
    "win_pt_max": 500,
    "win_pt_min": 100,
    "lose_pt_min": -100,
    "lose_pt_max": -5
  },
  {
    "schedule_id": 20180809,
    "type": 4,
    "up_pt": 700,
    "down_pt": 450,
    "down_losing_streak": 0,
    "reward_id": "VS_RWD_RANK_2018_0426_04",
    "win_pt_max": 500,
    "win_pt_min": 100,
    "lose_pt_min": -100,
    "lose_pt_max": -5
  },
  {
    "schedule_id": 20180809,
    "type": 5,
    "up_pt": 1000,
    "down_pt": 700,
    "down_losing_streak": 0,
    "reward_id": "VS_RWD_RANK_2018_0426_05",
    "win_pt_max": 500,
    "win_pt_min": 100,
    "lose_pt_min": -100,
    "lose_pt_max": -5
  },
  {
    "schedule_id": 20180809,
    "type": 6,
    "up_pt": 0,
    "down_pt": 1000,
    "down_losing_streak": 0,
    "reward_id": "VS_RWD_RANK_2018_0426_06",
    "win_pt_max": 500,
    "win_pt_min": 100,
    "lose_pt_min": -100,
    "lose_pt_max": -5
  },
  {
    "schedule_id": 20180823,
    "type": 1,
    "up_pt": 100,
    "down_pt": 0,
    "down_losing_streak": 0,
    "reward_id": "VS_RWD_RANK_2018_0426_01",
    "win_pt_max": 500,
    "win_pt_min": 100,
    "lose_pt_min": 0,
    "lose_pt_max": 0
  },
  {
    "schedule_id": 20180823,
    "type": 2,
    "up_pt": 250,
    "down_pt": 0,
    "down_losing_streak": 0,
    "reward_id": "VS_RWD_RANK_2018_0426_02",
    "win_pt_max": 500,
    "win_pt_min": 100,
    "lose_pt_min": -100,
    "lose_pt_max": -5
  },
  {
    "schedule_id": 20180823,
    "type": 3,
    "up_pt": 450,
    "down_pt": 250,
    "down_losing_streak": 0,
    "reward_id": "VS_RWD_RANK_2018_0426_03",
    "win_pt_max": 500,
    "win_pt_min": 100,
    "lose_pt_min": -100,
    "lose_pt_max": -5
  },
  {
    "schedule_id": 20180823,
    "type": 4,
    "up_pt": 700,
    "down_pt": 450,
    "down_losing_streak": 0,
    "reward_id": "VS_RWD_RANK_2018_0426_04",
    "win_pt_max": 500,
    "win_pt_min": 100,
    "lose_pt_min": -100,
    "lose_pt_max": -5
  },
  {
    "schedule_id": 20180823,
    "type": 5,
    "up_pt": 1000,
    "down_pt": 700,
    "down_losing_streak": 0,
    "reward_id": "VS_RWD_RANK_2018_0426_05",
    "win_pt_max": 500,
    "win_pt_min": 100,
    "lose_pt_min": -100,
    "lose_pt_max": -5
  },
  {
    "schedule_id": 20180823,
    "type": 6,
    "up_pt": 0,
    "down_pt": 1000,
    "down_losing_streak": 0,
    "reward_id": "VS_RWD_RANK_2018_0426_06",
    "win_pt_max": 500,
    "win_pt_min": 100,
    "lose_pt_min": -100,
    "lose_pt_max": -5
  },
  {
    "schedule_id": 20181011,
    "type": 1,
    "up_pt": 100,
    "down_pt": 0,
    "down_losing_streak": 0,
    "reward_id": "VS_RWD_RANK_2018_0426_01",
    "win_pt_max": 500,
    "win_pt_min": 100,
    "lose_pt_min": 0,
    "lose_pt_max": 0
  },
  {
    "schedule_id": 20181011,
    "type": 2,
    "up_pt": 250,
    "down_pt": 0,
    "down_losing_streak": 0,
    "reward_id": "VS_RWD_RANK_2018_0426_02",
    "win_pt_max": 500,
    "win_pt_min": 100,
    "lose_pt_min": -100,
    "lose_pt_max": -5
  },
  {
    "schedule_id": 20181011,
    "type": 3,
    "up_pt": 450,
    "down_pt": 250,
    "down_losing_streak": 0,
    "reward_id": "VS_RWD_RANK_2018_0426_03",
    "win_pt_max": 500,
    "win_pt_min": 100,
    "lose_pt_min": -100,
    "lose_pt_max": -5
  },
  {
    "schedule_id": 20181011,
    "type": 4,
    "up_pt": 700,
    "down_pt": 450,
    "down_losing_streak": 0,
    "reward_id": "VS_RWD_RANK_2018_0426_04",
    "win_pt_max": 500,
    "win_pt_min": 100,
    "lose_pt_min": -100,
    "lose_pt_max": -5
  },
  {
    "schedule_id": 20181011,
    "type": 5,
    "up_pt": 1000,
    "down_pt": 700,
    "down_losing_streak": 0,
    "reward_id": "VS_RWD_RANK_2018_0426_05",
    "win_pt_max": 500,
    "win_pt_min": 100,
    "lose_pt_min": -100,
    "lose_pt_max": -5
  },
  {
    "schedule_id": 20181011,
    "type": 6,
    "up_pt": 0,
    "down_pt": 1000,
    "down_losing_streak": 0,
    "reward_id": "VS_RWD_RANK_2018_0426_06",
    "win_pt_max": 500,
    "win_pt_min": 100,
    "lose_pt_min": -100,
    "lose_pt_max": -5
  },
  {
    "schedule_id": 20181213,
    "type": 1,
    "up_pt": 100,
    "down_pt": 0,
    "down_losing_streak": 0,
    "reward_id": "VS_RWD_RANK_2018_0426_01",
    "win_pt_max": 500,
    "win_pt_min": 100,
    "lose_pt_min": 0,
    "lose_pt_max": 0
  },
  {
    "schedule_id": 20181213,
    "type": 2,
    "up_pt": 250,
    "down_pt": 0,
    "down_losing_streak": 0,
    "reward_id": "VS_RWD_RANK_2018_0426_02",
    "win_pt_max": 500,
    "win_pt_min": 100,
    "lose_pt_min": -100,
    "lose_pt_max": -5
  },
  {
    "schedule_id": 20181213,
    "type": 3,
    "up_pt": 450,
    "down_pt": 250,
    "down_losing_streak": 0,
    "reward_id": "VS_RWD_RANK_2018_0426_03",
    "win_pt_max": 500,
    "win_pt_min": 100,
    "lose_pt_min": -100,
    "lose_pt_max": -5
  },
  {
    "schedule_id": 20181213,
    "type": 4,
    "up_pt": 700,
    "down_pt": 450,
    "down_losing_streak": 0,
    "reward_id": "VS_RWD_RANK_2018_0426_04",
    "win_pt_max": 500,
    "win_pt_min": 100,
    "lose_pt_min": -100,
    "lose_pt_max": -5
  },
  {
    "schedule_id": 20181213,
    "type": 5,
    "up_pt": 1000,
    "down_pt": 700,
    "down_losing_streak": 0,
    "reward_id": "VS_RWD_RANK_2018_0426_05",
    "win_pt_max": 500,
    "win_pt_min": 100,
    "lose_pt_min": -100,
    "lose_pt_max": -5
  },
  {
    "schedule_id": 20181213,
    "type": 6,
    "up_pt": 0,
    "down_pt": 1000,
    "down_losing_streak": 0,
    "reward_id": "VS_RWD_RANK_2018_0426_06",
    "win_pt_max": 500,
    "win_pt_min": 100,
    "lose_pt_min": -100,
    "lose_pt_max": -5
  },
  {
    "schedule_id": 20190214,
    "type": 1,
    "up_pt": 100,
    "down_pt": 0,
    "down_losing_streak": 0,
    "reward_id": "VS_RWD_RANK_2018_0426_01",
    "win_pt_max": 500,
    "win_pt_min": 100,
    "lose_pt_min": 0,
    "lose_pt_max": 0
  },
  {
    "schedule_id": 20190214,
    "type": 2,
    "up_pt": 250,
    "down_pt": 0,
    "down_losing_streak": 0,
    "reward_id": "VS_RWD_RANK_2018_0426_02",
    "win_pt_max": 500,
    "win_pt_min": 100,
    "lose_pt_min": -100,
    "lose_pt_max": -5
  },
  {
    "schedule_id": 20190214,
    "type": 3,
    "up_pt": 450,
    "down_pt": 250,
    "down_losing_streak": 0,
    "reward_id": "VS_RWD_RANK_2018_0426_03",
    "win_pt_max": 500,
    "win_pt_min": 100,
    "lose_pt_min": -100,
    "lose_pt_max": -5
  },
  {
    "schedule_id": 20190214,
    "type": 4,
    "up_pt": 700,
    "down_pt": 450,
    "down_losing_streak": 0,
    "reward_id": "VS_RWD_RANK_2018_0426_04",
    "win_pt_max": 500,
    "win_pt_min": 100,
    "lose_pt_min": -100,
    "lose_pt_max": -5
  },
  {
    "schedule_id": 20190214,
    "type": 5,
    "up_pt": 1000,
    "down_pt": 700,
    "down_losing_streak": 0,
    "reward_id": "VS_RWD_RANK_2018_0426_05",
    "win_pt_max": 500,
    "win_pt_min": 100,
    "lose_pt_min": -100,
    "lose_pt_max": -5
  },
  {
    "schedule_id": 20190214,
    "type": 6,
    "up_pt": 0,
    "down_pt": 1000,
    "down_losing_streak": 0,
    "reward_id": "VS_RWD_RANK_2018_0426_06",
    "win_pt_max": 500,
    "win_pt_min": 100,
    "lose_pt_min": -100,
    "lose_pt_max": -5
  },
  {
    "schedule_id": 20190307,
    "type": 1,
    "up_pt": 100,
    "down_pt": 0,
    "down_losing_streak": 0,
    "reward_id": "VS_RWD_RANK_2018_0426_01",
    "win_pt_max": 500,
    "win_pt_min": 100,
    "lose_pt_min": 0,
    "lose_pt_max": 0
  },
  {
    "schedule_id": 20190307,
    "type": 2,
    "up_pt": 250,
    "down_pt": 0,
    "down_losing_streak": 0,
    "reward_id": "VS_RWD_RANK_2018_0426_02",
    "win_pt_max": 500,
    "win_pt_min": 100,
    "lose_pt_min": -100,
    "lose_pt_max": -5
  },
  {
    "schedule_id": 20190307,
    "type": 3,
    "up_pt": 450,
    "down_pt": 250,
    "down_losing_streak": 0,
    "reward_id": "VS_RWD_RANK_2018_0426_03",
    "win_pt_max": 500,
    "win_pt_min": 100,
    "lose_pt_min": -100,
    "lose_pt_max": -5
  },
  {
    "schedule_id": 20190307,
    "type": 4,
    "up_pt": 700,
    "down_pt": 450,
    "down_losing_streak": 0,
    "reward_id": "VS_RWD_RANK_2018_0426_04",
    "win_pt_max": 500,
    "win_pt_min": 100,
    "lose_pt_min": -100,
    "lose_pt_max": -5
  },
  {
    "schedule_id": 20190307,
    "type": 5,
    "up_pt": 1000,
    "down_pt": 700,
    "down_losing_streak": 0,
    "reward_id": "VS_RWD_RANK_2018_0426_05",
    "win_pt_max": 500,
    "win_pt_min": 100,
    "lose_pt_min": -100,
    "lose_pt_max": -5
  },
  {
    "schedule_id": 20190307,
    "type": 6,
    "up_pt": 0,
    "down_pt": 1000,
    "down_losing_streak": 0,
    "reward_id": "VS_RWD_RANK_2018_0426_06",
    "win_pt_max": 500,
    "win_pt_min": 100,
    "lose_pt_min": -100,
    "lose_pt_max": -5
  },
  {
    "schedule_id": 20190411,
    "type": 1,
    "up_pt": 100,
    "down_pt": 0,
    "down_losing_streak": 0,
    "reward_id": "VS_RWD_RANK_2018_0426_01",
    "win_pt_max": 500,
    "win_pt_min": 100,
    "lose_pt_min": 0,
    "lose_pt_max": 0
  },
  {
    "schedule_id": 20190411,
    "type": 2,
    "up_pt": 250,
    "down_pt": 0,
    "down_losing_streak": 0,
    "reward_id": "VS_RWD_RANK_2018_0426_02",
    "win_pt_max": 500,
    "win_pt_min": 100,
    "lose_pt_min": -100,
    "lose_pt_max": -5
  },
  {
    "schedule_id": 20190411,
    "type": 3,
    "up_pt": 450,
    "down_pt": 250,
    "down_losing_streak": 0,
    "reward_id": "VS_RWD_RANK_2018_0426_03",
    "win_pt_max": 500,
    "win_pt_min": 100,
    "lose_pt_min": -100,
    "lose_pt_max": -5
  },
  {
    "schedule_id": 20190411,
    "type": 4,
    "up_pt": 700,
    "down_pt": 450,
    "down_losing_streak": 0,
    "reward_id": "VS_RWD_RANK_2018_0426_04",
    "win_pt_max": 500,
    "win_pt_min": 100,
    "lose_pt_min": -100,
    "lose_pt_max": -5
  },
  {
    "schedule_id": 20190411,
    "type": 5,
    "up_pt": 1000,
    "down_pt": 700,
    "down_losing_streak": 0,
    "reward_id": "VS_RWD_RANK_2018_0426_05",
    "win_pt_max": 500,
    "win_pt_min": 100,
    "lose_pt_min": -100,
    "lose_pt_max": -5
  },
  {
    "schedule_id": 20190411,
    "type": 6,
    "up_pt": 0,
    "down_pt": 1000,
    "down_losing_streak": 0,
    "reward_id": "VS_RWD_RANK_2018_0426_06",
    "win_pt_max": 500,
    "win_pt_min": 100,
    "lose_pt_min": -100,
    "lose_pt_max": -5
  },
  {
    "schedule_id": 20190523,
    "type": 1,
    "up_pt": 100,
    "down_pt": 0,
    "down_losing_streak": 0,
    "reward_id": "VS_RWD_RANK_2018_0426_01",
    "win_pt_max": 500,
    "win_pt_min": 100,
    "lose_pt_min": 0,
    "lose_pt_max": 0
  },
  {
    "schedule_id": 20190523,
    "type": 2,
    "up_pt": 250,
    "down_pt": 0,
    "down_losing_streak": 0,
    "reward_id": "VS_RWD_RANK_2018_0426_02",
    "win_pt_max": 500,
    "win_pt_min": 100,
    "lose_pt_min": -100,
    "lose_pt_max": -5
  },
  {
    "schedule_id": 20190523,
    "type": 3,
    "up_pt": 450,
    "down_pt": 250,
    "down_losing_streak": 0,
    "reward_id": "VS_RWD_RANK_2018_0426_03",
    "win_pt_max": 500,
    "win_pt_min": 100,
    "lose_pt_min": -100,
    "lose_pt_max": -5
  },
  {
    "schedule_id": 20190523,
    "type": 4,
    "up_pt": 700,
    "down_pt": 450,
    "down_losing_streak": 0,
    "reward_id": "VS_RWD_RANK_2018_0426_04",
    "win_pt_max": 500,
    "win_pt_min": 100,
    "lose_pt_min": -100,
    "lose_pt_max": -5
  },
  {
    "schedule_id": 20190523,
    "type": 5,
    "up_pt": 1000,
    "down_pt": 700,
    "down_losing_streak": 0,
    "reward_id": "VS_RWD_RANK_2018_0426_05",
    "win_pt_max": 500,
    "win_pt_min": 100,
    "lose_pt_min": -100,
    "lose_pt_max": -5
  },
  {
    "schedule_id": 20190523,
    "type": 6,
    "up_pt": 0,
    "down_pt": 1000,
    "down_losing_streak": 0,
    "reward_id": "VS_RWD_RANK_2018_0426_06",
    "win_pt_max": 500,
    "win_pt_min": 100,
    "lose_pt_min": -100,
    "lose_pt_max": -5
  },
  {
    "schedule_id": 20190621,
    "type": 1,
    "up_pt": 100,
    "down_pt": 0,
    "down_losing_streak": 0,
    "reward_id": "VS_RWD_RANK_2018_0426_01",
    "win_pt_max": 500,
    "win_pt_min": 100,
    "lose_pt_min": 0,
    "lose_pt_max": 0
  },
  {
    "schedule_id": 20190621,
    "type": 2,
    "up_pt": 250,
    "down_pt": 0,
    "down_losing_streak": 0,
    "reward_id": "VS_RWD_RANK_2018_0426_02",
    "win_pt_max": 500,
    "win_pt_min": 100,
    "lose_pt_min": -100,
    "lose_pt_max": -5
  },
  {
    "schedule_id": 20190621,
    "type": 3,
    "up_pt": 450,
    "down_pt": 250,
    "down_losing_streak": 0,
    "reward_id": "VS_RWD_RANK_2018_0426_03",
    "win_pt_max": 500,
    "win_pt_min": 100,
    "lose_pt_min": -100,
    "lose_pt_max": -5
  },
  {
    "schedule_id": 20190621,
    "type": 4,
    "up_pt": 700,
    "down_pt": 450,
    "down_losing_streak": 0,
    "reward_id": "VS_RWD_RANK_2018_0426_04",
    "win_pt_max": 500,
    "win_pt_min": 100,
    "lose_pt_min": -100,
    "lose_pt_max": -5
  },
  {
    "schedule_id": 20190621,
    "type": 5,
    "up_pt": 1000,
    "down_pt": 700,
    "down_losing_streak": 0,
    "reward_id": "VS_RWD_RANK_2018_0426_05",
    "win_pt_max": 500,
    "win_pt_min": 100,
    "lose_pt_min": -100,
    "lose_pt_max": -5
  },
  {
    "schedule_id": 20190621,
    "type": 6,
    "up_pt": 0,
    "down_pt": 1000,
    "down_losing_streak": 0,
    "reward_id": "VS_RWD_RANK_2018_0426_06",
    "win_pt_max": 500,
    "win_pt_min": 100,
    "lose_pt_min": -100,
    "lose_pt_max": -5
  },
  {
    "schedule_id": 20190808,
    "type": 1,
    "up_pt": 100,
    "down_pt": 0,
    "down_losing_streak": 0,
    "reward_id": "VS_RWD_RANK_2018_0426_01",
    "win_pt_max": 500,
    "win_pt_min": 100,
    "lose_pt_min": 0,
    "lose_pt_max": 0
  },
  {
    "schedule_id": 20190808,
    "type": 2,
    "up_pt": 250,
    "down_pt": 0,
    "down_losing_streak": 0,
    "reward_id": "VS_RWD_RANK_2018_0426_02",
    "win_pt_max": 500,
    "win_pt_min": 100,
    "lose_pt_min": -100,
    "lose_pt_max": -5
  },
  {
    "schedule_id": 20190808,
    "type": 3,
    "up_pt": 450,
    "down_pt": 250,
    "down_losing_streak": 0,
    "reward_id": "VS_RWD_RANK_2018_0426_03",
    "win_pt_max": 500,
    "win_pt_min": 100,
    "lose_pt_min": -100,
    "lose_pt_max": -5
  },
  {
    "schedule_id": 20190808,
    "type": 4,
    "up_pt": 700,
    "down_pt": 450,
    "down_losing_streak": 0,
    "reward_id": "VS_RWD_RANK_2018_0426_04",
    "win_pt_max": 500,
    "win_pt_min": 100,
    "lose_pt_min": -100,
    "lose_pt_max": -5
  },
  {
    "schedule_id": 20190808,
    "type": 5,
    "up_pt": 1000,
    "down_pt": 700,
    "down_losing_streak": 0,
    "reward_id": "VS_RWD_RANK_2018_0426_05",
    "win_pt_max": 500,
    "win_pt_min": 100,
    "lose_pt_min": -100,
    "lose_pt_max": -5
  },
  {
    "schedule_id": 20190808,
    "type": 6,
    "up_pt": 0,
    "down_pt": 1000,
    "down_losing_streak": 0,
    "reward_id": "VS_RWD_RANK_2018_0426_06",
    "win_pt_max": 500,
    "win_pt_min": 100,
    "lose_pt_min": -100,
    "lose_pt_max": -5
  },
  {
    "schedule_id": 20190912,
    "type": 1,
    "up_pt": 100,
    "down_pt": 0,
    "down_losing_streak": 0,
    "reward_id": "VS_RWD_RANK_2018_0426_01",
    "win_pt_max": 500,
    "win_pt_min": 100,
    "lose_pt_min": 0,
    "lose_pt_max": 0
  },
  {
    "schedule_id": 20190912,
    "type": 2,
    "up_pt": 250,
    "down_pt": 0,
    "down_losing_streak": 0,
    "reward_id": "VS_RWD_RANK_2018_0426_02",
    "win_pt_max": 500,
    "win_pt_min": 100,
    "lose_pt_min": -100,
    "lose_pt_max": -5
  },
  {
    "schedule_id": 20190912,
    "type": 3,
    "up_pt": 450,
    "down_pt": 250,
    "down_losing_streak": 0,
    "reward_id": "VS_RWD_RANK_2018_0426_03",
    "win_pt_max": 500,
    "win_pt_min": 100,
    "lose_pt_min": -100,
    "lose_pt_max": -5
  },
  {
    "schedule_id": 20190912,
    "type": 4,
    "up_pt": 700,
    "down_pt": 450,
    "down_losing_streak": 0,
    "reward_id": "VS_RWD_RANK_2018_0426_04",
    "win_pt_max": 500,
    "win_pt_min": 100,
    "lose_pt_min": -100,
    "lose_pt_max": -5
  },
  {
    "schedule_id": 20190912,
    "type": 5,
    "up_pt": 1000,
    "down_pt": 700,
    "down_losing_streak": 0,
    "reward_id": "VS_RWD_RANK_2018_0426_05",
    "win_pt_max": 500,
    "win_pt_min": 100,
    "lose_pt_min": -100,
    "lose_pt_max": -5
  },
  {
    "schedule_id": 20190912,
    "type": 6,
    "up_pt": 0,
    "down_pt": 1000,
    "down_losing_streak": 0,
    "reward_id": "VS_RWD_RANK_2018_0426_06",
    "win_pt_max": 500,
    "win_pt_min": 100,
    "lose_pt_min": -100,
    "lose_pt_max": -5
  },
  {
    "schedule_id": 20191010,
    "type": 1,
    "up_pt": 100,
    "down_pt": 0,
    "down_losing_streak": 0,
    "reward_id": "VS_RWD_RANK_2018_0426_01",
    "win_pt_max": 500,
    "win_pt_min": 100,
    "lose_pt_min": 0,
    "lose_pt_max": 0
  },
  {
    "schedule_id": 20191010,
    "type": 2,
    "up_pt": 250,
    "down_pt": 0,
    "down_losing_streak": 0,
    "reward_id": "VS_RWD_RANK_2018_0426_02",
    "win_pt_max": 500,
    "win_pt_min": 100,
    "lose_pt_min": -100,
    "lose_pt_max": -5
  },
  {
    "schedule_id": 20191010,
    "type": 3,
    "up_pt": 450,
    "down_pt": 250,
    "down_losing_streak": 0,
    "reward_id": "VS_RWD_RANK_2018_0426_03",
    "win_pt_max": 500,
    "win_pt_min": 100,
    "lose_pt_min": -100,
    "lose_pt_max": -5
  },
  {
    "schedule_id": 20191010,
    "type": 4,
    "up_pt": 700,
    "down_pt": 450,
    "down_losing_streak": 0,
    "reward_id": "VS_RWD_RANK_2018_0426_04",
    "win_pt_max": 500,
    "win_pt_min": 100,
    "lose_pt_min": -100,
    "lose_pt_max": -5
  },
  {
    "schedule_id": 20191010,
    "type": 5,
    "up_pt": 1000,
    "down_pt": 700,
    "down_losing_streak": 0,
    "reward_id": "VS_RWD_RANK_2018_0426_05",
    "win_pt_max": 500,
    "win_pt_min": 100,
    "lose_pt_min": -100,
    "lose_pt_max": -5
  },
  {
    "schedule_id": 20191010,
    "type": 6,
    "up_pt": 0,
    "down_pt": 1000,
    "down_losing_streak": 0,
    "reward_id": "VS_RWD_RANK_2018_0426_06",
    "win_pt_max": 500,
    "win_pt_min": 100,
    "lose_pt_min": -100,
    "lose_pt_max": -5
  },
  {
    "schedule_id": 20191107,
    "type": 1,
    "up_pt": 100,
    "down_pt": 0,
    "down_losing_streak": 0,
    "reward_id": "VS_RWD_RANK_2018_0426_01",
    "win_pt_max": 500,
    "win_pt_min": 100,
    "lose_pt_min": 0,
    "lose_pt_max": 0
  },
  {
    "schedule_id": 20191107,
    "type": 2,
    "up_pt": 250,
    "down_pt": 0,
    "down_losing_streak": 0,
    "reward_id": "VS_RWD_RANK_2018_0426_02",
    "win_pt_max": 500,
    "win_pt_min": 100,
    "lose_pt_min": -100,
    "lose_pt_max": -5
  },
  {
    "schedule_id": 20191107,
    "type": 3,
    "up_pt": 450,
    "down_pt": 250,
    "down_losing_streak": 0,
    "reward_id": "VS_RWD_RANK_2018_0426_03",
    "win_pt_max": 500,
    "win_pt_min": 100,
    "lose_pt_min": -100,
    "lose_pt_max": -5
  },
  {
    "schedule_id": 20191107,
    "type": 4,
    "up_pt": 700,
    "down_pt": 450,
    "down_losing_streak": 0,
    "reward_id": "VS_RWD_RANK_2018_0426_04",
    "win_pt_max": 500,
    "win_pt_min": 100,
    "lose_pt_min": -100,
    "lose_pt_max": -5
  },
  {
    "schedule_id": 20191107,
    "type": 5,
    "up_pt": 1000,
    "down_pt": 700,
    "down_losing_streak": 0,
    "reward_id": "VS_RWD_RANK_2018_0426_05",
    "win_pt_max": 500,
    "win_pt_min": 100,
    "lose_pt_min": -100,
    "lose_pt_max": -5
  },
  {
    "schedule_id": 20191107,
    "type": 6,
    "up_pt": 0,
    "down_pt": 1000,
    "down_losing_streak": 0,
    "reward_id": "VS_RWD_RANK_2018_0426_06",
    "win_pt_max": 500,
    "win_pt_min": 100,
    "lose_pt_min": -100,
    "lose_pt_max": -5
  },
  {
    "schedule_id": 20191212,
    "type": 1,
    "up_pt": 100,
    "down_pt": 0,
    "down_losing_streak": 0,
    "reward_id": "VS_RWD_RANK_2018_0426_01",
    "win_pt_max": 500,
    "win_pt_min": 100,
    "lose_pt_min": 0,
    "lose_pt_max": 0
  },
  {
    "schedule_id": 20191212,
    "type": 2,
    "up_pt": 250,
    "down_pt": 0,
    "down_losing_streak": 0,
    "reward_id": "VS_RWD_RANK_2018_0426_02",
    "win_pt_max": 500,
    "win_pt_min": 100,
    "lose_pt_min": -100,
    "lose_pt_max": -5
  },
  {
    "schedule_id": 20191212,
    "type": 3,
    "up_pt": 450,
    "down_pt": 250,
    "down_losing_streak": 0,
    "reward_id": "VS_RWD_RANK_2018_0426_03",
    "win_pt_max": 500,
    "win_pt_min": 100,
    "lose_pt_min": -100,
    "lose_pt_max": -5
  },
  {
    "schedule_id": 20191212,
    "type": 4,
    "up_pt": 700,
    "down_pt": 450,
    "down_losing_streak": 0,
    "reward_id": "VS_RWD_RANK_2018_0426_04",
    "win_pt_max": 500,
    "win_pt_min": 100,
    "lose_pt_min": -100,
    "lose_pt_max": -5
  },
  {
    "schedule_id": 20191212,
    "type": 5,
    "up_pt": 1000,
    "down_pt": 700,
    "down_losing_streak": 0,
    "reward_id": "VS_RWD_RANK_2018_0426_05",
    "win_pt_max": 500,
    "win_pt_min": 100,
    "lose_pt_min": -100,
    "lose_pt_max": -5
  },
  {
    "schedule_id": 20191212,
    "type": 6,
    "up_pt": 0,
    "down_pt": 1000,
    "down_losing_streak": 0,
    "reward_id": "VS_RWD_RANK_2018_0426_06",
    "win_pt_max": 500,
    "win_pt_min": 100,
    "lose_pt_min": -100,
    "lose_pt_max": -5
  },
  {
    "schedule_id": 20190206,
    "type": 1,
    "up_pt": 100,
    "down_pt": 0,
    "down_losing_streak": 0,
    "reward_id": "VS_RWD_RANK_2018_0426_01",
    "win_pt_max": 500,
    "win_pt_min": 100,
    "lose_pt_min": 0,
    "lose_pt_max": 0
  },
  {
    "schedule_id": 20190206,
    "type": 2,
    "up_pt": 250,
    "down_pt": 0,
    "down_losing_streak": 0,
    "reward_id": "VS_RWD_RANK_2018_0426_02",
    "win_pt_max": 500,
    "win_pt_min": 100,
    "lose_pt_min": -100,
    "lose_pt_max": -5
  },
  {
    "schedule_id": 20190206,
    "type": 3,
    "up_pt": 450,
    "down_pt": 250,
    "down_losing_streak": 0,
    "reward_id": "VS_RWD_RANK_2018_0426_03",
    "win_pt_max": 500,
    "win_pt_min": 100,
    "lose_pt_min": -100,
    "lose_pt_max": -5
  },
  {
    "schedule_id": 20190206,
    "type": 4,
    "up_pt": 700,
    "down_pt": 450,
    "down_losing_streak": 0,
    "reward_id": "VS_RWD_RANK_2018_0426_04",
    "win_pt_max": 500,
    "win_pt_min": 100,
    "lose_pt_min": -100,
    "lose_pt_max": -5
  },
  {
    "schedule_id": 20190206,
    "type": 5,
    "up_pt": 1000,
    "down_pt": 700,
    "down_losing_streak": 0,
    "reward_id": "VS_RWD_RANK_2018_0426_05",
    "win_pt_max": 500,
    "win_pt_min": 100,
    "lose_pt_min": -100,
    "lose_pt_max": -5
  },
  {
    "schedule_id": 20190206,
    "type": 6,
    "up_pt": 0,
    "down_pt": 1000,
    "down_losing_streak": 0,
    "reward_id": "VS_RWD_RANK_2018_0426_06",
    "win_pt_max": 500,
    "win_pt_min": 100,
    "lose_pt_min": -100,
    "lose_pt_max": -5
  },
  {
    "schedule_id": 20200514,
    "type": 1,
    "up_pt": 100,
    "down_pt": 0,
    "down_losing_streak": 0,
    "reward_id": "VS_RWD_RANK_2018_0426_01",
    "win_pt_max": 500,
    "win_pt_min": 100,
    "lose_pt_min": 0,
    "lose_pt_max": 0
  },
  {
    "schedule_id": 20200514,
    "type": 2,
    "up_pt": 250,
    "down_pt": 0,
    "down_losing_streak": 0,
    "reward_id": "VS_RWD_RANK_2018_0426_02",
    "win_pt_max": 500,
    "win_pt_min": 100,
    "lose_pt_min": -100,
    "lose_pt_max": -5
  },
  {
    "schedule_id": 20200514,
    "type": 3,
    "up_pt": 450,
    "down_pt": 250,
    "down_losing_streak": 0,
    "reward_id": "VS_RWD_RANK_2018_0426_03",
    "win_pt_max": 500,
    "win_pt_min": 100,
    "lose_pt_min": -100,
    "lose_pt_max": -5
  },
  {
    "schedule_id": 20200514,
    "type": 4,
    "up_pt": 700,
    "down_pt": 450,
    "down_losing_streak": 0,
    "reward_id": "VS_RWD_RANK_2018_0426_04",
    "win_pt_max": 500,
    "win_pt_min": 100,
    "lose_pt_min": -100,
    "lose_pt_max": -5
  },
  {
    "schedule_id": 20200514,
    "type": 5,
    "up_pt": 1000,
    "down_pt": 700,
    "down_losing_streak": 0,
    "reward_id": "VS_RWD_RANK_2018_0426_05",
    "win_pt_max": 500,
    "win_pt_min": 100,
    "lose_pt_min": -100,
    "lose_pt_max": -5
  },
  {
    "schedule_id": 20200514,
    "type": 6,
    "up_pt": 0,
    "down_pt": 1000,
    "down_losing_streak": 0,
    "reward_id": "VS_RWD_RANK_2018_0426_06",
    "win_pt_max": 500,
    "win_pt_min": 100,
    "lose_pt_min": -100,
    "lose_pt_max": -5
  },
  {
    "schedule_id": 20201217,
    "type": 1,
    "up_pt": 100,
    "down_pt": 0,
    "down_losing_streak": 0,
    "reward_id": "VS_RWD_RANK_2018_0426_01",
    "win_pt_base": 50,
    "lose_pt_base": 0
  },
  {
    "schedule_id": 20201217,
    "type": 2,
    "up_pt": 250,
    "down_pt": 100,
    "down_losing_streak": 0,
    "reward_id": "VS_RWD_RANK_2018_0426_02",
    "win_pt_base": 50,
    "lose_pt_base": 0
  },
  {
    "schedule_id": 20201217,
    "type": 3,
    "up_pt": 450,
    "down_pt": 250,
    "down_losing_streak": 0,
    "reward_id": "VS_RWD_RANK_2018_0426_03",
    "win_pt_base": 50,
    "lose_pt_base": 0
  },
  {
    "schedule_id": 20201217,
    "type": 4,
    "up_pt": 700,
    "down_pt": 450,
    "down_losing_streak": 0,
    "reward_id": "VS_RWD_RANK_2018_0426_04",
    "win_pt_base": 50,
    "lose_pt_base": -20
  },
  {
    "schedule_id": 20201217,
    "type": 5,
    "up_pt": 1000,
    "down_pt": 700,
    "down_losing_streak": 0,
    "reward_id": "VS_RWD_RANK_2018_0426_05",
    "win_pt_base": 50,
    "lose_pt_base": -30
  },
  {
    "schedule_id": 20201217,
    "type": 6,
    "up_pt": 0,
    "down_pt": 1000,
    "down_losing_streak": 0,
    "reward_id": "VS_RWD_RANK_2020_1217_06",
    "win_pt_base": 50,
    "lose_pt_base": -50
  },
  {
    "schedule_id": 20210210,
    "type": 1,
    "up_pt": 100,
    "down_pt": 0,
    "down_losing_streak": 0,
    "reward_id": "VS_RWD_RANK_2018_0426_01",
    "win_pt_base": 50,
    "lose_pt_base": 0
  },
  {
    "schedule_id": 20210210,
    "type": 2,
    "up_pt": 250,
    "down_pt": 100,
    "down_losing_streak": 0,
    "reward_id": "VS_RWD_RANK_2018_0426_02",
    "win_pt_base": 50,
    "lose_pt_base": 0
  },
  {
    "schedule_id": 20210210,
    "type": 3,
    "up_pt": 450,
    "down_pt": 250,
    "down_losing_streak": 0,
    "reward_id": "VS_RWD_RANK_2018_0426_03",
    "win_pt_base": 50,
    "lose_pt_base": 0
  },
  {
    "schedule_id": 20210210,
    "type": 4,
    "up_pt": 700,
    "down_pt": 450,
    "down_losing_streak": 0,
    "reward_id": "VS_RWD_RANK_2018_0426_04",
    "win_pt_base": 50,
    "lose_pt_base": -20
  },
  {
    "schedule_id": 20210210,
    "type": 5,
    "up_pt": 1000,
    "down_pt": 700,
    "down_losing_streak": 0,
    "reward_id": "VS_RWD_RANK_2018_0426_05",
    "win_pt_base": 50,
    "lose_pt_base": -30
  },
  {
    "schedule_id": 20210210,
    "type": 6,
    "up_pt": 0,
    "down_pt": 1000,
    "down_losing_streak": 0,
    "reward_id": "VS_RWD_RANK_2020_1217_06",
    "win_pt_base": 50,
    "lose_pt_base": -50
  },
  {
    "schedule_id": 20210325,
    "type": 1,
    "up_pt": 100,
    "down_pt": 0,
    "down_losing_streak": 0,
    "reward_id": "VS_RWD_RANK_2018_0426_01",
    "win_pt_base": 50,
    "lose_pt_base": 0
  },
  {
    "schedule_id": 20210325,
    "type": 2,
    "up_pt": 250,
    "down_pt": 100,
    "down_losing_streak": 0,
    "reward_id": "VS_RWD_RANK_2018_0426_02",
    "win_pt_base": 50,
    "lose_pt_base": 0
  },
  {
    "schedule_id": 20210325,
    "type": 3,
    "up_pt": 450,
    "down_pt": 250,
    "down_losing_streak": 0,
    "reward_id": "VS_RWD_RANK_2018_0426_03",
    "win_pt_base": 50,
    "lose_pt_base": 0
  },
  {
    "schedule_id": 20210325,
    "type": 4,
    "up_pt": 700,
    "down_pt": 450,
    "down_losing_streak": 0,
    "reward_id": "VS_RWD_RANK_2018_0426_04",
    "win_pt_base": 50,
    "lose_pt_base": -20
  },
  {
    "schedule_id": 20210325,
    "type": 5,
    "up_pt": 1000,
    "down_pt": 700,
    "down_losing_streak": 0,
    "reward_id": "VS_RWD_RANK_2018_0426_05",
    "win_pt_base": 50,
    "lose_pt_base": -30
  },
  {
    "schedule_id": 20210325,
    "type": 6,
    "up_pt": 0,
    "down_pt": 1000,
    "down_losing_streak": 0,
    "reward_id": "VS_RWD_RANK_2020_1217_06",
    "win_pt_base": 50,
    "lose_pt_base": -50
  },
  {
    "schedule_id": 20210415,
    "type": 1,
    "up_pt": 100,
    "down_pt": 0,
    "down_losing_streak": 0,
    "reward_id": "VS_RWD_RANK_2018_0426_01",
    "win_pt_base": 50,
    "lose_pt_base": 0
  },
  {
    "schedule_id": 20210415,
    "type": 2,
    "up_pt": 250,
    "down_pt": 100,
    "down_losing_streak": 0,
    "reward_id": "VS_RWD_RANK_2018_0426_02",
    "win_pt_base": 50,
    "lose_pt_base": 0
  },
  {
    "schedule_id": 20210415,
    "type": 3,
    "up_pt": 450,
    "down_pt": 250,
    "down_losing_streak": 0,
    "reward_id": "VS_RWD_RANK_2018_0426_03",
    "win_pt_base": 50,
    "lose_pt_base": 0
  },
  {
    "schedule_id": 20210415,
    "type": 4,
    "up_pt": 700,
    "down_pt": 450,
    "down_losing_streak": 0,
    "reward_id": "VS_RWD_RANK_2018_0426_04",
    "win_pt_base": 50,
    "lose_pt_base": -20
  },
  {
    "schedule_id": 20210415,
    "type": 5,
    "up_pt": 1000,
    "down_pt": 700,
    "down_losing_streak": 0,
    "reward_id": "VS_RWD_RANK_2018_0426_05",
    "win_pt_base": 50,
    "lose_pt_base": -30
  },
  {
    "schedule_id": 20210415,
    "type": 6,
    "up_pt": 0,
    "down_pt": 1000,
    "down_losing_streak": 0,
    "reward_id": "VS_RWD_RANK_2020_1217_06",
    "win_pt_base": 50,
    "lose_pt_base": -50
  },
  {
    "schedule_id": 20210513,
    "type": 1,
    "up_pt": 100,
    "down_pt": 0,
    "down_losing_streak": 0,
    "reward_id": "VS_RWD_RANK_2018_0426_01",
    "win_pt_base": 50,
    "lose_pt_base": 0
  },
  {
    "schedule_id": 20210513,
    "type": 2,
    "up_pt": 250,
    "down_pt": 100,
    "down_losing_streak": 0,
    "reward_id": "VS_RWD_RANK_2018_0426_02",
    "win_pt_base": 50,
    "lose_pt_base": 0
  },
  {
    "schedule_id": 20210513,
    "type": 3,
    "up_pt": 450,
    "down_pt": 250,
    "down_losing_streak": 0,
    "reward_id": "VS_RWD_RANK_2018_0426_03",
    "win_pt_base": 50,
    "lose_pt_base": 0
  },
  {
    "schedule_id": 20210513,
    "type": 4,
    "up_pt": 700,
    "down_pt": 450,
    "down_losing_streak": 0,
    "reward_id": "VS_RWD_RANK_2018_0426_04",
    "win_pt_base": 50,
    "lose_pt_base": -20
  },
  {
    "schedule_id": 20210513,
    "type": 5,
    "up_pt": 1000,
    "down_pt": 700,
    "down_losing_streak": 0,
    "reward_id": "VS_RWD_RANK_2018_0426_05",
    "win_pt_base": 50,
    "lose_pt_base": -30
  },
  {
    "schedule_id": 20210513,
    "type": 6,
    "up_pt": 0,
    "down_pt": 1000,
    "down_losing_streak": 0,
    "reward_id": "VS_RWD_RANK_2020_1217_06",
    "win_pt_base": 50,
    "lose_pt_base": -50
  },
  {
    "schedule_id": 20210715,
    "type": 1,
    "up_pt": 100,
    "down_pt": 0,
    "down_losing_streak": 0,
    "reward_id": "VS_RWD_RANK_2018_0426_01",
    "win_pt_base": 50,
    "lose_pt_base": 0
  },
  {
    "schedule_id": 20210715,
    "type": 2,
    "up_pt": 250,
    "down_pt": 100,
    "down_losing_streak": 0,
    "reward_id": "VS_RWD_RANK_2018_0426_02",
    "win_pt_base": 50,
    "lose_pt_base": 0
  },
  {
    "schedule_id": 20210715,
    "type": 3,
    "up_pt": 450,
    "down_pt": 250,
    "down_losing_streak": 0,
    "reward_id": "VS_RWD_RANK_2018_0426_03",
    "win_pt_base": 50,
    "lose_pt_base": 0
  },
  {
    "schedule_id": 20210715,
    "type": 4,
    "up_pt": 700,
    "down_pt": 450,
    "down_losing_streak": 0,
    "reward_id": "VS_RWD_RANK_2018_0426_04",
    "win_pt_base": 50,
    "lose_pt_base": -20
  },
  {
    "schedule_id": 20210715,
    "type": 5,
    "up_pt": 1000,
    "down_pt": 700,
    "down_losing_streak": 0,
    "reward_id": "VS_RWD_RANK_2018_0426_05",
    "win_pt_base": 50,
    "lose_pt_base": -30
  },
  {
    "schedule_id": 20210715,
    "type": 6,
    "up_pt": 0,
    "down_pt": 1000,
    "down_losing_streak": 0,
    "reward_id": "VS_RWD_RANK_2020_1217_06",
    "win_pt_base": 50,
    "lose_pt_base": -50
  },
  {
    "schedule_id": 20210916,
    "type": 1,
    "up_pt": 100,
    "down_pt": 0,
    "down_losing_streak": 0,
    "reward_id": "VS_RWD_RANK_2018_0426_01",
    "win_pt_base": 50,
    "lose_pt_base": 0
  },
  {
    "schedule_id": 20210916,
    "type": 2,
    "up_pt": 250,
    "down_pt": 100,
    "down_losing_streak": 0,
    "reward_id": "VS_RWD_RANK_2018_0426_02",
    "win_pt_base": 50,
    "lose_pt_base": 0
  },
  {
    "schedule_id": 20210916,
    "type": 3,
    "up_pt": 450,
    "down_pt": 250,
    "down_losing_streak": 0,
    "reward_id": "VS_RWD_RANK_2018_0426_03",
    "win_pt_base": 50,
    "lose_pt_base": 0
  },
  {
    "schedule_id": 20210916,
    "type": 4,
    "up_pt": 700,
    "down_pt": 450,
    "down_losing_streak": 0,
    "reward_id": "VS_RWD_RANK_2018_0426_04",
    "win_pt_base": 50,
    "lose_pt_base": -20
  },
  {
    "schedule_id": 20210916,
    "type": 5,
    "up_pt": 1000,
    "down_pt": 700,
    "down_losing_streak": 0,
    "reward_id": "VS_RWD_RANK_2018_0426_05",
    "win_pt_base": 50,
    "lose_pt_base": -30
  },
  {
    "schedule_id": 20210916,
    "type": 6,
    "up_pt": 0,
    "down_pt": 1000,
    "down_losing_streak": 0,
    "reward_id": "VS_RWD_RANK_2020_1217_06",
    "win_pt_base": 50,
    "lose_pt_base": -50
  },
  {
    "schedule_id": 20211111,
    "type": 1,
    "up_pt": 100,
    "down_pt": 0,
    "down_losing_streak": 0,
    "reward_id": "VS_RWD_RANK_2018_0426_01",
    "win_pt_base": 50,
    "lose_pt_base": 0
  },
  {
    "schedule_id": 20211111,
    "type": 2,
    "up_pt": 250,
    "down_pt": 100,
    "down_losing_streak": 0,
    "reward_id": "VS_RWD_RANK_2018_0426_02",
    "win_pt_base": 50,
    "lose_pt_base": 0
  },
  {
    "schedule_id": 20211111,
    "type": 3,
    "up_pt": 450,
    "down_pt": 250,
    "down_losing_streak": 0,
    "reward_id": "VS_RWD_RANK_2018_0426_03",
    "win_pt_base": 50,
    "lose_pt_base": 0
  },
  {
    "schedule_id": 20211111,
    "type": 4,
    "up_pt": 700,
    "down_pt": 450,
    "down_losing_streak": 0,
    "reward_id": "VS_RWD_RANK_2018_0426_04",
    "win_pt_base": 50,
    "lose_pt_base": -20
  },
  {
    "schedule_id": 20211111,
    "type": 5,
    "up_pt": 1000,
    "down_pt": 700,
    "down_losing_streak": 0,
    "reward_id": "VS_RWD_RANK_2018_0426_05",
    "win_pt_base": 50,
    "lose_pt_base": -30
  },
  {
    "schedule_id": 20211111,
    "type": 6,
    "up_pt": 0,
    "down_pt": 1000,
    "down_losing_streak": 0,
    "reward_id": "VS_RWD_RANK_2020_1217_06",
    "win_pt_base": 50,
    "lose_pt_base": -50
  },
  {
    "schedule_id": 20220317,
    "type": 1,
    "up_pt": 100,
    "down_pt": 0,
    "down_losing_streak": 0,
    "reward_id": "VS_RWD_RANK_2018_0426_01",
    "win_pt_base": 50,
    "lose_pt_base": 0
  },
  {
    "schedule_id": 20220317,
    "type": 2,
    "up_pt": 250,
    "down_pt": 100,
    "down_losing_streak": 0,
    "reward_id": "VS_RWD_RANK_2018_0426_02",
    "win_pt_base": 50,
    "lose_pt_base": 0
  },
  {
    "schedule_id": 20220317,
    "type": 3,
    "up_pt": 450,
    "down_pt": 250,
    "down_losing_streak": 0,
    "reward_id": "VS_RWD_RANK_2018_0426_03",
    "win_pt_base": 50,
    "lose_pt_base": 0
  },
  {
    "schedule_id": 20220317,
    "type": 4,
    "up_pt": 700,
    "down_pt": 450,
    "down_losing_streak": 0,
    "reward_id": "VS_RWD_RANK_2018_0426_04",
    "win_pt_base": 50,
    "lose_pt_base": -20
  },
  {
    "schedule_id": 20220317,
    "type": 5,
    "up_pt": 1000,
    "down_pt": 700,
    "down_losing_streak": 0,
    "reward_id": "VS_RWD_RANK_2018_0426_05",
    "win_pt_base": 50,
    "lose_pt_base": -30
  },
  {
    "schedule_id": 20220317,
    "type": 6,
    "up_pt": 0,
    "down_pt": 1000,
    "down_losing_streak": 0,
    "reward_id": "VS_RWD_RANK_2020_1217_06",
    "win_pt_base": 50,
    "lose_pt_base": -50
  },
  {
    "schedule_id": 20220512,
    "type": 1,
    "up_pt": 100,
    "down_pt": 0,
    "down_losing_streak": 0,
    "reward_id": "VS_RWD_RANK_2018_0426_01",
    "win_pt_base": 50,
    "lose_pt_base": 0
  },
  {
    "schedule_id": 20220512,
    "type": 2,
    "up_pt": 250,
    "down_pt": 100,
    "down_losing_streak": 0,
    "reward_id": "VS_RWD_RANK_2018_0426_02",
    "win_pt_base": 50,
    "lose_pt_base": 0
  },
  {
    "schedule_id": 20220512,
    "type": 3,
    "up_pt": 450,
    "down_pt": 250,
    "down_losing_streak": 0,
    "reward_id": "VS_RWD_RANK_2018_0426_03",
    "win_pt_base": 50,
    "lose_pt_base": 0
  },
  {
    "schedule_id": 20220512,
    "type": 4,
    "up_pt": 700,
    "down_pt": 450,
    "down_losing_streak": 0,
    "reward_id": "VS_RWD_RANK_2018_0426_04",
    "win_pt_base": 50,
    "lose_pt_base": -20
  },
  {
    "schedule_id": 20220512,
    "type": 5,
    "up_pt": 1000,
    "down_pt": 700,
    "down_losing_streak": 0,
    "reward_id": "VS_RWD_RANK_2018_0426_05",
    "win_pt_base": 50,
    "lose_pt_base": -30
  },
  {
    "schedule_id": 20220512,
    "type": 6,
    "up_pt": 0,
    "down_pt": 1000,
    "down_losing_streak": 0,
    "reward_id": "VS_RWD_RANK_2020_1217_06",
    "win_pt_base": 50,
    "lose_pt_base": -50
  },
  {
    "schedule_id": 20220818,
    "type": 1,
    "up_pt": 100,
    "down_pt": 0,
    "down_losing_streak": 0,
    "reward_id": "VS_RWD_RANK_2018_0426_01",
    "win_pt_base": 50,
    "lose_pt_base": 0
  },
  {
    "schedule_id": 20220818,
    "type": 2,
    "up_pt": 250,
    "down_pt": 100,
    "down_losing_streak": 0,
    "reward_id": "VS_RWD_RANK_2018_0426_02",
    "win_pt_base": 50,
    "lose_pt_base": 0
  },
  {
    "schedule_id": 20220818,
    "type": 3,
    "up_pt": 450,
    "down_pt": 250,
    "down_losing_streak": 0,
    "reward_id": "VS_RWD_RANK_2018_0426_03",
    "win_pt_base": 50,
    "lose_pt_base": 0
  },
  {
    "schedule_id": 20220818,
    "type": 4,
    "up_pt": 700,
    "down_pt": 450,
    "down_losing_streak": 0,
    "reward_id": "VS_RWD_RANK_2018_0426_04",
    "win_pt_base": 50,
    "lose_pt_base": -20
  },
  {
    "schedule_id": 20220818,
    "type": 5,
    "up_pt": 1000,
    "down_pt": 700,
    "down_losing_streak": 0,
    "reward_id": "VS_RWD_RANK_2018_0426_05",
    "win_pt_base": 50,
    "lose_pt_base": -30
  },
  {
    "schedule_id": 20220818,
    "type": 6,
    "up_pt": 0,
    "down_pt": 1000,
    "down_losing_streak": 0,
    "reward_id": "VS_RWD_RANK_2020_1217_06",
    "win_pt_base": 50,
    "lose_pt_base": -50
  },
  {
    "schedule_id": 20220915,
    "type": 1,
    "up_pt": 100,
    "down_pt": 0,
    "down_losing_streak": 0,
    "reward_id": "VS_RWD_RANK_2018_0426_01",
    "win_pt_base": 50,
    "lose_pt_base": 0
  },
  {
    "schedule_id": 20220915,
    "type": 2,
    "up_pt": 250,
    "down_pt": 100,
    "down_losing_streak": 0,
    "reward_id": "VS_RWD_RANK_2018_0426_02",
    "win_pt_base": 50,
    "lose_pt_base": 0
  },
  {
    "schedule_id": 20220915,
    "type": 3,
    "up_pt": 450,
    "down_pt": 250,
    "down_losing_streak": 0,
    "reward_id": "VS_RWD_RANK_2018_0426_03",
    "win_pt_base": 50,
    "lose_pt_base": 0
  },
  {
    "schedule_id": 20220915,
    "type": 4,
    "up_pt": 700,
    "down_pt": 450,
    "down_losing_streak": 0,
    "reward_id": "VS_RWD_RANK_2018_0426_04",
    "win_pt_base": 50,
    "lose_pt_base": -20
  },
  {
    "schedule_id": 20220915,
    "type": 5,
    "up_pt": 1000,
    "down_pt": 700,
    "down_losing_streak": 0,
    "reward_id": "VS_RWD_RANK_2018_0426_05",
    "win_pt_base": 50,
    "lose_pt_base": -30
  },
  {
    "schedule_id": 20220915,
    "type": 6,
    "up_pt": 0,
    "down_pt": 1000,
    "down_losing_streak": 0,
    "reward_id": "VS_RWD_RANK_2020_1217_06",
    "win_pt_base": 50,
    "lose_pt_base": -50
  },
  {
    "schedule_id": 20221013,
    "type": 1,
    "up_pt": 100,
    "down_pt": 0,
    "down_losing_streak": 0,
    "reward_id": "VS_RWD_RANK_2018_0426_01",
    "win_pt_base": 50,
    "lose_pt_base": 0
  },
  {
    "schedule_id": 20221013,
    "type": 2,
    "up_pt": 250,
    "down_pt": 100,
    "down_losing_streak": 0,
    "reward_id": "VS_RWD_RANK_2018_0426_02",
    "win_pt_base": 50,
    "lose_pt_base": 0
  },
  {
    "schedule_id": 20221013,
    "type": 3,
    "up_pt": 450,
    "down_pt": 250,
    "down_losing_streak": 0,
    "reward_id": "VS_RWD_RANK_2018_0426_03",
    "win_pt_base": 50,
    "lose_pt_base": 0
  },
  {
    "schedule_id": 20221013,
    "type": 4,
    "up_pt": 700,
    "down_pt": 450,
    "down_losing_streak": 0,
    "reward_id": "VS_RWD_RANK_2018_0426_04",
    "win_pt_base": 50,
    "lose_pt_base": -20
  },
  {
    "schedule_id": 20221013,
    "type": 5,
    "up_pt": 1000,
    "down_pt": 700,
    "down_losing_streak": 0,
    "reward_id": "VS_RWD_RANK_2018_0426_05",
    "win_pt_base": 50,
    "lose_pt_base": -30
  },
  {
    "schedule_id": 20221013,
    "type": 6,
    "up_pt": 0,
    "down_pt": 1000,
    "down_losing_streak": 0,
    "reward_id": "VS_RWD_RANK_2020_1217_06",
    "win_pt_base": 50,
    "lose_pt_base": -50
  },
  {
    "schedule_id": 20221117,
    "type": 1,
    "up_pt": 100,
    "down_pt": 0,
    "down_losing_streak": 0,
    "reward_id": "VS_RWD_RANK_2018_0426_01",
    "win_pt_base": 50,
    "lose_pt_base": 0
  },
  {
    "schedule_id": 20221117,
    "type": 2,
    "up_pt": 250,
    "down_pt": 100,
    "down_losing_streak": 0,
    "reward_id": "VS_RWD_RANK_2018_0426_02",
    "win_pt_base": 50,
    "lose_pt_base": 0
  },
  {
    "schedule_id": 20221117,
    "type": 3,
    "up_pt": 450,
    "down_pt": 250,
    "down_losing_streak": 0,
    "reward_id": "VS_RWD_RANK_2018_0426_03",
    "win_pt_base": 50,
    "lose_pt_base": 0
  },
  {
    "schedule_id": 20221117,
    "type": 4,
    "up_pt": 700,
    "down_pt": 450,
    "down_losing_streak": 0,
    "reward_id": "VS_RWD_RANK_2018_0426_04",
    "win_pt_base": 50,
    "lose_pt_base": -20
  },
  {
    "schedule_id": 20221117,
    "type": 5,
    "up_pt": 1000,
    "down_pt": 700,
    "down_losing_streak": 0,
    "reward_id": "VS_RWD_RANK_2018_0426_05",
    "win_pt_base": 50,
    "lose_pt_base": -30
  },
  {
    "schedule_id": 20221117,
    "type": 6,
    "up_pt": 0,
    "down_pt": 1000,
    "down_losing_streak": 0,
    "reward_id": "VS_RWD_RANK_2020_1217_06",
    "win_pt_base": 50,
    "lose_pt_base": -50
  },
  {
    "schedule_id": 20230309,
    "type": 1,
    "up_pt": 100,
    "down_pt": 0,
    "down_losing_streak": 0,
    "reward_id": "VS_RWD_RANK_2018_0426_01",
    "win_pt_base": 50,
    "lose_pt_base": 0
  },
  {
    "schedule_id": 20230309,
    "type": 2,
    "up_pt": 250,
    "down_pt": 100,
    "down_losing_streak": 0,
    "reward_id": "VS_RWD_RANK_2018_0426_02",
    "win_pt_base": 50,
    "lose_pt_base": 0
  },
  {
    "schedule_id": 20230309,
    "type": 3,
    "up_pt": 450,
    "down_pt": 250,
    "down_losing_streak": 0,
    "reward_id": "VS_RWD_RANK_2018_0426_03",
    "win_pt_base": 50,
    "lose_pt_base": 0
  },
  {
    "schedule_id": 20230309,
    "type": 4,
    "up_pt": 700,
    "down_pt": 450,
    "down_losing_streak": 0,
    "reward_id": "VS_RWD_RANK_2018_0426_04",
    "win_pt_base": 50,
    "lose_pt_base": -20
  },
  {
    "schedule_id": 20230309,
    "type": 5,
    "up_pt": 1000,
    "down_pt": 700,
    "down_losing_streak": 0,
    "reward_id": "VS_RWD_RANK_2018_0426_05",
    "win_pt_base": 50,
    "lose_pt_base": -30
  },
  {
    "schedule_id": 20230309,
    "type": 6,
    "up_pt": 0,
    "down_pt": 1000,
    "down_losing_streak": 0,
    "reward_id": "VS_RWD_RANK_2020_1217_06",
    "win_pt_base": 50,
    "lose_pt_base": -50
  },
  {
    "schedule_id": 20230511,
    "type": 1,
    "up_pt": 100,
    "down_pt": 0,
    "down_losing_streak": 0,
    "reward_id": "VS_RWD_RANK_2018_0426_01",
    "win_pt_base": 50,
    "lose_pt_base": 0
  },
  {
    "schedule_id": 20230511,
    "type": 2,
    "up_pt": 250,
    "down_pt": 100,
    "down_losing_streak": 0,
    "reward_id": "VS_RWD_RANK_2018_0426_02",
    "win_pt_base": 50,
    "lose_pt_base": 0
  },
  {
    "schedule_id": 20230511,
    "type": 3,
    "up_pt": 450,
    "down_pt": 250,
    "down_losing_streak": 0,
    "reward_id": "VS_RWD_RANK_2018_0426_03",
    "win_pt_base": 50,
    "lose_pt_base": 0
  },
  {
    "schedule_id": 20230511,
    "type": 4,
    "up_pt": 700,
    "down_pt": 450,
    "down_losing_streak": 0,
    "reward_id": "VS_RWD_RANK_2018_0426_04",
    "win_pt_base": 50,
    "lose_pt_base": -20
  },
  {
    "schedule_id": 20230511,
    "type": 5,
    "up_pt": 1000,
    "down_pt": 700,
    "down_losing_streak": 0,
    "reward_id": "VS_RWD_RANK_2018_0426_05",
    "win_pt_base": 50,
    "lose_pt_base": -30
  },
  {
    "schedule_id": 20230511,
    "type": 6,
    "up_pt": 0,
    "down_pt": 1000,
    "down_losing_streak": 0,
    "reward_id": "VS_RWD_RANK_2020_1217_06",
    "win_pt_base": 50,
    "lose_pt_base": -50
  },
  {
    "schedule_id": 20230713,
    "type": 1,
    "up_pt": 100,
    "down_pt": 0,
    "down_losing_streak": 0,
    "reward_id": "VS_RWD_RANK_2018_0426_01",
    "win_pt_base": 50,
    "lose_pt_base": 0
  },
  {
    "schedule_id": 20230713,
    "type": 2,
    "up_pt": 250,
    "down_pt": 100,
    "down_losing_streak": 0,
    "reward_id": "VS_RWD_RANK_2018_0426_02",
    "win_pt_base": 50,
    "lose_pt_base": 0
  },
  {
    "schedule_id": 20230713,
    "type": 3,
    "up_pt": 450,
    "down_pt": 250,
    "down_losing_streak": 0,
    "reward_id": "VS_RWD_RANK_2018_0426_03",
    "win_pt_base": 50,
    "lose_pt_base": 0
  },
  {
    "schedule_id": 20230713,
    "type": 4,
    "up_pt": 700,
    "down_pt": 450,
    "down_losing_streak": 0,
    "reward_id": "VS_RWD_RANK_2018_0426_04",
    "win_pt_base": 50,
    "lose_pt_base": -20
  },
  {
    "schedule_id": 20230713,
    "type": 5,
    "up_pt": 1000,
    "down_pt": 700,
    "down_losing_streak": 0,
    "reward_id": "VS_RWD_RANK_2018_0426_05",
    "win_pt_base": 50,
    "lose_pt_base": -30
  },
  {
    "schedule_id": 20230713,
    "type": 6,
    "up_pt": 0,
    "down_pt": 1000,
    "down_losing_streak": 0,
    "reward_id": "VS_RWD_RANK_2020_1217_06",
    "win_pt_base": 50,
    "lose_pt_base": -50
  },
  {
    "schedule_id": 20230907,
    "type": 1,
    "up_pt": 100,
    "down_pt": 0,
    "down_losing_streak": 0,
    "reward_id": "VS_RWD_RANK_2018_0426_01",
    "win_pt_base": 50,
    "lose_pt_base": 0
  },
  {
    "schedule_id": 20230907,
    "type": 2,
    "up_pt": 250,
    "down_pt": 100,
    "down_losing_streak": 0,
    "reward_id": "VS_RWD_RANK_2018_0426_02",
    "win_pt_base": 50,
    "lose_pt_base": 0
  },
  {
    "schedule_id": 20230907,
    "type": 3,
    "up_pt": 450,
    "down_pt": 250,
    "down_losing_streak": 0,
    "reward_id": "VS_RWD_RANK_2018_0426_03",
    "win_pt_base": 50,
    "lose_pt_base": 0
  },
  {
    "schedule_id": 20230907,
    "type": 4,
    "up_pt": 700,
    "down_pt": 450,
    "down_losing_streak": 0,
    "reward_id": "VS_RWD_RANK_2018_0426_04",
    "win_pt_base": 50,
    "lose_pt_base": -20
  },
  {
    "schedule_id": 20230907,
    "type": 5,
    "up_pt": 1000,
    "down_pt": 700,
    "down_losing_streak": 0,
    "reward_id": "VS_RWD_RANK_2018_0426_05",
    "win_pt_base": 50,
    "lose_pt_base": -30
  },
  {
    "schedule_id": 20230907,
    "type": 6,
    "up_pt": 0,
    "down_pt": 1000,
    "down_losing_streak": 0,
    "reward_id": "VS_RWD_RANK_2020_1217_06",
    "win_pt_base": 50,
    "lose_pt_base": -50
  },
  {
    "schedule_id": 20231109,
    "type": 1,
    "up_pt": 100,
    "down_pt": 0,
    "down_losing_streak": 0,
    "reward_id": "VS_RWD_RANK_2018_0426_01",
    "win_pt_base": 50,
    "lose_pt_base": 0
  },
  {
    "schedule_id": 20231109,
    "type": 2,
    "up_pt": 250,
    "down_pt": 100,
    "down_losing_streak": 0,
    "reward_id": "VS_RWD_RANK_2018_0426_02",
    "win_pt_base": 50,
    "lose_pt_base": 0
  },
  {
    "schedule_id": 20231109,
    "type": 3,
    "up_pt": 450,
    "down_pt": 250,
    "down_losing_streak": 0,
    "reward_id": "VS_RWD_RANK_2018_0426_03",
    "win_pt_base": 50,
    "lose_pt_base": 0
  },
  {
    "schedule_id": 20231109,
    "type": 4,
    "up_pt": 700,
    "down_pt": 450,
    "down_losing_streak": 0,
    "reward_id": "VS_RWD_RANK_2018_0426_04",
    "win_pt_base": 50,
    "lose_pt_base": -20
  },
  {
    "schedule_id": 20231109,
    "type": 5,
    "up_pt": 1000,
    "down_pt": 700,
    "down_losing_streak": 0,
    "reward_id": "VS_RWD_RANK_2018_0426_05",
    "win_pt_base": 50,
    "lose_pt_base": -30
  },
  {
    "schedule_id": 20231109,
    "type": 6,
    "up_pt": 0,
    "down_pt": 1000,
    "down_losing_streak": 0,
    "reward_id": "VS_RWD_RANK_2020_1217_06",
    "win_pt_base": 50,
    "lose_pt_base": -50
  },
  {
    "schedule_id": 20240111,
    "type": 1,
    "up_pt": 100,
    "down_pt": 0,
    "down_losing_streak": 0,
    "reward_id": "VS_RWD_RANK_2018_0426_01",
    "win_pt_base": 50,
    "lose_pt_base": 0
  },
  {
    "schedule_id": 20240111,
    "type": 2,
    "up_pt": 250,
    "down_pt": 100,
    "down_losing_streak": 0,
    "reward_id": "VS_RWD_RANK_2018_0426_02",
    "win_pt_base": 50,
    "lose_pt_base": 0
  },
  {
    "schedule_id": 20240111,
    "type": 3,
    "up_pt": 450,
    "down_pt": 250,
    "down_losing_streak": 0,
    "reward_id": "VS_RWD_RANK_2018_0426_03",
    "win_pt_base": 50,
    "lose_pt_base": 0
  },
  {
    "schedule_id": 20240111,
    "type": 4,
    "up_pt": 700,
    "down_pt": 450,
    "down_losing_streak": 0,
    "reward_id": "VS_RWD_RANK_2018_0426_04",
    "win_pt_base": 50,
    "lose_pt_base": -20
  },
  {
    "schedule_id": 20240111,
    "type": 5,
    "up_pt": 1000,
    "down_pt": 700,
    "down_losing_streak": 0,
    "reward_id": "VS_RWD_RANK_2018_0426_05",
    "win_pt_base": 50,
    "lose_pt_base": -30
  },
  {
    "schedule_id": 20240111,
    "type": 6,
    "up_pt": 0,
    "down_pt": 1000,
    "down_losing_streak": 0,
    "reward_id": "VS_RWD_RANK_2020_1217_06",
    "win_pt_base": 50,
    "lose_pt_base": -50
  },
  {
    "schedule_id": 20240307,
    "type": 1,
    "up_pt": 100,
    "down_pt": 0,
    "down_losing_streak": 0,
    "reward_id": "VS_RWD_RANK_2018_0426_01",
    "win_pt_base": 50,
    "lose_pt_base": 0
  },
  {
    "schedule_id": 20240307,
    "type": 2,
    "up_pt": 250,
    "down_pt": 100,
    "down_losing_streak": 0,
    "reward_id": "VS_RWD_RANK_2018_0426_02",
    "win_pt_base": 50,
    "lose_pt_base": 0
  },
  {
    "schedule_id": 20240307,
    "type": 3,
    "up_pt": 450,
    "down_pt": 250,
    "down_losing_streak": 0,
    "reward_id": "VS_RWD_RANK_2018_0426_03",
    "win_pt_base": 50,
    "lose_pt_base": 0
  },
  {
    "schedule_id": 20240307,
    "type": 4,
    "up_pt": 700,
    "down_pt": 450,
    "down_losing_streak": 0,
    "reward_id": "VS_RWD_RANK_2018_0426_04",
    "win_pt_base": 50,
    "lose_pt_base": -20
  },
  {
    "schedule_id": 20240307,
    "type": 5,
    "up_pt": 1000,
    "down_pt": 700,
    "down_losing_streak": 0,
    "reward_id": "VS_RWD_RANK_2018_0426_05",
    "win_pt_base": 50,
    "lose_pt_base": -30
  },
  {
    "schedule_id": 20240307,
    "type": 6,
    "up_pt": 0,
    "down_pt": 1000,
    "down_losing_streak": 0,
    "reward_id": "VS_RWD_RANK_2020_1217_06",
    "win_pt_base": 50,
    "lose_pt_base": -50
  },
  {
    "schedule_id": 20240509,
    "type": 1,
    "up_pt": 100,
    "down_pt": 0,
    "down_losing_streak": 0,
    "reward_id": "VS_RWD_RANK_2018_0426_01",
    "win_pt_base": 50,
    "lose_pt_base": 0
  },
  {
    "schedule_id": 20240509,
    "type": 2,
    "up_pt": 250,
    "down_pt": 100,
    "down_losing_streak": 0,
    "reward_id": "VS_RWD_RANK_2018_0426_02",
    "win_pt_base": 50,
    "lose_pt_base": 0
  },
  {
    "schedule_id": 20240509,
    "type": 3,
    "up_pt": 450,
    "down_pt": 250,
    "down_losing_streak": 0,
    "reward_id": "VS_RWD_RANK_2018_0426_03",
    "win_pt_base": 50,
    "lose_pt_base": 0
  },
  {
    "schedule_id": 20240509,
    "type": 4,
    "up_pt": 700,
    "down_pt": 450,
    "down_losing_streak": 0,
    "reward_id": "VS_RWD_RANK_2018_0426_04",
    "win_pt_base": 50,
    "lose_pt_base": -20
  },
  {
    "schedule_id": 20240509,
    "type": 5,
    "up_pt": 1000,
    "down_pt": 700,
    "down_losing_streak": 0,
    "reward_id": "VS_RWD_RANK_2018_0426_05",
    "win_pt_base": 50,
    "lose_pt_base": -30
  },
  {
    "schedule_id": 20240509,
    "type": 6,
    "up_pt": 0,
    "down_pt": 1000,
    "down_losing_streak": 0,
    "reward_id": "VS_RWD_RANK_2020_1217_06",
    "win_pt_base": 50,
    "lose_pt_base": -50
  },
  {
    "schedule_id": 20240711,
    "type": 1,
    "up_pt": 100,
    "down_pt": 0,
    "down_losing_streak": 0,
    "reward_id": "VS_RWD_RANK_2018_0426_01",
    "win_pt_base": 50,
    "lose_pt_base": 0
  },
  {
    "schedule_id": 20240711,
    "type": 2,
    "up_pt": 250,
    "down_pt": 100,
    "down_losing_streak": 0,
    "reward_id": "VS_RWD_RANK_2018_0426_02",
    "win_pt_base": 50,
    "lose_pt_base": 0
  },
  {
    "schedule_id": 20240711,
    "type": 3,
    "up_pt": 450,
    "down_pt": 250,
    "down_losing_streak": 0,
    "reward_id": "VS_RWD_RANK_2018_0426_03",
    "win_pt_base": 50,
    "lose_pt_base": 0
  },
  {
    "schedule_id": 20240711,
    "type": 4,
    "up_pt": 700,
    "down_pt": 450,
    "down_losing_streak": 0,
    "reward_id": "VS_RWD_RANK_2018_0426_04",
    "win_pt_base": 50,
    "lose_pt_base": -20
  },
  {
    "schedule_id": 20240711,
    "type": 5,
    "up_pt": 1000,
    "down_pt": 700,
    "down_losing_streak": 0,
    "reward_id": "VS_RWD_RANK_2018_0426_05",
    "win_pt_base": 50,
    "lose_pt_base": -30
  },
  {
    "schedule_id": 20240711,
    "type": 6,
    "up_pt": 0,
    "down_pt": 1000,
    "down_losing_streak": 0,
    "reward_id": "VS_RWD_RANK_2020_1217_06",
    "win_pt_base": 50,
    "lose_pt_base": -50
  },
  {
    "schedule_id": 20240912,
    "type": 1,
    "up_pt": 100,
    "down_pt": 0,
    "down_losing_streak": 0,
    "reward_id": "VS_RWD_RANK_2018_0426_01",
    "win_pt_base": 50,
    "lose_pt_base": 0
  },
  {
    "schedule_id": 20240912,
    "type": 2,
    "up_pt": 250,
    "down_pt": 100,
    "down_losing_streak": 0,
    "reward_id": "VS_RWD_RANK_2018_0426_02",
    "win_pt_base": 50,
    "lose_pt_base": 0
  },
  {
    "schedule_id": 20240912,
    "type": 3,
    "up_pt": 450,
    "down_pt": 250,
    "down_losing_streak": 0,
    "reward_id": "VS_RWD_RANK_2018_0426_03",
    "win_pt_base": 50,
    "lose_pt_base": 0
  },
  {
    "schedule_id": 20240912,
    "type": 4,
    "up_pt": 700,
    "down_pt": 450,
    "down_losing_streak": 0,
    "reward_id": "VS_RWD_RANK_2018_0426_04",
    "win_pt_base": 50,
    "lose_pt_base": -20
  },
  {
    "schedule_id": 20240912,
    "type": 5,
    "up_pt": 1000,
    "down_pt": 700,
    "down_losing_streak": 0,
    "reward_id": "VS_RWD_RANK_2018_0426_05",
    "win_pt_base": 50,
    "lose_pt_base": -30
  },
  {
    "schedule_id": 20240912,
    "type": 6,
    "up_pt": 0,
    "down_pt": 1000,
    "down_losing_streak": 0,
    "reward_id": "VS_RWD_RANK_2020_1217_06",
    "win_pt_base": 50,
    "lose_pt_base": -50
  },
  {
    "schedule_id": 20241010,
    "type": 1,
    "up_pt": 100,
    "down_pt": 0,
    "down_losing_streak": 0,
    "reward_id": "VS_RWD_RANK_2018_0426_01",
    "win_pt_base": 50,
    "lose_pt_base": 0
  },
  {
    "schedule_id": 20241010,
    "type": 2,
    "up_pt": 250,
    "down_pt": 100,
    "down_losing_streak": 0,
    "reward_id": "VS_RWD_RANK_2018_0426_02",
    "win_pt_base": 50,
    "lose_pt_base": 0
  },
  {
    "schedule_id": 20241010,
    "type": 3,
    "up_pt": 450,
    "down_pt": 250,
    "down_losing_streak": 0,
    "reward_id": "VS_RWD_RANK_2018_0426_03",
    "win_pt_base": 50,
    "lose_pt_base": 0
  },
  {
    "schedule_id": 20241010,
    "type": 4,
    "up_pt": 700,
    "down_pt": 450,
    "down_losing_streak": 0,
    "reward_id": "VS_RWD_RANK_2018_0426_04",
    "win_pt_base": 50,
    "lose_pt_base": -20
  },
  {
    "schedule_id": 20241010,
    "type": 5,
    "up_pt": 1000,
    "down_pt": 700,
    "down_losing_streak": 0,
    "reward_id": "VS_RWD_RANK_2018_0426_05",
    "win_pt_base": 50,
    "lose_pt_base": -30
  },
  {
    "schedule_id": 20241010,
    "type": 6,
    "up_pt": 0,
    "down_pt": 1000,
    "down_losing_streak": 0,
    "reward_id": "VS_RWD_RANK_2020_1217_06",
    "win_pt_base": 50,
    "lose_pt_base": -50
  },
  {
    "schedule_id": 20241114,
    "type": 1,
    "up_pt": 100,
    "down_pt": 0,
    "down_losing_streak": 0,
    "reward_id": "VS_RWD_RANK_2018_0426_01",
    "win_pt_base": 50,
    "lose_pt_base": 0
  },
  {
    "schedule_id": 20241114,
    "type": 2,
    "up_pt": 250,
    "down_pt": 100,
    "down_losing_streak": 0,
    "reward_id": "VS_RWD_RANK_2018_0426_02",
    "win_pt_base": 50,
    "lose_pt_base": 0
  },
  {
    "schedule_id": 20241114,
    "type": 3,
    "up_pt": 450,
    "down_pt": 250,
    "down_losing_streak": 0,
    "reward_id": "VS_RWD_RANK_2018_0426_03",
    "win_pt_base": 50,
    "lose_pt_base": 0
  },
  {
    "schedule_id": 20241114,
    "type": 4,
    "up_pt": 700,
    "down_pt": 450,
    "down_losing_streak": 0,
    "reward_id": "VS_RWD_RANK_2018_0426_04",
    "win_pt_base": 50,
    "lose_pt_base": -20
  },
  {
    "schedule_id": 20241114,
    "type": 5,
    "up_pt": 1000,
    "down_pt": 700,
    "down_losing_streak": 0,
    "reward_id": "VS_RWD_RANK_2018_0426_05",
    "win_pt_base": 50,
    "lose_pt_base": -30
  },
  {
    "schedule_id": 20241114,
    "type": 6,
    "up_pt": 0,
    "down_pt": 1000,
    "down_losing_streak": 0,
    "reward_id": "VS_RWD_RANK_2020_1217_06",
    "win_pt_base": 50,
    "lose_pt_base": -50
  }
]