[
  {
    "id": 0,
    "begin_at": "2017/01/01",
    "end_at": "2017/01/02",
    "rewards": [
      {
        "item_type": 0,
        "item_iname": "IT_EVENT_VS",
        "item_num": 10
      },
      {
        "item_type": 0,
        "item_iname": "IT_CV_GOLD3",
        "item_num": 10
      },
      {
        "item_type": 2,
        "item_iname": "$COIN",
        "item_num": 100
      },
      {
        "item_type": 1,
        "item_iname": "$gold",
        "item_num": 10000
      }
    ]
  }
]